{
  "meta": {
    "version": "1.0",
    "generated_at": "2025-07-28T22:48:38.208699",
    "category": "vintage",
    "page": 2,
    "per_page": 15,
    "total_pages": 7,
    "total_count": 99,
    "count_on_page": 15,
    "has_next": true,
    "has_prev": true,
    "next_page_url": "/api/v1/vintage/pages/3.json",
    "prev_page_url": "/api/v1/vintage/pages/1.json"
  },
  "data": [
    {
      "id": "vintage_016",
      "category": "vintage",
      "title": "Vintage Wallpaper 016",
      "tags": [
        "vintage",
        "wallpaper",
        "hd",
        "mobile"
      ],
      "urls": {
        "raw": "https://media.githubusercontent.com/media/ddh4r4m/wallpaper-collection/main/collection/wallpapers/vintage/016.jpg",
        "thumb": "https://media.githubusercontent.com/media/ddh4r4m/wallpaper-collection/main/collection/thumbnails/vintage/016.jpg"
      },
      "metadata": {
        "dimensions": {
          "width": 1080,
          "height": 1920
        },
        "file_size": 402397,
        "format": "JPEG",
        "added_at": "2025-07-17T00:04:50.815483",
        "hash": "3a4041aee727f590b934a6e17ebb81b8",
        "source": "migrated"
      }
    },
    {
      "id": "vintage_017",
      "category": "vintage",
      "title": "Vintage Wallpaper 017",
      "tags": [
        "vintage",
        "wallpaper",
        "hd",
        "mobile"
      ],
      "urls": {
        "raw": "https://media.githubusercontent.com/media/ddh4r4m/wallpaper-collection/main/collection/wallpapers/vintage/017.jpg",
        "thumb": "https://media.githubusercontent.com/media/ddh4r4m/wallpaper-collection/main/collection/thumbnails/vintage/017.jpg"
      },
      "metadata": {
        "dimensions": {
          "width": 1080,
          "height": 1920
        },
        "file_size": 293133,
        "format": "JPEG",
        "added_at": "2025-07-17T00:04:50.870991",
        "hash": "47db52edde85ae37d7bb50f4a4797c7f",
        "source": "migrated"
      }
    },
    {
      "id": "vintage_018",
      "category": "vintage",
      "title": "Vintage Wallpaper 018",
      "tags": [
        "vintage",
        "wallpaper",
        "hd",
        "mobile"
      ],
      "urls": {
        "raw": "https://media.githubusercontent.com/media/ddh4r4m/wallpaper-collection/main/collection/wallpapers/vintage/018.jpg",
        "thumb": "https://media.githubusercontent.com/media/ddh4r4m/wallpaper-collection/main/collection/thumbnails/vintage/018.jpg"
      },
      "metadata": {
        "dimensions": {
          "width": 1080,
          "height": 1920
        },
        "file_size": 192505,
        "format": "JPEG",
        "added_at": "2025-07-17T00:04:50.920529",
        "hash": "6b008e7220f01b1de07ceb207bf6d626",
        "source": "migrated"
      }
    },
    {
      "id": "vintage_019",
      "category": "vintage",
      "title": "Vintage Wallpaper 019",
      "tags": [
        "vintage",
        "wallpaper",
        "hd",
        "mobile"
      ],
      "urls": {
        "raw": "https://media.githubusercontent.com/media/ddh4r4m/wallpaper-collection/main/collection/wallpapers/vintage/019.jpg",
        "thumb": "https://media.githubusercontent.com/media/ddh4r4m/wallpaper-collection/main/collection/thumbnails/vintage/019.jpg"
      },
      "metadata": {
        "dimensions": {
          "width": 1080,
          "height": 1920
        },
        "file_size": 237075,
        "format": "JPEG",
        "added_at": "2025-07-17T00:04:50.973030",
        "hash": "5e9ab03060a8ef3b4ce7c19dbe46de13",
        "source": "migrated"
      }
    },
    {
      "id": "vintage_020",
      "category": "vintage",
      "title": "Vintage Wallpaper 020",
      "tags": [
        "vintage",
        "wallpaper",
        "hd",
        "mobile"
      ],
      "urls": {
        "raw": "https://media.githubusercontent.com/media/ddh4r4m/wallpaper-collection/main/collection/wallpapers/vintage/020.jpg",
        "thumb": "https://media.githubusercontent.com/media/ddh4r4m/wallpaper-collection/main/collection/thumbnails/vintage/020.jpg"
      },
      "metadata": {
        "dimensions": {
          "width": 1080,
          "height": 1920
        },
        "file_size": 288702,
        "format": "JPEG",
        "added_at": "2025-07-17T00:04:51.027906",
        "hash": "d0c66cdabef175ee5edbd221b9ff0147",
        "source": "migrated"
      }
    },
    {
      "id": "vintage_021",
      "category": "vintage",
      "title": "Vintage Wallpaper 021",
      "tags": [
        "vintage",
        "wallpaper",
        "hd",
        "mobile"
      ],
      "urls": {
        "raw": "https://media.githubusercontent.com/media/ddh4r4m/wallpaper-collection/main/collection/wallpapers/vintage/021.jpg",
        "thumb": "https://media.githubusercontent.com/media/ddh4r4m/wallpaper-collection/main/collection/thumbnails/vintage/021.jpg"
      },
      "metadata": {
        "dimensions": {
          "width": 1080,
          "height": 1920
        },
        "file_size": 399832,
        "format": "JPEG",
        "added_at": "2025-07-17T00:04:51.089785",
        "hash": "a9888cab25fb6bf3c46ba557326d5a0e",
        "source": "migrated"
      }
    },
    {
      "id": "vintage_022",
      "category": "vintage",
      "title": "Vintage Wallpaper 022",
      "tags": [
        "vintage",
        "wallpaper",
        "hd",
        "mobile"
      ],
      "urls": {
        "raw": "https://media.githubusercontent.com/media/ddh4r4m/wallpaper-collection/main/collection/wallpapers/vintage/022.jpg",
        "thumb": "https://media.githubusercontent.com/media/ddh4r4m/wallpaper-collection/main/collection/thumbnails/vintage/022.jpg"
      },
      "metadata": {
        "dimensions": {
          "width": 1080,
          "height": 1920
        },
        "file_size": 653416,
        "format": "JPEG",
        "added_at": "2025-07-17T00:04:51.162680",
        "hash": "30e9460ce9b3018b39b5e724fcff2944",
        "source": "migrated"
      }
    },
    {
      "id": "vintage_023",
      "category": "vintage",
      "title": "Vintage Wallpaper 023",
      "tags": [
        "vintage",
        "wallpaper",
        "hd",
        "mobile"
      ],
      "urls": {
        "raw": "https://media.githubusercontent.com/media/ddh4r4m/wallpaper-collection/main/collection/wallpapers/vintage/023.jpg",
        "thumb": "https://media.githubusercontent.com/media/ddh4r4m/wallpaper-collection/main/collection/thumbnails/vintage/023.jpg"
      },
      "metadata": {
        "dimensions": {
          "width": 1080,
          "height": 1920
        },
        "file_size": 278892,
        "format": "JPEG",
        "added_at": "2025-07-17T00:04:51.215754",
        "hash": "289aa78c878f70492e572f65625a0ea3",
        "source": "migrated"
      }
    },
    {
      "id": "vintage_024",
      "category": "vintage",
      "title": "Vintage Wallpaper 024",
      "tags": [
        "vintage",
        "wallpaper",
        "hd",
        "mobile"
      ],
      "urls": {
        "raw": "https://media.githubusercontent.com/media/ddh4r4m/wallpaper-collection/main/collection/wallpapers/vintage/024.jpg",
        "thumb": "https://media.githubusercontent.com/media/ddh4r4m/wallpaper-collection/main/collection/thumbnails/vintage/024.jpg"
      },
      "metadata": {
        "dimensions": {
          "width": 1080,
          "height": 1920
        },
        "file_size": 299922,
        "format": "JPEG",
        "added_at": "2025-07-17T00:04:51.271422",
        "hash": "5d2a87d613e92fa0b16e462d84f5cbb0",
        "source": "migrated"
      }
    },
    {
      "id": "vintage_025",
      "category": "vintage",
      "title": "Vintage Wallpaper 025",
      "tags": [
        "vintage",
        "wallpaper",
        "hd",
        "mobile"
      ],
      "urls": {
        "raw": "https://media.githubusercontent.com/media/ddh4r4m/wallpaper-collection/main/collection/wallpapers/vintage/025.jpg",
        "thumb": "https://media.githubusercontent.com/media/ddh4r4m/wallpaper-collection/main/collection/thumbnails/vintage/025.jpg"
      },
      "metadata": {
        "dimensions": {
          "width": 1080,
          "height": 1920
        },
        "file_size": 411485,
        "format": "JPEG",
        "added_at": "2025-07-17T00:04:51.332699",
        "hash": "d1c080ce80d1a31d35ce035b966b476b",
        "source": "migrated"
      }
    },
    {
      "id": "vintage_026",
      "category": "vintage",
      "title": "Vintage Wallpaper 026",
      "tags": [
        "vintage",
        "wallpaper",
        "hd",
        "mobile"
      ],
      "urls": {
        "raw": "https://media.githubusercontent.com/media/ddh4r4m/wallpaper-collection/main/collection/wallpapers/vintage/026.jpg",
        "thumb": "https://media.githubusercontent.com/media/ddh4r4m/wallpaper-collection/main/collection/thumbnails/vintage/026.jpg"
      },
      "metadata": {
        "dimensions": {
          "width": 1080,
          "height": 1920
        },
        "file_size": 346767,
        "format": "JPEG",
        "added_at": "2025-07-17T00:04:51.391555",
        "hash": "bc1d714a2042f8a62e94f39f84e56c69",
        "source": "migrated"
      }
    },
    {
      "id": "vintage_027",
      "category": "vintage",
      "title": "Vintage Wallpaper 027",
      "tags": [
        "vintage",
        "wallpaper",
        "hd",
        "mobile"
      ],
      "urls": {
        "raw": "https://media.githubusercontent.com/media/ddh4r4m/wallpaper-collection/main/collection/wallpapers/vintage/027.jpg",
        "thumb": "https://media.githubusercontent.com/media/ddh4r4m/wallpaper-collection/main/collection/thumbnails/vintage/027.jpg"
      },
      "metadata": {
        "dimensions": {
          "width": 1080,
          "height": 1920
        },
        "file_size": 360667,
        "format": "JPEG",
        "added_at": "2025-07-17T00:04:51.451285",
        "hash": "f1e3623a80dd3f830444f6bf537dedaa",
        "source": "migrated"
      }
    },
    {
      "id": "vintage_028",
      "category": "vintage",
      "title": "Vintage Wallpaper 028",
      "tags": [
        "vintage",
        "wallpaper",
        "hd",
        "mobile"
      ],
      "urls": {
        "raw": "https://media.githubusercontent.com/media/ddh4r4m/wallpaper-collection/main/collection/wallpapers/vintage/028.jpg",
        "thumb": "https://media.githubusercontent.com/media/ddh4r4m/wallpaper-collection/main/collection/thumbnails/vintage/028.jpg"
      },
      "metadata": {
        "dimensions": {
          "width": 1080,
          "height": 1920
        },
        "file_size": 373366,
        "format": "JPEG",
        "added_at": "2025-07-17T00:04:51.511723",
        "hash": "f24d6af82673d83c59f20d465a598dfe",
        "source": "migrated"
      }
    },
    {
      "id": "vintage_029",
      "category": "vintage",
      "title": "Vintage Wallpaper 029",
      "tags": [
        "vintage",
        "wallpaper",
        "hd",
        "mobile"
      ],
      "urls": {
        "raw": "https://media.githubusercontent.com/media/ddh4r4m/wallpaper-collection/main/collection/wallpapers/vintage/029.jpg",
        "thumb": "https://media.githubusercontent.com/media/ddh4r4m/wallpaper-collection/main/collection/thumbnails/vintage/029.jpg"
      },
      "metadata": {
        "dimensions": {
          "width": 1080,
          "height": 1920
        },
        "file_size": 263969,
        "format": "JPEG",
        "added_at": "2025-07-17T00:04:51.565590",
        "hash": "b38e22fda613aaaffa0f9d3d7d796cf8",
        "source": "migrated"
      }
    },
    {
      "id": "vintage_030",
      "category": "vintage",
      "title": "Vintage Wallpaper 030",
      "tags": [
        "vintage",
        "wallpaper",
        "hd",
        "mobile"
      ],
      "urls": {
        "raw": "https://media.githubusercontent.com/media/ddh4r4m/wallpaper-collection/main/collection/wallpapers/vintage/030.jpg",
        "thumb": "https://media.githubusercontent.com/media/ddh4r4m/wallpaper-collection/main/collection/thumbnails/vintage/030.jpg"
      },
      "metadata": {
        "dimensions": {
          "width": 1080,
          "height": 1920
        },
        "file_size": 314414,
        "format": "JPEG",
        "added_at": "2025-07-17T00:04:51.623234",
        "hash": "bdfaad6edbe6e68ebc7cdf537a153259",
        "source": "migrated"
      }
    }
  ]
}