{
  "meta": {
    "version": "1.0",
    "generated_at": "2025-07-19T12:26:57.111378",
    "category": "vintage",
    "page": 3,
    "per_page": 15,
    "total_pages": 7,
    "total_count": 99,
    "count_on_page": 15,
    "has_next": true,
    "has_prev": true,
    "next_page_url": "/api/v1/vintage/pages/4.json",
    "prev_page_url": "/api/v1/vintage/pages/2.json"
  },
  "data": [
    {
      "id": "vintage_031",
      "category": "vintage",
      "title": "Vintage Wallpaper",
      "tags": [
        "vintage",
        "unsplash",
        "hd",
        "mobile"
      ],
      "metadata": {
        "dimensions": {
          "width": 1080,
          "height": 1464
        },
        "file_size": 249883,
        "format": "JPEG",
        "added_at": "2025-07-17T22:03:25.891582",
        "hash": "b59049252329ad947687624a3fa47f6e",
        "photographer": "Unknown"
      },
      "urls": {
        "raw": "https://media.githubusercontent.com/media/ddh4r4m/wallpaper-collection/main/collection/wallpapers/vintage/031.jpg",
        "thumb": "https://media.githubusercontent.com/media/ddh4r4m/wallpaper-collection/main/collection/thumbnails/vintage/031.jpg"
      }
    },
    {
      "id": "vintage_032",
      "category": "vintage",
      "title": "Vintage Wallpaper",
      "tags": [
        "vintage",
        "unsplash",
        "hd",
        "mobile"
      ],
      "metadata": {
        "dimensions": {
          "width": 1080,
          "height": 771
        },
        "file_size": 112767,
        "format": "JPEG",
        "added_at": "2025-07-17T22:03:28.192295",
        "hash": "d209645572dc832506e4dbe545533106",
        "photographer": "Unknown"
      },
      "urls": {
        "raw": "https://media.githubusercontent.com/media/ddh4r4m/wallpaper-collection/main/collection/wallpapers/vintage/032.jpg",
        "thumb": "https://media.githubusercontent.com/media/ddh4r4m/wallpaper-collection/main/collection/thumbnails/vintage/032.jpg"
      }
    },
    {
      "id": "vintage_033",
      "category": "vintage",
      "title": "Vintage Wallpaper",
      "tags": [
        "vintage",
        "unsplash",
        "hd",
        "mobile"
      ],
      "metadata": {
        "dimensions": {
          "width": 1080,
          "height": 1561
        },
        "file_size": 256005,
        "format": "JPEG",
        "added_at": "2025-07-17T22:03:30.886144",
        "hash": "6c6527c6bb9400ec9bbb860f1b3d86bf",
        "photographer": "Unknown"
      },
      "urls": {
        "raw": "https://media.githubusercontent.com/media/ddh4r4m/wallpaper-collection/main/collection/wallpapers/vintage/033.jpg",
        "thumb": "https://media.githubusercontent.com/media/ddh4r4m/wallpaper-collection/main/collection/thumbnails/vintage/033.jpg"
      }
    },
    {
      "id": "vintage_034",
      "category": "vintage",
      "title": "Vintage Wallpaper",
      "tags": [
        "vintage",
        "unsplash",
        "hd",
        "mobile"
      ],
      "metadata": {
        "dimensions": {
          "width": 1080,
          "height": 1440
        },
        "file_size": 241333,
        "format": "JPEG",
        "added_at": "2025-07-17T22:03:34.357630",
        "hash": "5872969de3f1598dfa6b557c6954241c",
        "photographer": "Unknown"
      },
      "urls": {
        "raw": "https://media.githubusercontent.com/media/ddh4r4m/wallpaper-collection/main/collection/wallpapers/vintage/034.jpg",
        "thumb": "https://media.githubusercontent.com/media/ddh4r4m/wallpaper-collection/main/collection/thumbnails/vintage/034.jpg"
      }
    },
    {
      "id": "vintage_035",
      "category": "vintage",
      "title": "Vintage Wallpaper",
      "tags": [
        "vintage",
        "unsplash",
        "hd",
        "mobile"
      ],
      "metadata": {
        "dimensions": {
          "width": 1080,
          "height": 1584
        },
        "file_size": 116381,
        "format": "JPEG",
        "added_at": "2025-07-17T22:03:36.779526",
        "hash": "ea3536dffb4ab45f843b608e0c6537ed",
        "photographer": "Unknown"
      },
      "urls": {
        "raw": "https://media.githubusercontent.com/media/ddh4r4m/wallpaper-collection/main/collection/wallpapers/vintage/035.jpg",
        "thumb": "https://media.githubusercontent.com/media/ddh4r4m/wallpaper-collection/main/collection/thumbnails/vintage/035.jpg"
      }
    },
    {
      "id": "vintage_036",
      "category": "vintage",
      "title": "Vintage Wallpaper",
      "tags": [
        "vintage",
        "unsplash",
        "hd",
        "mobile"
      ],
      "metadata": {
        "dimensions": {
          "width": 1080,
          "height": 810
        },
        "file_size": 76721,
        "format": "JPEG",
        "added_at": "2025-07-17T22:03:39.233474",
        "hash": "c4c42c3542c916a23c6a5a83f6b63b43",
        "photographer": "Unknown"
      },
      "urls": {
        "raw": "https://media.githubusercontent.com/media/ddh4r4m/wallpaper-collection/main/collection/wallpapers/vintage/036.jpg",
        "thumb": "https://media.githubusercontent.com/media/ddh4r4m/wallpaper-collection/main/collection/thumbnails/vintage/036.jpg"
      }
    },
    {
      "id": "vintage_037",
      "category": "vintage",
      "title": "Vintage Wallpaper",
      "tags": [
        "vintage",
        "unsplash",
        "hd",
        "mobile"
      ],
      "metadata": {
        "dimensions": {
          "width": 1080,
          "height": 1464
        },
        "file_size": 249883,
        "format": "JPEG",
        "added_at": "2025-07-17T22:03:40.526558",
        "hash": "b59049252329ad947687624a3fa47f6e",
        "photographer": "Unknown"
      },
      "urls": {
        "raw": "https://media.githubusercontent.com/media/ddh4r4m/wallpaper-collection/main/collection/wallpapers/vintage/037.jpg",
        "thumb": "https://media.githubusercontent.com/media/ddh4r4m/wallpaper-collection/main/collection/thumbnails/vintage/037.jpg"
      }
    },
    {
      "id": "vintage_038",
      "category": "vintage",
      "title": "Vintage Wallpaper",
      "tags": [
        "vintage",
        "unsplash",
        "hd",
        "mobile"
      ],
      "metadata": {
        "dimensions": {
          "width": 1080,
          "height": 1620
        },
        "file_size": 243993,
        "format": "JPEG",
        "added_at": "2025-07-17T22:03:42.941176",
        "hash": "9dabe615635c19bda35e82f9fc384f6d",
        "photographer": "Unknown"
      },
      "urls": {
        "raw": "https://media.githubusercontent.com/media/ddh4r4m/wallpaper-collection/main/collection/wallpapers/vintage/038.jpg",
        "thumb": "https://media.githubusercontent.com/media/ddh4r4m/wallpaper-collection/main/collection/thumbnails/vintage/038.jpg"
      }
    },
    {
      "id": "vintage_039",
      "category": "vintage",
      "title": "Vintage Wallpaper",
      "tags": [
        "vintage",
        "unsplash",
        "hd",
        "mobile"
      ],
      "metadata": {
        "dimensions": {
          "width": 1080,
          "height": 720
        },
        "file_size": 103980,
        "format": "JPEG",
        "added_at": "2025-07-17T22:03:45.251239",
        "hash": "74c6e05a80f0e591d034b15be7dedefe",
        "photographer": "Unknown"
      },
      "urls": {
        "raw": "https://media.githubusercontent.com/media/ddh4r4m/wallpaper-collection/main/collection/wallpapers/vintage/039.jpg",
        "thumb": "https://media.githubusercontent.com/media/ddh4r4m/wallpaper-collection/main/collection/thumbnails/vintage/039.jpg"
      }
    },
    {
      "id": "vintage_040",
      "category": "vintage",
      "title": "Vintage Wallpaper",
      "tags": [
        "vintage",
        "unsplash",
        "hd",
        "mobile"
      ],
      "metadata": {
        "dimensions": {
          "width": 1080,
          "height": 771
        },
        "file_size": 112767,
        "format": "JPEG",
        "added_at": "2025-07-17T22:03:47.474448",
        "hash": "d209645572dc832506e4dbe545533106",
        "photographer": "Unknown"
      },
      "urls": {
        "raw": "https://media.githubusercontent.com/media/ddh4r4m/wallpaper-collection/main/collection/wallpapers/vintage/040.jpg",
        "thumb": "https://media.githubusercontent.com/media/ddh4r4m/wallpaper-collection/main/collection/thumbnails/vintage/040.jpg"
      }
    },
    {
      "id": "vintage_041",
      "category": "vintage",
      "title": "Vintage Wallpaper",
      "tags": [
        "vintage",
        "unsplash",
        "hd",
        "mobile"
      ],
      "metadata": {
        "dimensions": {
          "width": 1080,
          "height": 1620
        },
        "file_size": 216431,
        "format": "JPEG",
        "added_at": "2025-07-17T22:03:49.908279",
        "hash": "9482da4947dcdd3d7b7cc56a4f82f4d5",
        "photographer": "Unknown"
      },
      "urls": {
        "raw": "https://media.githubusercontent.com/media/ddh4r4m/wallpaper-collection/main/collection/wallpapers/vintage/041.jpg",
        "thumb": "https://media.githubusercontent.com/media/ddh4r4m/wallpaper-collection/main/collection/thumbnails/vintage/041.jpg"
      }
    },
    {
      "id": "vintage_042",
      "category": "vintage",
      "title": "Vintage Wallpaper",
      "tags": [
        "vintage",
        "unsplash",
        "hd",
        "mobile"
      ],
      "metadata": {
        "dimensions": {
          "width": 1080,
          "height": 810
        },
        "file_size": 76721,
        "format": "JPEG",
        "added_at": "2025-07-17T22:03:51.087684",
        "hash": "c4c42c3542c916a23c6a5a83f6b63b43",
        "photographer": "Unknown"
      },
      "urls": {
        "raw": "https://media.githubusercontent.com/media/ddh4r4m/wallpaper-collection/main/collection/wallpapers/vintage/042.jpg",
        "thumb": "https://media.githubusercontent.com/media/ddh4r4m/wallpaper-collection/main/collection/thumbnails/vintage/042.jpg"
      }
    },
    {
      "id": "vintage_043",
      "category": "vintage",
      "title": "Vintage Wallpaper",
      "tags": [
        "vintage",
        "unsplash",
        "hd",
        "mobile"
      ],
      "metadata": {
        "dimensions": {
          "width": 1080,
          "height": 717
        },
        "file_size": 143681,
        "format": "JPEG",
        "added_at": "2025-07-17T22:03:54.432939",
        "hash": "00d6c33e040f1b41797b42e218b5f0fb",
        "photographer": "Unknown"
      },
      "urls": {
        "raw": "https://media.githubusercontent.com/media/ddh4r4m/wallpaper-collection/main/collection/wallpapers/vintage/043.jpg",
        "thumb": "https://media.githubusercontent.com/media/ddh4r4m/wallpaper-collection/main/collection/thumbnails/vintage/043.jpg"
      }
    },
    {
      "id": "vintage_044",
      "category": "vintage",
      "title": "Vintage Wallpaper",
      "tags": [
        "vintage",
        "unsplash",
        "hd",
        "mobile"
      ],
      "metadata": {
        "dimensions": {
          "width": 1080,
          "height": 1620
        },
        "file_size": 234699,
        "format": "JPEG",
        "added_at": "2025-07-17T22:03:57.028693",
        "hash": "1794c6d301d530334256074c9a01ab77",
        "photographer": "Unknown"
      },
      "urls": {
        "raw": "https://media.githubusercontent.com/media/ddh4r4m/wallpaper-collection/main/collection/wallpapers/vintage/044.jpg",
        "thumb": "https://media.githubusercontent.com/media/ddh4r4m/wallpaper-collection/main/collection/thumbnails/vintage/044.jpg"
      }
    },
    {
      "id": "vintage_045",
      "category": "vintage",
      "title": "Vintage Wallpaper",
      "tags": [
        "vintage",
        "unsplash",
        "hd",
        "mobile"
      ],
      "metadata": {
        "dimensions": {
          "width": 1080,
          "height": 1814
        },
        "file_size": 171099,
        "format": "JPEG",
        "added_at": "2025-07-17T22:03:59.516379",
        "hash": "ea51d20c741e0a1d298a7ed2f003135b",
        "photographer": "Unknown"
      },
      "urls": {
        "raw": "https://media.githubusercontent.com/media/ddh4r4m/wallpaper-collection/main/collection/wallpapers/vintage/045.jpg",
        "thumb": "https://media.githubusercontent.com/media/ddh4r4m/wallpaper-collection/main/collection/thumbnails/vintage/045.jpg"
      }
    }
  ]
}