{
  "meta": {
    "version": "1.0",
    "generated_at": "2025-07-28T21:27:34.814586",
    "category": "vintage",
    "page": 5,
    "per_page": 15,
    "total_pages": 7,
    "total_count": 99,
    "count_on_page": 15,
    "has_next": true,
    "has_prev": true,
    "next_page_url": "/api/v1/vintage/pages/6.json",
    "prev_page_url": "/api/v1/vintage/pages/4.json"
  },
  "data": [
    {
      "id": "vintage_061",
      "category": "vintage",
      "title": "Vintage Wallpaper",
      "tags": [
        "vintage",
        "unsplash",
        "hd",
        "mobile"
      ],
      "metadata": {
        "dimensions": {
          "width": 1080,
          "height": 771
        },
        "file_size": 112767,
        "format": "JPEG",
        "added_at": "2025-07-17T22:05:26.033747",
        "hash": "d209645572dc832506e4dbe545533106",
        "photographer": "Unknown"
      },
      "urls": {
        "raw": "https://media.githubusercontent.com/media/ddh4r4m/wallpaper-collection/main/collection/wallpapers/vintage/061.jpg",
        "thumb": "https://media.githubusercontent.com/media/ddh4r4m/wallpaper-collection/main/collection/thumbnails/vintage/061.jpg"
      }
    },
    {
      "id": "vintage_062",
      "category": "vintage",
      "title": "Vintage Wallpaper",
      "tags": [
        "vintage",
        "unsplash",
        "hd",
        "mobile"
      ],
      "metadata": {
        "dimensions": {
          "width": 1080,
          "height": 1561
        },
        "file_size": 256005,
        "format": "JPEG",
        "added_at": "2025-07-17T22:05:28.420461",
        "hash": "6c6527c6bb9400ec9bbb860f1b3d86bf",
        "photographer": "Unknown"
      },
      "urls": {
        "raw": "https://media.githubusercontent.com/media/ddh4r4m/wallpaper-collection/main/collection/wallpapers/vintage/062.jpg",
        "thumb": "https://media.githubusercontent.com/media/ddh4r4m/wallpaper-collection/main/collection/thumbnails/vintage/062.jpg"
      }
    },
    {
      "id": "vintage_063",
      "category": "vintage",
      "title": "Vintage Wallpaper",
      "tags": [
        "vintage",
        "unsplash",
        "hd",
        "mobile"
      ],
      "metadata": {
        "dimensions": {
          "width": 1080,
          "height": 1440
        },
        "file_size": 241333,
        "format": "JPEG",
        "added_at": "2025-07-17T22:05:31.972431",
        "hash": "5872969de3f1598dfa6b557c6954241c",
        "photographer": "Unknown"
      },
      "urls": {
        "raw": "https://media.githubusercontent.com/media/ddh4r4m/wallpaper-collection/main/collection/wallpapers/vintage/063.jpg",
        "thumb": "https://media.githubusercontent.com/media/ddh4r4m/wallpaper-collection/main/collection/thumbnails/vintage/063.jpg"
      }
    },
    {
      "id": "vintage_064",
      "category": "vintage",
      "title": "Vintage Wallpaper",
      "tags": [
        "vintage",
        "unsplash",
        "hd",
        "mobile"
      ],
      "metadata": {
        "dimensions": {
          "width": 1080,
          "height": 1584
        },
        "file_size": 116381,
        "format": "JPEG",
        "added_at": "2025-07-17T22:05:34.468288",
        "hash": "ea3536dffb4ab45f843b608e0c6537ed",
        "photographer": "Unknown"
      },
      "urls": {
        "raw": "https://media.githubusercontent.com/media/ddh4r4m/wallpaper-collection/main/collection/wallpapers/vintage/064.jpg",
        "thumb": "https://media.githubusercontent.com/media/ddh4r4m/wallpaper-collection/main/collection/thumbnails/vintage/064.jpg"
      }
    },
    {
      "id": "vintage_065",
      "category": "vintage",
      "title": "Vintage Wallpaper",
      "tags": [
        "vintage",
        "unsplash",
        "hd",
        "mobile"
      ],
      "metadata": {
        "dimensions": {
          "width": 1080,
          "height": 810
        },
        "file_size": 76721,
        "format": "JPEG",
        "added_at": "2025-07-17T22:05:37.137412",
        "hash": "c4c42c3542c916a23c6a5a83f6b63b43",
        "photographer": "Unknown"
      },
      "urls": {
        "raw": "https://media.githubusercontent.com/media/ddh4r4m/wallpaper-collection/main/collection/wallpapers/vintage/065.jpg",
        "thumb": "https://media.githubusercontent.com/media/ddh4r4m/wallpaper-collection/main/collection/thumbnails/vintage/065.jpg"
      }
    },
    {
      "id": "vintage_066",
      "category": "vintage",
      "title": "Vintage Wallpaper",
      "tags": [
        "vintage",
        "unsplash",
        "hd",
        "mobile"
      ],
      "metadata": {
        "dimensions": {
          "width": 1080,
          "height": 1464
        },
        "file_size": 249883,
        "format": "JPEG",
        "added_at": "2025-07-17T22:05:38.480830",
        "hash": "b59049252329ad947687624a3fa47f6e",
        "photographer": "Unknown"
      },
      "urls": {
        "raw": "https://media.githubusercontent.com/media/ddh4r4m/wallpaper-collection/main/collection/wallpapers/vintage/066.jpg",
        "thumb": "https://media.githubusercontent.com/media/ddh4r4m/wallpaper-collection/main/collection/thumbnails/vintage/066.jpg"
      }
    },
    {
      "id": "vintage_067",
      "category": "vintage",
      "title": "Vintage Wallpaper",
      "tags": [
        "vintage",
        "unsplash",
        "hd",
        "mobile"
      ],
      "metadata": {
        "dimensions": {
          "width": 1080,
          "height": 1620
        },
        "file_size": 243993,
        "format": "JPEG",
        "added_at": "2025-07-17T22:05:41.294515",
        "hash": "9dabe615635c19bda35e82f9fc384f6d",
        "photographer": "Unknown"
      },
      "urls": {
        "raw": "https://media.githubusercontent.com/media/ddh4r4m/wallpaper-collection/main/collection/wallpapers/vintage/067.jpg",
        "thumb": "https://media.githubusercontent.com/media/ddh4r4m/wallpaper-collection/main/collection/thumbnails/vintage/067.jpg"
      }
    },
    {
      "id": "vintage_068",
      "category": "vintage",
      "title": "Vintage Wallpaper",
      "tags": [
        "vintage",
        "unsplash",
        "hd",
        "mobile"
      ],
      "metadata": {
        "dimensions": {
          "width": 1080,
          "height": 720
        },
        "file_size": 103980,
        "format": "JPEG",
        "added_at": "2025-07-17T22:05:43.677003",
        "hash": "74c6e05a80f0e591d034b15be7dedefe",
        "photographer": "Unknown"
      },
      "urls": {
        "raw": "https://media.githubusercontent.com/media/ddh4r4m/wallpaper-collection/main/collection/wallpapers/vintage/068.jpg",
        "thumb": "https://media.githubusercontent.com/media/ddh4r4m/wallpaper-collection/main/collection/thumbnails/vintage/068.jpg"
      }
    },
    {
      "id": "vintage_069",
      "category": "vintage",
      "title": "Vintage Wallpaper",
      "tags": [
        "vintage",
        "unsplash",
        "hd",
        "mobile"
      ],
      "metadata": {
        "dimensions": {
          "width": 1080,
          "height": 771
        },
        "file_size": 112767,
        "format": "JPEG",
        "added_at": "2025-07-17T22:05:45.963140",
        "hash": "d209645572dc832506e4dbe545533106",
        "photographer": "Unknown"
      },
      "urls": {
        "raw": "https://media.githubusercontent.com/media/ddh4r4m/wallpaper-collection/main/collection/wallpapers/vintage/069.jpg",
        "thumb": "https://media.githubusercontent.com/media/ddh4r4m/wallpaper-collection/main/collection/thumbnails/vintage/069.jpg"
      }
    },
    {
      "id": "vintage_070",
      "category": "vintage",
      "title": "Vintage Wallpaper",
      "tags": [
        "vintage",
        "unsplash",
        "hd",
        "mobile"
      ],
      "metadata": {
        "dimensions": {
          "width": 1080,
          "height": 1620
        },
        "file_size": 216431,
        "format": "JPEG",
        "added_at": "2025-07-17T22:05:48.608972",
        "hash": "9482da4947dcdd3d7b7cc56a4f82f4d5",
        "photographer": "Unknown"
      },
      "urls": {
        "raw": "https://media.githubusercontent.com/media/ddh4r4m/wallpaper-collection/main/collection/wallpapers/vintage/070.jpg",
        "thumb": "https://media.githubusercontent.com/media/ddh4r4m/wallpaper-collection/main/collection/thumbnails/vintage/070.jpg"
      }
    },
    {
      "id": "vintage_071",
      "category": "vintage",
      "title": "Vintage Wallpaper",
      "tags": [
        "vintage",
        "unsplash",
        "hd",
        "mobile"
      ],
      "metadata": {
        "dimensions": {
          "width": 1080,
          "height": 810
        },
        "file_size": 76721,
        "format": "JPEG",
        "added_at": "2025-07-17T22:05:49.815898",
        "hash": "c4c42c3542c916a23c6a5a83f6b63b43",
        "photographer": "Unknown"
      },
      "urls": {
        "raw": "https://media.githubusercontent.com/media/ddh4r4m/wallpaper-collection/main/collection/wallpapers/vintage/071.jpg",
        "thumb": "https://media.githubusercontent.com/media/ddh4r4m/wallpaper-collection/main/collection/thumbnails/vintage/071.jpg"
      }
    },
    {
      "id": "vintage_072",
      "category": "vintage",
      "title": "Vintage Wallpaper",
      "tags": [
        "vintage",
        "unsplash",
        "hd",
        "mobile"
      ],
      "metadata": {
        "dimensions": {
          "width": 1080,
          "height": 717
        },
        "file_size": 143681,
        "format": "JPEG",
        "added_at": "2025-07-17T22:05:53.269131",
        "hash": "00d6c33e040f1b41797b42e218b5f0fb",
        "photographer": "Unknown"
      },
      "urls": {
        "raw": "https://media.githubusercontent.com/media/ddh4r4m/wallpaper-collection/main/collection/wallpapers/vintage/072.jpg",
        "thumb": "https://media.githubusercontent.com/media/ddh4r4m/wallpaper-collection/main/collection/thumbnails/vintage/072.jpg"
      }
    },
    {
      "id": "vintage_073",
      "category": "vintage",
      "title": "Vintage Wallpaper",
      "tags": [
        "vintage",
        "unsplash",
        "hd",
        "mobile"
      ],
      "metadata": {
        "dimensions": {
          "width": 1080,
          "height": 1620
        },
        "file_size": 234699,
        "format": "JPEG",
        "added_at": "2025-07-17T22:05:56.000386",
        "hash": "1794c6d301d530334256074c9a01ab77",
        "photographer": "Unknown"
      },
      "urls": {
        "raw": "https://media.githubusercontent.com/media/ddh4r4m/wallpaper-collection/main/collection/wallpapers/vintage/073.jpg",
        "thumb": "https://media.githubusercontent.com/media/ddh4r4m/wallpaper-collection/main/collection/thumbnails/vintage/073.jpg"
      }
    },
    {
      "id": "vintage_074",
      "category": "vintage",
      "title": "Vintage Wallpaper",
      "tags": [
        "vintage",
        "unsplash",
        "hd",
        "mobile"
      ],
      "metadata": {
        "dimensions": {
          "width": 1080,
          "height": 1814
        },
        "file_size": 171099,
        "format": "JPEG",
        "added_at": "2025-07-17T22:05:58.413683",
        "hash": "ea51d20c741e0a1d298a7ed2f003135b",
        "photographer": "Unknown"
      },
      "urls": {
        "raw": "https://media.githubusercontent.com/media/ddh4r4m/wallpaper-collection/main/collection/wallpapers/vintage/074.jpg",
        "thumb": "https://media.githubusercontent.com/media/ddh4r4m/wallpaper-collection/main/collection/thumbnails/vintage/074.jpg"
      }
    },
    {
      "id": "vintage_075",
      "category": "vintage",
      "title": "Vintage Wallpaper",
      "tags": [
        "vintage",
        "unsplash",
        "hd",
        "mobile"
      ],
      "metadata": {
        "dimensions": {
          "width": 1080,
          "height": 1512
        },
        "file_size": 378282,
        "format": "JPEG",
        "added_at": "2025-07-17T22:06:02.292467",
        "hash": "1ecd9e9c6d6720e2b68de67f8fb16d5c",
        "photographer": "Unknown"
      },
      "urls": {
        "raw": "https://media.githubusercontent.com/media/ddh4r4m/wallpaper-collection/main/collection/wallpapers/vintage/075.jpg",
        "thumb": "https://media.githubusercontent.com/media/ddh4r4m/wallpaper-collection/main/collection/thumbnails/vintage/075.jpg"
      }
    }
  ]
}