{
  "meta": {
    "version": "1.0",
    "generated_at": "2025-07-28T22:38:03.579947",
    "category": "minimal",
    "page": 1,
    "per_page": 15,
    "total_pages": 5,
    "total_count": 64,
    "count_on_page": 15,
    "has_next": true,
    "has_prev": false,
    "next_page_url": "/api/v1/minimal/pages/2.json",
    "prev_page_url": null
  },
  "data": [
    {
      "id": "minimal_001",
      "category": "minimal",
      "title": "Minimal Wallpaper 001",
      "tags": [
        "minimal",
        "wallpaper",
        "hd",
        "mobile"
      ],
      "urls": {
        "raw": "https://media.githubusercontent.com/media/ddh4r4m/wallpaper-collection/main/collection/wallpapers/minimal/001.jpg",
        "thumb": "https://media.githubusercontent.com/media/ddh4r4m/wallpaper-collection/main/collection/thumbnails/minimal/001.jpg"
      },
      "metadata": {
        "dimensions": {
          "width": 1080,
          "height": 1920
        },
        "file_size": 14539,
        "format": "JPEG",
        "added_at": "2025-07-17T00:04:00.384859",
        "hash": "9b6f9901397b459c29ea6f30f3ead674",
        "source": "migrated"
      }
    },
    {
      "id": "minimal_002",
      "category": "minimal",
      "title": "Minimal Wallpaper 002",
      "tags": [
        "minimal",
        "wallpaper",
        "hd",
        "mobile"
      ],
      "urls": {
        "raw": "https://media.githubusercontent.com/media/ddh4r4m/wallpaper-collection/main/collection/wallpapers/minimal/002.jpg",
        "thumb": "https://media.githubusercontent.com/media/ddh4r4m/wallpaper-collection/main/collection/thumbnails/minimal/002.jpg"
      },
      "metadata": {
        "dimensions": {
          "width": 1080,
          "height": 1920
        },
        "file_size": 106901,
        "format": "JPEG",
        "added_at": "2025-07-17T00:04:00.535052",
        "hash": "2c5d28dea64eb6485336c7d3c0ce6ab5",
        "source": "migrated"
      }
    },
    {
      "id": "minimal_003",
      "category": "minimal",
      "title": "Minimal Wallpaper 003",
      "tags": [
        "minimal",
        "wallpaper",
        "hd",
        "mobile"
      ],
      "urls": {
        "raw": "https://media.githubusercontent.com/media/ddh4r4m/wallpaper-collection/main/collection/wallpapers/minimal/003.jpg",
        "thumb": "https://media.githubusercontent.com/media/ddh4r4m/wallpaper-collection/main/collection/thumbnails/minimal/003.jpg"
      },
      "metadata": {
        "dimensions": {
          "width": 1080,
          "height": 1920
        },
        "file_size": 35239,
        "format": "JPEG",
        "added_at": "2025-07-17T00:04:00.751082",
        "hash": "06127cca133d2cf12317650d18a302eb",
        "source": "migrated"
      }
    },
    {
      "id": "minimal_004",
      "category": "minimal",
      "title": "Minimal Wallpaper 004",
      "tags": [
        "minimal",
        "wallpaper",
        "hd",
        "mobile"
      ],
      "urls": {
        "raw": "https://media.githubusercontent.com/media/ddh4r4m/wallpaper-collection/main/collection/wallpapers/minimal/004.jpg",
        "thumb": "https://media.githubusercontent.com/media/ddh4r4m/wallpaper-collection/main/collection/thumbnails/minimal/004.jpg"
      },
      "metadata": {
        "dimensions": {
          "width": 1080,
          "height": 1920
        },
        "file_size": 12526,
        "format": "JPEG",
        "added_at": "2025-07-17T00:04:00.968116",
        "hash": "3bb9d740e795d5ac06b404dc78cce91a",
        "source": "migrated"
      }
    },
    {
      "id": "minimal_005",
      "category": "minimal",
      "title": "Minimal Wallpaper 005",
      "tags": [
        "minimal",
        "wallpaper",
        "hd",
        "mobile"
      ],
      "urls": {
        "raw": "https://media.githubusercontent.com/media/ddh4r4m/wallpaper-collection/main/collection/wallpapers/minimal/005.jpg",
        "thumb": "https://media.githubusercontent.com/media/ddh4r4m/wallpaper-collection/main/collection/thumbnails/minimal/005.jpg"
      },
      "metadata": {
        "dimensions": {
          "width": 1080,
          "height": 1920
        },
        "file_size": 422081,
        "format": "JPEG",
        "added_at": "2025-07-17T00:04:01.179344",
        "hash": "61033eac90023431564c688d1c9e99b0",
        "source": "migrated"
      }
    },
    {
      "id": "minimal_006",
      "category": "minimal",
      "title": "Minimal Wallpaper 006",
      "tags": [
        "minimal",
        "wallpaper",
        "hd",
        "mobile"
      ],
      "urls": {
        "raw": "https://media.githubusercontent.com/media/ddh4r4m/wallpaper-collection/main/collection/wallpapers/minimal/006.jpg",
        "thumb": "https://media.githubusercontent.com/media/ddh4r4m/wallpaper-collection/main/collection/thumbnails/minimal/006.jpg"
      },
      "metadata": {
        "dimensions": {
          "width": 1080,
          "height": 1920
        },
        "file_size": 91681,
        "format": "JPEG",
        "added_at": "2025-07-17T00:04:01.390204",
        "hash": "6a25d8b0515674cc71b0ec052185ce07",
        "source": "migrated"
      }
    },
    {
      "id": "minimal_007",
      "category": "minimal",
      "title": "Minimal Wallpaper 007",
      "tags": [
        "minimal",
        "wallpaper",
        "hd",
        "mobile"
      ],
      "urls": {
        "raw": "https://media.githubusercontent.com/media/ddh4r4m/wallpaper-collection/main/collection/wallpapers/minimal/007.jpg",
        "thumb": "https://media.githubusercontent.com/media/ddh4r4m/wallpaper-collection/main/collection/thumbnails/minimal/007.jpg"
      },
      "metadata": {
        "dimensions": {
          "width": 1080,
          "height": 1920
        },
        "file_size": 144049,
        "format": "JPEG",
        "added_at": "2025-07-17T00:04:01.549741",
        "hash": "ba984e260d39cf01ae4b9ecbfa7f7821",
        "source": "migrated"
      }
    },
    {
      "id": "minimal_008",
      "category": "minimal",
      "title": "Minimal Wallpaper 008",
      "tags": [
        "minimal",
        "wallpaper",
        "hd",
        "mobile"
      ],
      "urls": {
        "raw": "https://media.githubusercontent.com/media/ddh4r4m/wallpaper-collection/main/collection/wallpapers/minimal/008.jpg",
        "thumb": "https://media.githubusercontent.com/media/ddh4r4m/wallpaper-collection/main/collection/thumbnails/minimal/008.jpg"
      },
      "metadata": {
        "dimensions": {
          "width": 1080,
          "height": 1920
        },
        "file_size": 31912,
        "format": "JPEG",
        "added_at": "2025-07-17T00:04:01.759189",
        "hash": "90ec2b90c76c067d949e2c476636eba1",
        "source": "migrated"
      }
    },
    {
      "id": "minimal_009",
      "category": "minimal",
      "title": "Minimal Wallpaper 009",
      "tags": [
        "minimal",
        "wallpaper",
        "hd",
        "mobile"
      ],
      "urls": {
        "raw": "https://media.githubusercontent.com/media/ddh4r4m/wallpaper-collection/main/collection/wallpapers/minimal/009.jpg",
        "thumb": "https://media.githubusercontent.com/media/ddh4r4m/wallpaper-collection/main/collection/thumbnails/minimal/009.jpg"
      },
      "metadata": {
        "dimensions": {
          "width": 1080,
          "height": 1920
        },
        "file_size": 114695,
        "format": "JPEG",
        "added_at": "2025-07-17T00:04:01.972377",
        "hash": "bd6a9af9633cd5ed77d987bf04e6f88c",
        "source": "migrated"
      }
    },
    {
      "id": "minimal_010",
      "category": "minimal",
      "title": "Minimal Wallpaper 010",
      "tags": [
        "minimal",
        "wallpaper",
        "hd",
        "mobile"
      ],
      "urls": {
        "raw": "https://media.githubusercontent.com/media/ddh4r4m/wallpaper-collection/main/collection/wallpapers/minimal/010.jpg",
        "thumb": "https://media.githubusercontent.com/media/ddh4r4m/wallpaper-collection/main/collection/thumbnails/minimal/010.jpg"
      },
      "metadata": {
        "dimensions": {
          "width": 1080,
          "height": 1920
        },
        "file_size": 380669,
        "format": "JPEG",
        "added_at": "2025-07-17T00:04:02.246169",
        "hash": "95fa630b5f3a0cdc340ecf587dbdbf3f",
        "source": "migrated"
      }
    },
    {
      "id": "minimal_011",
      "category": "minimal",
      "title": "Minimal Wallpaper 011",
      "tags": [
        "minimal",
        "wallpaper",
        "hd",
        "mobile"
      ],
      "urls": {
        "raw": "https://media.githubusercontent.com/media/ddh4r4m/wallpaper-collection/main/collection/wallpapers/minimal/011.jpg",
        "thumb": "https://media.githubusercontent.com/media/ddh4r4m/wallpaper-collection/main/collection/thumbnails/minimal/011.jpg"
      },
      "metadata": {
        "dimensions": {
          "width": 1080,
          "height": 1920
        },
        "file_size": 13656,
        "format": "JPEG",
        "added_at": "2025-07-17T00:04:02.399942",
        "hash": "42b707933c1d17beb2e4fd0a0bedac51",
        "source": "migrated"
      }
    },
    {
      "id": "minimal_012",
      "category": "minimal",
      "title": "Minimal Wallpaper 012",
      "tags": [
        "minimal",
        "wallpaper",
        "hd",
        "mobile"
      ],
      "urls": {
        "raw": "https://media.githubusercontent.com/media/ddh4r4m/wallpaper-collection/main/collection/wallpapers/minimal/012.jpg",
        "thumb": "https://media.githubusercontent.com/media/ddh4r4m/wallpaper-collection/main/collection/thumbnails/minimal/012.jpg"
      },
      "metadata": {
        "dimensions": {
          "width": 1080,
          "height": 1920
        },
        "file_size": 152135,
        "format": "JPEG",
        "added_at": "2025-07-17T00:04:02.538068",
        "hash": "e9398214e38b2f6c32c28ed4813778eb",
        "source": "migrated"
      }
    },
    {
      "id": "minimal_013",
      "category": "minimal",
      "title": "Minimal Wallpaper 013",
      "tags": [
        "minimal",
        "wallpaper",
        "hd",
        "mobile"
      ],
      "urls": {
        "raw": "https://media.githubusercontent.com/media/ddh4r4m/wallpaper-collection/main/collection/wallpapers/minimal/013.jpg",
        "thumb": "https://media.githubusercontent.com/media/ddh4r4m/wallpaper-collection/main/collection/thumbnails/minimal/013.jpg"
      },
      "metadata": {
        "dimensions": {
          "width": 1080,
          "height": 1920
        },
        "file_size": 32003,
        "format": "JPEG",
        "added_at": "2025-07-17T00:04:02.756168",
        "hash": "b933895f3f5c1e768cdf36d90287550f",
        "source": "migrated"
      }
    },
    {
      "id": "minimal_014",
      "category": "minimal",
      "title": "Minimal Wallpaper 014",
      "tags": [
        "minimal",
        "wallpaper",
        "hd",
        "mobile"
      ],
      "urls": {
        "raw": "https://media.githubusercontent.com/media/ddh4r4m/wallpaper-collection/main/collection/wallpapers/minimal/014.jpg",
        "thumb": "https://media.githubusercontent.com/media/ddh4r4m/wallpaper-collection/main/collection/thumbnails/minimal/014.jpg"
      },
      "metadata": {
        "dimensions": {
          "width": 1080,
          "height": 1920
        },
        "file_size": 19445,
        "format": "JPEG",
        "added_at": "2025-07-17T00:04:02.946099",
        "hash": "b03dd4c00d78b352c90850e38114d292",
        "source": "migrated"
      }
    },
    {
      "id": "minimal_015",
      "category": "minimal",
      "title": "Minimal Wallpaper 015",
      "tags": [
        "minimal",
        "wallpaper",
        "hd",
        "mobile"
      ],
      "urls": {
        "raw": "https://media.githubusercontent.com/media/ddh4r4m/wallpaper-collection/main/collection/wallpapers/minimal/015.jpg",
        "thumb": "https://media.githubusercontent.com/media/ddh4r4m/wallpaper-collection/main/collection/thumbnails/minimal/015.jpg"
      },
      "metadata": {
        "dimensions": {
          "width": 1080,
          "height": 1920
        },
        "file_size": 92870,
        "format": "JPEG",
        "added_at": "2025-07-17T00:04:03.103877",
        "hash": "75c396fc2ccfd2f75d1e45e70bd2080b",
        "source": "migrated"
      }
    }
  ]
}