{
  "meta": {
    "version": "1.0",
    "generated_at": "2025-07-17T00:06:19.072196",
    "category": "minimal",
    "page": 3,
    "per_page": 15,
    "total_pages": 4,
    "total_count": 46,
    "count_on_page": 15,
    "has_next": true,
    "has_prev": true,
    "next_page_url": "/api/v1/minimal/pages/4.json",
    "prev_page_url": "/api/v1/minimal/pages/2.json"
  },
  "data": [
    {
      "id": "minimal_031",
      "category": "minimal",
      "title": "Minimal Wallpaper 031",
      "tags": [
        "minimal",
        "wallpaper",
        "hd",
        "mobile"
      ],
      "urls": {
        "raw": "https://raw.githubusercontent.com/ddh4r4m/wallpaper-collection/main/collection/wallpapers/minimal/031.jpg",
        "thumb": "https://raw.githubusercontent.com/ddh4r4m/wallpaper-collection/main/collection/thumbnails/minimal/031.jpg"
      },
      "metadata": {
        "dimensions": {
          "width": 1080,
          "height": 1920
        },
        "file_size": 211438,
        "format": "JPEG",
        "added_at": "2025-07-17T00:04:06.821367",
        "hash": "3779ecd43f253668ad9edc80c5641db7",
        "source": "migrated"
      }
    },
    {
      "id": "minimal_032",
      "category": "minimal",
      "title": "Minimal Wallpaper 032",
      "tags": [
        "minimal",
        "wallpaper",
        "hd",
        "mobile"
      ],
      "urls": {
        "raw": "https://raw.githubusercontent.com/ddh4r4m/wallpaper-collection/main/collection/wallpapers/minimal/032.jpg",
        "thumb": "https://raw.githubusercontent.com/ddh4r4m/wallpaper-collection/main/collection/thumbnails/minimal/032.jpg"
      },
      "metadata": {
        "dimensions": {
          "width": 1080,
          "height": 1920
        },
        "file_size": 169952,
        "format": "JPEG",
        "added_at": "2025-07-17T00:04:07.496537",
        "hash": "ebcfcab563cb68ff3f17e5224c6e04a5",
        "source": "migrated"
      }
    },
    {
      "id": "minimal_033",
      "category": "minimal",
      "title": "Minimal Wallpaper 033",
      "tags": [
        "minimal",
        "wallpaper",
        "hd",
        "mobile"
      ],
      "urls": {
        "raw": "https://raw.githubusercontent.com/ddh4r4m/wallpaper-collection/main/collection/wallpapers/minimal/033.jpg",
        "thumb": "https://raw.githubusercontent.com/ddh4r4m/wallpaper-collection/main/collection/thumbnails/minimal/033.jpg"
      },
      "metadata": {
        "dimensions": {
          "width": 1080,
          "height": 1920
        },
        "file_size": 200938,
        "format": "JPEG",
        "added_at": "2025-07-17T00:04:07.637026",
        "hash": "ada910b4b00eb90cefc2bec1fdde5e47",
        "source": "migrated"
      }
    },
    {
      "id": "minimal_034",
      "category": "minimal",
      "title": "Minimal Wallpaper 034",
      "tags": [
        "minimal",
        "wallpaper",
        "hd",
        "mobile"
      ],
      "urls": {
        "raw": "https://raw.githubusercontent.com/ddh4r4m/wallpaper-collection/main/collection/wallpapers/minimal/034.jpg",
        "thumb": "https://raw.githubusercontent.com/ddh4r4m/wallpaper-collection/main/collection/thumbnails/minimal/034.jpg"
      },
      "metadata": {
        "dimensions": {
          "width": 1080,
          "height": 1920
        },
        "file_size": 586647,
        "format": "JPEG",
        "added_at": "2025-07-17T00:04:08.186067",
        "hash": "f76659292c220ba6d506bef34dbacf50",
        "source": "migrated"
      }
    },
    {
      "id": "minimal_035",
      "category": "minimal",
      "title": "Minimal Wallpaper 035",
      "tags": [
        "minimal",
        "wallpaper",
        "hd",
        "mobile"
      ],
      "urls": {
        "raw": "https://raw.githubusercontent.com/ddh4r4m/wallpaper-collection/main/collection/wallpapers/minimal/035.jpg",
        "thumb": "https://raw.githubusercontent.com/ddh4r4m/wallpaper-collection/main/collection/thumbnails/minimal/035.jpg"
      },
      "metadata": {
        "dimensions": {
          "width": 1080,
          "height": 1920
        },
        "file_size": 25049,
        "format": "JPEG",
        "added_at": "2025-07-17T00:04:08.400942",
        "hash": "d7be98d01ef8ed597e4a7fda56c1dfc2",
        "source": "migrated"
      }
    },
    {
      "id": "minimal_036",
      "category": "minimal",
      "title": "Minimal Wallpaper 036",
      "tags": [
        "minimal",
        "wallpaper",
        "hd",
        "mobile"
      ],
      "urls": {
        "raw": "https://raw.githubusercontent.com/ddh4r4m/wallpaper-collection/main/collection/wallpapers/minimal/036.jpg",
        "thumb": "https://raw.githubusercontent.com/ddh4r4m/wallpaper-collection/main/collection/thumbnails/minimal/036.jpg"
      },
      "metadata": {
        "dimensions": {
          "width": 1080,
          "height": 1920
        },
        "file_size": 205942,
        "format": "JPEG",
        "added_at": "2025-07-17T00:04:08.538889",
        "hash": "c6dbb9b7f6a1931719005aaf2e714136",
        "source": "migrated"
      }
    },
    {
      "id": "minimal_037",
      "category": "minimal",
      "title": "Minimal Wallpaper 037",
      "tags": [
        "minimal",
        "wallpaper",
        "hd",
        "mobile"
      ],
      "urls": {
        "raw": "https://raw.githubusercontent.com/ddh4r4m/wallpaper-collection/main/collection/wallpapers/minimal/037.jpg",
        "thumb": "https://raw.githubusercontent.com/ddh4r4m/wallpaper-collection/main/collection/thumbnails/minimal/037.jpg"
      },
      "metadata": {
        "dimensions": {
          "width": 1080,
          "height": 1920
        },
        "file_size": 162792,
        "format": "JPEG",
        "added_at": "2025-07-17T00:04:08.774261",
        "hash": "9961efc093728c46d528e5ee8664d902",
        "source": "migrated"
      }
    },
    {
      "id": "minimal_038",
      "category": "minimal",
      "title": "Minimal Wallpaper 038",
      "tags": [
        "minimal",
        "wallpaper",
        "hd",
        "mobile"
      ],
      "urls": {
        "raw": "https://raw.githubusercontent.com/ddh4r4m/wallpaper-collection/main/collection/wallpapers/minimal/038.jpg",
        "thumb": "https://raw.githubusercontent.com/ddh4r4m/wallpaper-collection/main/collection/thumbnails/minimal/038.jpg"
      },
      "metadata": {
        "dimensions": {
          "width": 1080,
          "height": 1920
        },
        "file_size": 31645,
        "format": "JPEG",
        "added_at": "2025-07-17T00:04:08.984932",
        "hash": "2afb1b7729fdbd6f42d802a493ee7c1f",
        "source": "migrated"
      }
    },
    {
      "id": "minimal_039",
      "category": "minimal",
      "title": "Minimal Wallpaper 039",
      "tags": [
        "minimal",
        "wallpaper",
        "hd",
        "mobile"
      ],
      "urls": {
        "raw": "https://raw.githubusercontent.com/ddh4r4m/wallpaper-collection/main/collection/wallpapers/minimal/039.jpg",
        "thumb": "https://raw.githubusercontent.com/ddh4r4m/wallpaper-collection/main/collection/thumbnails/minimal/039.jpg"
      },
      "metadata": {
        "dimensions": {
          "width": 1080,
          "height": 1920
        },
        "file_size": 32356,
        "format": "JPEG",
        "added_at": "2025-07-17T00:04:09.127560",
        "hash": "5ed26d3f4b147d2272dec1686f14dfcf",
        "source": "migrated"
      }
    },
    {
      "id": "minimal_040",
      "category": "minimal",
      "title": "Minimal Wallpaper 040",
      "tags": [
        "minimal",
        "wallpaper",
        "hd",
        "mobile"
      ],
      "urls": {
        "raw": "https://raw.githubusercontent.com/ddh4r4m/wallpaper-collection/main/collection/wallpapers/minimal/040.jpg",
        "thumb": "https://raw.githubusercontent.com/ddh4r4m/wallpaper-collection/main/collection/thumbnails/minimal/040.jpg"
      },
      "metadata": {
        "dimensions": {
          "width": 1080,
          "height": 1920
        },
        "file_size": 55614,
        "format": "JPEG",
        "added_at": "2025-07-17T00:04:09.371535",
        "hash": "05881dda8e3b8f61c3b2611a24f60a4a",
        "source": "migrated"
      }
    },
    {
      "id": "minimal_041",
      "category": "minimal",
      "title": "Minimal Wallpaper 041",
      "tags": [
        "minimal",
        "wallpaper",
        "hd",
        "mobile"
      ],
      "urls": {
        "raw": "https://raw.githubusercontent.com/ddh4r4m/wallpaper-collection/main/collection/wallpapers/minimal/041.jpg",
        "thumb": "https://raw.githubusercontent.com/ddh4r4m/wallpaper-collection/main/collection/thumbnails/minimal/041.jpg"
      },
      "metadata": {
        "dimensions": {
          "width": 1080,
          "height": 1920
        },
        "file_size": 114315,
        "format": "JPEG",
        "added_at": "2025-07-17T00:04:09.766474",
        "hash": "86f5ff21d94c61723171a0f3a2d1d4f4",
        "source": "migrated"
      }
    },
    {
      "id": "minimal_042",
      "category": "minimal",
      "title": "Minimal Wallpaper 042",
      "tags": [
        "minimal",
        "wallpaper",
        "hd",
        "mobile"
      ],
      "urls": {
        "raw": "https://raw.githubusercontent.com/ddh4r4m/wallpaper-collection/main/collection/wallpapers/minimal/042.jpg",
        "thumb": "https://raw.githubusercontent.com/ddh4r4m/wallpaper-collection/main/collection/thumbnails/minimal/042.jpg"
      },
      "metadata": {
        "dimensions": {
          "width": 1080,
          "height": 1920
        },
        "file_size": 98514,
        "format": "JPEG",
        "added_at": "2025-07-17T00:04:11.060440",
        "hash": "3d93f822dd21235104cbe50c2d2d0c33",
        "source": "migrated"
      }
    },
    {
      "id": "minimal_043",
      "category": "minimal",
      "title": "Minimal Wallpaper 043",
      "tags": [
        "minimal",
        "wallpaper",
        "hd",
        "mobile"
      ],
      "urls": {
        "raw": "https://raw.githubusercontent.com/ddh4r4m/wallpaper-collection/main/collection/wallpapers/minimal/043.jpg",
        "thumb": "https://raw.githubusercontent.com/ddh4r4m/wallpaper-collection/main/collection/thumbnails/minimal/043.jpg"
      },
      "metadata": {
        "dimensions": {
          "width": 1080,
          "height": 1920
        },
        "file_size": 14612,
        "format": "JPEG",
        "added_at": "2025-07-17T00:04:11.278165",
        "hash": "1ac9cde7f83354a31fb35b799f23df4f",
        "source": "migrated"
      }
    },
    {
      "id": "minimal_044",
      "category": "minimal",
      "title": "Minimal Wallpaper 044",
      "tags": [
        "minimal",
        "wallpaper",
        "hd",
        "mobile"
      ],
      "urls": {
        "raw": "https://raw.githubusercontent.com/ddh4r4m/wallpaper-collection/main/collection/wallpapers/minimal/044.jpg",
        "thumb": "https://raw.githubusercontent.com/ddh4r4m/wallpaper-collection/main/collection/thumbnails/minimal/044.jpg"
      },
      "metadata": {
        "dimensions": {
          "width": 1080,
          "height": 1920
        },
        "file_size": 12724,
        "format": "JPEG",
        "added_at": "2025-07-17T00:04:11.495400",
        "hash": "0c14d96fe4516058fa62ea25fd6b5042",
        "source": "migrated"
      }
    },
    {
      "id": "minimal_045",
      "category": "minimal",
      "title": "Minimal Wallpaper 045",
      "tags": [
        "minimal",
        "wallpaper",
        "hd",
        "mobile"
      ],
      "urls": {
        "raw": "https://raw.githubusercontent.com/ddh4r4m/wallpaper-collection/main/collection/wallpapers/minimal/045.jpg",
        "thumb": "https://raw.githubusercontent.com/ddh4r4m/wallpaper-collection/main/collection/thumbnails/minimal/045.jpg"
      },
      "metadata": {
        "dimensions": {
          "width": 1080,
          "height": 1920
        },
        "file_size": 23466,
        "format": "JPEG",
        "added_at": "2025-07-17T00:04:11.733509",
        "hash": "9d81c835bec513ff1d65ff535c367440",
        "source": "migrated"
      }
    }
  ]
}