{
  "meta": {
    "version": "1.0",
    "generated_at": "2025-07-17T00:06:19.072196",
    "category": "cars",
    "page": 1,
    "per_page": 15,
    "total_pages": 2,
    "total_count": 29,
    "count_on_page": 15,
    "has_next": true,
    "has_prev": false,
    "next_page_url": "/api/v1/cars/pages/2.json",
    "prev_page_url": null
  },
  "data": [
    {
      "id": "cars_001",
      "category": "cars",
      "title": "Cars Wallpaper 001",
      "tags": [
        "cars",
        "wallpaper",
        "hd",
        "mobile"
      ],
      "urls": {
        "raw": "https://raw.githubusercontent.com/ddh4r4m/wallpaper-collection/main/collection/wallpapers/cars/001.jpg",
        "thumb": "https://raw.githubusercontent.com/ddh4r4m/wallpaper-collection/main/collection/thumbnails/cars/001.jpg"
      },
      "metadata": {
        "dimensions": {
          "width": 1080,
          "height": 1920
        },
        "file_size": 323887,
        "format": "JPEG",
        "added_at": "2025-07-17T00:03:05.161760",
        "hash": "48390cf133ccda4e68c34d2576cc09a2",
        "source": "migrated"
      }
    },
    {
      "id": "cars_002",
      "category": "cars",
      "title": "Cars Wallpaper 002",
      "tags": [
        "cars",
        "wallpaper",
        "hd",
        "mobile"
      ],
      "urls": {
        "raw": "https://raw.githubusercontent.com/ddh4r4m/wallpaper-collection/main/collection/wallpapers/cars/002.jpg",
        "thumb": "https://raw.githubusercontent.com/ddh4r4m/wallpaper-collection/main/collection/thumbnails/cars/002.jpg"
      },
      "metadata": {
        "dimensions": {
          "width": 1080,
          "height": 1920
        },
        "file_size": 209375,
        "format": "JPEG",
        "added_at": "2025-07-17T00:03:05.459570",
        "hash": "b058a44ed0bc65e7eb286613c7168860",
        "source": "migrated"
      }
    },
    {
      "id": "cars_003",
      "category": "cars",
      "title": "Cars Wallpaper 003",
      "tags": [
        "cars",
        "wallpaper",
        "hd",
        "mobile"
      ],
      "urls": {
        "raw": "https://raw.githubusercontent.com/ddh4r4m/wallpaper-collection/main/collection/wallpapers/cars/003.jpg",
        "thumb": "https://raw.githubusercontent.com/ddh4r4m/wallpaper-collection/main/collection/thumbnails/cars/003.jpg"
      },
      "metadata": {
        "dimensions": {
          "width": 1080,
          "height": 1920
        },
        "file_size": 212307,
        "format": "JPEG",
        "added_at": "2025-07-17T00:03:05.656166",
        "hash": "4b502a2f44889d491baa26e01e651def",
        "source": "migrated"
      }
    },
    {
      "id": "cars_004",
      "category": "cars",
      "title": "Cars Wallpaper 004",
      "tags": [
        "cars",
        "wallpaper",
        "hd",
        "mobile"
      ],
      "urls": {
        "raw": "https://raw.githubusercontent.com/ddh4r4m/wallpaper-collection/main/collection/wallpapers/cars/004.jpg",
        "thumb": "https://raw.githubusercontent.com/ddh4r4m/wallpaper-collection/main/collection/thumbnails/cars/004.jpg"
      },
      "metadata": {
        "dimensions": {
          "width": 1080,
          "height": 1920
        },
        "file_size": 246325,
        "format": "JPEG",
        "added_at": "2025-07-17T00:03:05.896679",
        "hash": "22ad96e0f693951f5fb4bc1b8cdcd788",
        "source": "migrated"
      }
    },
    {
      "id": "cars_005",
      "category": "cars",
      "title": "Cars Wallpaper 005",
      "tags": [
        "cars",
        "wallpaper",
        "hd",
        "mobile"
      ],
      "urls": {
        "raw": "https://raw.githubusercontent.com/ddh4r4m/wallpaper-collection/main/collection/wallpapers/cars/005.jpg",
        "thumb": "https://raw.githubusercontent.com/ddh4r4m/wallpaper-collection/main/collection/thumbnails/cars/005.jpg"
      },
      "metadata": {
        "dimensions": {
          "width": 1080,
          "height": 1920
        },
        "file_size": 214497,
        "format": "JPEG",
        "added_at": "2025-07-17T00:03:06.105394",
        "hash": "422b548aeec90542295969e3a1c2ce39",
        "source": "migrated"
      }
    },
    {
      "id": "cars_006",
      "category": "cars",
      "title": "Cars Wallpaper 006",
      "tags": [
        "cars",
        "wallpaper",
        "hd",
        "mobile"
      ],
      "urls": {
        "raw": "https://raw.githubusercontent.com/ddh4r4m/wallpaper-collection/main/collection/wallpapers/cars/006.jpg",
        "thumb": "https://raw.githubusercontent.com/ddh4r4m/wallpaper-collection/main/collection/thumbnails/cars/006.jpg"
      },
      "metadata": {
        "dimensions": {
          "width": 1080,
          "height": 1920
        },
        "file_size": 158269,
        "format": "JPEG",
        "added_at": "2025-07-17T00:03:06.542913",
        "hash": "a6ccf382192543b284f1ad6524d4e0d5",
        "source": "migrated"
      }
    },
    {
      "id": "cars_007",
      "category": "cars",
      "title": "Cars Wallpaper 007",
      "tags": [
        "cars",
        "wallpaper",
        "hd",
        "mobile"
      ],
      "urls": {
        "raw": "https://raw.githubusercontent.com/ddh4r4m/wallpaper-collection/main/collection/wallpapers/cars/007.jpg",
        "thumb": "https://raw.githubusercontent.com/ddh4r4m/wallpaper-collection/main/collection/thumbnails/cars/007.jpg"
      },
      "metadata": {
        "dimensions": {
          "width": 1080,
          "height": 1920
        },
        "file_size": 143348,
        "format": "JPEG",
        "added_at": "2025-07-17T00:03:06.831036",
        "hash": "6d844d603e9929159e47381554de35e5",
        "source": "migrated"
      }
    },
    {
      "id": "cars_008",
      "category": "cars",
      "title": "Cars Wallpaper 008",
      "tags": [
        "cars",
        "wallpaper",
        "hd",
        "mobile"
      ],
      "urls": {
        "raw": "https://raw.githubusercontent.com/ddh4r4m/wallpaper-collection/main/collection/wallpapers/cars/008.jpg",
        "thumb": "https://raw.githubusercontent.com/ddh4r4m/wallpaper-collection/main/collection/thumbnails/cars/008.jpg"
      },
      "metadata": {
        "dimensions": {
          "width": 1080,
          "height": 1920
        },
        "file_size": 286126,
        "format": "JPEG",
        "added_at": "2025-07-17T00:03:07.032944",
        "hash": "fbbcb3d2cfc285f19e4426466db1aedd",
        "source": "migrated"
      }
    },
    {
      "id": "cars_009",
      "category": "cars",
      "title": "Cars Wallpaper 009",
      "tags": [
        "cars",
        "wallpaper",
        "hd",
        "mobile"
      ],
      "urls": {
        "raw": "https://raw.githubusercontent.com/ddh4r4m/wallpaper-collection/main/collection/wallpapers/cars/009.jpg",
        "thumb": "https://raw.githubusercontent.com/ddh4r4m/wallpaper-collection/main/collection/thumbnails/cars/009.jpg"
      },
      "metadata": {
        "dimensions": {
          "width": 1080,
          "height": 1920
        },
        "file_size": 364488,
        "format": "JPEG",
        "added_at": "2025-07-17T00:03:07.248285",
        "hash": "357105247b7ebc82ae3ae232cc671153",
        "source": "migrated"
      }
    },
    {
      "id": "cars_010",
      "category": "cars",
      "title": "Cars Wallpaper 010",
      "tags": [
        "cars",
        "wallpaper",
        "hd",
        "mobile"
      ],
      "urls": {
        "raw": "https://raw.githubusercontent.com/ddh4r4m/wallpaper-collection/main/collection/wallpapers/cars/010.jpg",
        "thumb": "https://raw.githubusercontent.com/ddh4r4m/wallpaper-collection/main/collection/thumbnails/cars/010.jpg"
      },
      "metadata": {
        "dimensions": {
          "width": 1080,
          "height": 1920
        },
        "file_size": 256900,
        "format": "JPEG",
        "added_at": "2025-07-17T00:03:07.506017",
        "hash": "98e85b0e6f4547589baf4a9e8ef8b934",
        "source": "migrated"
      }
    },
    {
      "id": "cars_011",
      "category": "cars",
      "title": "Cars Wallpaper 011",
      "tags": [
        "cars",
        "wallpaper",
        "hd",
        "mobile"
      ],
      "urls": {
        "raw": "https://raw.githubusercontent.com/ddh4r4m/wallpaper-collection/main/collection/wallpapers/cars/011.jpg",
        "thumb": "https://raw.githubusercontent.com/ddh4r4m/wallpaper-collection/main/collection/thumbnails/cars/011.jpg"
      },
      "metadata": {
        "dimensions": {
          "width": 1080,
          "height": 1920
        },
        "file_size": 208921,
        "format": "JPEG",
        "added_at": "2025-07-17T00:03:07.829928",
        "hash": "9f809d9ca0bd5188b5b62a7b06f70037",
        "source": "migrated"
      }
    },
    {
      "id": "cars_012",
      "category": "cars",
      "title": "Cars Wallpaper 012",
      "tags": [
        "cars",
        "wallpaper",
        "hd",
        "mobile"
      ],
      "urls": {
        "raw": "https://raw.githubusercontent.com/ddh4r4m/wallpaper-collection/main/collection/wallpapers/cars/012.jpg",
        "thumb": "https://raw.githubusercontent.com/ddh4r4m/wallpaper-collection/main/collection/thumbnails/cars/012.jpg"
      },
      "metadata": {
        "dimensions": {
          "width": 1080,
          "height": 1920
        },
        "file_size": 151467,
        "format": "JPEG",
        "added_at": "2025-07-17T00:03:08.176226",
        "hash": "34b63082be1700bdc9301bbded51f031",
        "source": "migrated"
      }
    },
    {
      "id": "cars_013",
      "category": "cars",
      "title": "Cars Wallpaper 013",
      "tags": [
        "cars",
        "wallpaper",
        "hd",
        "mobile"
      ],
      "urls": {
        "raw": "https://raw.githubusercontent.com/ddh4r4m/wallpaper-collection/main/collection/wallpapers/cars/013.jpg",
        "thumb": "https://raw.githubusercontent.com/ddh4r4m/wallpaper-collection/main/collection/thumbnails/cars/013.jpg"
      },
      "metadata": {
        "dimensions": {
          "width": 1080,
          "height": 1920
        },
        "file_size": 286027,
        "format": "JPEG",
        "added_at": "2025-07-17T00:03:08.632046",
        "hash": "cf1c3de82320f463c5251c989cc62e13",
        "source": "migrated"
      }
    },
    {
      "id": "cars_014",
      "category": "cars",
      "title": "Cars Wallpaper 014",
      "tags": [
        "cars",
        "wallpaper",
        "hd",
        "mobile"
      ],
      "urls": {
        "raw": "https://raw.githubusercontent.com/ddh4r4m/wallpaper-collection/main/collection/wallpapers/cars/014.jpg",
        "thumb": "https://raw.githubusercontent.com/ddh4r4m/wallpaper-collection/main/collection/thumbnails/cars/014.jpg"
      },
      "metadata": {
        "dimensions": {
          "width": 1080,
          "height": 1920
        },
        "file_size": 272959,
        "format": "JPEG",
        "added_at": "2025-07-17T00:03:08.912826",
        "hash": "0b8cf85bfff49363a36c56475d0be664",
        "source": "migrated"
      }
    },
    {
      "id": "cars_015",
      "category": "cars",
      "title": "Cars Wallpaper 015",
      "tags": [
        "cars",
        "wallpaper",
        "hd",
        "mobile"
      ],
      "urls": {
        "raw": "https://raw.githubusercontent.com/ddh4r4m/wallpaper-collection/main/collection/wallpapers/cars/015.jpg",
        "thumb": "https://raw.githubusercontent.com/ddh4r4m/wallpaper-collection/main/collection/thumbnails/cars/015.jpg"
      },
      "metadata": {
        "dimensions": {
          "width": 1080,
          "height": 1920
        },
        "file_size": 241339,
        "format": "JPEG",
        "added_at": "2025-07-17T00:03:09.109804",
        "hash": "5ae93e85a2f28feafb386711f7448607",
        "source": "migrated"
      }
    }
  ]
}