{
  "meta": {
    "version": "1.0",
    "generated_at": "2025-07-28T22:38:03.579947",
    "category": "cars",
    "page": 5,
    "per_page": 15,
    "total_pages": 6,
    "total_count": 84,
    "count_on_page": 15,
    "has_next": true,
    "has_prev": true,
    "next_page_url": "/api/v1/cars/pages/6.json",
    "prev_page_url": "/api/v1/cars/pages/4.json"
  },
  "data": [
    {
      "id": "cars_061",
      "category": "cars",
      "title": "Cars Wallpaper",
      "tags": [
        "cars",
        "unsplash",
        "hd",
        "mobile"
      ],
      "metadata": {
        "dimensions": {
          "width": 1080,
          "height": 1620
        },
        "file_size": 243351,
        "format": "JPEG",
        "added_at": "2025-07-17T22:51:30.809492",
        "hash": "553cee5cfd0a8347aad9c74caa06f05a",
        "photographer": "Unknown"
      },
      "urls": {
        "raw": "https://media.githubusercontent.com/media/ddh4r4m/wallpaper-collection/main/collection/wallpapers/cars/061.jpg",
        "thumb": "https://media.githubusercontent.com/media/ddh4r4m/wallpaper-collection/main/collection/thumbnails/cars/061.jpg"
      }
    },
    {
      "id": "cars_062",
      "category": "cars",
      "title": "Cars Wallpaper",
      "tags": [
        "cars",
        "unsplash",
        "hd",
        "mobile"
      ],
      "metadata": {
        "dimensions": {
          "width": 1080,
          "height": 1621
        },
        "file_size": 214963,
        "format": "JPEG",
        "added_at": "2025-07-17T22:51:33.201061",
        "hash": "7e9e7a156f4de7c67615a383224fa23d",
        "photographer": "Unknown"
      },
      "urls": {
        "raw": "https://media.githubusercontent.com/media/ddh4r4m/wallpaper-collection/main/collection/wallpapers/cars/062.jpg",
        "thumb": "https://media.githubusercontent.com/media/ddh4r4m/wallpaper-collection/main/collection/thumbnails/cars/062.jpg"
      }
    },
    {
      "id": "cars_063",
      "category": "cars",
      "title": "Cars Wallpaper",
      "tags": [
        "cars",
        "unsplash",
        "hd",
        "mobile"
      ],
      "metadata": {
        "dimensions": {
          "width": 1080,
          "height": 675
        },
        "file_size": 43957,
        "format": "JPEG",
        "added_at": "2025-07-17T22:51:36.400692",
        "hash": "2e5cd685cce11d40b5510ed27dd6c69f",
        "photographer": "Unknown"
      },
      "urls": {
        "raw": "https://media.githubusercontent.com/media/ddh4r4m/wallpaper-collection/main/collection/wallpapers/cars/063.jpg",
        "thumb": "https://media.githubusercontent.com/media/ddh4r4m/wallpaper-collection/main/collection/thumbnails/cars/063.jpg"
      }
    },
    {
      "id": "cars_064",
      "category": "cars",
      "title": "Cars Wallpaper",
      "tags": [
        "cars",
        "unsplash",
        "hd",
        "mobile"
      ],
      "metadata": {
        "dimensions": {
          "width": 1080,
          "height": 1619
        },
        "file_size": 156484,
        "format": "JPEG",
        "added_at": "2025-07-17T22:51:38.789616",
        "hash": "e8bcb4347f6552b216e2c60503586d2d",
        "photographer": "Unknown"
      },
      "urls": {
        "raw": "https://media.githubusercontent.com/media/ddh4r4m/wallpaper-collection/main/collection/wallpapers/cars/064.jpg",
        "thumb": "https://media.githubusercontent.com/media/ddh4r4m/wallpaper-collection/main/collection/thumbnails/cars/064.jpg"
      }
    },
    {
      "id": "cars_065",
      "category": "cars",
      "title": "Cars Wallpaper",
      "tags": [
        "cars",
        "unsplash",
        "hd",
        "mobile"
      ],
      "metadata": {
        "dimensions": {
          "width": 1080,
          "height": 614
        },
        "file_size": 134267,
        "format": "JPEG",
        "added_at": "2025-07-17T22:51:40.984492",
        "hash": "b2678cad5b0d949917644fe3f66b8fbb",
        "photographer": "Unknown"
      },
      "urls": {
        "raw": "https://media.githubusercontent.com/media/ddh4r4m/wallpaper-collection/main/collection/wallpapers/cars/065.jpg",
        "thumb": "https://media.githubusercontent.com/media/ddh4r4m/wallpaper-collection/main/collection/thumbnails/cars/065.jpg"
      }
    },
    {
      "id": "cars_066",
      "category": "cars",
      "title": "Cars Wallpaper",
      "tags": [
        "cars",
        "unsplash",
        "hd",
        "mobile"
      ],
      "metadata": {
        "dimensions": {
          "width": 1080,
          "height": 720
        },
        "file_size": 189095,
        "format": "JPEG",
        "added_at": "2025-07-17T22:51:44.234387",
        "hash": "b4a6cbedbe6fdb08002c5537495b995b",
        "photographer": "Unknown"
      },
      "urls": {
        "raw": "https://media.githubusercontent.com/media/ddh4r4m/wallpaper-collection/main/collection/wallpapers/cars/066.jpg",
        "thumb": "https://media.githubusercontent.com/media/ddh4r4m/wallpaper-collection/main/collection/thumbnails/cars/066.jpg"
      }
    },
    {
      "id": "cars_067",
      "category": "cars",
      "title": "Cars Wallpaper",
      "tags": [
        "cars",
        "unsplash",
        "hd",
        "mobile"
      ],
      "metadata": {
        "dimensions": {
          "width": 1080,
          "height": 720
        },
        "file_size": 98785,
        "format": "JPEG",
        "added_at": "2025-07-17T22:51:46.445769",
        "hash": "0ff1c3f2354472b76bf385e4b48aa296",
        "photographer": "Unknown"
      },
      "urls": {
        "raw": "https://media.githubusercontent.com/media/ddh4r4m/wallpaper-collection/main/collection/wallpapers/cars/067.jpg",
        "thumb": "https://media.githubusercontent.com/media/ddh4r4m/wallpaper-collection/main/collection/thumbnails/cars/067.jpg"
      }
    },
    {
      "id": "cars_068",
      "category": "cars",
      "title": "Cars Wallpaper",
      "tags": [
        "cars",
        "unsplash",
        "hd",
        "mobile"
      ],
      "metadata": {
        "dimensions": {
          "width": 1080,
          "height": 720
        },
        "file_size": 71857,
        "format": "JPEG",
        "added_at": "2025-07-17T22:51:48.826483",
        "hash": "7702e302f6b9e4f220dc9d7f654b36f5",
        "photographer": "Unknown"
      },
      "urls": {
        "raw": "https://media.githubusercontent.com/media/ddh4r4m/wallpaper-collection/main/collection/wallpapers/cars/068.jpg",
        "thumb": "https://media.githubusercontent.com/media/ddh4r4m/wallpaper-collection/main/collection/thumbnails/cars/068.jpg"
      }
    },
    {
      "id": "cars_069",
      "category": "cars",
      "title": "Cars Wallpaper",
      "tags": [
        "cars",
        "unsplash",
        "hd",
        "mobile"
      ],
      "metadata": {
        "dimensions": {
          "width": 1080,
          "height": 810
        },
        "file_size": 222716,
        "format": "JPEG",
        "added_at": "2025-07-17T22:51:52.103781",
        "hash": "be86bf1ac8da9962221ccffcd6c9578e",
        "photographer": "Unknown"
      },
      "urls": {
        "raw": "https://media.githubusercontent.com/media/ddh4r4m/wallpaper-collection/main/collection/wallpapers/cars/069.jpg",
        "thumb": "https://media.githubusercontent.com/media/ddh4r4m/wallpaper-collection/main/collection/thumbnails/cars/069.jpg"
      }
    },
    {
      "id": "cars_070",
      "category": "cars",
      "title": "Cars Wallpaper",
      "tags": [
        "cars",
        "unsplash",
        "hd",
        "mobile"
      ],
      "metadata": {
        "dimensions": {
          "width": 1080,
          "height": 1620
        },
        "file_size": 153254,
        "format": "JPEG",
        "added_at": "2025-07-17T22:51:54.424963",
        "hash": "8b82b31368c58d194f6605a039996e97",
        "photographer": "Unknown"
      },
      "urls": {
        "raw": "https://media.githubusercontent.com/media/ddh4r4m/wallpaper-collection/main/collection/wallpapers/cars/070.jpg",
        "thumb": "https://media.githubusercontent.com/media/ddh4r4m/wallpaper-collection/main/collection/thumbnails/cars/070.jpg"
      }
    },
    {
      "id": "cars_071",
      "category": "cars",
      "title": "Cars Wallpaper",
      "tags": [
        "cars",
        "unsplash",
        "hd",
        "mobile"
      ],
      "metadata": {
        "dimensions": {
          "width": 1080,
          "height": 720
        },
        "file_size": 97696,
        "format": "JPEG",
        "added_at": "2025-07-17T22:51:56.730792",
        "hash": "334a22f8134b45485d3b6e8b6f47c1df",
        "photographer": "Unknown"
      },
      "urls": {
        "raw": "https://media.githubusercontent.com/media/ddh4r4m/wallpaper-collection/main/collection/wallpapers/cars/071.jpg",
        "thumb": "https://media.githubusercontent.com/media/ddh4r4m/wallpaper-collection/main/collection/thumbnails/cars/071.jpg"
      }
    },
    {
      "id": "cars_072",
      "category": "cars",
      "title": "Cars Wallpaper",
      "tags": [
        "cars",
        "unsplash",
        "hd",
        "mobile"
      ],
      "metadata": {
        "dimensions": {
          "width": 1080,
          "height": 720
        },
        "file_size": 102196,
        "format": "JPEG",
        "added_at": "2025-07-17T22:51:59.945109",
        "hash": "660a8a49b08c9a55e37a5cf6d3cf7c1d",
        "photographer": "Unknown"
      },
      "urls": {
        "raw": "https://media.githubusercontent.com/media/ddh4r4m/wallpaper-collection/main/collection/wallpapers/cars/072.jpg",
        "thumb": "https://media.githubusercontent.com/media/ddh4r4m/wallpaper-collection/main/collection/thumbnails/cars/072.jpg"
      }
    },
    {
      "id": "cars_073",
      "category": "cars",
      "title": "Cars Wallpaper",
      "tags": [
        "cars",
        "unsplash",
        "hd",
        "mobile"
      ],
      "metadata": {
        "dimensions": {
          "width": 1080,
          "height": 608
        },
        "file_size": 96003,
        "format": "JPEG",
        "added_at": "2025-07-17T22:52:02.114191",
        "hash": "e32972310023a4b00a91758150bada08",
        "photographer": "Unknown"
      },
      "urls": {
        "raw": "https://media.githubusercontent.com/media/ddh4r4m/wallpaper-collection/main/collection/wallpapers/cars/073.jpg",
        "thumb": "https://media.githubusercontent.com/media/ddh4r4m/wallpaper-collection/main/collection/thumbnails/cars/073.jpg"
      }
    },
    {
      "id": "cars_074",
      "category": "cars",
      "title": "Cars Wallpaper",
      "tags": [
        "cars",
        "unsplash",
        "hd",
        "mobile"
      ],
      "metadata": {
        "dimensions": {
          "width": 1080,
          "height": 1620
        },
        "file_size": 244713,
        "format": "JPEG",
        "added_at": "2025-07-17T22:52:04.497562",
        "hash": "962376eab35cf34ae2170977ed57f273",
        "photographer": "Unknown"
      },
      "urls": {
        "raw": "https://media.githubusercontent.com/media/ddh4r4m/wallpaper-collection/main/collection/wallpapers/cars/074.jpg",
        "thumb": "https://media.githubusercontent.com/media/ddh4r4m/wallpaper-collection/main/collection/thumbnails/cars/074.jpg"
      }
    },
    {
      "id": "cars_075",
      "category": "cars",
      "title": "Cars Wallpaper",
      "tags": [
        "cars",
        "unsplash",
        "hd",
        "mobile"
      ],
      "metadata": {
        "dimensions": {
          "width": 1080,
          "height": 1620
        },
        "file_size": 349413,
        "format": "JPEG",
        "added_at": "2025-07-18T00:38:51.981277",
        "hash": "95531e617d9c6272ed8d85c395820216",
        "photographer": "Unknown"
      },
      "urls": {
        "raw": "https://media.githubusercontent.com/media/ddh4r4m/wallpaper-collection/main/collection/wallpapers/cars/075.jpg",
        "thumb": "https://media.githubusercontent.com/media/ddh4r4m/wallpaper-collection/main/collection/thumbnails/cars/075.jpg"
      }
    }
  ]
}