{
  "meta": {
    "version": "1.0",
    "generated_at": "2025-07-28T22:48:38.208699",
    "category": "cars",
    "page": 6,
    "per_page": 15,
    "total_pages": 6,
    "total_count": 84,
    "count_on_page": 9,
    "has_next": false,
    "has_prev": true,
    "next_page_url": null,
    "prev_page_url": "/api/v1/cars/pages/5.json"
  },
  "data": [
    {
      "id": "cars_076",
      "category": "cars",
      "title": "Cars Wallpaper",
      "tags": [
        "cars",
        "unsplash",
        "hd",
        "mobile"
      ],
      "metadata": {
        "dimensions": {
          "width": 1080,
          "height": 1620
        },
        "file_size": 243351,
        "format": "JPEG",
        "added_at": "2025-07-18T00:38:54.544750",
        "hash": "553cee5cfd0a8347aad9c74caa06f05a",
        "photographer": "Unknown"
      },
      "urls": {
        "raw": "https://media.githubusercontent.com/media/ddh4r4m/wallpaper-collection/main/collection/wallpapers/cars/076.jpg",
        "thumb": "https://media.githubusercontent.com/media/ddh4r4m/wallpaper-collection/main/collection/thumbnails/cars/076.jpg"
      }
    },
    {
      "id": "cars_077",
      "category": "cars",
      "title": "Cars Wallpaper",
      "tags": [
        "cars",
        "unsplash",
        "hd",
        "mobile"
      ],
      "metadata": {
        "dimensions": {
          "width": 1080,
          "height": 675
        },
        "file_size": 43957,
        "format": "JPEG",
        "added_at": "2025-07-18T00:38:59.542280",
        "hash": "2e5cd685cce11d40b5510ed27dd6c69f",
        "photographer": "Unknown"
      },
      "urls": {
        "raw": "https://media.githubusercontent.com/media/ddh4r4m/wallpaper-collection/main/collection/wallpapers/cars/077.jpg",
        "thumb": "https://media.githubusercontent.com/media/ddh4r4m/wallpaper-collection/main/collection/thumbnails/cars/077.jpg"
      }
    },
    {
      "id": "cars_078",
      "category": "cars",
      "title": "Cars Wallpaper",
      "tags": [
        "cars",
        "unsplash",
        "hd",
        "mobile"
      ],
      "metadata": {
        "dimensions": {
          "width": 1080,
          "height": 1619
        },
        "file_size": 156484,
        "format": "JPEG",
        "added_at": "2025-07-18T00:39:02.291973",
        "hash": "e8bcb4347f6552b216e2c60503586d2d",
        "photographer": "Unknown"
      },
      "urls": {
        "raw": "https://media.githubusercontent.com/media/ddh4r4m/wallpaper-collection/main/collection/wallpapers/cars/078.jpg",
        "thumb": "https://media.githubusercontent.com/media/ddh4r4m/wallpaper-collection/main/collection/thumbnails/cars/078.jpg"
      }
    },
    {
      "id": "cars_079",
      "category": "cars",
      "title": "Cars Wallpaper",
      "tags": [
        "cars",
        "unsplash",
        "hd",
        "mobile"
      ],
      "metadata": {
        "dimensions": {
          "width": 1080,
          "height": 720
        },
        "file_size": 189095,
        "format": "JPEG",
        "added_at": "2025-07-18T00:39:06.944276",
        "hash": "b4a6cbedbe6fdb08002c5537495b995b",
        "photographer": "Unknown"
      },
      "urls": {
        "raw": "https://media.githubusercontent.com/media/ddh4r4m/wallpaper-collection/main/collection/wallpapers/cars/079.jpg",
        "thumb": "https://media.githubusercontent.com/media/ddh4r4m/wallpaper-collection/main/collection/thumbnails/cars/079.jpg"
      }
    },
    {
      "id": "cars_080",
      "category": "cars",
      "title": "Cars Wallpaper",
      "tags": [
        "cars",
        "unsplash",
        "hd",
        "mobile"
      ],
      "metadata": {
        "dimensions": {
          "width": 1080,
          "height": 720
        },
        "file_size": 98785,
        "format": "JPEG",
        "added_at": "2025-07-18T00:39:10.125142",
        "hash": "0ff1c3f2354472b76bf385e4b48aa296",
        "photographer": "Unknown"
      },
      "urls": {
        "raw": "https://media.githubusercontent.com/media/ddh4r4m/wallpaper-collection/main/collection/wallpapers/cars/080.jpg",
        "thumb": "https://media.githubusercontent.com/media/ddh4r4m/wallpaper-collection/main/collection/thumbnails/cars/080.jpg"
      }
    },
    {
      "id": "cars_081",
      "category": "cars",
      "title": "Cars Wallpaper",
      "tags": [
        "cars",
        "unsplash",
        "hd",
        "mobile"
      ],
      "metadata": {
        "dimensions": {
          "width": 1080,
          "height": 810
        },
        "file_size": 222716,
        "format": "JPEG",
        "added_at": "2025-07-18T00:39:13.841243",
        "hash": "be86bf1ac8da9962221ccffcd6c9578e",
        "photographer": "Unknown"
      },
      "urls": {
        "raw": "https://media.githubusercontent.com/media/ddh4r4m/wallpaper-collection/main/collection/wallpapers/cars/081.jpg",
        "thumb": "https://media.githubusercontent.com/media/ddh4r4m/wallpaper-collection/main/collection/thumbnails/cars/081.jpg"
      }
    },
    {
      "id": "cars_082",
      "category": "cars",
      "title": "Cars Wallpaper",
      "tags": [
        "cars",
        "unsplash",
        "hd",
        "mobile"
      ],
      "metadata": {
        "dimensions": {
          "width": 1080,
          "height": 1620
        },
        "file_size": 153254,
        "format": "JPEG",
        "added_at": "2025-07-18T00:39:16.602660",
        "hash": "8b82b31368c58d194f6605a039996e97",
        "photographer": "Unknown"
      },
      "urls": {
        "raw": "https://media.githubusercontent.com/media/ddh4r4m/wallpaper-collection/main/collection/wallpapers/cars/082.jpg",
        "thumb": "https://media.githubusercontent.com/media/ddh4r4m/wallpaper-collection/main/collection/thumbnails/cars/082.jpg"
      }
    },
    {
      "id": "cars_083",
      "category": "cars",
      "title": "Cars Wallpaper",
      "tags": [
        "cars",
        "unsplash",
        "hd",
        "mobile"
      ],
      "metadata": {
        "dimensions": {
          "width": 1080,
          "height": 720
        },
        "file_size": 102196,
        "format": "JPEG",
        "added_at": "2025-07-18T00:39:21.186981",
        "hash": "660a8a49b08c9a55e37a5cf6d3cf7c1d",
        "photographer": "Unknown"
      },
      "urls": {
        "raw": "https://media.githubusercontent.com/media/ddh4r4m/wallpaper-collection/main/collection/wallpapers/cars/083.jpg",
        "thumb": "https://media.githubusercontent.com/media/ddh4r4m/wallpaper-collection/main/collection/thumbnails/cars/083.jpg"
      }
    },
    {
      "id": "cars_084",
      "category": "cars",
      "title": "Cars Wallpaper",
      "tags": [
        "cars",
        "unsplash",
        "hd",
        "mobile"
      ],
      "metadata": {
        "dimensions": {
          "width": 1080,
          "height": 608
        },
        "file_size": 96003,
        "format": "JPEG",
        "added_at": "2025-07-18T00:39:23.767208",
        "hash": "e32972310023a4b00a91758150bada08",
        "photographer": "Unknown"
      },
      "urls": {
        "raw": "https://media.githubusercontent.com/media/ddh4r4m/wallpaper-collection/main/collection/wallpapers/cars/084.jpg",
        "thumb": "https://media.githubusercontent.com/media/ddh4r4m/wallpaper-collection/main/collection/thumbnails/cars/084.jpg"
      }
    }
  ]
}