{
  "meta": {
    "version": "1.0",
    "generated_at": "2025-07-28T21:27:34.814586",
    "category": "anime",
    "page": 7,
    "per_page": 15,
    "total_pages": 9,
    "total_count": 133,
    "count_on_page": 15,
    "has_next": true,
    "has_prev": true,
    "next_page_url": "/api/v1/anime/pages/8.json",
    "prev_page_url": "/api/v1/anime/pages/6.json"
  },
  "data": [
    {
      "id": "anime_091",
      "category": "anime",
      "title": "Anime Wallpaper 091",
      "tags": [
        "anime",
        "wallpaper",
        "hd",
        "mobile"
      ],
      "urls": {
        "raw": "https://media.githubusercontent.com/media/ddh4r4m/wallpaper-collection/main/collection/wallpapers/anime/091.jpg",
        "thumb": "https://media.githubusercontent.com/media/ddh4r4m/wallpaper-collection/main/collection/thumbnails/anime/091.jpg"
      },
      "metadata": {
        "dimensions": {
          "width": 1080,
          "height": 1920
        },
        "file_size": 297391,
        "format": "JPEG",
        "added_at": "2025-07-17T00:02:37.803565",
        "hash": "3209d9ccca873a37cf457f7584924814",
        "source": "migrated"
      }
    },
    {
      "id": "anime_092",
      "category": "anime",
      "title": "Anime Wallpaper 092",
      "tags": [
        "anime",
        "wallpaper",
        "hd",
        "mobile"
      ],
      "urls": {
        "raw": "https://media.githubusercontent.com/media/ddh4r4m/wallpaper-collection/main/collection/wallpapers/anime/092.jpg",
        "thumb": "https://media.githubusercontent.com/media/ddh4r4m/wallpaper-collection/main/collection/thumbnails/anime/092.jpg"
      },
      "metadata": {
        "dimensions": {
          "width": 1080,
          "height": 1920
        },
        "file_size": 76278,
        "format": "JPEG",
        "added_at": "2025-07-17T00:02:37.995554",
        "hash": "dfce80c1322c8d3384ece7c29ae0b3e5",
        "source": "migrated"
      }
    },
    {
      "id": "anime_093",
      "category": "anime",
      "title": "Anime Wallpaper 093",
      "tags": [
        "anime",
        "wallpaper",
        "hd",
        "mobile"
      ],
      "urls": {
        "raw": "https://media.githubusercontent.com/media/ddh4r4m/wallpaper-collection/main/collection/wallpapers/anime/093.jpg",
        "thumb": "https://media.githubusercontent.com/media/ddh4r4m/wallpaper-collection/main/collection/thumbnails/anime/093.jpg"
      },
      "metadata": {
        "dimensions": {
          "width": 1080,
          "height": 1920
        },
        "file_size": 52385,
        "format": "JPEG",
        "added_at": "2025-07-17T00:02:38.278852",
        "hash": "1dd0a1618164a23abee1721cab272042",
        "source": "migrated"
      }
    },
    {
      "id": "anime_094",
      "category": "anime",
      "title": "Anime Wallpaper 094",
      "tags": [
        "anime",
        "wallpaper",
        "hd",
        "mobile"
      ],
      "urls": {
        "raw": "https://media.githubusercontent.com/media/ddh4r4m/wallpaper-collection/main/collection/wallpapers/anime/094.jpg",
        "thumb": "https://media.githubusercontent.com/media/ddh4r4m/wallpaper-collection/main/collection/thumbnails/anime/094.jpg"
      },
      "metadata": {
        "dimensions": {
          "width": 1080,
          "height": 1920
        },
        "file_size": 199098,
        "format": "JPEG",
        "added_at": "2025-07-17T00:02:38.406367",
        "hash": "fd8264b92a79b0eab83f4fc0391bb6d3",
        "source": "migrated"
      }
    },
    {
      "id": "anime_095",
      "category": "anime",
      "title": "Anime Wallpaper 095",
      "tags": [
        "anime",
        "wallpaper",
        "hd",
        "mobile"
      ],
      "urls": {
        "raw": "https://media.githubusercontent.com/media/ddh4r4m/wallpaper-collection/main/collection/wallpapers/anime/095.jpg",
        "thumb": "https://media.githubusercontent.com/media/ddh4r4m/wallpaper-collection/main/collection/thumbnails/anime/095.jpg"
      },
      "metadata": {
        "dimensions": {
          "width": 1080,
          "height": 1920
        },
        "file_size": 135111,
        "format": "JPEG",
        "added_at": "2025-07-17T00:02:38.654054",
        "hash": "97f3e4ebae767b8ffc8a06966fc49b52",
        "source": "migrated"
      }
    },
    {
      "id": "anime_096",
      "category": "anime",
      "title": "Anime Wallpaper 096",
      "tags": [
        "anime",
        "wallpaper",
        "hd",
        "mobile"
      ],
      "urls": {
        "raw": "https://media.githubusercontent.com/media/ddh4r4m/wallpaper-collection/main/collection/wallpapers/anime/096.jpg",
        "thumb": "https://media.githubusercontent.com/media/ddh4r4m/wallpaper-collection/main/collection/thumbnails/anime/096.jpg"
      },
      "metadata": {
        "dimensions": {
          "width": 1080,
          "height": 1920
        },
        "file_size": 382256,
        "format": "JPEG",
        "added_at": "2025-07-17T00:02:38.836289",
        "hash": "bfcf0f9bfe9be274e8bf10fc0b90d979",
        "source": "migrated"
      }
    },
    {
      "id": "anime_097",
      "category": "anime",
      "title": "Anime Wallpaper 097",
      "tags": [
        "anime",
        "wallpaper",
        "hd",
        "mobile"
      ],
      "urls": {
        "raw": "https://media.githubusercontent.com/media/ddh4r4m/wallpaper-collection/main/collection/wallpapers/anime/097.jpg",
        "thumb": "https://media.githubusercontent.com/media/ddh4r4m/wallpaper-collection/main/collection/thumbnails/anime/097.jpg"
      },
      "metadata": {
        "dimensions": {
          "width": 1080,
          "height": 1920
        },
        "file_size": 237002,
        "format": "JPEG",
        "added_at": "2025-07-17T00:02:39.071187",
        "hash": "27dad95354794b51901ef7760ccc9b28",
        "source": "migrated"
      }
    },
    {
      "id": "anime_098",
      "category": "anime",
      "title": "Anime Wallpaper 098",
      "tags": [
        "anime",
        "wallpaper",
        "hd",
        "mobile"
      ],
      "urls": {
        "raw": "https://media.githubusercontent.com/media/ddh4r4m/wallpaper-collection/main/collection/wallpapers/anime/098.jpg",
        "thumb": "https://media.githubusercontent.com/media/ddh4r4m/wallpaper-collection/main/collection/thumbnails/anime/098.jpg"
      },
      "metadata": {
        "dimensions": {
          "width": 1080,
          "height": 1920
        },
        "file_size": 75246,
        "format": "JPEG",
        "added_at": "2025-07-17T00:02:39.345016",
        "hash": "3e542dad1eb0ffc97a4f6eabb97a1d89",
        "source": "migrated"
      }
    },
    {
      "id": "anime_099",
      "category": "anime",
      "title": "Anime Wallpaper 099",
      "tags": [
        "anime",
        "wallpaper",
        "hd",
        "mobile"
      ],
      "urls": {
        "raw": "https://media.githubusercontent.com/media/ddh4r4m/wallpaper-collection/main/collection/wallpapers/anime/099.jpg",
        "thumb": "https://media.githubusercontent.com/media/ddh4r4m/wallpaper-collection/main/collection/thumbnails/anime/099.jpg"
      },
      "metadata": {
        "dimensions": {
          "width": 1080,
          "height": 1920
        },
        "file_size": 106813,
        "format": "JPEG",
        "added_at": "2025-07-17T00:02:39.556618",
        "hash": "3730158a88a82e9b9153703542df0d20",
        "source": "migrated"
      }
    },
    {
      "id": "anime_100",
      "category": "anime",
      "title": "Anime Wallpaper 100",
      "tags": [
        "anime",
        "wallpaper",
        "hd",
        "mobile"
      ],
      "urls": {
        "raw": "https://media.githubusercontent.com/media/ddh4r4m/wallpaper-collection/main/collection/wallpapers/anime/100.jpg",
        "thumb": "https://media.githubusercontent.com/media/ddh4r4m/wallpaper-collection/main/collection/thumbnails/anime/100.jpg"
      },
      "metadata": {
        "dimensions": {
          "width": 1080,
          "height": 1920
        },
        "file_size": 101522,
        "format": "JPEG",
        "added_at": "2025-07-17T00:02:39.728637",
        "hash": "c192c5a32739978decec6bdbd6762d87",
        "source": "migrated"
      }
    },
    {
      "id": "anime_101",
      "category": "anime",
      "title": "Anime Wallpaper 101",
      "tags": [
        "anime",
        "wallpaper",
        "hd",
        "mobile"
      ],
      "urls": {
        "raw": "https://media.githubusercontent.com/media/ddh4r4m/wallpaper-collection/main/collection/wallpapers/anime/101.jpg",
        "thumb": "https://media.githubusercontent.com/media/ddh4r4m/wallpaper-collection/main/collection/thumbnails/anime/101.jpg"
      },
      "metadata": {
        "dimensions": {
          "width": 1080,
          "height": 1920
        },
        "file_size": 367954,
        "format": "JPEG",
        "added_at": "2025-07-17T00:02:40.128557",
        "hash": "367f68a26201c177f6ea080775ad21ad",
        "source": "migrated"
      }
    },
    {
      "id": "anime_102",
      "category": "anime",
      "title": "Anime Wallpaper 102",
      "tags": [
        "anime",
        "wallpaper",
        "hd",
        "mobile"
      ],
      "urls": {
        "raw": "https://media.githubusercontent.com/media/ddh4r4m/wallpaper-collection/main/collection/wallpapers/anime/102.jpg",
        "thumb": "https://media.githubusercontent.com/media/ddh4r4m/wallpaper-collection/main/collection/thumbnails/anime/102.jpg"
      },
      "metadata": {
        "dimensions": {
          "width": 1080,
          "height": 1920
        },
        "file_size": 118278,
        "format": "JPEG",
        "added_at": "2025-07-17T00:02:40.313910",
        "hash": "d5387e7d84c74c01a1af296688174127",
        "source": "migrated"
      }
    },
    {
      "id": "anime_103",
      "category": "anime",
      "title": "Anime Wallpaper 103",
      "tags": [
        "anime",
        "wallpaper",
        "hd",
        "mobile"
      ],
      "urls": {
        "raw": "https://media.githubusercontent.com/media/ddh4r4m/wallpaper-collection/main/collection/wallpapers/anime/103.jpg",
        "thumb": "https://media.githubusercontent.com/media/ddh4r4m/wallpaper-collection/main/collection/thumbnails/anime/103.jpg"
      },
      "metadata": {
        "dimensions": {
          "width": 1080,
          "height": 1920
        },
        "file_size": 319593,
        "format": "JPEG",
        "added_at": "2025-07-17T00:02:40.810061",
        "hash": "56c901614731af7c2ec6e6ced2335c15",
        "source": "migrated"
      }
    },
    {
      "id": "anime_104",
      "category": "anime",
      "title": "Anime Wallpaper 104",
      "tags": [
        "anime",
        "wallpaper",
        "hd",
        "mobile"
      ],
      "urls": {
        "raw": "https://media.githubusercontent.com/media/ddh4r4m/wallpaper-collection/main/collection/wallpapers/anime/104.jpg",
        "thumb": "https://media.githubusercontent.com/media/ddh4r4m/wallpaper-collection/main/collection/thumbnails/anime/104.jpg"
      },
      "metadata": {
        "dimensions": {
          "width": 1080,
          "height": 1920
        },
        "file_size": 312609,
        "format": "JPEG",
        "added_at": "2025-07-17T00:02:41.446847",
        "hash": "54af97722d92f6ba4f5a99fc91689004",
        "source": "migrated"
      }
    },
    {
      "id": "anime_105",
      "category": "anime",
      "title": "Anime Wallpaper 105",
      "tags": [
        "anime",
        "wallpaper",
        "hd",
        "mobile"
      ],
      "urls": {
        "raw": "https://media.githubusercontent.com/media/ddh4r4m/wallpaper-collection/main/collection/wallpapers/anime/105.jpg",
        "thumb": "https://media.githubusercontent.com/media/ddh4r4m/wallpaper-collection/main/collection/thumbnails/anime/105.jpg"
      },
      "metadata": {
        "dimensions": {
          "width": 1080,
          "height": 1920
        },
        "file_size": 289597,
        "format": "JPEG",
        "added_at": "2025-07-17T00:02:41.721990",
        "hash": "8acfe2621bd69bf856a3054bdd131878",
        "source": "migrated"
      }
    }
  ]
}