{
  "meta": {
    "version": "1.0",
    "generated_at": "2025-07-19T12:26:57.111378",
    "category": "anime",
    "page": 8,
    "per_page": 15,
    "total_pages": 9,
    "total_count": 133,
    "count_on_page": 15,
    "has_next": true,
    "has_prev": true,
    "next_page_url": "/api/v1/anime/pages/9.json",
    "prev_page_url": "/api/v1/anime/pages/7.json"
  },
  "data": [
    {
      "id": "anime_106",
      "category": "anime",
      "title": "Anime Wallpaper 106",
      "tags": [
        "anime",
        "wallpaper",
        "hd",
        "mobile"
      ],
      "urls": {
        "raw": "https://media.githubusercontent.com/media/ddh4r4m/wallpaper-collection/main/collection/wallpapers/anime/106.jpg",
        "thumb": "https://media.githubusercontent.com/media/ddh4r4m/wallpaper-collection/main/collection/thumbnails/anime/106.jpg"
      },
      "metadata": {
        "dimensions": {
          "width": 1080,
          "height": 1920
        },
        "file_size": 311332,
        "format": "JPEG",
        "added_at": "2025-07-17T00:02:42.039731",
        "hash": "5ee86018d43696a05a446c8a39ca986c",
        "source": "migrated"
      }
    },
    {
      "id": "anime_107",
      "category": "anime",
      "title": "Anime Wallpaper 107",
      "tags": [
        "anime",
        "wallpaper",
        "hd",
        "mobile"
      ],
      "urls": {
        "raw": "https://media.githubusercontent.com/media/ddh4r4m/wallpaper-collection/main/collection/wallpapers/anime/107.jpg",
        "thumb": "https://media.githubusercontent.com/media/ddh4r4m/wallpaper-collection/main/collection/thumbnails/anime/107.jpg"
      },
      "metadata": {
        "dimensions": {
          "width": 1080,
          "height": 1920
        },
        "file_size": 206594,
        "format": "JPEG",
        "added_at": "2025-07-17T00:02:42.834144",
        "hash": "839c8006726e29e464b7119586da0e8f",
        "source": "migrated"
      }
    },
    {
      "id": "anime_108",
      "category": "anime",
      "title": "Anime Wallpaper 108",
      "tags": [
        "anime",
        "wallpaper",
        "hd",
        "mobile"
      ],
      "urls": {
        "raw": "https://media.githubusercontent.com/media/ddh4r4m/wallpaper-collection/main/collection/wallpapers/anime/108.jpg",
        "thumb": "https://media.githubusercontent.com/media/ddh4r4m/wallpaper-collection/main/collection/thumbnails/anime/108.jpg"
      },
      "metadata": {
        "dimensions": {
          "width": 1080,
          "height": 1920
        },
        "file_size": 270715,
        "format": "JPEG",
        "added_at": "2025-07-17T00:02:43.031058",
        "hash": "17bddab543b78f704cfe00d1e647f610",
        "source": "migrated"
      }
    },
    {
      "id": "anime_109",
      "category": "anime",
      "title": "Anime Wallpaper 109",
      "tags": [
        "anime",
        "wallpaper",
        "hd",
        "mobile"
      ],
      "urls": {
        "raw": "https://media.githubusercontent.com/media/ddh4r4m/wallpaper-collection/main/collection/wallpapers/anime/109.jpg",
        "thumb": "https://media.githubusercontent.com/media/ddh4r4m/wallpaper-collection/main/collection/thumbnails/anime/109.jpg"
      },
      "metadata": {
        "dimensions": {
          "width": 1080,
          "height": 1920
        },
        "file_size": 318708,
        "format": "JPEG",
        "added_at": "2025-07-17T00:02:43.369504",
        "hash": "6c4e7664c33d8dd0cbc25f627f8feaa2",
        "source": "migrated"
      }
    },
    {
      "id": "anime_110",
      "category": "anime",
      "title": "Anime Wallpaper 110",
      "tags": [
        "anime",
        "wallpaper",
        "hd",
        "mobile"
      ],
      "urls": {
        "raw": "https://media.githubusercontent.com/media/ddh4r4m/wallpaper-collection/main/collection/wallpapers/anime/110.jpg",
        "thumb": "https://media.githubusercontent.com/media/ddh4r4m/wallpaper-collection/main/collection/thumbnails/anime/110.jpg"
      },
      "metadata": {
        "dimensions": {
          "width": 1080,
          "height": 1920
        },
        "file_size": 308505,
        "format": "JPEG",
        "added_at": "2025-07-17T00:02:43.610454",
        "hash": "61bbe9c62831758061faa1720c688ff2",
        "source": "migrated"
      }
    },
    {
      "id": "anime_111",
      "category": "anime",
      "title": "Anime Wallpaper 111",
      "tags": [
        "anime",
        "wallpaper",
        "hd",
        "mobile"
      ],
      "urls": {
        "raw": "https://media.githubusercontent.com/media/ddh4r4m/wallpaper-collection/main/collection/wallpapers/anime/111.jpg",
        "thumb": "https://media.githubusercontent.com/media/ddh4r4m/wallpaper-collection/main/collection/thumbnails/anime/111.jpg"
      },
      "metadata": {
        "dimensions": {
          "width": 1080,
          "height": 1920
        },
        "file_size": 140746,
        "format": "JPEG",
        "added_at": "2025-07-17T00:02:43.953907",
        "hash": "60433a4bb471b8baf6f951b3ba5edbc4",
        "source": "migrated"
      }
    },
    {
      "id": "anime_112",
      "category": "anime",
      "title": "Anime Wallpaper 112",
      "tags": [
        "anime",
        "wallpaper",
        "hd",
        "mobile"
      ],
      "urls": {
        "raw": "https://media.githubusercontent.com/media/ddh4r4m/wallpaper-collection/main/collection/wallpapers/anime/112.jpg",
        "thumb": "https://media.githubusercontent.com/media/ddh4r4m/wallpaper-collection/main/collection/thumbnails/anime/112.jpg"
      },
      "metadata": {
        "dimensions": {
          "width": 1080,
          "height": 1920
        },
        "file_size": 348300,
        "format": "JPEG",
        "added_at": "2025-07-17T00:02:44.169251",
        "hash": "e02c0f445a4adfca216b924374de0820",
        "source": "migrated"
      }
    },
    {
      "id": "anime_113",
      "category": "anime",
      "title": "Anime Wallpaper 113",
      "tags": [
        "anime",
        "wallpaper",
        "hd",
        "mobile"
      ],
      "urls": {
        "raw": "https://media.githubusercontent.com/media/ddh4r4m/wallpaper-collection/main/collection/wallpapers/anime/113.jpg",
        "thumb": "https://media.githubusercontent.com/media/ddh4r4m/wallpaper-collection/main/collection/thumbnails/anime/113.jpg"
      },
      "metadata": {
        "dimensions": {
          "width": 1080,
          "height": 1920
        },
        "file_size": 432570,
        "format": "JPEG",
        "added_at": "2025-07-17T00:02:44.540964",
        "hash": "7e58ee2e38b92e45e5e945ee81b66172",
        "source": "migrated"
      }
    },
    {
      "id": "anime_114",
      "category": "anime",
      "title": "Anime Wallpaper 114",
      "tags": [
        "anime",
        "wallpaper",
        "hd",
        "mobile"
      ],
      "urls": {
        "raw": "https://media.githubusercontent.com/media/ddh4r4m/wallpaper-collection/main/collection/wallpapers/anime/114.jpg",
        "thumb": "https://media.githubusercontent.com/media/ddh4r4m/wallpaper-collection/main/collection/thumbnails/anime/114.jpg"
      },
      "metadata": {
        "dimensions": {
          "width": 1080,
          "height": 1920
        },
        "file_size": 356780,
        "format": "JPEG",
        "added_at": "2025-07-17T00:02:44.764377",
        "hash": "6dddff749dc7fe4c91026431d77f8176",
        "source": "migrated"
      }
    },
    {
      "id": "anime_115",
      "category": "anime",
      "title": "Anime Wallpaper 115",
      "tags": [
        "anime",
        "wallpaper",
        "hd",
        "mobile"
      ],
      "urls": {
        "raw": "https://media.githubusercontent.com/media/ddh4r4m/wallpaper-collection/main/collection/wallpapers/anime/115.jpg",
        "thumb": "https://media.githubusercontent.com/media/ddh4r4m/wallpaper-collection/main/collection/thumbnails/anime/115.jpg"
      },
      "metadata": {
        "dimensions": {
          "width": 1080,
          "height": 1920
        },
        "file_size": 167445,
        "format": "JPEG",
        "added_at": "2025-07-17T00:02:44.905095",
        "hash": "666606e221ebaf51615f73e93a5d58c3",
        "source": "migrated"
      }
    },
    {
      "id": "anime_116",
      "category": "anime",
      "title": "Anime Wallpaper 116",
      "tags": [
        "anime",
        "wallpaper",
        "hd",
        "mobile"
      ],
      "urls": {
        "raw": "https://media.githubusercontent.com/media/ddh4r4m/wallpaper-collection/main/collection/wallpapers/anime/116.jpg",
        "thumb": "https://media.githubusercontent.com/media/ddh4r4m/wallpaper-collection/main/collection/thumbnails/anime/116.jpg"
      },
      "metadata": {
        "dimensions": {
          "width": 1080,
          "height": 1920
        },
        "file_size": 200541,
        "format": "JPEG",
        "added_at": "2025-07-17T00:02:45.060254",
        "hash": "6f9d483753a79505f5666f0a4d35937c",
        "source": "migrated"
      }
    },
    {
      "id": "anime_117",
      "category": "anime",
      "title": "\"The Water Magician\" Key Visua - Reddit AI",
      "tags": [
        "anime",
        "ai-generated",
        "hd",
        "mobile",
        "community"
      ],
      "metadata": {
        "dimensions": {
          "width": 1080,
          "height": 1392
        },
        "file_size": 270592,
        "format": "JPEG",
        "added_at": "2025-07-18T00:28:15.734468",
        "hash": "8e0e1b1b5c0263799644ae81b251ca3f",
        "ai_source": "reddit",
        "ai_generated": true,
        "community_score": 817
      },
      "urls": {
        "raw": "https://media.githubusercontent.com/media/ddh4r4m/wallpaper-collection/main/collection/wallpapers/anime/117.jpg",
        "thumb": "https://media.githubusercontent.com/media/ddh4r4m/wallpaper-collection/main/collection/thumbnails/anime/117.jpg"
      }
    },
    {
      "id": "anime_118",
      "category": "anime",
      "title": "\"Snowball Earth\" Anime Announc - Reddit AI",
      "tags": [
        "anime",
        "ai-generated",
        "hd",
        "mobile",
        "community"
      ],
      "metadata": {
        "dimensions": {
          "width": 1080,
          "height": 1528
        },
        "file_size": 136396,
        "format": "JPEG",
        "added_at": "2025-07-18T00:28:19.368453",
        "hash": "08ca71e05a49a34c748e788704b9177c",
        "ai_source": "reddit",
        "ai_generated": true,
        "community_score": 261
      },
      "urls": {
        "raw": "https://media.githubusercontent.com/media/ddh4r4m/wallpaper-collection/main/collection/wallpapers/anime/118.jpg",
        "thumb": "https://media.githubusercontent.com/media/ddh4r4m/wallpaper-collection/main/collection/thumbnails/anime/118.jpg"
      }
    },
    {
      "id": "anime_119",
      "category": "anime",
      "title": "The Anime Prominence Survey Re - Reddit AI",
      "tags": [
        "anime",
        "ai-generated",
        "hd",
        "mobile",
        "community"
      ],
      "metadata": {
        "dimensions": {
          "width": 230,
          "height": 1920
        },
        "file_size": 167153,
        "format": "JPEG",
        "added_at": "2025-07-18T00:28:20.901191",
        "hash": "6ab5ec4b35c3f28106c79daccfd55ff7",
        "ai_source": "reddit",
        "ai_generated": true,
        "community_score": 966
      },
      "urls": {
        "raw": "https://media.githubusercontent.com/media/ddh4r4m/wallpaper-collection/main/collection/wallpapers/anime/119.jpg",
        "thumb": "https://media.githubusercontent.com/media/ddh4r4m/wallpaper-collection/main/collection/thumbnails/anime/119.jpg"
      }
    },
    {
      "id": "anime_120",
      "category": "anime",
      "title": "F. Rover art by Me (cabbage_ex - Reddit AI",
      "tags": [
        "anime",
        "ai-generated",
        "hd",
        "mobile",
        "community"
      ],
      "metadata": {
        "dimensions": {
          "width": 1080,
          "height": 1528
        },
        "file_size": 160093,
        "format": "JPEG",
        "added_at": "2025-07-18T00:28:24.016321",
        "hash": "d815628c39cccd6d7b24e0788469cb77",
        "ai_source": "reddit",
        "ai_generated": true,
        "community_score": 200
      },
      "urls": {
        "raw": "https://media.githubusercontent.com/media/ddh4r4m/wallpaper-collection/main/collection/wallpapers/anime/120.jpg",
        "thumb": "https://media.githubusercontent.com/media/ddh4r4m/wallpaper-collection/main/collection/thumbnails/anime/120.jpg"
      }
    }
  ]
}