{
  "meta": {
    "version": "1.0",
    "generated_at": "2025-07-19T12:26:57.111378",
    "category": "anime",
    "page": 9,
    "per_page": 15,
    "total_pages": 9,
    "total_count": 133,
    "count_on_page": 13,
    "has_next": false,
    "has_prev": true,
    "next_page_url": null,
    "prev_page_url": "/api/v1/anime/pages/8.json"
  },
  "data": [
    {
      "id": "anime_121",
      "category": "anime",
      "title": "Character art \ud83c\udf39 Rose demon - Reddit AI",
      "tags": [
        "anime",
        "ai-generated",
        "hd",
        "mobile",
        "community"
      ],
      "metadata": {
        "dimensions": {
          "width": 1080,
          "height": 1080
        },
        "file_size": 159561,
        "format": "JPEG",
        "added_at": "2025-07-18T00:28:25.504335",
        "hash": "e02368093b6ffed280af95f61e4ee8d7",
        "ai_source": "reddit",
        "ai_generated": true,
        "community_score": 83
      },
      "urls": {
        "raw": "https://media.githubusercontent.com/media/ddh4r4m/wallpaper-collection/main/collection/wallpapers/anime/121.jpg",
        "thumb": "https://media.githubusercontent.com/media/ddh4r4m/wallpaper-collection/main/collection/thumbnails/anime/121.jpg"
      }
    },
    {
      "id": "anime_122",
      "category": "anime",
      "title": "Ani art - Reddit AI",
      "tags": [
        "anime",
        "ai-generated",
        "hd",
        "mobile",
        "community"
      ],
      "metadata": {
        "dimensions": {
          "width": 1080,
          "height": 1440
        },
        "file_size": 181000,
        "format": "JPEG",
        "added_at": "2025-07-18T00:28:26.883751",
        "hash": "9c0af30abac2d5f3374e1c1c6862c433",
        "ai_source": "reddit",
        "ai_generated": true,
        "community_score": 17
      },
      "urls": {
        "raw": "https://media.githubusercontent.com/media/ddh4r4m/wallpaper-collection/main/collection/wallpapers/anime/122.jpg",
        "thumb": "https://media.githubusercontent.com/media/ddh4r4m/wallpaper-collection/main/collection/thumbnails/anime/122.jpg"
      }
    },
    {
      "id": "anime_123",
      "category": "anime",
      "title": "I drew Camellya in a swimsuit  - Reddit AI",
      "tags": [
        "anime",
        "ai-generated",
        "hd",
        "mobile",
        "community"
      ],
      "metadata": {
        "dimensions": {
          "width": 1080,
          "height": 732
        },
        "file_size": 152390,
        "format": "JPEG",
        "added_at": "2025-07-18T00:28:28.309708",
        "hash": "f2a67120ca5bd79b1c6b995ff62832a0",
        "ai_source": "reddit",
        "ai_generated": true,
        "community_score": 34
      },
      "urls": {
        "raw": "https://media.githubusercontent.com/media/ddh4r4m/wallpaper-collection/main/collection/wallpapers/anime/123.jpg",
        "thumb": "https://media.githubusercontent.com/media/ddh4r4m/wallpaper-collection/main/collection/thumbnails/anime/123.jpg"
      }
    },
    {
      "id": "anime_124",
      "category": "anime",
      "title": "Angel by the Sea [Bocchi the R - Reddit AI",
      "tags": [
        "anime",
        "ai-generated",
        "hd",
        "mobile",
        "community"
      ],
      "metadata": {
        "dimensions": {
          "width": 1080,
          "height": 1285
        },
        "file_size": 212727,
        "format": "JPEG",
        "added_at": "2025-07-18T00:28:29.527623",
        "hash": "0c88f4074523c0d97843c51ec38dfe3b",
        "ai_source": "reddit",
        "ai_generated": true,
        "community_score": 18
      },
      "urls": {
        "raw": "https://media.githubusercontent.com/media/ddh4r4m/wallpaper-collection/main/collection/wallpapers/anime/124.jpg",
        "thumb": "https://media.githubusercontent.com/media/ddh4r4m/wallpaper-collection/main/collection/thumbnails/anime/124.jpg"
      }
    },
    {
      "id": "anime_125",
      "category": "anime",
      "title": "Tatsumaki fanart! - Reddit AI",
      "tags": [
        "anime",
        "ai-generated",
        "hd",
        "mobile",
        "community"
      ],
      "metadata": {
        "dimensions": {
          "width": 1080,
          "height": 1605
        },
        "file_size": 170965,
        "format": "JPEG",
        "added_at": "2025-07-18T00:28:30.829063",
        "hash": "319107abb1402015093465f8ea92af06",
        "ai_source": "reddit",
        "ai_generated": true,
        "community_score": 30
      },
      "urls": {
        "raw": "https://media.githubusercontent.com/media/ddh4r4m/wallpaper-collection/main/collection/wallpapers/anime/125.jpg",
        "thumb": "https://media.githubusercontent.com/media/ddh4r4m/wallpaper-collection/main/collection/thumbnails/anime/125.jpg"
      }
    },
    {
      "id": "anime_126",
      "category": "anime",
      "title": "The Oblivious Saint Can't Cont - Reddit AI",
      "tags": [
        "anime",
        "ai-generated",
        "hd",
        "mobile",
        "community"
      ],
      "metadata": {
        "dimensions": {
          "width": 1080,
          "height": 1339
        },
        "file_size": 224039,
        "format": "JPEG",
        "added_at": "2025-07-19T11:46:36.057845",
        "hash": "1b54fc73e3099bc1a2d9d497572fc0e6",
        "ai_source": "reddit",
        "ai_generated": true,
        "community_score": 515
      },
      "urls": {
        "raw": "https://media.githubusercontent.com/media/ddh4r4m/wallpaper-collection/main/collection/wallpapers/anime/126.jpg",
        "thumb": "https://media.githubusercontent.com/media/ddh4r4m/wallpaper-collection/main/collection/thumbnails/anime/126.jpg"
      }
    },
    {
      "id": "anime_127",
      "category": "anime",
      "title": "Top 10 Anime of the Week #2 -  - Reddit AI",
      "tags": [
        "anime",
        "ai-generated",
        "hd",
        "mobile",
        "community"
      ],
      "metadata": {
        "dimensions": {
          "width": 1080,
          "height": 1620
        },
        "file_size": 340973,
        "format": "JPEG",
        "added_at": "2025-07-19T11:46:37.227287",
        "hash": "bc9ab106984c79f1e648bd7539f87101",
        "ai_source": "reddit",
        "ai_generated": true,
        "community_score": 1607
      },
      "urls": {
        "raw": "https://media.githubusercontent.com/media/ddh4r4m/wallpaper-collection/main/collection/wallpapers/anime/127.jpg",
        "thumb": "https://media.githubusercontent.com/media/ddh4r4m/wallpaper-collection/main/collection/thumbnails/anime/127.jpg"
      }
    },
    {
      "id": "anime_128",
      "category": "anime",
      "title": "\"The Frontier Lord Begins with - Reddit AI",
      "tags": [
        "anime",
        "ai-generated",
        "hd",
        "mobile",
        "community"
      ],
      "metadata": {
        "dimensions": {
          "width": 1061,
          "height": 1500
        },
        "file_size": 318213,
        "format": "JPEG",
        "added_at": "2025-07-19T11:46:38.326680",
        "hash": "8a1434b7b066ef804e8b5292d07ba5a9",
        "ai_source": "reddit",
        "ai_generated": true,
        "community_score": 168
      },
      "urls": {
        "raw": "https://media.githubusercontent.com/media/ddh4r4m/wallpaper-collection/main/collection/wallpapers/anime/128.jpg",
        "thumb": "https://media.githubusercontent.com/media/ddh4r4m/wallpaper-collection/main/collection/thumbnails/anime/128.jpg"
      }
    },
    {
      "id": "anime_129",
      "category": "anime",
      "title": "Hero Without a Class: Who Even - Reddit AI",
      "tags": [
        "anime",
        "ai-generated",
        "hd",
        "mobile",
        "community"
      ],
      "metadata": {
        "dimensions": {
          "width": 852,
          "height": 1200
        },
        "file_size": 212686,
        "format": "JPEG",
        "added_at": "2025-07-19T11:46:39.527433",
        "hash": "bc3b3565acdb9c49e83ca763a2370780",
        "ai_source": "reddit",
        "ai_generated": true,
        "community_score": 78
      },
      "urls": {
        "raw": "https://media.githubusercontent.com/media/ddh4r4m/wallpaper-collection/main/collection/wallpapers/anime/129.jpg",
        "thumb": "https://media.githubusercontent.com/media/ddh4r4m/wallpaper-collection/main/collection/thumbnails/anime/129.jpg"
      }
    },
    {
      "id": "anime_130",
      "category": "anime",
      "title": "latest drawing:&lt; - Reddit AI",
      "tags": [
        "anime",
        "ai-generated",
        "hd",
        "mobile",
        "community"
      ],
      "metadata": {
        "dimensions": {
          "width": 1080,
          "height": 1350
        },
        "file_size": 109987,
        "format": "JPEG",
        "added_at": "2025-07-19T11:46:41.783229",
        "hash": "3298fc96091c3de166fc0e67023fd40d",
        "ai_source": "reddit",
        "ai_generated": true,
        "community_score": 50
      },
      "urls": {
        "raw": "https://media.githubusercontent.com/media/ddh4r4m/wallpaper-collection/main/collection/wallpapers/anime/130.jpg",
        "thumb": "https://media.githubusercontent.com/media/ddh4r4m/wallpaper-collection/main/collection/thumbnails/anime/130.jpg"
      }
    },
    {
      "id": "anime_131",
      "category": "anime",
      "title": "Ready For The Beach [Original] - Reddit AI",
      "tags": [
        "anime",
        "ai-generated",
        "hd",
        "mobile",
        "community"
      ],
      "metadata": {
        "dimensions": {
          "width": 1080,
          "height": 1620
        },
        "file_size": 179961,
        "format": "JPEG",
        "added_at": "2025-07-19T11:46:43.056178",
        "hash": "e5ea264c32e1d970d2d1a5da4639178f",
        "ai_source": "reddit",
        "ai_generated": true,
        "community_score": 164
      },
      "urls": {
        "raw": "https://media.githubusercontent.com/media/ddh4r4m/wallpaper-collection/main/collection/wallpapers/anime/131.jpg",
        "thumb": "https://media.githubusercontent.com/media/ddh4r4m/wallpaper-collection/main/collection/thumbnails/anime/131.jpg"
      }
    },
    {
      "id": "anime_132",
      "category": "anime",
      "title": "I made Hu Tao from Genshin Imp - Reddit AI",
      "tags": [
        "anime",
        "ai-generated",
        "hd",
        "mobile",
        "community"
      ],
      "metadata": {
        "dimensions": {
          "width": 1080,
          "height": 1440
        },
        "file_size": 167190,
        "format": "JPEG",
        "added_at": "2025-07-19T11:46:44.201965",
        "hash": "c504cc66c4e4d7d20a0062f9779fb681",
        "ai_source": "reddit",
        "ai_generated": true,
        "community_score": 23
      },
      "urls": {
        "raw": "https://media.githubusercontent.com/media/ddh4r4m/wallpaper-collection/main/collection/wallpapers/anime/132.jpg",
        "thumb": "https://media.githubusercontent.com/media/ddh4r4m/wallpaper-collection/main/collection/thumbnails/anime/132.jpg"
      }
    },
    {
      "id": "anime_133",
      "category": "anime",
      "title": "Just a Tohru and Kanna Illustr - Reddit AI",
      "tags": [
        "anime",
        "ai-generated",
        "hd",
        "mobile",
        "community"
      ],
      "metadata": {
        "dimensions": {
          "width": 1080,
          "height": 1350
        },
        "file_size": 217050,
        "format": "JPEG",
        "added_at": "2025-07-19T11:46:46.699546",
        "hash": "f5233a61e118c06b13efb26fdc427ae9",
        "ai_source": "reddit",
        "ai_generated": true,
        "community_score": 9
      },
      "urls": {
        "raw": "https://media.githubusercontent.com/media/ddh4r4m/wallpaper-collection/main/collection/wallpapers/anime/133.jpg",
        "thumb": "https://media.githubusercontent.com/media/ddh4r4m/wallpaper-collection/main/collection/thumbnails/anime/133.jpg"
      }
    }
  ]
}