{
  "meta": {
    "version": "1.0",
    "generated_at": "2025-07-28T22:48:38.208699",
    "category": "neon",
    "page": 1,
    "per_page": 15,
    "total_pages": 6,
    "total_count": 88,
    "count_on_page": 15,
    "has_next": true,
    "has_prev": false,
    "next_page_url": "/api/v1/neon/pages/2.json",
    "prev_page_url": null
  },
  "data": [
    {
      "id": "neon_001",
      "category": "neon",
      "title": "Neon Wallpaper 001",
      "tags": [
        "neon",
        "wallpaper",
        "hd",
        "mobile"
      ],
      "urls": {
        "raw": "https://media.githubusercontent.com/media/ddh4r4m/wallpaper-collection/main/collection/wallpapers/neon/001.jpg",
        "thumb": "https://media.githubusercontent.com/media/ddh4r4m/wallpaper-collection/main/collection/thumbnails/neon/001.jpg"
      },
      "metadata": {
        "dimensions": {
          "width": 1080,
          "height": 1920
        },
        "file_size": 448820,
        "format": "JPEG",
        "added_at": "2025-07-17T00:04:31.345173",
        "hash": "c0cd7fbd5462d9eebdff2c1c892b4111",
        "source": "migrated"
      }
    },
    {
      "id": "neon_002",
      "category": "neon",
      "title": "Neon Wallpaper 002",
      "tags": [
        "neon",
        "wallpaper",
        "hd",
        "mobile"
      ],
      "urls": {
        "raw": "https://media.githubusercontent.com/media/ddh4r4m/wallpaper-collection/main/collection/wallpapers/neon/002.jpg",
        "thumb": "https://media.githubusercontent.com/media/ddh4r4m/wallpaper-collection/main/collection/thumbnails/neon/002.jpg"
      },
      "metadata": {
        "dimensions": {
          "width": 1080,
          "height": 1920
        },
        "file_size": 174434,
        "format": "JPEG",
        "added_at": "2025-07-17T00:04:31.396139",
        "hash": "c8ae53a00c501c50ed68a06c4ce97eb6",
        "source": "migrated"
      }
    },
    {
      "id": "neon_003",
      "category": "neon",
      "title": "Neon Wallpaper 003",
      "tags": [
        "neon",
        "wallpaper",
        "hd",
        "mobile"
      ],
      "urls": {
        "raw": "https://media.githubusercontent.com/media/ddh4r4m/wallpaper-collection/main/collection/wallpapers/neon/003.jpg",
        "thumb": "https://media.githubusercontent.com/media/ddh4r4m/wallpaper-collection/main/collection/thumbnails/neon/003.jpg"
      },
      "metadata": {
        "dimensions": {
          "width": 1080,
          "height": 1920
        },
        "file_size": 204987,
        "format": "JPEG",
        "added_at": "2025-07-17T00:04:31.448888",
        "hash": "d94a4689c71fee5c2e5b7ded6e892f10",
        "source": "migrated"
      }
    },
    {
      "id": "neon_004",
      "category": "neon",
      "title": "Neon Wallpaper 004",
      "tags": [
        "neon",
        "wallpaper",
        "hd",
        "mobile"
      ],
      "urls": {
        "raw": "https://media.githubusercontent.com/media/ddh4r4m/wallpaper-collection/main/collection/wallpapers/neon/004.jpg",
        "thumb": "https://media.githubusercontent.com/media/ddh4r4m/wallpaper-collection/main/collection/thumbnails/neon/004.jpg"
      },
      "metadata": {
        "dimensions": {
          "width": 1080,
          "height": 1920
        },
        "file_size": 412173,
        "format": "JPEG",
        "added_at": "2025-07-17T00:04:31.514031",
        "hash": "dfefad3f229c4f551288dabcc455e814",
        "source": "migrated"
      }
    },
    {
      "id": "neon_005",
      "category": "neon",
      "title": "Neon Wallpaper 005",
      "tags": [
        "neon",
        "wallpaper",
        "hd",
        "mobile"
      ],
      "urls": {
        "raw": "https://media.githubusercontent.com/media/ddh4r4m/wallpaper-collection/main/collection/wallpapers/neon/005.jpg",
        "thumb": "https://media.githubusercontent.com/media/ddh4r4m/wallpaper-collection/main/collection/thumbnails/neon/005.jpg"
      },
      "metadata": {
        "dimensions": {
          "width": 1080,
          "height": 1920
        },
        "file_size": 386909,
        "format": "JPEG",
        "added_at": "2025-07-17T00:04:31.577044",
        "hash": "92928b6ad2fee5e3ded2ff511cc4edbb",
        "source": "migrated"
      }
    },
    {
      "id": "neon_006",
      "category": "neon",
      "title": "Neon Wallpaper 006",
      "tags": [
        "neon",
        "wallpaper",
        "hd",
        "mobile"
      ],
      "urls": {
        "raw": "https://media.githubusercontent.com/media/ddh4r4m/wallpaper-collection/main/collection/wallpapers/neon/006.jpg",
        "thumb": "https://media.githubusercontent.com/media/ddh4r4m/wallpaper-collection/main/collection/thumbnails/neon/006.jpg"
      },
      "metadata": {
        "dimensions": {
          "width": 1080,
          "height": 1920
        },
        "file_size": 169983,
        "format": "JPEG",
        "added_at": "2025-07-17T00:04:31.628484",
        "hash": "d1ed644d6e4aeaee9497de063f049ac4",
        "source": "migrated"
      }
    },
    {
      "id": "neon_007",
      "category": "neon",
      "title": "Neon Wallpaper 007",
      "tags": [
        "neon",
        "wallpaper",
        "hd",
        "mobile"
      ],
      "urls": {
        "raw": "https://media.githubusercontent.com/media/ddh4r4m/wallpaper-collection/main/collection/wallpapers/neon/007.jpg",
        "thumb": "https://media.githubusercontent.com/media/ddh4r4m/wallpaper-collection/main/collection/thumbnails/neon/007.jpg"
      },
      "metadata": {
        "dimensions": {
          "width": 1080,
          "height": 1920
        },
        "file_size": 144399,
        "format": "JPEG",
        "added_at": "2025-07-17T00:04:31.677903",
        "hash": "71d29a6546e9b77cca1dd09ee393c769",
        "source": "migrated"
      }
    },
    {
      "id": "neon_008",
      "category": "neon",
      "title": "Neon Wallpaper 008",
      "tags": [
        "neon",
        "wallpaper",
        "hd",
        "mobile"
      ],
      "urls": {
        "raw": "https://media.githubusercontent.com/media/ddh4r4m/wallpaper-collection/main/collection/wallpapers/neon/008.jpg",
        "thumb": "https://media.githubusercontent.com/media/ddh4r4m/wallpaper-collection/main/collection/thumbnails/neon/008.jpg"
      },
      "metadata": {
        "dimensions": {
          "width": 1080,
          "height": 1920
        },
        "file_size": 434782,
        "format": "JPEG",
        "added_at": "2025-07-17T00:04:31.744901",
        "hash": "ba6bb6e75665851ada7610061c83c9bd",
        "source": "migrated"
      }
    },
    {
      "id": "neon_009",
      "category": "neon",
      "title": "Neon Wallpaper 009",
      "tags": [
        "neon",
        "wallpaper",
        "hd",
        "mobile"
      ],
      "urls": {
        "raw": "https://media.githubusercontent.com/media/ddh4r4m/wallpaper-collection/main/collection/wallpapers/neon/009.jpg",
        "thumb": "https://media.githubusercontent.com/media/ddh4r4m/wallpaper-collection/main/collection/thumbnails/neon/009.jpg"
      },
      "metadata": {
        "dimensions": {
          "width": 1080,
          "height": 1920
        },
        "file_size": 319082,
        "format": "JPEG",
        "added_at": "2025-07-17T00:04:31.805229",
        "hash": "465953ef0e652b0875c88ac30bf13c26",
        "source": "migrated"
      }
    },
    {
      "id": "neon_010",
      "category": "neon",
      "title": "Neon Wallpaper 010",
      "tags": [
        "neon",
        "wallpaper",
        "hd",
        "mobile"
      ],
      "urls": {
        "raw": "https://media.githubusercontent.com/media/ddh4r4m/wallpaper-collection/main/collection/wallpapers/neon/010.jpg",
        "thumb": "https://media.githubusercontent.com/media/ddh4r4m/wallpaper-collection/main/collection/thumbnails/neon/010.jpg"
      },
      "metadata": {
        "dimensions": {
          "width": 1080,
          "height": 1920
        },
        "file_size": 478879,
        "format": "JPEG",
        "added_at": "2025-07-17T00:04:31.872706",
        "hash": "6300a0223c34a4e51e33bf11c50853f8",
        "source": "migrated"
      }
    },
    {
      "id": "neon_011",
      "category": "neon",
      "title": "Neon Wallpaper 011",
      "tags": [
        "neon",
        "wallpaper",
        "hd",
        "mobile"
      ],
      "urls": {
        "raw": "https://media.githubusercontent.com/media/ddh4r4m/wallpaper-collection/main/collection/wallpapers/neon/011.jpg",
        "thumb": "https://media.githubusercontent.com/media/ddh4r4m/wallpaper-collection/main/collection/thumbnails/neon/011.jpg"
      },
      "metadata": {
        "dimensions": {
          "width": 1080,
          "height": 1920
        },
        "file_size": 273969,
        "format": "JPEG",
        "added_at": "2025-07-17T00:04:31.931137",
        "hash": "55d811b524a01c76e7aa2a0c48886a47",
        "source": "migrated"
      }
    },
    {
      "id": "neon_012",
      "category": "neon",
      "title": "Neon Wallpaper 012",
      "tags": [
        "neon",
        "wallpaper",
        "hd",
        "mobile"
      ],
      "urls": {
        "raw": "https://media.githubusercontent.com/media/ddh4r4m/wallpaper-collection/main/collection/wallpapers/neon/012.jpg",
        "thumb": "https://media.githubusercontent.com/media/ddh4r4m/wallpaper-collection/main/collection/thumbnails/neon/012.jpg"
      },
      "metadata": {
        "dimensions": {
          "width": 1080,
          "height": 1920
        },
        "file_size": 212372,
        "format": "JPEG",
        "added_at": "2025-07-17T00:04:31.983710",
        "hash": "6c1a30ce4a195aa902e54a6acf664f1c",
        "source": "migrated"
      }
    },
    {
      "id": "neon_013",
      "category": "neon",
      "title": "Neon Wallpaper 013",
      "tags": [
        "neon",
        "wallpaper",
        "hd",
        "mobile"
      ],
      "urls": {
        "raw": "https://media.githubusercontent.com/media/ddh4r4m/wallpaper-collection/main/collection/wallpapers/neon/013.jpg",
        "thumb": "https://media.githubusercontent.com/media/ddh4r4m/wallpaper-collection/main/collection/thumbnails/neon/013.jpg"
      },
      "metadata": {
        "dimensions": {
          "width": 1080,
          "height": 1920
        },
        "file_size": 321905,
        "format": "JPEG",
        "added_at": "2025-07-17T00:04:32.045120",
        "hash": "f776e8180ead3fbf408b4d54994da6b7",
        "source": "migrated"
      }
    },
    {
      "id": "neon_014",
      "category": "neon",
      "title": "Neon Wallpaper 014",
      "tags": [
        "neon",
        "wallpaper",
        "hd",
        "mobile"
      ],
      "urls": {
        "raw": "https://media.githubusercontent.com/media/ddh4r4m/wallpaper-collection/main/collection/wallpapers/neon/014.jpg",
        "thumb": "https://media.githubusercontent.com/media/ddh4r4m/wallpaper-collection/main/collection/thumbnails/neon/014.jpg"
      },
      "metadata": {
        "dimensions": {
          "width": 1080,
          "height": 1920
        },
        "file_size": 532687,
        "format": "JPEG",
        "added_at": "2025-07-17T00:04:32.115727",
        "hash": "0e4156814971335fd0f3fd42479fbdc1",
        "source": "migrated"
      }
    },
    {
      "id": "neon_015",
      "category": "neon",
      "title": "Neon Wallpaper 015",
      "tags": [
        "neon",
        "wallpaper",
        "hd",
        "mobile"
      ],
      "urls": {
        "raw": "https://media.githubusercontent.com/media/ddh4r4m/wallpaper-collection/main/collection/wallpapers/neon/015.jpg",
        "thumb": "https://media.githubusercontent.com/media/ddh4r4m/wallpaper-collection/main/collection/thumbnails/neon/015.jpg"
      },
      "metadata": {
        "dimensions": {
          "width": 1080,
          "height": 1920
        },
        "file_size": 495139,
        "format": "JPEG",
        "added_at": "2025-07-17T00:04:32.183795",
        "hash": "d3ebabfa9f9dc7f3b327f7dce06d7251",
        "source": "migrated"
      }
    }
  ]
}