{
  "meta": {
    "version": "1.0",
    "generated_at": "2025-07-28T22:38:03.579947",
    "category": "neon",
    "page": 2,
    "per_page": 15,
    "total_pages": 6,
    "total_count": 88,
    "count_on_page": 15,
    "has_next": true,
    "has_prev": true,
    "next_page_url": "/api/v1/neon/pages/3.json",
    "prev_page_url": "/api/v1/neon/pages/1.json"
  },
  "data": [
    {
      "id": "neon_016",
      "category": "neon",
      "title": "Neon Wallpaper 016",
      "tags": [
        "neon",
        "wallpaper",
        "hd",
        "mobile"
      ],
      "urls": {
        "raw": "https://media.githubusercontent.com/media/ddh4r4m/wallpaper-collection/main/collection/wallpapers/neon/016.jpg",
        "thumb": "https://media.githubusercontent.com/media/ddh4r4m/wallpaper-collection/main/collection/thumbnails/neon/016.jpg"
      },
      "metadata": {
        "dimensions": {
          "width": 1080,
          "height": 1920
        },
        "file_size": 391521,
        "format": "JPEG",
        "added_at": "2025-07-17T00:04:32.247228",
        "hash": "8fabc732843eb3c9aa8a892dde4b3480",
        "source": "migrated"
      }
    },
    {
      "id": "neon_017",
      "category": "neon",
      "title": "Neon Wallpaper 017",
      "tags": [
        "neon",
        "wallpaper",
        "hd",
        "mobile"
      ],
      "urls": {
        "raw": "https://media.githubusercontent.com/media/ddh4r4m/wallpaper-collection/main/collection/wallpapers/neon/017.jpg",
        "thumb": "https://media.githubusercontent.com/media/ddh4r4m/wallpaper-collection/main/collection/thumbnails/neon/017.jpg"
      },
      "metadata": {
        "dimensions": {
          "width": 1080,
          "height": 1920
        },
        "file_size": 249441,
        "format": "JPEG",
        "added_at": "2025-07-17T00:04:32.302874",
        "hash": "df7ef81667ce6aa180ff934c954734ed",
        "source": "migrated"
      }
    },
    {
      "id": "neon_018",
      "category": "neon",
      "title": "Neon Wallpaper 018",
      "tags": [
        "neon",
        "wallpaper",
        "hd",
        "mobile"
      ],
      "urls": {
        "raw": "https://media.githubusercontent.com/media/ddh4r4m/wallpaper-collection/main/collection/wallpapers/neon/018.jpg",
        "thumb": "https://media.githubusercontent.com/media/ddh4r4m/wallpaper-collection/main/collection/thumbnails/neon/018.jpg"
      },
      "metadata": {
        "dimensions": {
          "width": 1080,
          "height": 1920
        },
        "file_size": 144143,
        "format": "JPEG",
        "added_at": "2025-07-17T00:04:32.352290",
        "hash": "870cdc9e42d5634eaba12b90845c043b",
        "source": "migrated"
      }
    },
    {
      "id": "neon_019",
      "category": "neon",
      "title": "Neon Wallpaper 019",
      "tags": [
        "neon",
        "wallpaper",
        "hd",
        "mobile"
      ],
      "urls": {
        "raw": "https://media.githubusercontent.com/media/ddh4r4m/wallpaper-collection/main/collection/wallpapers/neon/019.jpg",
        "thumb": "https://media.githubusercontent.com/media/ddh4r4m/wallpaper-collection/main/collection/thumbnails/neon/019.jpg"
      },
      "metadata": {
        "dimensions": {
          "width": 1080,
          "height": 1920
        },
        "file_size": 157921,
        "format": "JPEG",
        "added_at": "2025-07-17T00:04:32.401730",
        "hash": "ba22dfa4b9d251e6cd113a87d9bd0ce5",
        "source": "migrated"
      }
    },
    {
      "id": "neon_020",
      "category": "neon",
      "title": "Neon Wallpaper 020",
      "tags": [
        "neon",
        "wallpaper",
        "hd",
        "mobile"
      ],
      "urls": {
        "raw": "https://media.githubusercontent.com/media/ddh4r4m/wallpaper-collection/main/collection/wallpapers/neon/020.jpg",
        "thumb": "https://media.githubusercontent.com/media/ddh4r4m/wallpaper-collection/main/collection/thumbnails/neon/020.jpg"
      },
      "metadata": {
        "dimensions": {
          "width": 1080,
          "height": 1920
        },
        "file_size": 259768,
        "format": "JPEG",
        "added_at": "2025-07-17T00:04:32.458080",
        "hash": "9cdd1c3399fe970fa6122434cb545bf6",
        "source": "migrated"
      }
    },
    {
      "id": "neon_021",
      "category": "neon",
      "title": "Neon Wallpaper 021",
      "tags": [
        "neon",
        "wallpaper",
        "hd",
        "mobile"
      ],
      "urls": {
        "raw": "https://media.githubusercontent.com/media/ddh4r4m/wallpaper-collection/main/collection/wallpapers/neon/021.jpg",
        "thumb": "https://media.githubusercontent.com/media/ddh4r4m/wallpaper-collection/main/collection/thumbnails/neon/021.jpg"
      },
      "metadata": {
        "dimensions": {
          "width": 1080,
          "height": 1920
        },
        "file_size": 533964,
        "format": "JPEG",
        "added_at": "2025-07-17T00:04:32.528023",
        "hash": "0e122a6e88aa0507533637bae30f7f14",
        "source": "migrated"
      }
    },
    {
      "id": "neon_022",
      "category": "neon",
      "title": "Neon Wallpaper 022",
      "tags": [
        "neon",
        "wallpaper",
        "hd",
        "mobile"
      ],
      "urls": {
        "raw": "https://media.githubusercontent.com/media/ddh4r4m/wallpaper-collection/main/collection/wallpapers/neon/022.jpg",
        "thumb": "https://media.githubusercontent.com/media/ddh4r4m/wallpaper-collection/main/collection/thumbnails/neon/022.jpg"
      },
      "metadata": {
        "dimensions": {
          "width": 1080,
          "height": 1920
        },
        "file_size": 427255,
        "format": "JPEG",
        "added_at": "2025-07-17T00:04:32.591534",
        "hash": "2eac1e22a18c706a883a0be487464ba4",
        "source": "migrated"
      }
    },
    {
      "id": "neon_023",
      "category": "neon",
      "title": "Neon Wallpaper 023",
      "tags": [
        "neon",
        "wallpaper",
        "hd",
        "mobile"
      ],
      "urls": {
        "raw": "https://media.githubusercontent.com/media/ddh4r4m/wallpaper-collection/main/collection/wallpapers/neon/023.jpg",
        "thumb": "https://media.githubusercontent.com/media/ddh4r4m/wallpaper-collection/main/collection/thumbnails/neon/023.jpg"
      },
      "metadata": {
        "dimensions": {
          "width": 1080,
          "height": 1920
        },
        "file_size": 435360,
        "format": "JPEG",
        "added_at": "2025-07-17T00:04:32.658683",
        "hash": "e73dfa1bcde5af136a6e1478b38e01e7",
        "source": "migrated"
      }
    },
    {
      "id": "neon_024",
      "category": "neon",
      "title": "Neon Wallpaper 024",
      "tags": [
        "neon",
        "wallpaper",
        "hd",
        "mobile"
      ],
      "urls": {
        "raw": "https://media.githubusercontent.com/media/ddh4r4m/wallpaper-collection/main/collection/wallpapers/neon/024.jpg",
        "thumb": "https://media.githubusercontent.com/media/ddh4r4m/wallpaper-collection/main/collection/thumbnails/neon/024.jpg"
      },
      "metadata": {
        "dimensions": {
          "width": 1080,
          "height": 1920
        },
        "file_size": 161803,
        "format": "JPEG",
        "added_at": "2025-07-17T00:04:32.708367",
        "hash": "bb84aea24b21167b161350aafa77792a",
        "source": "migrated"
      }
    },
    {
      "id": "neon_025",
      "category": "neon",
      "title": "Neon Wallpaper 025",
      "tags": [
        "neon",
        "wallpaper",
        "hd",
        "mobile"
      ],
      "urls": {
        "raw": "https://media.githubusercontent.com/media/ddh4r4m/wallpaper-collection/main/collection/wallpapers/neon/025.jpg",
        "thumb": "https://media.githubusercontent.com/media/ddh4r4m/wallpaper-collection/main/collection/thumbnails/neon/025.jpg"
      },
      "metadata": {
        "dimensions": {
          "width": 1080,
          "height": 1920
        },
        "file_size": 292890,
        "format": "JPEG",
        "added_at": "2025-07-17T00:04:32.766114",
        "hash": "0f5ce9fa87655bd252e73286352d5dec",
        "source": "migrated"
      }
    },
    {
      "id": "neon_026",
      "category": "neon",
      "title": "Neon Wallpaper 026",
      "tags": [
        "neon",
        "wallpaper",
        "hd",
        "mobile"
      ],
      "urls": {
        "raw": "https://media.githubusercontent.com/media/ddh4r4m/wallpaper-collection/main/collection/wallpapers/neon/026.jpg",
        "thumb": "https://media.githubusercontent.com/media/ddh4r4m/wallpaper-collection/main/collection/thumbnails/neon/026.jpg"
      },
      "metadata": {
        "dimensions": {
          "width": 1080,
          "height": 1920
        },
        "file_size": 157904,
        "format": "JPEG",
        "added_at": "2025-07-17T00:04:32.816644",
        "hash": "83c38bdbb120409a6b5266b6e77c66d0",
        "source": "migrated"
      }
    },
    {
      "id": "neon_027",
      "category": "neon",
      "title": "Neon Wallpaper 027",
      "tags": [
        "neon",
        "wallpaper",
        "hd",
        "mobile"
      ],
      "urls": {
        "raw": "https://media.githubusercontent.com/media/ddh4r4m/wallpaper-collection/main/collection/wallpapers/neon/027.jpg",
        "thumb": "https://media.githubusercontent.com/media/ddh4r4m/wallpaper-collection/main/collection/thumbnails/neon/027.jpg"
      },
      "metadata": {
        "dimensions": {
          "width": 1080,
          "height": 1920
        },
        "file_size": 205723,
        "format": "JPEG",
        "added_at": "2025-07-17T00:04:32.868896",
        "hash": "bb1e4e9962c4f90c693fe29d5722957e",
        "source": "migrated"
      }
    },
    {
      "id": "neon_028",
      "category": "neon",
      "title": "Neon Wallpaper 028",
      "tags": [
        "neon",
        "wallpaper",
        "hd",
        "mobile"
      ],
      "urls": {
        "raw": "https://media.githubusercontent.com/media/ddh4r4m/wallpaper-collection/main/collection/wallpapers/neon/028.jpg",
        "thumb": "https://media.githubusercontent.com/media/ddh4r4m/wallpaper-collection/main/collection/thumbnails/neon/028.jpg"
      },
      "metadata": {
        "dimensions": {
          "width": 1080,
          "height": 1920
        },
        "file_size": 320548,
        "format": "JPEG",
        "added_at": "2025-07-17T00:04:32.928489",
        "hash": "a4a8354ed6d8a6d19fc4e9717777cbc5",
        "source": "migrated"
      }
    },
    {
      "id": "neon_029",
      "category": "neon",
      "title": "Neon Wallpaper 029",
      "tags": [
        "neon",
        "wallpaper",
        "hd",
        "mobile"
      ],
      "urls": {
        "raw": "https://media.githubusercontent.com/media/ddh4r4m/wallpaper-collection/main/collection/wallpapers/neon/029.jpg",
        "thumb": "https://media.githubusercontent.com/media/ddh4r4m/wallpaper-collection/main/collection/thumbnails/neon/029.jpg"
      },
      "metadata": {
        "dimensions": {
          "width": 1080,
          "height": 1920
        },
        "file_size": 270171,
        "format": "JPEG",
        "added_at": "2025-07-17T00:04:32.988976",
        "hash": "49cff5f44ed96a99f9b8484147ff7a47",
        "source": "migrated"
      }
    },
    {
      "id": "neon_030",
      "category": "neon",
      "title": "Neon Wallpaper 030",
      "tags": [
        "neon",
        "wallpaper",
        "hd",
        "mobile"
      ],
      "urls": {
        "raw": "https://media.githubusercontent.com/media/ddh4r4m/wallpaper-collection/main/collection/wallpapers/neon/030.jpg",
        "thumb": "https://media.githubusercontent.com/media/ddh4r4m/wallpaper-collection/main/collection/thumbnails/neon/030.jpg"
      },
      "metadata": {
        "dimensions": {
          "width": 1080,
          "height": 1920
        },
        "file_size": 207594,
        "format": "JPEG",
        "added_at": "2025-07-17T00:04:33.040143",
        "hash": "3a15a80cd5141c3c7e5531ad1ad19987",
        "source": "migrated"
      }
    }
  ]
}