{
  "meta": {
    "version": "1.0",
    "generated_at": "2025-07-28T22:38:03.579947",
    "category": "neon",
    "page": 3,
    "per_page": 15,
    "total_pages": 6,
    "total_count": 88,
    "count_on_page": 15,
    "has_next": true,
    "has_prev": true,
    "next_page_url": "/api/v1/neon/pages/4.json",
    "prev_page_url": "/api/v1/neon/pages/2.json"
  },
  "data": [
    {
      "id": "neon_031",
      "category": "neon",
      "title": "Neon Wallpaper 031",
      "tags": [
        "neon",
        "wallpaper",
        "hd",
        "mobile"
      ],
      "urls": {
        "raw": "https://media.githubusercontent.com/media/ddh4r4m/wallpaper-collection/main/collection/wallpapers/neon/031.jpg",
        "thumb": "https://media.githubusercontent.com/media/ddh4r4m/wallpaper-collection/main/collection/thumbnails/neon/031.jpg"
      },
      "metadata": {
        "dimensions": {
          "width": 1080,
          "height": 1920
        },
        "file_size": 280985,
        "format": "JPEG",
        "added_at": "2025-07-17T00:04:33.097418",
        "hash": "c3fca34b99233bac20070cdeca831435",
        "source": "migrated"
      }
    },
    {
      "id": "neon_032",
      "category": "neon",
      "title": "Neon Wallpaper 032",
      "tags": [
        "neon",
        "wallpaper",
        "hd",
        "mobile"
      ],
      "urls": {
        "raw": "https://media.githubusercontent.com/media/ddh4r4m/wallpaper-collection/main/collection/wallpapers/neon/032.jpg",
        "thumb": "https://media.githubusercontent.com/media/ddh4r4m/wallpaper-collection/main/collection/thumbnails/neon/032.jpg"
      },
      "metadata": {
        "dimensions": {
          "width": 1080,
          "height": 1920
        },
        "file_size": 209002,
        "format": "JPEG",
        "added_at": "2025-07-17T00:04:33.148910",
        "hash": "04f733b3d61c33b2b2cba0640824b7b3",
        "source": "migrated"
      }
    },
    {
      "id": "neon_033",
      "category": "neon",
      "title": "Neon Wallpaper 033",
      "tags": [
        "neon",
        "wallpaper",
        "hd",
        "mobile"
      ],
      "urls": {
        "raw": "https://media.githubusercontent.com/media/ddh4r4m/wallpaper-collection/main/collection/wallpapers/neon/033.jpg",
        "thumb": "https://media.githubusercontent.com/media/ddh4r4m/wallpaper-collection/main/collection/thumbnails/neon/033.jpg"
      },
      "metadata": {
        "dimensions": {
          "width": 1080,
          "height": 1920
        },
        "file_size": 187799,
        "format": "JPEG",
        "added_at": "2025-07-17T00:04:33.200494",
        "hash": "b69750bb85e9e1500d7b7243518c9e80",
        "source": "migrated"
      }
    },
    {
      "id": "neon_034",
      "category": "neon",
      "title": "Neon Wallpaper 034",
      "tags": [
        "neon",
        "wallpaper",
        "hd",
        "mobile"
      ],
      "urls": {
        "raw": "https://media.githubusercontent.com/media/ddh4r4m/wallpaper-collection/main/collection/wallpapers/neon/034.jpg",
        "thumb": "https://media.githubusercontent.com/media/ddh4r4m/wallpaper-collection/main/collection/thumbnails/neon/034.jpg"
      },
      "metadata": {
        "dimensions": {
          "width": 1080,
          "height": 1920
        },
        "file_size": 172206,
        "format": "JPEG",
        "added_at": "2025-07-17T00:04:33.251016",
        "hash": "438baddb5242a3e8c730f32d9bdf6b30",
        "source": "migrated"
      }
    },
    {
      "id": "neon_035",
      "category": "neon",
      "title": "Neon Wallpaper 035",
      "tags": [
        "neon",
        "wallpaper",
        "hd",
        "mobile"
      ],
      "urls": {
        "raw": "https://media.githubusercontent.com/media/ddh4r4m/wallpaper-collection/main/collection/wallpapers/neon/035.jpg",
        "thumb": "https://media.githubusercontent.com/media/ddh4r4m/wallpaper-collection/main/collection/thumbnails/neon/035.jpg"
      },
      "metadata": {
        "dimensions": {
          "width": 1080,
          "height": 1920
        },
        "file_size": 240899,
        "format": "JPEG",
        "added_at": "2025-07-17T00:04:33.304069",
        "hash": "0847882a1b65e660ceb3e2e656f501cf",
        "source": "migrated"
      }
    },
    {
      "id": "neon_036",
      "category": "neon",
      "title": "Neon Wallpaper 036",
      "tags": [
        "neon",
        "wallpaper",
        "hd",
        "mobile"
      ],
      "urls": {
        "raw": "https://media.githubusercontent.com/media/ddh4r4m/wallpaper-collection/main/collection/wallpapers/neon/036.jpg",
        "thumb": "https://media.githubusercontent.com/media/ddh4r4m/wallpaper-collection/main/collection/thumbnails/neon/036.jpg"
      },
      "metadata": {
        "dimensions": {
          "width": 1080,
          "height": 1920
        },
        "file_size": 417824,
        "format": "JPEG",
        "added_at": "2025-07-17T00:04:33.369982",
        "hash": "e92153040569f585283f6169d6aa111e",
        "source": "migrated"
      }
    },
    {
      "id": "neon_037",
      "category": "neon",
      "title": "Neon Wallpaper 037",
      "tags": [
        "neon",
        "wallpaper",
        "hd",
        "mobile"
      ],
      "urls": {
        "raw": "https://media.githubusercontent.com/media/ddh4r4m/wallpaper-collection/main/collection/wallpapers/neon/037.jpg",
        "thumb": "https://media.githubusercontent.com/media/ddh4r4m/wallpaper-collection/main/collection/thumbnails/neon/037.jpg"
      },
      "metadata": {
        "dimensions": {
          "width": 1080,
          "height": 1920
        },
        "file_size": 366774,
        "format": "JPEG",
        "added_at": "2025-07-17T00:04:33.431347",
        "hash": "553a093c256ea0bb513348183de73f8a",
        "source": "migrated"
      }
    },
    {
      "id": "neon_038",
      "category": "neon",
      "title": "Neon Wallpaper 038",
      "tags": [
        "neon",
        "wallpaper",
        "hd",
        "mobile"
      ],
      "urls": {
        "raw": "https://media.githubusercontent.com/media/ddh4r4m/wallpaper-collection/main/collection/wallpapers/neon/038.jpg",
        "thumb": "https://media.githubusercontent.com/media/ddh4r4m/wallpaper-collection/main/collection/thumbnails/neon/038.jpg"
      },
      "metadata": {
        "dimensions": {
          "width": 1080,
          "height": 1920
        },
        "file_size": 263287,
        "format": "JPEG",
        "added_at": "2025-07-17T00:04:33.488524",
        "hash": "7ce0d035e27488e17115122575def80a",
        "source": "migrated"
      }
    },
    {
      "id": "neon_039",
      "category": "neon",
      "title": "Neon Wallpaper 039",
      "tags": [
        "neon",
        "wallpaper",
        "hd",
        "mobile"
      ],
      "urls": {
        "raw": "https://media.githubusercontent.com/media/ddh4r4m/wallpaper-collection/main/collection/wallpapers/neon/039.jpg",
        "thumb": "https://media.githubusercontent.com/media/ddh4r4m/wallpaper-collection/main/collection/thumbnails/neon/039.jpg"
      },
      "metadata": {
        "dimensions": {
          "width": 1080,
          "height": 1920
        },
        "file_size": 508048,
        "format": "JPEG",
        "added_at": "2025-07-17T00:04:33.556832",
        "hash": "eb239d975380e3355c6d275a6ad6c3b0",
        "source": "migrated"
      }
    },
    {
      "id": "neon_040",
      "category": "neon",
      "title": "Neon Wallpaper 040",
      "tags": [
        "neon",
        "wallpaper",
        "hd",
        "mobile"
      ],
      "urls": {
        "raw": "https://media.githubusercontent.com/media/ddh4r4m/wallpaper-collection/main/collection/wallpapers/neon/040.jpg",
        "thumb": "https://media.githubusercontent.com/media/ddh4r4m/wallpaper-collection/main/collection/thumbnails/neon/040.jpg"
      },
      "metadata": {
        "dimensions": {
          "width": 1080,
          "height": 1920
        },
        "file_size": 367496,
        "format": "JPEG",
        "added_at": "2025-07-17T00:04:33.619581",
        "hash": "995f39218462df455328defb1fa66ebd",
        "source": "migrated"
      }
    },
    {
      "id": "neon_041",
      "category": "neon",
      "title": "Neon Wallpaper 041",
      "tags": [
        "neon",
        "wallpaper",
        "hd",
        "mobile"
      ],
      "urls": {
        "raw": "https://media.githubusercontent.com/media/ddh4r4m/wallpaper-collection/main/collection/wallpapers/neon/041.jpg",
        "thumb": "https://media.githubusercontent.com/media/ddh4r4m/wallpaper-collection/main/collection/thumbnails/neon/041.jpg"
      },
      "metadata": {
        "dimensions": {
          "width": 1080,
          "height": 1920
        },
        "file_size": 415896,
        "format": "JPEG",
        "added_at": "2025-07-17T00:04:33.685183",
        "hash": "716777516d711f4b8241b2c50979f39d",
        "source": "migrated"
      }
    },
    {
      "id": "neon_042",
      "category": "neon",
      "title": "Neon Wallpaper 042",
      "tags": [
        "neon",
        "wallpaper",
        "hd",
        "mobile"
      ],
      "urls": {
        "raw": "https://media.githubusercontent.com/media/ddh4r4m/wallpaper-collection/main/collection/wallpapers/neon/042.jpg",
        "thumb": "https://media.githubusercontent.com/media/ddh4r4m/wallpaper-collection/main/collection/thumbnails/neon/042.jpg"
      },
      "metadata": {
        "dimensions": {
          "width": 1080,
          "height": 1920
        },
        "file_size": 239663,
        "format": "JPEG",
        "added_at": "2025-07-17T00:04:33.741301",
        "hash": "75cce6ceee4e3060f3acf5ba4ffca101",
        "source": "migrated"
      }
    },
    {
      "id": "neon_043",
      "category": "neon",
      "title": "Neon Wallpaper 043",
      "tags": [
        "neon",
        "wallpaper",
        "hd",
        "mobile"
      ],
      "urls": {
        "raw": "https://media.githubusercontent.com/media/ddh4r4m/wallpaper-collection/main/collection/wallpapers/neon/043.jpg",
        "thumb": "https://media.githubusercontent.com/media/ddh4r4m/wallpaper-collection/main/collection/thumbnails/neon/043.jpg"
      },
      "metadata": {
        "dimensions": {
          "width": 1080,
          "height": 1920
        },
        "file_size": 122301,
        "format": "JPEG",
        "added_at": "2025-07-17T00:04:33.787448",
        "hash": "92be0d6a9e2665ef867c36573102e087",
        "source": "migrated"
      }
    },
    {
      "id": "neon_044",
      "category": "neon",
      "title": "Neon Wallpaper 044",
      "tags": [
        "neon",
        "wallpaper",
        "hd",
        "mobile"
      ],
      "urls": {
        "raw": "https://media.githubusercontent.com/media/ddh4r4m/wallpaper-collection/main/collection/wallpapers/neon/044.jpg",
        "thumb": "https://media.githubusercontent.com/media/ddh4r4m/wallpaper-collection/main/collection/thumbnails/neon/044.jpg"
      },
      "metadata": {
        "dimensions": {
          "width": 1080,
          "height": 1920
        },
        "file_size": 260835,
        "format": "JPEG",
        "added_at": "2025-07-17T00:04:33.843104",
        "hash": "ad8e88dea4b78aa49347217f95c367c6",
        "source": "migrated"
      }
    },
    {
      "id": "neon_045",
      "category": "neon",
      "title": "Neon Wallpaper 045",
      "tags": [
        "neon",
        "wallpaper",
        "hd",
        "mobile"
      ],
      "urls": {
        "raw": "https://media.githubusercontent.com/media/ddh4r4m/wallpaper-collection/main/collection/wallpapers/neon/045.jpg",
        "thumb": "https://media.githubusercontent.com/media/ddh4r4m/wallpaper-collection/main/collection/thumbnails/neon/045.jpg"
      },
      "metadata": {
        "dimensions": {
          "width": 1080,
          "height": 1920
        },
        "file_size": 161052,
        "format": "JPEG",
        "added_at": "2025-07-17T00:04:33.893294",
        "hash": "b637c12ad86ebd9cd518009654e192de",
        "source": "migrated"
      }
    }
  ]
}