{
  "meta": {
    "version": "1.0",
    "generated_at": "2025-07-28T23:12:02.393375",
    "category": "technology",
    "page": 1,
    "per_page": 15,
    "total_pages": 6,
    "total_count": 83,
    "count_on_page": 15,
    "has_next": true,
    "has_prev": false,
    "next_page_url": "/api/v1/technology/pages/2.json",
    "prev_page_url": null
  },
  "data": [
    {
      "id": "technology_001",
      "category": "technology",
      "title": "Technology Wallpaper 001",
      "tags": [
        "technology",
        "wallpaper",
        "hd",
        "mobile"
      ],
      "urls": {
        "raw": "https://media.githubusercontent.com/media/ddh4r4m/wallpaper-collection/main/collection/wallpapers/technology/001.jpg",
        "thumb": "https://media.githubusercontent.com/media/ddh4r4m/wallpaper-collection/main/collection/thumbnails/technology/001.jpg"
      },
      "metadata": {
        "dimensions": {
          "width": 1080,
          "height": 1920
        },
        "file_size": 337241,
        "format": "JPEG",
        "added_at": "2025-07-17T00:04:49.295132",
        "hash": "6eeb8e1a32bfdb038ae1a5c84470d42e",
        "source": "migrated"
      }
    },
    {
      "id": "technology_002",
      "category": "technology",
      "title": "Technology Wallpaper 002",
      "tags": [
        "technology",
        "wallpaper",
        "hd",
        "mobile"
      ],
      "urls": {
        "raw": "https://media.githubusercontent.com/media/ddh4r4m/wallpaper-collection/main/collection/wallpapers/technology/002.jpg",
        "thumb": "https://media.githubusercontent.com/media/ddh4r4m/wallpaper-collection/main/collection/thumbnails/technology/002.jpg"
      },
      "metadata": {
        "dimensions": {
          "width": 1080,
          "height": 1920
        },
        "file_size": 326064,
        "format": "JPEG",
        "added_at": "2025-07-17T00:04:49.351692",
        "hash": "d8443cb4ae87a96d942eb3e1ece7498e",
        "source": "migrated"
      }
    },
    {
      "id": "technology_003",
      "category": "technology",
      "title": "Technology Wallpaper 003",
      "tags": [
        "technology",
        "wallpaper",
        "hd",
        "mobile"
      ],
      "urls": {
        "raw": "https://media.githubusercontent.com/media/ddh4r4m/wallpaper-collection/main/collection/wallpapers/technology/003.jpg",
        "thumb": "https://media.githubusercontent.com/media/ddh4r4m/wallpaper-collection/main/collection/thumbnails/technology/003.jpg"
      },
      "metadata": {
        "dimensions": {
          "width": 1080,
          "height": 1920
        },
        "file_size": 337241,
        "format": "JPEG",
        "added_at": "2025-07-17T00:04:49.409880",
        "hash": "6eeb8e1a32bfdb038ae1a5c84470d42e",
        "source": "migrated"
      }
    },
    {
      "id": "technology_004",
      "category": "technology",
      "title": "Technology Wallpaper 004",
      "tags": [
        "technology",
        "wallpaper",
        "hd",
        "mobile"
      ],
      "urls": {
        "raw": "https://media.githubusercontent.com/media/ddh4r4m/wallpaper-collection/main/collection/wallpapers/technology/004.jpg",
        "thumb": "https://media.githubusercontent.com/media/ddh4r4m/wallpaper-collection/main/collection/thumbnails/technology/004.jpg"
      },
      "metadata": {
        "dimensions": {
          "width": 1080,
          "height": 1920
        },
        "file_size": 393048,
        "format": "JPEG",
        "added_at": "2025-07-17T00:04:49.474426",
        "hash": "cb518cb0b329f889e15eb6d8b13fa79f",
        "source": "migrated"
      }
    },
    {
      "id": "technology_005",
      "category": "technology",
      "title": "Technology Wallpaper 005",
      "tags": [
        "technology",
        "wallpaper",
        "hd",
        "mobile"
      ],
      "urls": {
        "raw": "https://media.githubusercontent.com/media/ddh4r4m/wallpaper-collection/main/collection/wallpapers/technology/005.jpg",
        "thumb": "https://media.githubusercontent.com/media/ddh4r4m/wallpaper-collection/main/collection/thumbnails/technology/005.jpg"
      },
      "metadata": {
        "dimensions": {
          "width": 1080,
          "height": 1920
        },
        "file_size": 357226,
        "format": "JPEG",
        "added_at": "2025-07-17T00:04:49.535827",
        "hash": "3fbfb757d890f7d16110638a5d3268d3",
        "source": "migrated"
      }
    },
    {
      "id": "technology_006",
      "category": "technology",
      "title": "Technology Wallpaper 006",
      "tags": [
        "technology",
        "wallpaper",
        "hd",
        "mobile"
      ],
      "urls": {
        "raw": "https://media.githubusercontent.com/media/ddh4r4m/wallpaper-collection/main/collection/wallpapers/technology/006.jpg",
        "thumb": "https://media.githubusercontent.com/media/ddh4r4m/wallpaper-collection/main/collection/thumbnails/technology/006.jpg"
      },
      "metadata": {
        "dimensions": {
          "width": 1080,
          "height": 1920
        },
        "file_size": 389362,
        "format": "JPEG",
        "added_at": "2025-07-17T00:04:49.597760",
        "hash": "0e0f2f8bb76c036794b549c44821f62d",
        "source": "migrated"
      }
    },
    {
      "id": "technology_007",
      "category": "technology",
      "title": "Technology Wallpaper 007",
      "tags": [
        "technology",
        "wallpaper",
        "hd",
        "mobile"
      ],
      "urls": {
        "raw": "https://media.githubusercontent.com/media/ddh4r4m/wallpaper-collection/main/collection/wallpapers/technology/007.jpg",
        "thumb": "https://media.githubusercontent.com/media/ddh4r4m/wallpaper-collection/main/collection/thumbnails/technology/007.jpg"
      },
      "metadata": {
        "dimensions": {
          "width": 1080,
          "height": 1920
        },
        "file_size": 399474,
        "format": "JPEG",
        "added_at": "2025-07-17T00:04:49.659551",
        "hash": "5c57ab29f7a65be36af09c44189a4d4b",
        "source": "migrated"
      }
    },
    {
      "id": "technology_008",
      "category": "technology",
      "title": "Technology Wallpaper 008",
      "tags": [
        "technology",
        "wallpaper",
        "hd",
        "mobile"
      ],
      "urls": {
        "raw": "https://media.githubusercontent.com/media/ddh4r4m/wallpaper-collection/main/collection/wallpapers/technology/008.jpg",
        "thumb": "https://media.githubusercontent.com/media/ddh4r4m/wallpaper-collection/main/collection/thumbnails/technology/008.jpg"
      },
      "metadata": {
        "dimensions": {
          "width": 1080,
          "height": 1920
        },
        "file_size": 399474,
        "format": "JPEG",
        "added_at": "2025-07-17T00:04:49.720324",
        "hash": "5c57ab29f7a65be36af09c44189a4d4b",
        "source": "migrated"
      }
    },
    {
      "id": "technology_009",
      "category": "technology",
      "title": "Technology Wallpaper 009",
      "tags": [
        "technology",
        "wallpaper",
        "hd",
        "mobile"
      ],
      "urls": {
        "raw": "https://media.githubusercontent.com/media/ddh4r4m/wallpaper-collection/main/collection/wallpapers/technology/009.jpg",
        "thumb": "https://media.githubusercontent.com/media/ddh4r4m/wallpaper-collection/main/collection/thumbnails/technology/009.jpg"
      },
      "metadata": {
        "dimensions": {
          "width": 1080,
          "height": 1920
        },
        "file_size": 444282,
        "format": "JPEG",
        "added_at": "2025-07-17T00:04:49.787716",
        "hash": "c289c9c8fc8741d491a11b10fd94605a",
        "source": "migrated"
      }
    },
    {
      "id": "technology_010",
      "category": "technology",
      "title": "Technology Wallpaper 010",
      "tags": [
        "technology",
        "wallpaper",
        "hd",
        "mobile"
      ],
      "urls": {
        "raw": "https://media.githubusercontent.com/media/ddh4r4m/wallpaper-collection/main/collection/wallpapers/technology/010.jpg",
        "thumb": "https://media.githubusercontent.com/media/ddh4r4m/wallpaper-collection/main/collection/thumbnails/technology/010.jpg"
      },
      "metadata": {
        "dimensions": {
          "width": 1080,
          "height": 1920
        },
        "file_size": 375456,
        "format": "JPEG",
        "added_at": "2025-07-17T00:04:49.847604",
        "hash": "f6aa42330a23e1978f0a032e4f76abfa",
        "source": "migrated"
      }
    },
    {
      "id": "technology_011",
      "category": "technology",
      "title": "Technology Wallpaper",
      "tags": [
        "technology",
        "unsplash",
        "hd",
        "mobile"
      ],
      "metadata": {
        "dimensions": {
          "width": 1080,
          "height": 720
        },
        "file_size": 135581,
        "format": "JPEG",
        "added_at": "2025-07-17T21:55:50.813137",
        "hash": "5c1b6341ad7b17b20e376ecdf128472b",
        "photographer": "Unknown"
      },
      "urls": {
        "raw": "https://media.githubusercontent.com/media/ddh4r4m/wallpaper-collection/main/collection/wallpapers/technology/011.jpg",
        "thumb": "https://media.githubusercontent.com/media/ddh4r4m/wallpaper-collection/main/collection/thumbnails/technology/011.jpg"
      }
    },
    {
      "id": "technology_012",
      "category": "technology",
      "title": "Technology Wallpaper",
      "tags": [
        "technology",
        "unsplash",
        "hd",
        "mobile"
      ],
      "metadata": {
        "dimensions": {
          "width": 1080,
          "height": 1350
        },
        "file_size": 143794,
        "format": "JPEG",
        "added_at": "2025-07-17T21:55:55.457108",
        "hash": "d21d9ce47e1e4702bb403aa0093e8427",
        "photographer": "Unknown"
      },
      "urls": {
        "raw": "https://media.githubusercontent.com/media/ddh4r4m/wallpaper-collection/main/collection/wallpapers/technology/012.jpg",
        "thumb": "https://media.githubusercontent.com/media/ddh4r4m/wallpaper-collection/main/collection/thumbnails/technology/012.jpg"
      }
    },
    {
      "id": "technology_013",
      "category": "technology",
      "title": "Technology Wallpaper",
      "tags": [
        "technology",
        "unsplash",
        "hd",
        "mobile"
      ],
      "metadata": {
        "dimensions": {
          "width": 1080,
          "height": 720
        },
        "file_size": 58483,
        "format": "JPEG",
        "added_at": "2025-07-17T21:55:58.778563",
        "hash": "b1b2111e9c7f76e6e9c8fbe6138e8fda",
        "photographer": "Unknown"
      },
      "urls": {
        "raw": "https://media.githubusercontent.com/media/ddh4r4m/wallpaper-collection/main/collection/wallpapers/technology/013.jpg",
        "thumb": "https://media.githubusercontent.com/media/ddh4r4m/wallpaper-collection/main/collection/thumbnails/technology/013.jpg"
      }
    },
    {
      "id": "technology_014",
      "category": "technology",
      "title": "Technology Wallpaper",
      "tags": [
        "technology",
        "unsplash",
        "hd",
        "mobile"
      ],
      "metadata": {
        "dimensions": {
          "width": 1080,
          "height": 720
        },
        "file_size": 39206,
        "format": "JPEG",
        "added_at": "2025-07-17T21:56:04.228049",
        "hash": "4d8050634deae851a9491d46b4fbac01",
        "photographer": "Unknown"
      },
      "urls": {
        "raw": "https://media.githubusercontent.com/media/ddh4r4m/wallpaper-collection/main/collection/wallpapers/technology/014.jpg",
        "thumb": "https://media.githubusercontent.com/media/ddh4r4m/wallpaper-collection/main/collection/thumbnails/technology/014.jpg"
      }
    },
    {
      "id": "technology_015",
      "category": "technology",
      "title": "Technology Wallpaper",
      "tags": [
        "technology",
        "unsplash",
        "hd",
        "mobile"
      ],
      "metadata": {
        "dimensions": {
          "width": 1080,
          "height": 719
        },
        "file_size": 40720,
        "format": "JPEG",
        "added_at": "2025-07-17T21:56:08.154704",
        "hash": "8cbabf0a6f6620c84355fdca02c1e73d",
        "photographer": "Unknown"
      },
      "urls": {
        "raw": "https://media.githubusercontent.com/media/ddh4r4m/wallpaper-collection/main/collection/wallpapers/technology/015.jpg",
        "thumb": "https://media.githubusercontent.com/media/ddh4r4m/wallpaper-collection/main/collection/thumbnails/technology/015.jpg"
      }
    }
  ]
}