{
  "meta": {
    "version": "1.0",
    "generated_at": "2025-07-28T22:38:03.579947",
    "category": "technology",
    "page": 6,
    "per_page": 15,
    "total_pages": 6,
    "total_count": 83,
    "count_on_page": 8,
    "has_next": false,
    "has_prev": true,
    "next_page_url": null,
    "prev_page_url": "/api/v1/technology/pages/5.json"
  },
  "data": [
    {
      "id": "technology_076",
      "category": "technology",
      "title": "Technology Wallpaper",
      "tags": [
        "technology",
        "unsplash",
        "hd",
        "mobile"
      ],
      "metadata": {
        "dimensions": {
          "width": 1080,
          "height": 1350
        },
        "file_size": 143794,
        "format": "JPEG",
        "added_at": "2025-07-18T00:37:40.109324",
        "hash": "d21d9ce47e1e4702bb403aa0093e8427",
        "photographer": "Unknown"
      },
      "urls": {
        "raw": "https://media.githubusercontent.com/media/ddh4r4m/wallpaper-collection/main/collection/wallpapers/technology/076.jpg",
        "thumb": "https://media.githubusercontent.com/media/ddh4r4m/wallpaper-collection/main/collection/thumbnails/technology/076.jpg"
      }
    },
    {
      "id": "technology_077",
      "category": "technology",
      "title": "Technology Wallpaper",
      "tags": [
        "technology",
        "unsplash",
        "hd",
        "mobile"
      ],
      "metadata": {
        "dimensions": {
          "width": 1080,
          "height": 720
        },
        "file_size": 64557,
        "format": "JPEG",
        "added_at": "2025-07-18T00:37:42.476685",
        "hash": "960653863506b302c44421f59bae4d71",
        "photographer": "Unknown"
      },
      "urls": {
        "raw": "https://media.githubusercontent.com/media/ddh4r4m/wallpaper-collection/main/collection/wallpapers/technology/077.jpg",
        "thumb": "https://media.githubusercontent.com/media/ddh4r4m/wallpaper-collection/main/collection/thumbnails/technology/077.jpg"
      }
    },
    {
      "id": "technology_078",
      "category": "technology",
      "title": "Technology Wallpaper",
      "tags": [
        "technology",
        "unsplash",
        "hd",
        "mobile"
      ],
      "metadata": {
        "dimensions": {
          "width": 1080,
          "height": 720
        },
        "file_size": 58483,
        "format": "JPEG",
        "added_at": "2025-07-18T00:37:45.883510",
        "hash": "b1b2111e9c7f76e6e9c8fbe6138e8fda",
        "photographer": "Unknown"
      },
      "urls": {
        "raw": "https://media.githubusercontent.com/media/ddh4r4m/wallpaper-collection/main/collection/wallpapers/technology/078.jpg",
        "thumb": "https://media.githubusercontent.com/media/ddh4r4m/wallpaper-collection/main/collection/thumbnails/technology/078.jpg"
      }
    },
    {
      "id": "technology_079",
      "category": "technology",
      "title": "Technology Wallpaper",
      "tags": [
        "technology",
        "unsplash",
        "hd",
        "mobile"
      ],
      "metadata": {
        "dimensions": {
          "width": 1080,
          "height": 720
        },
        "file_size": 139953,
        "format": "JPEG",
        "added_at": "2025-07-18T00:37:49.198437",
        "hash": "95da5f760ce19d177e914fc40da3d750",
        "photographer": "Unknown"
      },
      "urls": {
        "raw": "https://media.githubusercontent.com/media/ddh4r4m/wallpaper-collection/main/collection/wallpapers/technology/079.jpg",
        "thumb": "https://media.githubusercontent.com/media/ddh4r4m/wallpaper-collection/main/collection/thumbnails/technology/079.jpg"
      }
    },
    {
      "id": "technology_080",
      "category": "technology",
      "title": "Technology Wallpaper",
      "tags": [
        "technology",
        "unsplash",
        "hd",
        "mobile"
      ],
      "metadata": {
        "dimensions": {
          "width": 1080,
          "height": 720
        },
        "file_size": 39206,
        "format": "JPEG",
        "added_at": "2025-07-18T00:37:53.662100",
        "hash": "4d8050634deae851a9491d46b4fbac01",
        "photographer": "Unknown"
      },
      "urls": {
        "raw": "https://media.githubusercontent.com/media/ddh4r4m/wallpaper-collection/main/collection/wallpapers/technology/080.jpg",
        "thumb": "https://media.githubusercontent.com/media/ddh4r4m/wallpaper-collection/main/collection/thumbnails/technology/080.jpg"
      }
    },
    {
      "id": "technology_081",
      "category": "technology",
      "title": "Technology Wallpaper",
      "tags": [
        "technology",
        "unsplash",
        "hd",
        "mobile"
      ],
      "metadata": {
        "dimensions": {
          "width": 1080,
          "height": 720
        },
        "file_size": 106334,
        "format": "JPEG",
        "added_at": "2025-07-18T00:37:55.907849",
        "hash": "0b6a7c1b4c838375d3bb302173b7d5b3",
        "photographer": "Unknown"
      },
      "urls": {
        "raw": "https://media.githubusercontent.com/media/ddh4r4m/wallpaper-collection/main/collection/wallpapers/technology/081.jpg",
        "thumb": "https://media.githubusercontent.com/media/ddh4r4m/wallpaper-collection/main/collection/thumbnails/technology/081.jpg"
      }
    },
    {
      "id": "technology_082",
      "category": "technology",
      "title": "Technology Wallpaper",
      "tags": [
        "technology",
        "unsplash",
        "hd",
        "mobile"
      ],
      "metadata": {
        "dimensions": {
          "width": 1080,
          "height": 719
        },
        "file_size": 40720,
        "format": "JPEG",
        "added_at": "2025-07-18T00:37:59.240088",
        "hash": "8cbabf0a6f6620c84355fdca02c1e73d",
        "photographer": "Unknown"
      },
      "urls": {
        "raw": "https://media.githubusercontent.com/media/ddh4r4m/wallpaper-collection/main/collection/wallpapers/technology/082.jpg",
        "thumb": "https://media.githubusercontent.com/media/ddh4r4m/wallpaper-collection/main/collection/thumbnails/technology/082.jpg"
      }
    },
    {
      "id": "technology_083",
      "category": "technology",
      "title": "Technology Wallpaper",
      "tags": [
        "technology",
        "unsplash",
        "hd",
        "mobile"
      ],
      "metadata": {
        "dimensions": {
          "width": 1080,
          "height": 675
        },
        "file_size": 91079,
        "format": "JPEG",
        "added_at": "2025-07-18T00:38:01.472401",
        "hash": "f99c631a479c706905b788ba7b83ecfd",
        "photographer": "Unknown"
      },
      "urls": {
        "raw": "https://media.githubusercontent.com/media/ddh4r4m/wallpaper-collection/main/collection/wallpapers/technology/083.jpg",
        "thumb": "https://media.githubusercontent.com/media/ddh4r4m/wallpaper-collection/main/collection/thumbnails/technology/083.jpg"
      }
    }
  ]
}