{
  "meta": {
    "version": "1.0",
    "generated_at": "2025-07-28T23:12:02.393375",
    "category": "dark",
    "page": 3,
    "per_page": 15,
    "total_pages": 6,
    "total_count": 90,
    "count_on_page": 15,
    "has_next": true,
    "has_prev": true,
    "next_page_url": "/api/v1/dark/pages/4.json",
    "prev_page_url": "/api/v1/dark/pages/2.json"
  },
  "data": [
    {
      "id": "dark_031",
      "category": "dark",
      "title": "Dark Wallpaper 031",
      "tags": [
        "dark",
        "wallpaper",
        "hd",
        "mobile"
      ],
      "urls": {
        "raw": "https://media.githubusercontent.com/media/ddh4r4m/wallpaper-collection/main/collection/wallpapers/dark/031.jpg",
        "thumb": "https://media.githubusercontent.com/media/ddh4r4m/wallpaper-collection/main/collection/thumbnails/dark/031.jpg"
      },
      "metadata": {
        "dimensions": {
          "width": 1080,
          "height": 1920
        },
        "file_size": 87601,
        "format": "JPEG",
        "added_at": "2025-07-17T00:03:28.711601",
        "hash": "e2e72a48faab07f5da89446b1b2a177c",
        "source": "migrated"
      }
    },
    {
      "id": "dark_032",
      "category": "dark",
      "title": "Dark Wallpaper 032",
      "tags": [
        "dark",
        "wallpaper",
        "hd",
        "mobile"
      ],
      "urls": {
        "raw": "https://media.githubusercontent.com/media/ddh4r4m/wallpaper-collection/main/collection/wallpapers/dark/032.jpg",
        "thumb": "https://media.githubusercontent.com/media/ddh4r4m/wallpaper-collection/main/collection/thumbnails/dark/032.jpg"
      },
      "metadata": {
        "dimensions": {
          "width": 1080,
          "height": 1920
        },
        "file_size": 253820,
        "format": "JPEG",
        "added_at": "2025-07-17T00:03:28.768538",
        "hash": "dc70f5e506399f07657b9ad39e978062",
        "source": "migrated"
      }
    },
    {
      "id": "dark_033",
      "category": "dark",
      "title": "Dark Wallpaper 033",
      "tags": [
        "dark",
        "wallpaper",
        "hd",
        "mobile"
      ],
      "urls": {
        "raw": "https://media.githubusercontent.com/media/ddh4r4m/wallpaper-collection/main/collection/wallpapers/dark/033.jpg",
        "thumb": "https://media.githubusercontent.com/media/ddh4r4m/wallpaper-collection/main/collection/thumbnails/dark/033.jpg"
      },
      "metadata": {
        "dimensions": {
          "width": 1080,
          "height": 1920
        },
        "file_size": 240096,
        "format": "JPEG",
        "added_at": "2025-07-17T00:03:28.959836",
        "hash": "cc5853a6bbb046906e6f183079ea09cd",
        "source": "migrated"
      }
    },
    {
      "id": "dark_034",
      "category": "dark",
      "title": "Dark Wallpaper 034",
      "tags": [
        "dark",
        "wallpaper",
        "hd",
        "mobile"
      ],
      "urls": {
        "raw": "https://media.githubusercontent.com/media/ddh4r4m/wallpaper-collection/main/collection/wallpapers/dark/034.jpg",
        "thumb": "https://media.githubusercontent.com/media/ddh4r4m/wallpaper-collection/main/collection/thumbnails/dark/034.jpg"
      },
      "metadata": {
        "dimensions": {
          "width": 1080,
          "height": 1920
        },
        "file_size": 178568,
        "format": "JPEG",
        "added_at": "2025-07-17T00:03:29.138157",
        "hash": "0cfac32cbaab91b71db3c762ce9468f7",
        "source": "migrated"
      }
    },
    {
      "id": "dark_035",
      "category": "dark",
      "title": "Dark Wallpaper 035",
      "tags": [
        "dark",
        "wallpaper",
        "hd",
        "mobile"
      ],
      "urls": {
        "raw": "https://media.githubusercontent.com/media/ddh4r4m/wallpaper-collection/main/collection/wallpapers/dark/035.jpg",
        "thumb": "https://media.githubusercontent.com/media/ddh4r4m/wallpaper-collection/main/collection/thumbnails/dark/035.jpg"
      },
      "metadata": {
        "dimensions": {
          "width": 1080,
          "height": 1920
        },
        "file_size": 190222,
        "format": "JPEG",
        "added_at": "2025-07-17T00:03:29.190652",
        "hash": "f162a29e3f4125228cac3fdd084cd462",
        "source": "migrated"
      }
    },
    {
      "id": "dark_036",
      "category": "dark",
      "title": "Dark Wallpaper 036",
      "tags": [
        "dark",
        "wallpaper",
        "hd",
        "mobile"
      ],
      "urls": {
        "raw": "https://media.githubusercontent.com/media/ddh4r4m/wallpaper-collection/main/collection/wallpapers/dark/036.jpg",
        "thumb": "https://media.githubusercontent.com/media/ddh4r4m/wallpaper-collection/main/collection/thumbnails/dark/036.jpg"
      },
      "metadata": {
        "dimensions": {
          "width": 1080,
          "height": 1920
        },
        "file_size": 415079,
        "format": "JPEG",
        "added_at": "2025-07-17T00:03:29.255383",
        "hash": "15b51d63263b6ccc9b6854231102b81b",
        "source": "migrated"
      }
    },
    {
      "id": "dark_037",
      "category": "dark",
      "title": "Dark Wallpaper 037",
      "tags": [
        "dark",
        "wallpaper",
        "hd",
        "mobile"
      ],
      "urls": {
        "raw": "https://media.githubusercontent.com/media/ddh4r4m/wallpaper-collection/main/collection/wallpapers/dark/037.jpg",
        "thumb": "https://media.githubusercontent.com/media/ddh4r4m/wallpaper-collection/main/collection/thumbnails/dark/037.jpg"
      },
      "metadata": {
        "dimensions": {
          "width": 1080,
          "height": 1920
        },
        "file_size": 162858,
        "format": "JPEG",
        "added_at": "2025-07-17T00:03:29.306134",
        "hash": "43232ddb5c4442ea520a017e23e251c9",
        "source": "migrated"
      }
    },
    {
      "id": "dark_038",
      "category": "dark",
      "title": "Dark Wallpaper 038",
      "tags": [
        "dark",
        "wallpaper",
        "hd",
        "mobile"
      ],
      "urls": {
        "raw": "https://media.githubusercontent.com/media/ddh4r4m/wallpaper-collection/main/collection/wallpapers/dark/038.jpg",
        "thumb": "https://media.githubusercontent.com/media/ddh4r4m/wallpaper-collection/main/collection/thumbnails/dark/038.jpg"
      },
      "metadata": {
        "dimensions": {
          "width": 1080,
          "height": 1920
        },
        "file_size": 300545,
        "format": "JPEG",
        "added_at": "2025-07-17T00:03:29.519871",
        "hash": "4cb6b591d04dcde31cc9725b802b18ad",
        "source": "migrated"
      }
    },
    {
      "id": "dark_039",
      "category": "dark",
      "title": "Dark Wallpaper 039",
      "tags": [
        "dark",
        "wallpaper",
        "hd",
        "mobile"
      ],
      "urls": {
        "raw": "https://media.githubusercontent.com/media/ddh4r4m/wallpaper-collection/main/collection/wallpapers/dark/039.jpg",
        "thumb": "https://media.githubusercontent.com/media/ddh4r4m/wallpaper-collection/main/collection/thumbnails/dark/039.jpg"
      },
      "metadata": {
        "dimensions": {
          "width": 1080,
          "height": 1920
        },
        "file_size": 134619,
        "format": "JPEG",
        "added_at": "2025-07-17T00:03:29.569937",
        "hash": "ff9f732272ac853b3f83934a399b35f6",
        "source": "migrated"
      }
    },
    {
      "id": "dark_040",
      "category": "dark",
      "title": "Dark Wallpaper 040",
      "tags": [
        "dark",
        "wallpaper",
        "hd",
        "mobile"
      ],
      "urls": {
        "raw": "https://media.githubusercontent.com/media/ddh4r4m/wallpaper-collection/main/collection/wallpapers/dark/040.jpg",
        "thumb": "https://media.githubusercontent.com/media/ddh4r4m/wallpaper-collection/main/collection/thumbnails/dark/040.jpg"
      },
      "metadata": {
        "dimensions": {
          "width": 1080,
          "height": 1920
        },
        "file_size": 99905,
        "format": "JPEG",
        "added_at": "2025-07-17T00:03:29.620730",
        "hash": "ca45a58a19cc278ca730918fe8faa97b",
        "source": "migrated"
      }
    },
    {
      "id": "dark_041",
      "category": "dark",
      "title": "Dark Wallpaper 041",
      "tags": [
        "dark",
        "wallpaper",
        "hd",
        "mobile"
      ],
      "urls": {
        "raw": "https://media.githubusercontent.com/media/ddh4r4m/wallpaper-collection/main/collection/wallpapers/dark/041.jpg",
        "thumb": "https://media.githubusercontent.com/media/ddh4r4m/wallpaper-collection/main/collection/thumbnails/dark/041.jpg"
      },
      "metadata": {
        "dimensions": {
          "width": 1080,
          "height": 1920
        },
        "file_size": 194178,
        "format": "JPEG",
        "added_at": "2025-07-17T00:03:30.309589",
        "hash": "639087942727a044df2c13fe559372c8",
        "source": "migrated"
      }
    },
    {
      "id": "dark_042",
      "category": "dark",
      "title": "Dark Wallpaper 042",
      "tags": [
        "dark",
        "wallpaper",
        "hd",
        "mobile"
      ],
      "urls": {
        "raw": "https://media.githubusercontent.com/media/ddh4r4m/wallpaper-collection/main/collection/wallpapers/dark/042.jpg",
        "thumb": "https://media.githubusercontent.com/media/ddh4r4m/wallpaper-collection/main/collection/thumbnails/dark/042.jpg"
      },
      "metadata": {
        "dimensions": {
          "width": 1080,
          "height": 1920
        },
        "file_size": 443383,
        "format": "JPEG",
        "added_at": "2025-07-17T00:03:30.562345",
        "hash": "0e790b1df0d7d0b9e61ef4a7d8bb3344",
        "source": "migrated"
      }
    },
    {
      "id": "dark_043",
      "category": "dark",
      "title": "Dark Wallpaper 043",
      "tags": [
        "dark",
        "wallpaper",
        "hd",
        "mobile"
      ],
      "urls": {
        "raw": "https://media.githubusercontent.com/media/ddh4r4m/wallpaper-collection/main/collection/wallpapers/dark/043.jpg",
        "thumb": "https://media.githubusercontent.com/media/ddh4r4m/wallpaper-collection/main/collection/thumbnails/dark/043.jpg"
      },
      "metadata": {
        "dimensions": {
          "width": 1080,
          "height": 1920
        },
        "file_size": 223702,
        "format": "JPEG",
        "added_at": "2025-07-17T00:03:30.617292",
        "hash": "35a3e38185bd7a49b5d10ff010adc902",
        "source": "migrated"
      }
    },
    {
      "id": "dark_044",
      "category": "dark",
      "title": "Dark Wallpaper 044",
      "tags": [
        "dark",
        "wallpaper",
        "hd",
        "mobile"
      ],
      "urls": {
        "raw": "https://media.githubusercontent.com/media/ddh4r4m/wallpaper-collection/main/collection/wallpapers/dark/044.jpg",
        "thumb": "https://media.githubusercontent.com/media/ddh4r4m/wallpaper-collection/main/collection/thumbnails/dark/044.jpg"
      },
      "metadata": {
        "dimensions": {
          "width": 1080,
          "height": 1920
        },
        "file_size": 297989,
        "format": "JPEG",
        "added_at": "2025-07-17T00:03:31.063286",
        "hash": "a1eb18689c063de990299ba4838a30e9",
        "source": "migrated"
      }
    },
    {
      "id": "dark_045",
      "category": "dark",
      "title": "Dark Wallpaper 045",
      "tags": [
        "dark",
        "wallpaper",
        "hd",
        "mobile"
      ],
      "urls": {
        "raw": "https://media.githubusercontent.com/media/ddh4r4m/wallpaper-collection/main/collection/wallpapers/dark/045.jpg",
        "thumb": "https://media.githubusercontent.com/media/ddh4r4m/wallpaper-collection/main/collection/thumbnails/dark/045.jpg"
      },
      "metadata": {
        "dimensions": {
          "width": 1080,
          "height": 1920
        },
        "file_size": 258781,
        "format": "JPEG",
        "added_at": "2025-07-17T00:03:31.118562",
        "hash": "500dc1b6fdbb3f3b75c3c419c8afc9d0",
        "source": "migrated"
      }
    }
  ]
}