{
  "meta": {
    "version": "1.0",
    "generated_at": "2025-07-17T21:14:17.488868",
    "category": "dark",
    "page": 4,
    "per_page": 15,
    "total_pages": 6,
    "total_count": 80,
    "count_on_page": 15,
    "has_next": true,
    "has_prev": true,
    "next_page_url": "/api/v1/dark/pages/5.json",
    "prev_page_url": "/api/v1/dark/pages/3.json"
  },
  "data": [
    {
      "id": "dark_046",
      "category": "dark",
      "title": "Dark Wallpaper 046",
      "tags": [
        "dark",
        "wallpaper",
        "hd",
        "mobile"
      ],
      "urls": {
        "raw": "https://media.githubusercontent.com/media/ddh4r4m/wallpaper-collection/main/collection/wallpapers/dark/046.jpg",
        "thumb": "https://media.githubusercontent.com/media/ddh4r4m/wallpaper-collection/main/collection/thumbnails/dark/046.jpg"
      },
      "metadata": {
        "dimensions": {
          "width": 1080,
          "height": 1920
        },
        "file_size": 141151,
        "format": "JPEG",
        "added_at": "2025-07-17T00:03:31.166191",
        "hash": "9ef514967800cdf14823988a8642740e",
        "source": "migrated"
      }
    },
    {
      "id": "dark_047",
      "category": "dark",
      "title": "Dark Wallpaper 047",
      "tags": [
        "dark",
        "wallpaper",
        "hd",
        "mobile"
      ],
      "urls": {
        "raw": "https://media.githubusercontent.com/media/ddh4r4m/wallpaper-collection/main/collection/wallpapers/dark/047.jpg",
        "thumb": "https://media.githubusercontent.com/media/ddh4r4m/wallpaper-collection/main/collection/thumbnails/dark/047.jpg"
      },
      "metadata": {
        "dimensions": {
          "width": 1080,
          "height": 1920
        },
        "file_size": 281554,
        "format": "JPEG",
        "added_at": "2025-07-17T00:03:31.388591",
        "hash": "e4c3c9aa8b00d883103db8f399ec926d",
        "source": "migrated"
      }
    },
    {
      "id": "dark_048",
      "category": "dark",
      "title": "Dark Wallpaper 048",
      "tags": [
        "dark",
        "wallpaper",
        "hd",
        "mobile"
      ],
      "urls": {
        "raw": "https://media.githubusercontent.com/media/ddh4r4m/wallpaper-collection/main/collection/wallpapers/dark/048.jpg",
        "thumb": "https://media.githubusercontent.com/media/ddh4r4m/wallpaper-collection/main/collection/thumbnails/dark/048.jpg"
      },
      "metadata": {
        "dimensions": {
          "width": 1080,
          "height": 1920
        },
        "file_size": 207966,
        "format": "JPEG",
        "added_at": "2025-07-17T00:03:31.553943",
        "hash": "215260dd19dace8cc5ecbc98da105531",
        "source": "migrated"
      }
    },
    {
      "id": "dark_049",
      "category": "dark",
      "title": "Dark Wallpaper 049",
      "tags": [
        "dark",
        "wallpaper",
        "hd",
        "mobile"
      ],
      "urls": {
        "raw": "https://media.githubusercontent.com/media/ddh4r4m/wallpaper-collection/main/collection/wallpapers/dark/049.jpg",
        "thumb": "https://media.githubusercontent.com/media/ddh4r4m/wallpaper-collection/main/collection/thumbnails/dark/049.jpg"
      },
      "metadata": {
        "dimensions": {
          "width": 1080,
          "height": 1920
        },
        "file_size": 262289,
        "format": "JPEG",
        "added_at": "2025-07-17T00:03:31.743026",
        "hash": "135c4e5bac0a1c2b74d352a3e6381f5e",
        "source": "migrated"
      }
    },
    {
      "id": "dark_050",
      "category": "dark",
      "title": "Dark Wallpaper 050",
      "tags": [
        "dark",
        "wallpaper",
        "hd",
        "mobile"
      ],
      "urls": {
        "raw": "https://media.githubusercontent.com/media/ddh4r4m/wallpaper-collection/main/collection/wallpapers/dark/050.jpg",
        "thumb": "https://media.githubusercontent.com/media/ddh4r4m/wallpaper-collection/main/collection/thumbnails/dark/050.jpg"
      },
      "metadata": {
        "dimensions": {
          "width": 1080,
          "height": 1920
        },
        "file_size": 368662,
        "format": "JPEG",
        "added_at": "2025-07-17T00:03:32.150289",
        "hash": "58c5e1e238bc18efd2a6057e4e840999",
        "source": "migrated"
      }
    },
    {
      "id": "dark_051",
      "category": "dark",
      "title": "Dark Wallpaper 051",
      "tags": [
        "dark",
        "wallpaper",
        "hd",
        "mobile"
      ],
      "urls": {
        "raw": "https://media.githubusercontent.com/media/ddh4r4m/wallpaper-collection/main/collection/wallpapers/dark/051.jpg",
        "thumb": "https://media.githubusercontent.com/media/ddh4r4m/wallpaper-collection/main/collection/thumbnails/dark/051.jpg"
      },
      "metadata": {
        "dimensions": {
          "width": 1080,
          "height": 1920
        },
        "file_size": 135220,
        "format": "JPEG",
        "added_at": "2025-07-17T00:03:32.199539",
        "hash": "f3d4ff02c1a252cfddfbc0195e47b912",
        "source": "migrated"
      }
    },
    {
      "id": "dark_052",
      "category": "dark",
      "title": "Dark Wallpaper 052",
      "tags": [
        "dark",
        "wallpaper",
        "hd",
        "mobile"
      ],
      "urls": {
        "raw": "https://media.githubusercontent.com/media/ddh4r4m/wallpaper-collection/main/collection/wallpapers/dark/052.jpg",
        "thumb": "https://media.githubusercontent.com/media/ddh4r4m/wallpaper-collection/main/collection/thumbnails/dark/052.jpg"
      },
      "metadata": {
        "dimensions": {
          "width": 1080,
          "height": 1920
        },
        "file_size": 176517,
        "format": "JPEG",
        "added_at": "2025-07-17T00:03:32.251424",
        "hash": "6f6ab59922953200540348c20021dbff",
        "source": "migrated"
      }
    },
    {
      "id": "dark_053",
      "category": "dark",
      "title": "Dark Wallpaper 053",
      "tags": [
        "dark",
        "wallpaper",
        "hd",
        "mobile"
      ],
      "urls": {
        "raw": "https://media.githubusercontent.com/media/ddh4r4m/wallpaper-collection/main/collection/wallpapers/dark/053.jpg",
        "thumb": "https://media.githubusercontent.com/media/ddh4r4m/wallpaper-collection/main/collection/thumbnails/dark/053.jpg"
      },
      "metadata": {
        "dimensions": {
          "width": 1080,
          "height": 1920
        },
        "file_size": 145777,
        "format": "JPEG",
        "added_at": "2025-07-17T00:03:32.300075",
        "hash": "edec3fe06d34a2c6e1d325cfe01ab1b8",
        "source": "migrated"
      }
    },
    {
      "id": "dark_054",
      "category": "dark",
      "title": "Dark Wallpaper 054",
      "tags": [
        "dark",
        "wallpaper",
        "hd",
        "mobile"
      ],
      "urls": {
        "raw": "https://media.githubusercontent.com/media/ddh4r4m/wallpaper-collection/main/collection/wallpapers/dark/054.jpg",
        "thumb": "https://media.githubusercontent.com/media/ddh4r4m/wallpaper-collection/main/collection/thumbnails/dark/054.jpg"
      },
      "metadata": {
        "dimensions": {
          "width": 1080,
          "height": 1920
        },
        "file_size": 527046,
        "format": "JPEG",
        "added_at": "2025-07-17T00:03:32.370498",
        "hash": "73b882a77b4df9113979e22eeb91aab6",
        "source": "migrated"
      }
    },
    {
      "id": "dark_055",
      "category": "dark",
      "title": "Dark Wallpaper 055",
      "tags": [
        "dark",
        "wallpaper",
        "hd",
        "mobile"
      ],
      "urls": {
        "raw": "https://media.githubusercontent.com/media/ddh4r4m/wallpaper-collection/main/collection/wallpapers/dark/055.jpg",
        "thumb": "https://media.githubusercontent.com/media/ddh4r4m/wallpaper-collection/main/collection/thumbnails/dark/055.jpg"
      },
      "metadata": {
        "dimensions": {
          "width": 1080,
          "height": 1920
        },
        "file_size": 505804,
        "format": "JPEG",
        "added_at": "2025-07-17T00:03:32.618389",
        "hash": "9505bc6a82b8cb706af6bb481d63d530",
        "source": "migrated"
      }
    },
    {
      "id": "dark_056",
      "category": "dark",
      "title": "Dark Wallpaper 056",
      "tags": [
        "dark",
        "wallpaper",
        "hd",
        "mobile"
      ],
      "urls": {
        "raw": "https://media.githubusercontent.com/media/ddh4r4m/wallpaper-collection/main/collection/wallpapers/dark/056.jpg",
        "thumb": "https://media.githubusercontent.com/media/ddh4r4m/wallpaper-collection/main/collection/thumbnails/dark/056.jpg"
      },
      "metadata": {
        "dimensions": {
          "width": 1080,
          "height": 1920
        },
        "file_size": 436876,
        "format": "JPEG",
        "added_at": "2025-07-17T00:03:32.887034",
        "hash": "266c3124053cee009877609ac5e6b486",
        "source": "migrated"
      }
    },
    {
      "id": "dark_057",
      "category": "dark",
      "title": "Dark Wallpaper 057",
      "tags": [
        "dark",
        "wallpaper",
        "hd",
        "mobile"
      ],
      "urls": {
        "raw": "https://media.githubusercontent.com/media/ddh4r4m/wallpaper-collection/main/collection/wallpapers/dark/057.jpg",
        "thumb": "https://media.githubusercontent.com/media/ddh4r4m/wallpaper-collection/main/collection/thumbnails/dark/057.jpg"
      },
      "metadata": {
        "dimensions": {
          "width": 1080,
          "height": 1920
        },
        "file_size": 347958,
        "format": "JPEG",
        "added_at": "2025-07-17T00:03:33.092049",
        "hash": "3ed014e14a4297452f68a12ef9848150",
        "source": "migrated"
      }
    },
    {
      "id": "dark_058",
      "category": "dark",
      "title": "Dark Wallpaper 058",
      "tags": [
        "dark",
        "wallpaper",
        "hd",
        "mobile"
      ],
      "urls": {
        "raw": "https://media.githubusercontent.com/media/ddh4r4m/wallpaper-collection/main/collection/wallpapers/dark/058.jpg",
        "thumb": "https://media.githubusercontent.com/media/ddh4r4m/wallpaper-collection/main/collection/thumbnails/dark/058.jpg"
      },
      "metadata": {
        "dimensions": {
          "width": 1080,
          "height": 1920
        },
        "file_size": 317662,
        "format": "JPEG",
        "added_at": "2025-07-17T00:03:33.699606",
        "hash": "3e0a2f33aead648406da10362fb0504d",
        "source": "migrated"
      }
    },
    {
      "id": "dark_059",
      "category": "dark",
      "title": "Dark Wallpaper 059",
      "tags": [
        "dark",
        "wallpaper",
        "hd",
        "mobile"
      ],
      "urls": {
        "raw": "https://media.githubusercontent.com/media/ddh4r4m/wallpaper-collection/main/collection/wallpapers/dark/059.jpg",
        "thumb": "https://media.githubusercontent.com/media/ddh4r4m/wallpaper-collection/main/collection/thumbnails/dark/059.jpg"
      },
      "metadata": {
        "dimensions": {
          "width": 1080,
          "height": 1920
        },
        "file_size": 420946,
        "format": "JPEG",
        "added_at": "2025-07-17T00:03:34.068874",
        "hash": "dc051478a548aee3b4990465ebb5e27e",
        "source": "migrated"
      }
    },
    {
      "id": "dark_060",
      "category": "dark",
      "title": "Dark Wallpaper 060",
      "tags": [
        "dark",
        "wallpaper",
        "hd",
        "mobile"
      ],
      "urls": {
        "raw": "https://media.githubusercontent.com/media/ddh4r4m/wallpaper-collection/main/collection/wallpapers/dark/060.jpg",
        "thumb": "https://media.githubusercontent.com/media/ddh4r4m/wallpaper-collection/main/collection/thumbnails/dark/060.jpg"
      },
      "metadata": {
        "dimensions": {
          "width": 1080,
          "height": 1920
        },
        "file_size": 253820,
        "format": "JPEG",
        "added_at": "2025-07-17T00:03:34.270143",
        "hash": "7914166feef932943aba0c4ecdb3137a",
        "source": "migrated"
      }
    }
  ]
}