{
  "meta": {
    "version": "1.0",
    "generated_at": "2025-07-19T12:26:57.111378",
    "category": "pastel",
    "page": 1,
    "per_page": 15,
    "total_pages": 5,
    "total_count": 69,
    "count_on_page": 15,
    "has_next": true,
    "has_prev": false,
    "next_page_url": "/api/v1/pastel/pages/2.json",
    "prev_page_url": null
  },
  "data": [
    {
      "id": "pastel_001",
      "category": "pastel",
      "title": "Pastel Wallpaper 001",
      "tags": [
        "pastel",
        "wallpaper",
        "hd",
        "mobile"
      ],
      "urls": {
        "raw": "https://media.githubusercontent.com/media/ddh4r4m/wallpaper-collection/main/collection/wallpapers/pastel/001.jpg",
        "thumb": "https://media.githubusercontent.com/media/ddh4r4m/wallpaper-collection/main/collection/thumbnails/pastel/001.jpg"
      },
      "metadata": {
        "dimensions": {
          "width": 1080,
          "height": 1920
        },
        "file_size": 454760,
        "format": "JPEG",
        "added_at": "2025-07-17T00:04:35.842372",
        "hash": "b550b693683cfc708d2b6857966f0fb0",
        "source": "migrated"
      }
    },
    {
      "id": "pastel_002",
      "category": "pastel",
      "title": "Pastel Wallpaper 002",
      "tags": [
        "pastel",
        "wallpaper",
        "hd",
        "mobile"
      ],
      "urls": {
        "raw": "https://media.githubusercontent.com/media/ddh4r4m/wallpaper-collection/main/collection/wallpapers/pastel/002.jpg",
        "thumb": "https://media.githubusercontent.com/media/ddh4r4m/wallpaper-collection/main/collection/thumbnails/pastel/002.jpg"
      },
      "metadata": {
        "dimensions": {
          "width": 1080,
          "height": 1920
        },
        "file_size": 479226,
        "format": "JPEG",
        "added_at": "2025-07-17T00:04:35.912894",
        "hash": "baaa28df92e2438f51d1d466dec450cb",
        "source": "migrated"
      }
    },
    {
      "id": "pastel_003",
      "category": "pastel",
      "title": "Pastel Wallpaper 003",
      "tags": [
        "pastel",
        "wallpaper",
        "hd",
        "mobile"
      ],
      "urls": {
        "raw": "https://media.githubusercontent.com/media/ddh4r4m/wallpaper-collection/main/collection/wallpapers/pastel/003.jpg",
        "thumb": "https://media.githubusercontent.com/media/ddh4r4m/wallpaper-collection/main/collection/thumbnails/pastel/003.jpg"
      },
      "metadata": {
        "dimensions": {
          "width": 1080,
          "height": 1920
        },
        "file_size": 417881,
        "format": "JPEG",
        "added_at": "2025-07-17T00:04:35.975960",
        "hash": "58bc4b035425db7559990c3cd74818f2",
        "source": "migrated"
      }
    },
    {
      "id": "pastel_004",
      "category": "pastel",
      "title": "Pastel Wallpaper 004",
      "tags": [
        "pastel",
        "wallpaper",
        "hd",
        "mobile"
      ],
      "urls": {
        "raw": "https://media.githubusercontent.com/media/ddh4r4m/wallpaper-collection/main/collection/wallpapers/pastel/004.jpg",
        "thumb": "https://media.githubusercontent.com/media/ddh4r4m/wallpaper-collection/main/collection/thumbnails/pastel/004.jpg"
      },
      "metadata": {
        "dimensions": {
          "width": 1080,
          "height": 1920
        },
        "file_size": 221388,
        "format": "JPEG",
        "added_at": "2025-07-17T00:04:36.030608",
        "hash": "d54165adcbb9d2b3f2783102e81eda24",
        "source": "migrated"
      }
    },
    {
      "id": "pastel_005",
      "category": "pastel",
      "title": "Pastel Wallpaper 005",
      "tags": [
        "pastel",
        "wallpaper",
        "hd",
        "mobile"
      ],
      "urls": {
        "raw": "https://media.githubusercontent.com/media/ddh4r4m/wallpaper-collection/main/collection/wallpapers/pastel/005.jpg",
        "thumb": "https://media.githubusercontent.com/media/ddh4r4m/wallpaper-collection/main/collection/thumbnails/pastel/005.jpg"
      },
      "metadata": {
        "dimensions": {
          "width": 1080,
          "height": 1920
        },
        "file_size": 663823,
        "format": "JPEG",
        "added_at": "2025-07-17T00:04:36.109358",
        "hash": "8026de66c829ab2a324305c406cd4d9d",
        "source": "migrated"
      }
    },
    {
      "id": "pastel_006",
      "category": "pastel",
      "title": "Pastel Wallpaper 006",
      "tags": [
        "pastel",
        "wallpaper",
        "hd",
        "mobile"
      ],
      "urls": {
        "raw": "https://media.githubusercontent.com/media/ddh4r4m/wallpaper-collection/main/collection/wallpapers/pastel/006.jpg",
        "thumb": "https://media.githubusercontent.com/media/ddh4r4m/wallpaper-collection/main/collection/thumbnails/pastel/006.jpg"
      },
      "metadata": {
        "dimensions": {
          "width": 1080,
          "height": 1920
        },
        "file_size": 413712,
        "format": "JPEG",
        "added_at": "2025-07-17T00:04:36.172479",
        "hash": "3bc0b7488fe25a0c7ca6b267f67b9211",
        "source": "migrated"
      }
    },
    {
      "id": "pastel_007",
      "category": "pastel",
      "title": "Pastel Wallpaper 007",
      "tags": [
        "pastel",
        "wallpaper",
        "hd",
        "mobile"
      ],
      "urls": {
        "raw": "https://media.githubusercontent.com/media/ddh4r4m/wallpaper-collection/main/collection/wallpapers/pastel/007.jpg",
        "thumb": "https://media.githubusercontent.com/media/ddh4r4m/wallpaper-collection/main/collection/thumbnails/pastel/007.jpg"
      },
      "metadata": {
        "dimensions": {
          "width": 1080,
          "height": 1920
        },
        "file_size": 97462,
        "format": "JPEG",
        "added_at": "2025-07-17T00:04:36.219758",
        "hash": "95e23ea5a47802019f9f44d2a873e5c6",
        "source": "migrated"
      }
    },
    {
      "id": "pastel_008",
      "category": "pastel",
      "title": "Pastel Wallpaper 008",
      "tags": [
        "pastel",
        "wallpaper",
        "hd",
        "mobile"
      ],
      "urls": {
        "raw": "https://media.githubusercontent.com/media/ddh4r4m/wallpaper-collection/main/collection/wallpapers/pastel/008.jpg",
        "thumb": "https://media.githubusercontent.com/media/ddh4r4m/wallpaper-collection/main/collection/thumbnails/pastel/008.jpg"
      },
      "metadata": {
        "dimensions": {
          "width": 1080,
          "height": 1920
        },
        "file_size": 435044,
        "format": "JPEG",
        "added_at": "2025-07-17T00:04:36.286950",
        "hash": "5f2a0dca440e18e5a3bbc4ef2b0724a7",
        "source": "migrated"
      }
    },
    {
      "id": "pastel_009",
      "category": "pastel",
      "title": "Pastel Wallpaper 009",
      "tags": [
        "pastel",
        "wallpaper",
        "hd",
        "mobile"
      ],
      "urls": {
        "raw": "https://media.githubusercontent.com/media/ddh4r4m/wallpaper-collection/main/collection/wallpapers/pastel/009.jpg",
        "thumb": "https://media.githubusercontent.com/media/ddh4r4m/wallpaper-collection/main/collection/thumbnails/pastel/009.jpg"
      },
      "metadata": {
        "dimensions": {
          "width": 1080,
          "height": 1920
        },
        "file_size": 63107,
        "format": "JPEG",
        "added_at": "2025-07-17T00:04:36.331874",
        "hash": "fa63242d03d49e063868c6866ada4776",
        "source": "migrated"
      }
    },
    {
      "id": "pastel_010",
      "category": "pastel",
      "title": "Pastel Wallpaper 010",
      "tags": [
        "pastel",
        "wallpaper",
        "hd",
        "mobile"
      ],
      "urls": {
        "raw": "https://media.githubusercontent.com/media/ddh4r4m/wallpaper-collection/main/collection/wallpapers/pastel/010.jpg",
        "thumb": "https://media.githubusercontent.com/media/ddh4r4m/wallpaper-collection/main/collection/thumbnails/pastel/010.jpg"
      },
      "metadata": {
        "dimensions": {
          "width": 1080,
          "height": 1920
        },
        "file_size": 209027,
        "format": "JPEG",
        "added_at": "2025-07-17T00:04:36.385406",
        "hash": "b2c842925dd96922ef874cf4a74e65bf",
        "source": "migrated"
      }
    },
    {
      "id": "pastel_011",
      "category": "pastel",
      "title": "Pastel Wallpaper 011",
      "tags": [
        "pastel",
        "wallpaper",
        "hd",
        "mobile"
      ],
      "urls": {
        "raw": "https://media.githubusercontent.com/media/ddh4r4m/wallpaper-collection/main/collection/wallpapers/pastel/011.jpg",
        "thumb": "https://media.githubusercontent.com/media/ddh4r4m/wallpaper-collection/main/collection/thumbnails/pastel/011.jpg"
      },
      "metadata": {
        "dimensions": {
          "width": 1080,
          "height": 1920
        },
        "file_size": 242245,
        "format": "JPEG",
        "added_at": "2025-07-17T00:04:36.441065",
        "hash": "57c3aa456d510e5fb2ce66d6385a7be5",
        "source": "migrated"
      }
    },
    {
      "id": "pastel_012",
      "category": "pastel",
      "title": "Pastel Wallpaper 012",
      "tags": [
        "pastel",
        "wallpaper",
        "hd",
        "mobile"
      ],
      "urls": {
        "raw": "https://media.githubusercontent.com/media/ddh4r4m/wallpaper-collection/main/collection/wallpapers/pastel/012.jpg",
        "thumb": "https://media.githubusercontent.com/media/ddh4r4m/wallpaper-collection/main/collection/thumbnails/pastel/012.jpg"
      },
      "metadata": {
        "dimensions": {
          "width": 1080,
          "height": 1920
        },
        "file_size": 227340,
        "format": "JPEG",
        "added_at": "2025-07-17T00:04:36.497004",
        "hash": "c14cffc850fa28b5e1370096a62b4b8f",
        "source": "migrated"
      }
    },
    {
      "id": "pastel_013",
      "category": "pastel",
      "title": "Pastel Wallpaper 013",
      "tags": [
        "pastel",
        "wallpaper",
        "hd",
        "mobile"
      ],
      "urls": {
        "raw": "https://media.githubusercontent.com/media/ddh4r4m/wallpaper-collection/main/collection/wallpapers/pastel/013.jpg",
        "thumb": "https://media.githubusercontent.com/media/ddh4r4m/wallpaper-collection/main/collection/thumbnails/pastel/013.jpg"
      },
      "metadata": {
        "dimensions": {
          "width": 1080,
          "height": 1920
        },
        "file_size": 849476,
        "format": "JPEG",
        "added_at": "2025-07-17T00:04:36.584400",
        "hash": "a4e3c1877f77dae76a0804ef7df1a268",
        "source": "migrated"
      }
    },
    {
      "id": "pastel_014",
      "category": "pastel",
      "title": "Pastel Wallpaper 014",
      "tags": [
        "pastel",
        "wallpaper",
        "hd",
        "mobile"
      ],
      "urls": {
        "raw": "https://media.githubusercontent.com/media/ddh4r4m/wallpaper-collection/main/collection/wallpapers/pastel/014.jpg",
        "thumb": "https://media.githubusercontent.com/media/ddh4r4m/wallpaper-collection/main/collection/thumbnails/pastel/014.jpg"
      },
      "metadata": {
        "dimensions": {
          "width": 1080,
          "height": 1920
        },
        "file_size": 128249,
        "format": "JPEG",
        "added_at": "2025-07-17T00:04:36.632628",
        "hash": "6df7f66888c4ee3380df615d92abcd41",
        "source": "migrated"
      }
    },
    {
      "id": "pastel_015",
      "category": "pastel",
      "title": "Pastel Wallpaper 015",
      "tags": [
        "pastel",
        "wallpaper",
        "hd",
        "mobile"
      ],
      "urls": {
        "raw": "https://media.githubusercontent.com/media/ddh4r4m/wallpaper-collection/main/collection/wallpapers/pastel/015.jpg",
        "thumb": "https://media.githubusercontent.com/media/ddh4r4m/wallpaper-collection/main/collection/thumbnails/pastel/015.jpg"
      },
      "metadata": {
        "dimensions": {
          "width": 1080,
          "height": 1920
        },
        "file_size": 244308,
        "format": "JPEG",
        "added_at": "2025-07-17T00:04:36.709868",
        "hash": "e87df0b176205a9d7dbfa5034877dad4",
        "source": "migrated"
      }
    }
  ]
}