{
  "meta": {
    "version": "1.0",
    "generated_at": "2025-07-28T22:48:38.208699",
    "category": "pastel",
    "page": 2,
    "per_page": 15,
    "total_pages": 5,
    "total_count": 69,
    "count_on_page": 15,
    "has_next": true,
    "has_prev": true,
    "next_page_url": "/api/v1/pastel/pages/3.json",
    "prev_page_url": "/api/v1/pastel/pages/1.json"
  },
  "data": [
    {
      "id": "pastel_016",
      "category": "pastel",
      "title": "Pastel Wallpaper 016",
      "tags": [
        "pastel",
        "wallpaper",
        "hd",
        "mobile"
      ],
      "urls": {
        "raw": "https://media.githubusercontent.com/media/ddh4r4m/wallpaper-collection/main/collection/wallpapers/pastel/016.jpg",
        "thumb": "https://media.githubusercontent.com/media/ddh4r4m/wallpaper-collection/main/collection/thumbnails/pastel/016.jpg"
      },
      "metadata": {
        "dimensions": {
          "width": 1080,
          "height": 1920
        },
        "file_size": 366591,
        "format": "JPEG",
        "added_at": "2025-07-17T00:04:36.771218",
        "hash": "9bf0f43d7002c341ce484788d644ecf0",
        "source": "migrated"
      }
    },
    {
      "id": "pastel_017",
      "category": "pastel",
      "title": "Pastel Wallpaper 017",
      "tags": [
        "pastel",
        "wallpaper",
        "hd",
        "mobile"
      ],
      "urls": {
        "raw": "https://media.githubusercontent.com/media/ddh4r4m/wallpaper-collection/main/collection/wallpapers/pastel/017.jpg",
        "thumb": "https://media.githubusercontent.com/media/ddh4r4m/wallpaper-collection/main/collection/thumbnails/pastel/017.jpg"
      },
      "metadata": {
        "dimensions": {
          "width": 1080,
          "height": 1920
        },
        "file_size": 207147,
        "format": "JPEG",
        "added_at": "2025-07-17T00:04:36.825327",
        "hash": "f958f8b57fa95ba37ed6ba9b16ba116b",
        "source": "migrated"
      }
    },
    {
      "id": "pastel_018",
      "category": "pastel",
      "title": "Pastel Wallpaper 018",
      "tags": [
        "pastel",
        "wallpaper",
        "hd",
        "mobile"
      ],
      "urls": {
        "raw": "https://media.githubusercontent.com/media/ddh4r4m/wallpaper-collection/main/collection/wallpapers/pastel/018.jpg",
        "thumb": "https://media.githubusercontent.com/media/ddh4r4m/wallpaper-collection/main/collection/thumbnails/pastel/018.jpg"
      },
      "metadata": {
        "dimensions": {
          "width": 1080,
          "height": 1920
        },
        "file_size": 724034,
        "format": "JPEG",
        "added_at": "2025-07-17T00:04:36.905521",
        "hash": "9ddabd306237edd86adc5f66b7024338",
        "source": "migrated"
      }
    },
    {
      "id": "pastel_019",
      "category": "pastel",
      "title": "Pastel Wallpaper 019",
      "tags": [
        "pastel",
        "wallpaper",
        "hd",
        "mobile"
      ],
      "urls": {
        "raw": "https://media.githubusercontent.com/media/ddh4r4m/wallpaper-collection/main/collection/wallpapers/pastel/019.jpg",
        "thumb": "https://media.githubusercontent.com/media/ddh4r4m/wallpaper-collection/main/collection/thumbnails/pastel/019.jpg"
      },
      "metadata": {
        "dimensions": {
          "width": 1080,
          "height": 1920
        },
        "file_size": 181563,
        "format": "JPEG",
        "added_at": "2025-07-17T00:04:36.955370",
        "hash": "87c58f7609987ddd23ef95bfb1517ebb",
        "source": "migrated"
      }
    },
    {
      "id": "pastel_020",
      "category": "pastel",
      "title": "Pastel Wallpaper 020",
      "tags": [
        "pastel",
        "wallpaper",
        "hd",
        "mobile"
      ],
      "urls": {
        "raw": "https://media.githubusercontent.com/media/ddh4r4m/wallpaper-collection/main/collection/wallpapers/pastel/020.jpg",
        "thumb": "https://media.githubusercontent.com/media/ddh4r4m/wallpaper-collection/main/collection/thumbnails/pastel/020.jpg"
      },
      "metadata": {
        "dimensions": {
          "width": 1080,
          "height": 1920
        },
        "file_size": 97967,
        "format": "JPEG",
        "added_at": "2025-07-17T00:04:37.003152",
        "hash": "b994a815c7dc57acba3a4763f887821b",
        "source": "migrated"
      }
    },
    {
      "id": "pastel_021",
      "category": "pastel",
      "title": "Pastel Wallpaper 021",
      "tags": [
        "pastel",
        "wallpaper",
        "hd",
        "mobile"
      ],
      "urls": {
        "raw": "https://media.githubusercontent.com/media/ddh4r4m/wallpaper-collection/main/collection/wallpapers/pastel/021.jpg",
        "thumb": "https://media.githubusercontent.com/media/ddh4r4m/wallpaper-collection/main/collection/thumbnails/pastel/021.jpg"
      },
      "metadata": {
        "dimensions": {
          "width": 1080,
          "height": 1920
        },
        "file_size": 300993,
        "format": "JPEG",
        "added_at": "2025-07-17T00:04:37.061598",
        "hash": "1eece7a7bf2b4405677375a2fe10c9b2",
        "source": "migrated"
      }
    },
    {
      "id": "pastel_022",
      "category": "pastel",
      "title": "Pastel Wallpaper 022",
      "tags": [
        "pastel",
        "wallpaper",
        "hd",
        "mobile"
      ],
      "urls": {
        "raw": "https://media.githubusercontent.com/media/ddh4r4m/wallpaper-collection/main/collection/wallpapers/pastel/022.jpg",
        "thumb": "https://media.githubusercontent.com/media/ddh4r4m/wallpaper-collection/main/collection/thumbnails/pastel/022.jpg"
      },
      "metadata": {
        "dimensions": {
          "width": 1080,
          "height": 1920
        },
        "file_size": 308733,
        "format": "JPEG",
        "added_at": "2025-07-17T00:04:37.122554",
        "hash": "685b047dd0fe57d7511d539cd52f2942",
        "source": "migrated"
      }
    },
    {
      "id": "pastel_023",
      "category": "pastel",
      "title": "Pastel Wallpaper 023",
      "tags": [
        "pastel",
        "wallpaper",
        "hd",
        "mobile"
      ],
      "urls": {
        "raw": "https://media.githubusercontent.com/media/ddh4r4m/wallpaper-collection/main/collection/wallpapers/pastel/023.jpg",
        "thumb": "https://media.githubusercontent.com/media/ddh4r4m/wallpaper-collection/main/collection/thumbnails/pastel/023.jpg"
      },
      "metadata": {
        "dimensions": {
          "width": 1080,
          "height": 1920
        },
        "file_size": 258793,
        "format": "JPEG",
        "added_at": "2025-07-17T00:04:37.179527",
        "hash": "f26228f79f259e80114101f2378f099e",
        "source": "migrated"
      }
    },
    {
      "id": "pastel_024",
      "category": "pastel",
      "title": "Pastel Wallpaper 024",
      "tags": [
        "pastel",
        "wallpaper",
        "hd",
        "mobile"
      ],
      "urls": {
        "raw": "https://media.githubusercontent.com/media/ddh4r4m/wallpaper-collection/main/collection/wallpapers/pastel/024.jpg",
        "thumb": "https://media.githubusercontent.com/media/ddh4r4m/wallpaper-collection/main/collection/thumbnails/pastel/024.jpg"
      },
      "metadata": {
        "dimensions": {
          "width": 1080,
          "height": 1920
        },
        "file_size": 545710,
        "format": "JPEG",
        "added_at": "2025-07-17T00:04:37.252647",
        "hash": "c49ed1b3b7f68e2a973881ec6344a179",
        "source": "migrated"
      }
    },
    {
      "id": "pastel_025",
      "category": "pastel",
      "title": "Pastel Wallpaper 025",
      "tags": [
        "pastel",
        "wallpaper",
        "hd",
        "mobile"
      ],
      "urls": {
        "raw": "https://media.githubusercontent.com/media/ddh4r4m/wallpaper-collection/main/collection/wallpapers/pastel/025.jpg",
        "thumb": "https://media.githubusercontent.com/media/ddh4r4m/wallpaper-collection/main/collection/thumbnails/pastel/025.jpg"
      },
      "metadata": {
        "dimensions": {
          "width": 1080,
          "height": 1920
        },
        "file_size": 276207,
        "format": "JPEG",
        "added_at": "2025-07-17T00:04:37.309840",
        "hash": "50293f0706c0259551295c901f766205",
        "source": "migrated"
      }
    },
    {
      "id": "pastel_026",
      "category": "pastel",
      "title": "Pastel Wallpaper 026",
      "tags": [
        "pastel",
        "wallpaper",
        "hd",
        "mobile"
      ],
      "urls": {
        "raw": "https://media.githubusercontent.com/media/ddh4r4m/wallpaper-collection/main/collection/wallpapers/pastel/026.jpg",
        "thumb": "https://media.githubusercontent.com/media/ddh4r4m/wallpaper-collection/main/collection/thumbnails/pastel/026.jpg"
      },
      "metadata": {
        "dimensions": {
          "width": 1080,
          "height": 1920
        },
        "file_size": 174364,
        "format": "JPEG",
        "added_at": "2025-07-17T00:04:37.362170",
        "hash": "c0b4e7312e1397805e9a42359f4b340c",
        "source": "migrated"
      }
    },
    {
      "id": "pastel_027",
      "category": "pastel",
      "title": "Pastel Wallpaper 027",
      "tags": [
        "pastel",
        "wallpaper",
        "hd",
        "mobile"
      ],
      "urls": {
        "raw": "https://media.githubusercontent.com/media/ddh4r4m/wallpaper-collection/main/collection/wallpapers/pastel/027.jpg",
        "thumb": "https://media.githubusercontent.com/media/ddh4r4m/wallpaper-collection/main/collection/thumbnails/pastel/027.jpg"
      },
      "metadata": {
        "dimensions": {
          "width": 1080,
          "height": 1920
        },
        "file_size": 485571,
        "format": "JPEG",
        "added_at": "2025-07-17T00:04:37.429974",
        "hash": "06d0055979f4eac00c17c06036eab4e8",
        "source": "migrated"
      }
    },
    {
      "id": "pastel_028",
      "category": "pastel",
      "title": "Pastel Wallpaper 028",
      "tags": [
        "pastel",
        "wallpaper",
        "hd",
        "mobile"
      ],
      "urls": {
        "raw": "https://media.githubusercontent.com/media/ddh4r4m/wallpaper-collection/main/collection/wallpapers/pastel/028.jpg",
        "thumb": "https://media.githubusercontent.com/media/ddh4r4m/wallpaper-collection/main/collection/thumbnails/pastel/028.jpg"
      },
      "metadata": {
        "dimensions": {
          "width": 1080,
          "height": 1920
        },
        "file_size": 351087,
        "format": "JPEG",
        "added_at": "2025-07-17T00:04:37.492908",
        "hash": "f67ca903aef73543ea6dfc8554b017ea",
        "source": "migrated"
      }
    },
    {
      "id": "pastel_029",
      "category": "pastel",
      "title": "Pastel Wallpaper 029",
      "tags": [
        "pastel",
        "wallpaper",
        "hd",
        "mobile"
      ],
      "urls": {
        "raw": "https://media.githubusercontent.com/media/ddh4r4m/wallpaper-collection/main/collection/wallpapers/pastel/029.jpg",
        "thumb": "https://media.githubusercontent.com/media/ddh4r4m/wallpaper-collection/main/collection/thumbnails/pastel/029.jpg"
      },
      "metadata": {
        "dimensions": {
          "width": 1080,
          "height": 1920
        },
        "file_size": 484002,
        "format": "JPEG",
        "added_at": "2025-07-17T00:04:37.561214",
        "hash": "b4d37a4d7c87b07a341e3db7dc12c5b8",
        "source": "migrated"
      }
    },
    {
      "id": "pastel_030",
      "category": "pastel",
      "title": "Pastel Wallpaper 030",
      "tags": [
        "pastel",
        "wallpaper",
        "hd",
        "mobile"
      ],
      "urls": {
        "raw": "https://media.githubusercontent.com/media/ddh4r4m/wallpaper-collection/main/collection/wallpapers/pastel/030.jpg",
        "thumb": "https://media.githubusercontent.com/media/ddh4r4m/wallpaper-collection/main/collection/thumbnails/pastel/030.jpg"
      },
      "metadata": {
        "dimensions": {
          "width": 1080,
          "height": 1920
        },
        "file_size": 346413,
        "format": "JPEG",
        "added_at": "2025-07-17T00:04:37.623660",
        "hash": "d2b02d06d11d95e8f0a495677185ccd2",
        "source": "migrated"
      }
    }
  ]
}