{
  "meta": {
    "version": "1.0",
    "generated_at": "2025-07-19T12:26:57.111378",
    "category": "pastel",
    "page": 3,
    "per_page": 15,
    "total_pages": 5,
    "total_count": 69,
    "count_on_page": 15,
    "has_next": true,
    "has_prev": true,
    "next_page_url": "/api/v1/pastel/pages/4.json",
    "prev_page_url": "/api/v1/pastel/pages/2.json"
  },
  "data": [
    {
      "id": "pastel_031",
      "category": "pastel",
      "title": "Pastel Wallpaper 031",
      "tags": [
        "pastel",
        "wallpaper",
        "hd",
        "mobile"
      ],
      "urls": {
        "raw": "https://media.githubusercontent.com/media/ddh4r4m/wallpaper-collection/main/collection/wallpapers/pastel/031.jpg",
        "thumb": "https://media.githubusercontent.com/media/ddh4r4m/wallpaper-collection/main/collection/thumbnails/pastel/031.jpg"
      },
      "metadata": {
        "dimensions": {
          "width": 1080,
          "height": 1920
        },
        "file_size": 302685,
        "format": "JPEG",
        "added_at": "2025-07-17T00:04:37.682802",
        "hash": "42305bdcae1e476fd65040d3d3c238b2",
        "source": "migrated"
      }
    },
    {
      "id": "pastel_032",
      "category": "pastel",
      "title": "Pastel Wallpaper 032",
      "tags": [
        "pastel",
        "wallpaper",
        "hd",
        "mobile"
      ],
      "urls": {
        "raw": "https://media.githubusercontent.com/media/ddh4r4m/wallpaper-collection/main/collection/wallpapers/pastel/032.jpg",
        "thumb": "https://media.githubusercontent.com/media/ddh4r4m/wallpaper-collection/main/collection/thumbnails/pastel/032.jpg"
      },
      "metadata": {
        "dimensions": {
          "width": 1080,
          "height": 1920
        },
        "file_size": 506646,
        "format": "JPEG",
        "added_at": "2025-07-17T00:04:37.752105",
        "hash": "b15997cace1ff72e160b489e08656245",
        "source": "migrated"
      }
    },
    {
      "id": "pastel_033",
      "category": "pastel",
      "title": "Pastel Wallpaper 033",
      "tags": [
        "pastel",
        "wallpaper",
        "hd",
        "mobile"
      ],
      "urls": {
        "raw": "https://media.githubusercontent.com/media/ddh4r4m/wallpaper-collection/main/collection/wallpapers/pastel/033.jpg",
        "thumb": "https://media.githubusercontent.com/media/ddh4r4m/wallpaper-collection/main/collection/thumbnails/pastel/033.jpg"
      },
      "metadata": {
        "dimensions": {
          "width": 1080,
          "height": 1920
        },
        "file_size": 147397,
        "format": "JPEG",
        "added_at": "2025-07-17T00:04:37.801258",
        "hash": "7d7e1c62a117f484bb81c851a4a062ef",
        "source": "migrated"
      }
    },
    {
      "id": "pastel_034",
      "category": "pastel",
      "title": "Pastel Wallpaper 034",
      "tags": [
        "pastel",
        "wallpaper",
        "hd",
        "mobile"
      ],
      "urls": {
        "raw": "https://media.githubusercontent.com/media/ddh4r4m/wallpaper-collection/main/collection/wallpapers/pastel/034.jpg",
        "thumb": "https://media.githubusercontent.com/media/ddh4r4m/wallpaper-collection/main/collection/thumbnails/pastel/034.jpg"
      },
      "metadata": {
        "dimensions": {
          "width": 1080,
          "height": 1920
        },
        "file_size": 241506,
        "format": "JPEG",
        "added_at": "2025-07-17T00:04:37.855540",
        "hash": "f75c31fc9516a73baba78051ad7497f5",
        "source": "migrated"
      }
    },
    {
      "id": "pastel_035",
      "category": "pastel",
      "title": "Pastel Wallpaper 035",
      "tags": [
        "pastel",
        "wallpaper",
        "hd",
        "mobile"
      ],
      "urls": {
        "raw": "https://media.githubusercontent.com/media/ddh4r4m/wallpaper-collection/main/collection/wallpapers/pastel/035.jpg",
        "thumb": "https://media.githubusercontent.com/media/ddh4r4m/wallpaper-collection/main/collection/thumbnails/pastel/035.jpg"
      },
      "metadata": {
        "dimensions": {
          "width": 1080,
          "height": 1920
        },
        "file_size": 437928,
        "format": "JPEG",
        "added_at": "2025-07-17T00:04:37.919901",
        "hash": "1752c32a38f2d8717779f0656a8a4b08",
        "source": "migrated"
      }
    },
    {
      "id": "pastel_036",
      "category": "pastel",
      "title": "Pastel Wallpaper 036",
      "tags": [
        "pastel",
        "wallpaper",
        "hd",
        "mobile"
      ],
      "urls": {
        "raw": "https://media.githubusercontent.com/media/ddh4r4m/wallpaper-collection/main/collection/wallpapers/pastel/036.jpg",
        "thumb": "https://media.githubusercontent.com/media/ddh4r4m/wallpaper-collection/main/collection/thumbnails/pastel/036.jpg"
      },
      "metadata": {
        "dimensions": {
          "width": 1080,
          "height": 1920
        },
        "file_size": 407567,
        "format": "JPEG",
        "added_at": "2025-07-17T00:04:37.984674",
        "hash": "6c460fad20deb74a8e2934bb6d9da38e",
        "source": "migrated"
      }
    },
    {
      "id": "pastel_037",
      "category": "pastel",
      "title": "Pastel Wallpaper 037",
      "tags": [
        "pastel",
        "wallpaper",
        "hd",
        "mobile"
      ],
      "urls": {
        "raw": "https://media.githubusercontent.com/media/ddh4r4m/wallpaper-collection/main/collection/wallpapers/pastel/037.jpg",
        "thumb": "https://media.githubusercontent.com/media/ddh4r4m/wallpaper-collection/main/collection/thumbnails/pastel/037.jpg"
      },
      "metadata": {
        "dimensions": {
          "width": 1080,
          "height": 1920
        },
        "file_size": 439339,
        "format": "JPEG",
        "added_at": "2025-07-17T00:04:38.050485",
        "hash": "e566328c4e9efbd014852f9fe852396f",
        "source": "migrated"
      }
    },
    {
      "id": "pastel_038",
      "category": "pastel",
      "title": "Pastel Wallpaper 038",
      "tags": [
        "pastel",
        "wallpaper",
        "hd",
        "mobile"
      ],
      "urls": {
        "raw": "https://media.githubusercontent.com/media/ddh4r4m/wallpaper-collection/main/collection/wallpapers/pastel/038.jpg",
        "thumb": "https://media.githubusercontent.com/media/ddh4r4m/wallpaper-collection/main/collection/thumbnails/pastel/038.jpg"
      },
      "metadata": {
        "dimensions": {
          "width": 1080,
          "height": 1920
        },
        "file_size": 413125,
        "format": "JPEG",
        "added_at": "2025-07-17T00:04:38.115597",
        "hash": "45fd52c6f030b10b143e011b9aa3e6ce",
        "source": "migrated"
      }
    },
    {
      "id": "pastel_039",
      "category": "pastel",
      "title": "Pastel Wallpaper 039",
      "tags": [
        "pastel",
        "wallpaper",
        "hd",
        "mobile"
      ],
      "urls": {
        "raw": "https://media.githubusercontent.com/media/ddh4r4m/wallpaper-collection/main/collection/wallpapers/pastel/039.jpg",
        "thumb": "https://media.githubusercontent.com/media/ddh4r4m/wallpaper-collection/main/collection/thumbnails/pastel/039.jpg"
      },
      "metadata": {
        "dimensions": {
          "width": 1080,
          "height": 1920
        },
        "file_size": 116346,
        "format": "JPEG",
        "added_at": "2025-07-17T00:04:38.165220",
        "hash": "c3ff0f77e43dc16ce6d388691ba44d79",
        "source": "migrated"
      }
    },
    {
      "id": "pastel_040",
      "category": "pastel",
      "title": "Pastel Wallpaper 040",
      "tags": [
        "pastel",
        "wallpaper",
        "hd",
        "mobile"
      ],
      "urls": {
        "raw": "https://media.githubusercontent.com/media/ddh4r4m/wallpaper-collection/main/collection/wallpapers/pastel/040.jpg",
        "thumb": "https://media.githubusercontent.com/media/ddh4r4m/wallpaper-collection/main/collection/thumbnails/pastel/040.jpg"
      },
      "metadata": {
        "dimensions": {
          "width": 1080,
          "height": 1920
        },
        "file_size": 160090,
        "format": "JPEG",
        "added_at": "2025-07-17T00:04:38.215674",
        "hash": "1284130eff81faeb8c1284874f9a112e",
        "source": "migrated"
      }
    },
    {
      "id": "pastel_041",
      "category": "pastel",
      "title": "Pastel Wallpaper 041",
      "tags": [
        "pastel",
        "wallpaper",
        "hd",
        "mobile"
      ],
      "urls": {
        "raw": "https://media.githubusercontent.com/media/ddh4r4m/wallpaper-collection/main/collection/wallpapers/pastel/041.jpg",
        "thumb": "https://media.githubusercontent.com/media/ddh4r4m/wallpaper-collection/main/collection/thumbnails/pastel/041.jpg"
      },
      "metadata": {
        "dimensions": {
          "width": 1080,
          "height": 1920
        },
        "file_size": 150508,
        "format": "JPEG",
        "added_at": "2025-07-17T00:04:38.267991",
        "hash": "b1897a974b82822aa39081919caad946",
        "source": "migrated"
      }
    },
    {
      "id": "pastel_042",
      "category": "pastel",
      "title": "Pastel Wallpaper 042",
      "tags": [
        "pastel",
        "wallpaper",
        "hd",
        "mobile"
      ],
      "urls": {
        "raw": "https://media.githubusercontent.com/media/ddh4r4m/wallpaper-collection/main/collection/wallpapers/pastel/042.jpg",
        "thumb": "https://media.githubusercontent.com/media/ddh4r4m/wallpaper-collection/main/collection/thumbnails/pastel/042.jpg"
      },
      "metadata": {
        "dimensions": {
          "width": 1080,
          "height": 1920
        },
        "file_size": 357368,
        "format": "JPEG",
        "added_at": "2025-07-17T00:04:38.330960",
        "hash": "53ad3e7d0495d750b73b0325b22a821d",
        "source": "migrated"
      }
    },
    {
      "id": "pastel_043",
      "category": "pastel",
      "title": "Pastel Wallpaper 043",
      "tags": [
        "pastel",
        "wallpaper",
        "hd",
        "mobile"
      ],
      "urls": {
        "raw": "https://media.githubusercontent.com/media/ddh4r4m/wallpaper-collection/main/collection/wallpapers/pastel/043.jpg",
        "thumb": "https://media.githubusercontent.com/media/ddh4r4m/wallpaper-collection/main/collection/thumbnails/pastel/043.jpg"
      },
      "metadata": {
        "dimensions": {
          "width": 1080,
          "height": 1920
        },
        "file_size": 261941,
        "format": "JPEG",
        "added_at": "2025-07-17T00:04:38.386346",
        "hash": "dd2f0a4227e857009e2cad98b0b84cb0",
        "source": "migrated"
      }
    },
    {
      "id": "pastel_044",
      "category": "pastel",
      "title": "Pastel Wallpaper 044",
      "tags": [
        "pastel",
        "wallpaper",
        "hd",
        "mobile"
      ],
      "urls": {
        "raw": "https://media.githubusercontent.com/media/ddh4r4m/wallpaper-collection/main/collection/wallpapers/pastel/044.jpg",
        "thumb": "https://media.githubusercontent.com/media/ddh4r4m/wallpaper-collection/main/collection/thumbnails/pastel/044.jpg"
      },
      "metadata": {
        "dimensions": {
          "width": 1080,
          "height": 1920
        },
        "file_size": 32059,
        "format": "JPEG",
        "added_at": "2025-07-17T00:04:38.429203",
        "hash": "a264674b85d93ce9e6dd9c47a6ba9d5a",
        "source": "migrated"
      }
    },
    {
      "id": "pastel_045",
      "category": "pastel",
      "title": "Pastel Wallpaper 045",
      "tags": [
        "pastel",
        "wallpaper",
        "hd",
        "mobile"
      ],
      "urls": {
        "raw": "https://media.githubusercontent.com/media/ddh4r4m/wallpaper-collection/main/collection/wallpapers/pastel/045.jpg",
        "thumb": "https://media.githubusercontent.com/media/ddh4r4m/wallpaper-collection/main/collection/thumbnails/pastel/045.jpg"
      },
      "metadata": {
        "dimensions": {
          "width": 1080,
          "height": 1920
        },
        "file_size": 324050,
        "format": "JPEG",
        "added_at": "2025-07-17T00:04:38.489714",
        "hash": "056b5312f12796c20ce702d691ace239",
        "source": "migrated"
      }
    }
  ]
}