{
  "meta": {
    "version": "1.0",
    "generated_at": "2025-07-28T21:27:34.814586",
    "category": "space",
    "page": 1,
    "per_page": 15,
    "total_pages": 9,
    "total_count": 122,
    "count_on_page": 15,
    "has_next": true,
    "has_prev": false,
    "next_page_url": "/api/v1/space/pages/2.json",
    "prev_page_url": null
  },
  "data": [
    {
      "id": "space_001",
      "category": "space",
      "title": "Space Wallpaper 001",
      "tags": [
        "space",
        "wallpaper",
        "hd",
        "mobile"
      ],
      "urls": {
        "raw": "https://media.githubusercontent.com/media/ddh4r4m/wallpaper-collection/main/collection/wallpapers/space/001.jpg",
        "thumb": "https://media.githubusercontent.com/media/ddh4r4m/wallpaper-collection/main/collection/thumbnails/space/001.jpg"
      },
      "metadata": {
        "dimensions": {
          "width": 1080,
          "height": 1920
        },
        "file_size": 618663,
        "format": "JPEG",
        "added_at": "2025-07-17T00:04:43.972500",
        "hash": "30401a78a49c8264f402d1e105d5f699",
        "source": "migrated"
      }
    },
    {
      "id": "space_002",
      "category": "space",
      "title": "Space Wallpaper 002",
      "tags": [
        "space",
        "wallpaper",
        "hd",
        "mobile"
      ],
      "urls": {
        "raw": "https://media.githubusercontent.com/media/ddh4r4m/wallpaper-collection/main/collection/wallpapers/space/002.jpg",
        "thumb": "https://media.githubusercontent.com/media/ddh4r4m/wallpaper-collection/main/collection/thumbnails/space/002.jpg"
      },
      "metadata": {
        "dimensions": {
          "width": 1080,
          "height": 1920
        },
        "file_size": 465502,
        "format": "JPEG",
        "added_at": "2025-07-17T00:04:44.041712",
        "hash": "a5e6fc27e476a8054982ceb891ea267c",
        "source": "migrated"
      }
    },
    {
      "id": "space_003",
      "category": "space",
      "title": "Space Wallpaper 003",
      "tags": [
        "space",
        "wallpaper",
        "hd",
        "mobile"
      ],
      "urls": {
        "raw": "https://media.githubusercontent.com/media/ddh4r4m/wallpaper-collection/main/collection/wallpapers/space/003.jpg",
        "thumb": "https://media.githubusercontent.com/media/ddh4r4m/wallpaper-collection/main/collection/thumbnails/space/003.jpg"
      },
      "metadata": {
        "dimensions": {
          "width": 1080,
          "height": 1920
        },
        "file_size": 675867,
        "format": "JPEG",
        "added_at": "2025-07-17T00:04:44.117083",
        "hash": "5fca8784192831f18d781421ca5a85e2",
        "source": "migrated"
      }
    },
    {
      "id": "space_004",
      "category": "space",
      "title": "Space Wallpaper 004",
      "tags": [
        "space",
        "wallpaper",
        "hd",
        "mobile"
      ],
      "urls": {
        "raw": "https://media.githubusercontent.com/media/ddh4r4m/wallpaper-collection/main/collection/wallpapers/space/004.jpg",
        "thumb": "https://media.githubusercontent.com/media/ddh4r4m/wallpaper-collection/main/collection/thumbnails/space/004.jpg"
      },
      "metadata": {
        "dimensions": {
          "width": 1080,
          "height": 1920
        },
        "file_size": 323514,
        "format": "JPEG",
        "added_at": "2025-07-17T00:04:44.173767",
        "hash": "becb7bd1b3289f28d3f10016655ccdb1",
        "source": "migrated"
      }
    },
    {
      "id": "space_005",
      "category": "space",
      "title": "Space Wallpaper 005",
      "tags": [
        "space",
        "wallpaper",
        "hd",
        "mobile"
      ],
      "urls": {
        "raw": "https://media.githubusercontent.com/media/ddh4r4m/wallpaper-collection/main/collection/wallpapers/space/005.jpg",
        "thumb": "https://media.githubusercontent.com/media/ddh4r4m/wallpaper-collection/main/collection/thumbnails/space/005.jpg"
      },
      "metadata": {
        "dimensions": {
          "width": 1080,
          "height": 1920
        },
        "file_size": 686584,
        "format": "JPEG",
        "added_at": "2025-07-17T00:04:44.253228",
        "hash": "c0b5a1e4a3e724f72be8d45d4e3035e2",
        "source": "migrated"
      }
    },
    {
      "id": "space_006",
      "category": "space",
      "title": "Space Wallpaper 006",
      "tags": [
        "space",
        "wallpaper",
        "hd",
        "mobile"
      ],
      "urls": {
        "raw": "https://media.githubusercontent.com/media/ddh4r4m/wallpaper-collection/main/collection/wallpapers/space/006.jpg",
        "thumb": "https://media.githubusercontent.com/media/ddh4r4m/wallpaper-collection/main/collection/thumbnails/space/006.jpg"
      },
      "metadata": {
        "dimensions": {
          "width": 1080,
          "height": 1920
        },
        "file_size": 64815,
        "format": "JPEG",
        "added_at": "2025-07-17T00:04:44.299196",
        "hash": "e24a550530e2f5b50d6aec96399c491a",
        "source": "migrated"
      }
    },
    {
      "id": "space_007",
      "category": "space",
      "title": "Space Wallpaper 007",
      "tags": [
        "space",
        "wallpaper",
        "hd",
        "mobile"
      ],
      "urls": {
        "raw": "https://media.githubusercontent.com/media/ddh4r4m/wallpaper-collection/main/collection/wallpapers/space/007.jpg",
        "thumb": "https://media.githubusercontent.com/media/ddh4r4m/wallpaper-collection/main/collection/thumbnails/space/007.jpg"
      },
      "metadata": {
        "dimensions": {
          "width": 1080,
          "height": 1920
        },
        "file_size": 109965,
        "format": "JPEG",
        "added_at": "2025-07-17T00:04:44.346736",
        "hash": "32f2495932fd65f571664c8ab45f1369",
        "source": "migrated"
      }
    },
    {
      "id": "space_008",
      "category": "space",
      "title": "Space Wallpaper 008",
      "tags": [
        "space",
        "wallpaper",
        "hd",
        "mobile"
      ],
      "urls": {
        "raw": "https://media.githubusercontent.com/media/ddh4r4m/wallpaper-collection/main/collection/wallpapers/space/008.jpg",
        "thumb": "https://media.githubusercontent.com/media/ddh4r4m/wallpaper-collection/main/collection/thumbnails/space/008.jpg"
      },
      "metadata": {
        "dimensions": {
          "width": 1080,
          "height": 1920
        },
        "file_size": 373081,
        "format": "JPEG",
        "added_at": "2025-07-17T00:04:44.409368",
        "hash": "4f2b6cf779552fbbd620fc44cd519184",
        "source": "migrated"
      }
    },
    {
      "id": "space_009",
      "category": "space",
      "title": "Space Wallpaper 009",
      "tags": [
        "space",
        "wallpaper",
        "hd",
        "mobile"
      ],
      "urls": {
        "raw": "https://media.githubusercontent.com/media/ddh4r4m/wallpaper-collection/main/collection/wallpapers/space/009.jpg",
        "thumb": "https://media.githubusercontent.com/media/ddh4r4m/wallpaper-collection/main/collection/thumbnails/space/009.jpg"
      },
      "metadata": {
        "dimensions": {
          "width": 1080,
          "height": 1920
        },
        "file_size": 163915,
        "format": "JPEG",
        "added_at": "2025-07-17T00:04:44.458347",
        "hash": "4ce189c30381d63ff65e01b0b48bd624",
        "source": "migrated"
      }
    },
    {
      "id": "space_010",
      "category": "space",
      "title": "Space Wallpaper 010",
      "tags": [
        "space",
        "wallpaper",
        "hd",
        "mobile"
      ],
      "urls": {
        "raw": "https://media.githubusercontent.com/media/ddh4r4m/wallpaper-collection/main/collection/wallpapers/space/010.jpg",
        "thumb": "https://media.githubusercontent.com/media/ddh4r4m/wallpaper-collection/main/collection/thumbnails/space/010.jpg"
      },
      "metadata": {
        "dimensions": {
          "width": 1080,
          "height": 1920
        },
        "file_size": 75994,
        "format": "JPEG",
        "added_at": "2025-07-17T00:04:44.502288",
        "hash": "24227f7865022d6145155eab92dfb1ba",
        "source": "migrated"
      }
    },
    {
      "id": "space_011",
      "category": "space",
      "title": "Space Wallpaper 011",
      "tags": [
        "space",
        "wallpaper",
        "hd",
        "mobile"
      ],
      "urls": {
        "raw": "https://media.githubusercontent.com/media/ddh4r4m/wallpaper-collection/main/collection/wallpapers/space/011.jpg",
        "thumb": "https://media.githubusercontent.com/media/ddh4r4m/wallpaper-collection/main/collection/thumbnails/space/011.jpg"
      },
      "metadata": {
        "dimensions": {
          "width": 1080,
          "height": 1920
        },
        "file_size": 112755,
        "format": "JPEG",
        "added_at": "2025-07-17T00:04:44.548792",
        "hash": "d4a1b4fecc6b909e1a95046c7c38aeae",
        "source": "migrated"
      }
    },
    {
      "id": "space_012",
      "category": "space",
      "title": "Space Wallpaper 012",
      "tags": [
        "space",
        "wallpaper",
        "hd",
        "mobile"
      ],
      "urls": {
        "raw": "https://media.githubusercontent.com/media/ddh4r4m/wallpaper-collection/main/collection/wallpapers/space/012.jpg",
        "thumb": "https://media.githubusercontent.com/media/ddh4r4m/wallpaper-collection/main/collection/thumbnails/space/012.jpg"
      },
      "metadata": {
        "dimensions": {
          "width": 1080,
          "height": 1920
        },
        "file_size": 410957,
        "format": "JPEG",
        "added_at": "2025-07-17T00:04:44.612620",
        "hash": "29033f3fb931a7dc87d1fbf4e065b22e",
        "source": "migrated"
      }
    },
    {
      "id": "space_013",
      "category": "space",
      "title": "Space Wallpaper 013",
      "tags": [
        "space",
        "wallpaper",
        "hd",
        "mobile"
      ],
      "urls": {
        "raw": "https://media.githubusercontent.com/media/ddh4r4m/wallpaper-collection/main/collection/wallpapers/space/013.jpg",
        "thumb": "https://media.githubusercontent.com/media/ddh4r4m/wallpaper-collection/main/collection/thumbnails/space/013.jpg"
      },
      "metadata": {
        "dimensions": {
          "width": 1080,
          "height": 1920
        },
        "file_size": 648968,
        "format": "JPEG",
        "added_at": "2025-07-17T00:04:44.689053",
        "hash": "5b90190299f8a8f246a9ec4f62375b07",
        "source": "migrated"
      }
    },
    {
      "id": "space_014",
      "category": "space",
      "title": "Space Wallpaper 014",
      "tags": [
        "space",
        "wallpaper",
        "hd",
        "mobile"
      ],
      "urls": {
        "raw": "https://media.githubusercontent.com/media/ddh4r4m/wallpaper-collection/main/collection/wallpapers/space/014.jpg",
        "thumb": "https://media.githubusercontent.com/media/ddh4r4m/wallpaper-collection/main/collection/thumbnails/space/014.jpg"
      },
      "metadata": {
        "dimensions": {
          "width": 1080,
          "height": 1920
        },
        "file_size": 284086,
        "format": "JPEG",
        "added_at": "2025-07-17T00:04:44.744491",
        "hash": "d208ec1cb93a7d432c82e34a404362f4",
        "source": "migrated"
      }
    },
    {
      "id": "space_015",
      "category": "space",
      "title": "Space Wallpaper 015",
      "tags": [
        "space",
        "wallpaper",
        "hd",
        "mobile"
      ],
      "urls": {
        "raw": "https://media.githubusercontent.com/media/ddh4r4m/wallpaper-collection/main/collection/wallpapers/space/015.jpg",
        "thumb": "https://media.githubusercontent.com/media/ddh4r4m/wallpaper-collection/main/collection/thumbnails/space/015.jpg"
      },
      "metadata": {
        "dimensions": {
          "width": 1080,
          "height": 1920
        },
        "file_size": 497728,
        "format": "JPEG",
        "added_at": "2025-07-17T00:04:44.811165",
        "hash": "bc76d3f8a28e510fde33ec59ee37498f",
        "source": "migrated"
      }
    }
  ]
}