{
  "meta": {
    "version": "1.0",
    "generated_at": "2025-07-17T00:06:19.072196",
    "category": "space",
    "page": 3,
    "per_page": 15,
    "total_pages": 6,
    "total_count": 86,
    "count_on_page": 15,
    "has_next": true,
    "has_prev": true,
    "next_page_url": "/api/v1/space/pages/4.json",
    "prev_page_url": "/api/v1/space/pages/2.json"
  },
  "data": [
    {
      "id": "space_031",
      "category": "space",
      "title": "Space Wallpaper 031",
      "tags": [
        "space",
        "wallpaper",
        "hd",
        "mobile"
      ],
      "urls": {
        "raw": "https://raw.githubusercontent.com/ddh4r4m/wallpaper-collection/main/collection/wallpapers/space/031.jpg",
        "thumb": "https://raw.githubusercontent.com/ddh4r4m/wallpaper-collection/main/collection/thumbnails/space/031.jpg"
      },
      "metadata": {
        "dimensions": {
          "width": 1080,
          "height": 1920
        },
        "file_size": 107539,
        "format": "JPEG",
        "added_at": "2025-07-17T00:04:45.852115",
        "hash": "99910991c3071ab6c44d0126a5a3da11",
        "source": "migrated"
      }
    },
    {
      "id": "space_032",
      "category": "space",
      "title": "Space Wallpaper 032",
      "tags": [
        "space",
        "wallpaper",
        "hd",
        "mobile"
      ],
      "urls": {
        "raw": "https://raw.githubusercontent.com/ddh4r4m/wallpaper-collection/main/collection/wallpapers/space/032.jpg",
        "thumb": "https://raw.githubusercontent.com/ddh4r4m/wallpaper-collection/main/collection/thumbnails/space/032.jpg"
      },
      "metadata": {
        "dimensions": {
          "width": 1080,
          "height": 1920
        },
        "file_size": 482090,
        "format": "JPEG",
        "added_at": "2025-07-17T00:04:45.914823",
        "hash": "06e21a9c93925ac347d46e067018ca59",
        "source": "migrated"
      }
    },
    {
      "id": "space_033",
      "category": "space",
      "title": "Space Wallpaper 033",
      "tags": [
        "space",
        "wallpaper",
        "hd",
        "mobile"
      ],
      "urls": {
        "raw": "https://raw.githubusercontent.com/ddh4r4m/wallpaper-collection/main/collection/wallpapers/space/033.jpg",
        "thumb": "https://raw.githubusercontent.com/ddh4r4m/wallpaper-collection/main/collection/thumbnails/space/033.jpg"
      },
      "metadata": {
        "dimensions": {
          "width": 1080,
          "height": 1920
        },
        "file_size": 341728,
        "format": "JPEG",
        "added_at": "2025-07-17T00:04:45.973506",
        "hash": "465b630279dbba7b3e8ed36e2072ba9e",
        "source": "migrated"
      }
    },
    {
      "id": "space_034",
      "category": "space",
      "title": "Space Wallpaper 034",
      "tags": [
        "space",
        "wallpaper",
        "hd",
        "mobile"
      ],
      "urls": {
        "raw": "https://raw.githubusercontent.com/ddh4r4m/wallpaper-collection/main/collection/wallpapers/space/034.jpg",
        "thumb": "https://raw.githubusercontent.com/ddh4r4m/wallpaper-collection/main/collection/thumbnails/space/034.jpg"
      },
      "metadata": {
        "dimensions": {
          "width": 1080,
          "height": 1920
        },
        "file_size": 383167,
        "format": "JPEG",
        "added_at": "2025-07-17T00:04:46.035734",
        "hash": "96277f851472bbcbbccab5414f16d17b",
        "source": "migrated"
      }
    },
    {
      "id": "space_035",
      "category": "space",
      "title": "Space Wallpaper 035",
      "tags": [
        "space",
        "wallpaper",
        "hd",
        "mobile"
      ],
      "urls": {
        "raw": "https://raw.githubusercontent.com/ddh4r4m/wallpaper-collection/main/collection/wallpapers/space/035.jpg",
        "thumb": "https://raw.githubusercontent.com/ddh4r4m/wallpaper-collection/main/collection/thumbnails/space/035.jpg"
      },
      "metadata": {
        "dimensions": {
          "width": 1080,
          "height": 1920
        },
        "file_size": 174482,
        "format": "JPEG",
        "added_at": "2025-07-17T00:04:46.085793",
        "hash": "f5ff63c4c598b942ecb8ef152c513c6e",
        "source": "migrated"
      }
    },
    {
      "id": "space_036",
      "category": "space",
      "title": "Space Wallpaper 036",
      "tags": [
        "space",
        "wallpaper",
        "hd",
        "mobile"
      ],
      "urls": {
        "raw": "https://raw.githubusercontent.com/ddh4r4m/wallpaper-collection/main/collection/wallpapers/space/036.jpg",
        "thumb": "https://raw.githubusercontent.com/ddh4r4m/wallpaper-collection/main/collection/thumbnails/space/036.jpg"
      },
      "metadata": {
        "dimensions": {
          "width": 1080,
          "height": 1920
        },
        "file_size": 992164,
        "format": "JPEG",
        "added_at": "2025-07-17T00:04:46.178996",
        "hash": "a3918551699445c185fbddd6211b4ccd",
        "source": "migrated"
      }
    },
    {
      "id": "space_037",
      "category": "space",
      "title": "Space Wallpaper 037",
      "tags": [
        "space",
        "wallpaper",
        "hd",
        "mobile"
      ],
      "urls": {
        "raw": "https://raw.githubusercontent.com/ddh4r4m/wallpaper-collection/main/collection/wallpapers/space/037.jpg",
        "thumb": "https://raw.githubusercontent.com/ddh4r4m/wallpaper-collection/main/collection/thumbnails/space/037.jpg"
      },
      "metadata": {
        "dimensions": {
          "width": 1080,
          "height": 1920
        },
        "file_size": 680860,
        "format": "JPEG",
        "added_at": "2025-07-17T00:04:46.256645",
        "hash": "b8a6352e7ab1cc2328731532e614903c",
        "source": "migrated"
      }
    },
    {
      "id": "space_038",
      "category": "space",
      "title": "Space Wallpaper 038",
      "tags": [
        "space",
        "wallpaper",
        "hd",
        "mobile"
      ],
      "urls": {
        "raw": "https://raw.githubusercontent.com/ddh4r4m/wallpaper-collection/main/collection/wallpapers/space/038.jpg",
        "thumb": "https://raw.githubusercontent.com/ddh4r4m/wallpaper-collection/main/collection/thumbnails/space/038.jpg"
      },
      "metadata": {
        "dimensions": {
          "width": 1080,
          "height": 1920
        },
        "file_size": 648968,
        "format": "JPEG",
        "added_at": "2025-07-17T00:04:46.330798",
        "hash": "5b90190299f8a8f246a9ec4f62375b07",
        "source": "migrated"
      }
    },
    {
      "id": "space_039",
      "category": "space",
      "title": "Space Wallpaper 039",
      "tags": [
        "space",
        "wallpaper",
        "hd",
        "mobile"
      ],
      "urls": {
        "raw": "https://raw.githubusercontent.com/ddh4r4m/wallpaper-collection/main/collection/wallpapers/space/039.jpg",
        "thumb": "https://raw.githubusercontent.com/ddh4r4m/wallpaper-collection/main/collection/thumbnails/space/039.jpg"
      },
      "metadata": {
        "dimensions": {
          "width": 1080,
          "height": 1920
        },
        "file_size": 321550,
        "format": "JPEG",
        "added_at": "2025-07-17T00:04:46.387843",
        "hash": "dd3af6d6518df1ebfa6ecec5ef1e6155",
        "source": "migrated"
      }
    },
    {
      "id": "space_040",
      "category": "space",
      "title": "Space Wallpaper 040",
      "tags": [
        "space",
        "wallpaper",
        "hd",
        "mobile"
      ],
      "urls": {
        "raw": "https://raw.githubusercontent.com/ddh4r4m/wallpaper-collection/main/collection/wallpapers/space/040.jpg",
        "thumb": "https://raw.githubusercontent.com/ddh4r4m/wallpaper-collection/main/collection/thumbnails/space/040.jpg"
      },
      "metadata": {
        "dimensions": {
          "width": 1080,
          "height": 1920
        },
        "file_size": 221953,
        "format": "JPEG",
        "added_at": "2025-07-17T00:04:46.439425",
        "hash": "4a51f115298cddbe81592d0500efa728",
        "source": "migrated"
      }
    },
    {
      "id": "space_041",
      "category": "space",
      "title": "Space Wallpaper 041",
      "tags": [
        "space",
        "wallpaper",
        "hd",
        "mobile"
      ],
      "urls": {
        "raw": "https://raw.githubusercontent.com/ddh4r4m/wallpaper-collection/main/collection/wallpapers/space/041.jpg",
        "thumb": "https://raw.githubusercontent.com/ddh4r4m/wallpaper-collection/main/collection/thumbnails/space/041.jpg"
      },
      "metadata": {
        "dimensions": {
          "width": 1080,
          "height": 1920
        },
        "file_size": 604470,
        "format": "JPEG",
        "added_at": "2025-07-17T00:04:46.514171",
        "hash": "3702b917a7e1653ae90a3b1250b5df5e",
        "source": "migrated"
      }
    },
    {
      "id": "space_042",
      "category": "space",
      "title": "Space Wallpaper 042",
      "tags": [
        "space",
        "wallpaper",
        "hd",
        "mobile"
      ],
      "urls": {
        "raw": "https://raw.githubusercontent.com/ddh4r4m/wallpaper-collection/main/collection/wallpapers/space/042.jpg",
        "thumb": "https://raw.githubusercontent.com/ddh4r4m/wallpaper-collection/main/collection/thumbnails/space/042.jpg"
      },
      "metadata": {
        "dimensions": {
          "width": 1080,
          "height": 1920
        },
        "file_size": 543258,
        "format": "JPEG",
        "added_at": "2025-07-17T00:04:46.585096",
        "hash": "497fe05b568421e3049dd26490a8d4b0",
        "source": "migrated"
      }
    },
    {
      "id": "space_043",
      "category": "space",
      "title": "Space Wallpaper 043",
      "tags": [
        "space",
        "wallpaper",
        "hd",
        "mobile"
      ],
      "urls": {
        "raw": "https://raw.githubusercontent.com/ddh4r4m/wallpaper-collection/main/collection/wallpapers/space/043.jpg",
        "thumb": "https://raw.githubusercontent.com/ddh4r4m/wallpaper-collection/main/collection/thumbnails/space/043.jpg"
      },
      "metadata": {
        "dimensions": {
          "width": 1080,
          "height": 1920
        },
        "file_size": 527205,
        "format": "JPEG",
        "added_at": "2025-07-17T00:04:46.653523",
        "hash": "65217073dc35dd70cfe42930ebd0215b",
        "source": "migrated"
      }
    },
    {
      "id": "space_044",
      "category": "space",
      "title": "Space Wallpaper 044",
      "tags": [
        "space",
        "wallpaper",
        "hd",
        "mobile"
      ],
      "urls": {
        "raw": "https://raw.githubusercontent.com/ddh4r4m/wallpaper-collection/main/collection/wallpapers/space/044.jpg",
        "thumb": "https://raw.githubusercontent.com/ddh4r4m/wallpaper-collection/main/collection/thumbnails/space/044.jpg"
      },
      "metadata": {
        "dimensions": {
          "width": 1080,
          "height": 1920
        },
        "file_size": 162212,
        "format": "JPEG",
        "added_at": "2025-07-17T00:04:46.703546",
        "hash": "3fcd50bceee3338114e9a4fefa3eb69b",
        "source": "migrated"
      }
    },
    {
      "id": "space_045",
      "category": "space",
      "title": "Space Wallpaper 045",
      "tags": [
        "space",
        "wallpaper",
        "hd",
        "mobile"
      ],
      "urls": {
        "raw": "https://raw.githubusercontent.com/ddh4r4m/wallpaper-collection/main/collection/wallpapers/space/045.jpg",
        "thumb": "https://raw.githubusercontent.com/ddh4r4m/wallpaper-collection/main/collection/thumbnails/space/045.jpg"
      },
      "metadata": {
        "dimensions": {
          "width": 1080,
          "height": 1920
        },
        "file_size": 398454,
        "format": "JPEG",
        "added_at": "2025-07-17T00:04:46.766003",
        "hash": "ba8dbb865cd0d75a687913b9dcd5b7bc",
        "source": "migrated"
      }
    }
  ]
}