{
  "meta": {
    "version": "1.0",
    "generated_at": "2025-07-17T00:06:19.072196",
    "category": "space",
    "page": 4,
    "per_page": 15,
    "total_pages": 6,
    "total_count": 86,
    "count_on_page": 15,
    "has_next": true,
    "has_prev": true,
    "next_page_url": "/api/v1/space/pages/5.json",
    "prev_page_url": "/api/v1/space/pages/3.json"
  },
  "data": [
    {
      "id": "space_046",
      "category": "space",
      "title": "Space Wallpaper 046",
      "tags": [
        "space",
        "wallpaper",
        "hd",
        "mobile"
      ],
      "urls": {
        "raw": "https://raw.githubusercontent.com/ddh4r4m/wallpaper-collection/main/collection/wallpapers/space/046.jpg",
        "thumb": "https://raw.githubusercontent.com/ddh4r4m/wallpaper-collection/main/collection/thumbnails/space/046.jpg"
      },
      "metadata": {
        "dimensions": {
          "width": 1080,
          "height": 1920
        },
        "file_size": 315617,
        "format": "JPEG",
        "added_at": "2025-07-17T00:04:46.823671",
        "hash": "ccb4f3264944b7cbcafd28fedd9ea581",
        "source": "migrated"
      }
    },
    {
      "id": "space_047",
      "category": "space",
      "title": "Space Wallpaper 047",
      "tags": [
        "space",
        "wallpaper",
        "hd",
        "mobile"
      ],
      "urls": {
        "raw": "https://raw.githubusercontent.com/ddh4r4m/wallpaper-collection/main/collection/wallpapers/space/047.jpg",
        "thumb": "https://raw.githubusercontent.com/ddh4r4m/wallpaper-collection/main/collection/thumbnails/space/047.jpg"
      },
      "metadata": {
        "dimensions": {
          "width": 1080,
          "height": 1920
        },
        "file_size": 722876,
        "format": "JPEG",
        "added_at": "2025-07-17T00:04:46.902548",
        "hash": "a43d29922516869f38bfeb73c8ae4a65",
        "source": "migrated"
      }
    },
    {
      "id": "space_048",
      "category": "space",
      "title": "Space Wallpaper 048",
      "tags": [
        "space",
        "wallpaper",
        "hd",
        "mobile"
      ],
      "urls": {
        "raw": "https://raw.githubusercontent.com/ddh4r4m/wallpaper-collection/main/collection/wallpapers/space/048.jpg",
        "thumb": "https://raw.githubusercontent.com/ddh4r4m/wallpaper-collection/main/collection/thumbnails/space/048.jpg"
      },
      "metadata": {
        "dimensions": {
          "width": 1080,
          "height": 1920
        },
        "file_size": 368963,
        "format": "JPEG",
        "added_at": "2025-07-17T00:04:46.965422",
        "hash": "4c50bf9d8f7b6d3e4ea39a0ffdeb7a39",
        "source": "migrated"
      }
    },
    {
      "id": "space_049",
      "category": "space",
      "title": "Space Wallpaper 049",
      "tags": [
        "space",
        "wallpaper",
        "hd",
        "mobile"
      ],
      "urls": {
        "raw": "https://raw.githubusercontent.com/ddh4r4m/wallpaper-collection/main/collection/wallpapers/space/049.jpg",
        "thumb": "https://raw.githubusercontent.com/ddh4r4m/wallpaper-collection/main/collection/thumbnails/space/049.jpg"
      },
      "metadata": {
        "dimensions": {
          "width": 1080,
          "height": 1920
        },
        "file_size": 244401,
        "format": "JPEG",
        "added_at": "2025-07-17T00:04:47.022119",
        "hash": "448afaa2893b8a1003e9fb1a15b0e478",
        "source": "migrated"
      }
    },
    {
      "id": "space_050",
      "category": "space",
      "title": "Space Wallpaper 050",
      "tags": [
        "space",
        "wallpaper",
        "hd",
        "mobile"
      ],
      "urls": {
        "raw": "https://raw.githubusercontent.com/ddh4r4m/wallpaper-collection/main/collection/wallpapers/space/050.jpg",
        "thumb": "https://raw.githubusercontent.com/ddh4r4m/wallpaper-collection/main/collection/thumbnails/space/050.jpg"
      },
      "metadata": {
        "dimensions": {
          "width": 1080,
          "height": 1920
        },
        "file_size": 315617,
        "format": "JPEG",
        "added_at": "2025-07-17T00:04:47.081603",
        "hash": "ccb4f3264944b7cbcafd28fedd9ea581",
        "source": "migrated"
      }
    },
    {
      "id": "space_051",
      "category": "space",
      "title": "Space Wallpaper 051",
      "tags": [
        "space",
        "wallpaper",
        "hd",
        "mobile"
      ],
      "urls": {
        "raw": "https://raw.githubusercontent.com/ddh4r4m/wallpaper-collection/main/collection/wallpapers/space/051.jpg",
        "thumb": "https://raw.githubusercontent.com/ddh4r4m/wallpaper-collection/main/collection/thumbnails/space/051.jpg"
      },
      "metadata": {
        "dimensions": {
          "width": 1080,
          "height": 1920
        },
        "file_size": 611117,
        "format": "JPEG",
        "added_at": "2025-07-17T00:04:47.153591",
        "hash": "6d8832c21fcd89b9da6266242a3d539a",
        "source": "migrated"
      }
    },
    {
      "id": "space_052",
      "category": "space",
      "title": "Space Wallpaper 052",
      "tags": [
        "space",
        "wallpaper",
        "hd",
        "mobile"
      ],
      "urls": {
        "raw": "https://raw.githubusercontent.com/ddh4r4m/wallpaper-collection/main/collection/wallpapers/space/052.jpg",
        "thumb": "https://raw.githubusercontent.com/ddh4r4m/wallpaper-collection/main/collection/thumbnails/space/052.jpg"
      },
      "metadata": {
        "dimensions": {
          "width": 1080,
          "height": 1920
        },
        "file_size": 64281,
        "format": "JPEG",
        "added_at": "2025-07-17T00:04:47.195745",
        "hash": "e2a24f08c892b8726f34e3ec78da29a9",
        "source": "migrated"
      }
    },
    {
      "id": "space_053",
      "category": "space",
      "title": "Space Wallpaper 053",
      "tags": [
        "space",
        "wallpaper",
        "hd",
        "mobile"
      ],
      "urls": {
        "raw": "https://raw.githubusercontent.com/ddh4r4m/wallpaper-collection/main/collection/wallpapers/space/053.jpg",
        "thumb": "https://raw.githubusercontent.com/ddh4r4m/wallpaper-collection/main/collection/thumbnails/space/053.jpg"
      },
      "metadata": {
        "dimensions": {
          "width": 1080,
          "height": 1920
        },
        "file_size": 270470,
        "format": "JPEG",
        "added_at": "2025-07-17T00:04:47.252018",
        "hash": "daaff6a00423cc382b0079b3ade73dd0",
        "source": "migrated"
      }
    },
    {
      "id": "space_054",
      "category": "space",
      "title": "Space Wallpaper 054",
      "tags": [
        "space",
        "wallpaper",
        "hd",
        "mobile"
      ],
      "urls": {
        "raw": "https://raw.githubusercontent.com/ddh4r4m/wallpaper-collection/main/collection/wallpapers/space/054.jpg",
        "thumb": "https://raw.githubusercontent.com/ddh4r4m/wallpaper-collection/main/collection/thumbnails/space/054.jpg"
      },
      "metadata": {
        "dimensions": {
          "width": 1080,
          "height": 1920
        },
        "file_size": 274445,
        "format": "JPEG",
        "added_at": "2025-07-17T00:04:47.310750",
        "hash": "c8e641a4c289af3a28cbd86141e94b11",
        "source": "migrated"
      }
    },
    {
      "id": "space_055",
      "category": "space",
      "title": "Space Wallpaper 055",
      "tags": [
        "space",
        "wallpaper",
        "hd",
        "mobile"
      ],
      "urls": {
        "raw": "https://raw.githubusercontent.com/ddh4r4m/wallpaper-collection/main/collection/wallpapers/space/055.jpg",
        "thumb": "https://raw.githubusercontent.com/ddh4r4m/wallpaper-collection/main/collection/thumbnails/space/055.jpg"
      },
      "metadata": {
        "dimensions": {
          "width": 1080,
          "height": 1920
        },
        "file_size": 160207,
        "format": "JPEG",
        "added_at": "2025-07-17T00:04:47.362700",
        "hash": "f90298e919820613071b6b5ab54d7e50",
        "source": "migrated"
      }
    },
    {
      "id": "space_056",
      "category": "space",
      "title": "Space Wallpaper 056",
      "tags": [
        "space",
        "wallpaper",
        "hd",
        "mobile"
      ],
      "urls": {
        "raw": "https://raw.githubusercontent.com/ddh4r4m/wallpaper-collection/main/collection/wallpapers/space/056.jpg",
        "thumb": "https://raw.githubusercontent.com/ddh4r4m/wallpaper-collection/main/collection/thumbnails/space/056.jpg"
      },
      "metadata": {
        "dimensions": {
          "width": 1080,
          "height": 1920
        },
        "file_size": 491982,
        "format": "JPEG",
        "added_at": "2025-07-17T00:04:47.429158",
        "hash": "8eb90344fc7f8d3d1574dc9464bdc80f",
        "source": "migrated"
      }
    },
    {
      "id": "space_057",
      "category": "space",
      "title": "Space Wallpaper 057",
      "tags": [
        "space",
        "wallpaper",
        "hd",
        "mobile"
      ],
      "urls": {
        "raw": "https://raw.githubusercontent.com/ddh4r4m/wallpaper-collection/main/collection/wallpapers/space/057.jpg",
        "thumb": "https://raw.githubusercontent.com/ddh4r4m/wallpaper-collection/main/collection/thumbnails/space/057.jpg"
      },
      "metadata": {
        "dimensions": {
          "width": 1080,
          "height": 1920
        },
        "file_size": 398454,
        "format": "JPEG",
        "added_at": "2025-07-17T00:04:47.493163",
        "hash": "ba8dbb865cd0d75a687913b9dcd5b7bc",
        "source": "migrated"
      }
    },
    {
      "id": "space_058",
      "category": "space",
      "title": "Space Wallpaper 058",
      "tags": [
        "space",
        "wallpaper",
        "hd",
        "mobile"
      ],
      "urls": {
        "raw": "https://raw.githubusercontent.com/ddh4r4m/wallpaper-collection/main/collection/wallpapers/space/058.jpg",
        "thumb": "https://raw.githubusercontent.com/ddh4r4m/wallpaper-collection/main/collection/thumbnails/space/058.jpg"
      },
      "metadata": {
        "dimensions": {
          "width": 1080,
          "height": 1920
        },
        "file_size": 362076,
        "format": "JPEG",
        "added_at": "2025-07-17T00:04:47.553518",
        "hash": "1050eaa6d6b661eb7045c461acbf2bf3",
        "source": "migrated"
      }
    },
    {
      "id": "space_059",
      "category": "space",
      "title": "Space Wallpaper 059",
      "tags": [
        "space",
        "wallpaper",
        "hd",
        "mobile"
      ],
      "urls": {
        "raw": "https://raw.githubusercontent.com/ddh4r4m/wallpaper-collection/main/collection/wallpapers/space/059.jpg",
        "thumb": "https://raw.githubusercontent.com/ddh4r4m/wallpaper-collection/main/collection/thumbnails/space/059.jpg"
      },
      "metadata": {
        "dimensions": {
          "width": 1080,
          "height": 1920
        },
        "file_size": 312207,
        "format": "JPEG",
        "added_at": "2025-07-17T00:04:47.607726",
        "hash": "4d40f25b1b9900800065cd632ff14261",
        "source": "migrated"
      }
    },
    {
      "id": "space_060",
      "category": "space",
      "title": "Space Wallpaper 060",
      "tags": [
        "space",
        "wallpaper",
        "hd",
        "mobile"
      ],
      "urls": {
        "raw": "https://raw.githubusercontent.com/ddh4r4m/wallpaper-collection/main/collection/wallpapers/space/060.jpg",
        "thumb": "https://raw.githubusercontent.com/ddh4r4m/wallpaper-collection/main/collection/thumbnails/space/060.jpg"
      },
      "metadata": {
        "dimensions": {
          "width": 1080,
          "height": 1920
        },
        "file_size": 115404,
        "format": "JPEG",
        "added_at": "2025-07-17T00:04:47.652618",
        "hash": "186559a4e9443c2aee9744249784d870",
        "source": "migrated"
      }
    }
  ]
}