{
  "meta": {
    "version": "1.0",
    "generated_at": "2025-07-17T21:14:17.488868",
    "category": "space",
    "page": 6,
    "per_page": 15,
    "total_pages": 6,
    "total_count": 86,
    "count_on_page": 11,
    "has_next": false,
    "has_prev": true,
    "next_page_url": null,
    "prev_page_url": "/api/v1/space/pages/5.json"
  },
  "data": [
    {
      "id": "space_076",
      "category": "space",
      "title": "Space Wallpaper 076",
      "tags": [
        "space",
        "wallpaper",
        "hd",
        "mobile"
      ],
      "urls": {
        "raw": "https://media.githubusercontent.com/media/ddh4r4m/wallpaper-collection/main/collection/wallpapers/space/076.jpg",
        "thumb": "https://media.githubusercontent.com/media/ddh4r4m/wallpaper-collection/main/collection/thumbnails/space/076.jpg"
      },
      "metadata": {
        "dimensions": {
          "width": 1080,
          "height": 1920
        },
        "file_size": 806856,
        "format": "JPEG",
        "added_at": "2025-07-17T00:04:48.616152",
        "hash": "bd0b05e3e923339807aca5d3c0e23613",
        "source": "migrated"
      }
    },
    {
      "id": "space_077",
      "category": "space",
      "title": "Space Wallpaper 077",
      "tags": [
        "space",
        "wallpaper",
        "hd",
        "mobile"
      ],
      "urls": {
        "raw": "https://media.githubusercontent.com/media/ddh4r4m/wallpaper-collection/main/collection/wallpapers/space/077.jpg",
        "thumb": "https://media.githubusercontent.com/media/ddh4r4m/wallpaper-collection/main/collection/thumbnails/space/077.jpg"
      },
      "metadata": {
        "dimensions": {
          "width": 1080,
          "height": 1920
        },
        "file_size": 557958,
        "format": "JPEG",
        "added_at": "2025-07-17T00:04:48.689405",
        "hash": "20883306a9194bc88f999d360d01ee08",
        "source": "migrated"
      }
    },
    {
      "id": "space_078",
      "category": "space",
      "title": "Space Wallpaper 078",
      "tags": [
        "space",
        "wallpaper",
        "hd",
        "mobile"
      ],
      "urls": {
        "raw": "https://media.githubusercontent.com/media/ddh4r4m/wallpaper-collection/main/collection/wallpapers/space/078.jpg",
        "thumb": "https://media.githubusercontent.com/media/ddh4r4m/wallpaper-collection/main/collection/thumbnails/space/078.jpg"
      },
      "metadata": {
        "dimensions": {
          "width": 1080,
          "height": 1920
        },
        "file_size": 388572,
        "format": "JPEG",
        "added_at": "2025-07-17T00:04:48.748485",
        "hash": "47aea930235e0550b22bb7298cedc76e",
        "source": "migrated"
      }
    },
    {
      "id": "space_079",
      "category": "space",
      "title": "Space Wallpaper 079",
      "tags": [
        "space",
        "wallpaper",
        "hd",
        "mobile"
      ],
      "urls": {
        "raw": "https://media.githubusercontent.com/media/ddh4r4m/wallpaper-collection/main/collection/wallpapers/space/079.jpg",
        "thumb": "https://media.githubusercontent.com/media/ddh4r4m/wallpaper-collection/main/collection/thumbnails/space/079.jpg"
      },
      "metadata": {
        "dimensions": {
          "width": 1080,
          "height": 1920
        },
        "file_size": 428725,
        "format": "JPEG",
        "added_at": "2025-07-17T00:04:48.813253",
        "hash": "e4d38cd45a91ffd0c2a848d02892523c",
        "source": "migrated"
      }
    },
    {
      "id": "space_080",
      "category": "space",
      "title": "Space Wallpaper 080",
      "tags": [
        "space",
        "wallpaper",
        "hd",
        "mobile"
      ],
      "urls": {
        "raw": "https://media.githubusercontent.com/media/ddh4r4m/wallpaper-collection/main/collection/wallpapers/space/080.jpg",
        "thumb": "https://media.githubusercontent.com/media/ddh4r4m/wallpaper-collection/main/collection/thumbnails/space/080.jpg"
      },
      "metadata": {
        "dimensions": {
          "width": 1080,
          "height": 1920
        },
        "file_size": 473250,
        "format": "JPEG",
        "added_at": "2025-07-17T00:04:48.881478",
        "hash": "26d5a9626015af95e81cb520ec98bfa1",
        "source": "migrated"
      }
    },
    {
      "id": "space_081",
      "category": "space",
      "title": "Space Wallpaper 081",
      "tags": [
        "space",
        "wallpaper",
        "hd",
        "mobile"
      ],
      "urls": {
        "raw": "https://media.githubusercontent.com/media/ddh4r4m/wallpaper-collection/main/collection/wallpapers/space/081.jpg",
        "thumb": "https://media.githubusercontent.com/media/ddh4r4m/wallpaper-collection/main/collection/thumbnails/space/081.jpg"
      },
      "metadata": {
        "dimensions": {
          "width": 1080,
          "height": 1920
        },
        "file_size": 181430,
        "format": "JPEG",
        "added_at": "2025-07-17T00:04:48.931947",
        "hash": "fb77d79f212bf2df633d09a3336d879f",
        "source": "migrated"
      }
    },
    {
      "id": "space_082",
      "category": "space",
      "title": "Space Wallpaper 082",
      "tags": [
        "space",
        "wallpaper",
        "hd",
        "mobile"
      ],
      "urls": {
        "raw": "https://media.githubusercontent.com/media/ddh4r4m/wallpaper-collection/main/collection/wallpapers/space/082.jpg",
        "thumb": "https://media.githubusercontent.com/media/ddh4r4m/wallpaper-collection/main/collection/thumbnails/space/082.jpg"
      },
      "metadata": {
        "dimensions": {
          "width": 1080,
          "height": 1920
        },
        "file_size": 485412,
        "format": "JPEG",
        "added_at": "2025-07-17T00:04:48.997538",
        "hash": "0c0f275c2a4a72c4e79d4f4215239378",
        "source": "migrated"
      }
    },
    {
      "id": "space_083",
      "category": "space",
      "title": "Space Wallpaper 083",
      "tags": [
        "space",
        "wallpaper",
        "hd",
        "mobile"
      ],
      "urls": {
        "raw": "https://media.githubusercontent.com/media/ddh4r4m/wallpaper-collection/main/collection/wallpapers/space/083.jpg",
        "thumb": "https://media.githubusercontent.com/media/ddh4r4m/wallpaper-collection/main/collection/thumbnails/space/083.jpg"
      },
      "metadata": {
        "dimensions": {
          "width": 1080,
          "height": 1920
        },
        "file_size": 234629,
        "format": "JPEG",
        "added_at": "2025-07-17T00:04:49.051540",
        "hash": "62d75cb09f87ee497504a8eb79e88db1",
        "source": "migrated"
      }
    },
    {
      "id": "space_084",
      "category": "space",
      "title": "Space Wallpaper 084",
      "tags": [
        "space",
        "wallpaper",
        "hd",
        "mobile"
      ],
      "urls": {
        "raw": "https://media.githubusercontent.com/media/ddh4r4m/wallpaper-collection/main/collection/wallpapers/space/084.jpg",
        "thumb": "https://media.githubusercontent.com/media/ddh4r4m/wallpaper-collection/main/collection/thumbnails/space/084.jpg"
      },
      "metadata": {
        "dimensions": {
          "width": 1080,
          "height": 1920
        },
        "file_size": 300100,
        "format": "JPEG",
        "added_at": "2025-07-17T00:04:49.107466",
        "hash": "a13335f6fee372340845c0250df2ef77",
        "source": "migrated"
      }
    },
    {
      "id": "space_085",
      "category": "space",
      "title": "Space Wallpaper 085",
      "tags": [
        "space",
        "wallpaper",
        "hd",
        "mobile"
      ],
      "urls": {
        "raw": "https://media.githubusercontent.com/media/ddh4r4m/wallpaper-collection/main/collection/wallpapers/space/085.jpg",
        "thumb": "https://media.githubusercontent.com/media/ddh4r4m/wallpaper-collection/main/collection/thumbnails/space/085.jpg"
      },
      "metadata": {
        "dimensions": {
          "width": 1080,
          "height": 1920
        },
        "file_size": 394382,
        "format": "JPEG",
        "added_at": "2025-07-17T00:04:49.170208",
        "hash": "b6bb5056aebfd1ef7e90cf8a385e786d",
        "source": "migrated"
      }
    },
    {
      "id": "space_086",
      "category": "space",
      "title": "Space Wallpaper 086",
      "tags": [
        "space",
        "wallpaper",
        "hd",
        "mobile"
      ],
      "urls": {
        "raw": "https://media.githubusercontent.com/media/ddh4r4m/wallpaper-collection/main/collection/wallpapers/space/086.jpg",
        "thumb": "https://media.githubusercontent.com/media/ddh4r4m/wallpaper-collection/main/collection/thumbnails/space/086.jpg"
      },
      "metadata": {
        "dimensions": {
          "width": 1080,
          "height": 1920
        },
        "file_size": 435438,
        "format": "JPEG",
        "added_at": "2025-07-17T00:04:49.233497",
        "hash": "c455c662d50c207beece7f671262673b",
        "source": "migrated"
      }
    }
  ]
}