{
  "meta": {
    "version": "1.0",
    "generated_at": "2025-07-28T22:38:03.579947",
    "category": "space",
    "page": 7,
    "per_page": 15,
    "total_pages": 9,
    "total_count": 125,
    "count_on_page": 15,
    "has_next": true,
    "has_prev": true,
    "next_page_url": "/api/v1/space/pages/8.json",
    "prev_page_url": "/api/v1/space/pages/6.json"
  },
  "data": [
    {
      "id": "space_091",
      "category": "space",
      "title": "A deep look into Scorpius. An  - Reddit AI",
      "tags": [
        "space",
        "ai-generated",
        "hd",
        "mobile",
        "community"
      ],
      "metadata": {
        "dimensions": {
          "width": 1080,
          "height": 919
        },
        "file_size": 197995,
        "format": "JPEG",
        "added_at": "2025-07-18T00:27:46.720106",
        "hash": "c28e7c64f73a15b2b84b2cb38722b2c2",
        "ai_source": "reddit",
        "ai_generated": true,
        "community_score": 115
      },
      "urls": {
        "raw": "https://media.githubusercontent.com/media/ddh4r4m/wallpaper-collection/main/collection/wallpapers/space/091.jpg",
        "thumb": "https://media.githubusercontent.com/media/ddh4r4m/wallpaper-collection/main/collection/thumbnails/space/091.jpg"
      }
    },
    {
      "id": "space_092",
      "category": "space",
      "title": "The ISS \ud83d\udef0\ufe0f camouflaged between - Reddit AI",
      "tags": [
        "space",
        "ai-generated",
        "hd",
        "mobile",
        "community"
      ],
      "metadata": {
        "dimensions": {
          "width": 1080,
          "height": 1070
        },
        "file_size": 68309,
        "format": "JPEG",
        "added_at": "2025-07-18T00:27:49.178987",
        "hash": "33c5746a3ad6eb2c3942fb620024ebd7",
        "ai_source": "reddit",
        "ai_generated": true,
        "community_score": 21
      },
      "urls": {
        "raw": "https://media.githubusercontent.com/media/ddh4r4m/wallpaper-collection/main/collection/wallpapers/space/092.jpg",
        "thumb": "https://media.githubusercontent.com/media/ddh4r4m/wallpaper-collection/main/collection/thumbnails/space/092.jpg"
      }
    },
    {
      "id": "space_093",
      "category": "space",
      "title": "A Fissure and Channel near Pav - Reddit AI",
      "tags": [
        "space",
        "ai-generated",
        "hd",
        "mobile",
        "community"
      ],
      "metadata": {
        "dimensions": {
          "width": 1080,
          "height": 810
        },
        "file_size": 198773,
        "format": "JPEG",
        "added_at": "2025-07-18T00:27:50.476199",
        "hash": "6baca3484c15d05c15010e961d3d1816",
        "ai_source": "reddit",
        "ai_generated": true,
        "community_score": 41
      },
      "urls": {
        "raw": "https://media.githubusercontent.com/media/ddh4r4m/wallpaper-collection/main/collection/wallpapers/space/093.jpg",
        "thumb": "https://media.githubusercontent.com/media/ddh4r4m/wallpaper-collection/main/collection/thumbnails/space/093.jpg"
      }
    },
    {
      "id": "space_094",
      "category": "space",
      "title": "[OC] orion nebula - Reddit AI",
      "tags": [
        "space",
        "ai-generated",
        "hd",
        "mobile",
        "community"
      ],
      "metadata": {
        "dimensions": {
          "width": 1080,
          "height": 1088
        },
        "file_size": 115851,
        "format": "JPEG",
        "added_at": "2025-07-18T00:27:51.802578",
        "hash": "66ffad2fa7cb8ea64cafb9c9ebf1947c",
        "ai_source": "reddit",
        "ai_generated": true,
        "community_score": 192
      },
      "urls": {
        "raw": "https://media.githubusercontent.com/media/ddh4r4m/wallpaper-collection/main/collection/wallpapers/space/094.jpg",
        "thumb": "https://media.githubusercontent.com/media/ddh4r4m/wallpaper-collection/main/collection/thumbnails/space/094.jpg"
      }
    },
    {
      "id": "space_095",
      "category": "space",
      "title": "LARGEST piece of Mars on Earth - Reddit AI",
      "tags": [
        "space",
        "ai-generated",
        "hd",
        "mobile",
        "community"
      ],
      "metadata": {
        "dimensions": {
          "width": 1080,
          "height": 720
        },
        "file_size": 140224,
        "format": "JPEG",
        "added_at": "2025-07-19T11:45:08.903280",
        "hash": "b0935cc2454c0d97b5f24bcb30d0959a",
        "ai_source": "reddit",
        "ai_generated": true,
        "community_score": 8006
      },
      "urls": {
        "raw": "https://media.githubusercontent.com/media/ddh4r4m/wallpaper-collection/main/collection/wallpapers/space/095.jpg",
        "thumb": "https://media.githubusercontent.com/media/ddh4r4m/wallpaper-collection/main/collection/thumbnails/space/095.jpg"
      }
    },
    {
      "id": "space_096",
      "category": "space",
      "title": "Meteor impact may have trigger - Reddit AI",
      "tags": [
        "space",
        "ai-generated",
        "hd",
        "mobile",
        "community"
      ],
      "metadata": {
        "dimensions": {
          "width": 1080,
          "height": 608
        },
        "file_size": 151611,
        "format": "JPEG",
        "added_at": "2025-07-19T11:45:09.965502",
        "hash": "893dcb19cd6364d0ff1b8ba36d96c19e",
        "ai_source": "reddit",
        "ai_generated": true,
        "community_score": 4296
      },
      "urls": {
        "raw": "https://media.githubusercontent.com/media/ddh4r4m/wallpaper-collection/main/collection/wallpapers/space/096.jpg",
        "thumb": "https://media.githubusercontent.com/media/ddh4r4m/wallpaper-collection/main/collection/thumbnails/space/096.jpg"
      }
    },
    {
      "id": "space_097",
      "category": "space",
      "title": "In new analysis, NASA and Oxfo - Reddit AI",
      "tags": [
        "space",
        "ai-generated",
        "hd",
        "mobile",
        "community"
      ],
      "metadata": {
        "dimensions": {
          "width": 1080,
          "height": 1080
        },
        "file_size": 74643,
        "format": "JPEG",
        "added_at": "2025-07-19T11:45:11.117780",
        "hash": "dbaabbed822fca055d13a586047101d1",
        "ai_source": "reddit",
        "ai_generated": true,
        "community_score": 11995
      },
      "urls": {
        "raw": "https://media.githubusercontent.com/media/ddh4r4m/wallpaper-collection/main/collection/wallpapers/space/097.jpg",
        "thumb": "https://media.githubusercontent.com/media/ddh4r4m/wallpaper-collection/main/collection/thumbnails/space/097.jpg"
      }
    },
    {
      "id": "space_098",
      "category": "space",
      "title": "Zigzag High-altitude clouds on - Reddit AI",
      "tags": [
        "space",
        "ai-generated",
        "hd",
        "mobile",
        "community"
      ],
      "metadata": {
        "dimensions": {
          "width": 1080,
          "height": 750
        },
        "file_size": 55486,
        "format": "JPEG",
        "added_at": "2025-07-19T11:45:12.225802",
        "hash": "e7c021980096113df0b058e7bc8d6ddb",
        "ai_source": "reddit",
        "ai_generated": true,
        "community_score": 1200
      },
      "urls": {
        "raw": "https://media.githubusercontent.com/media/ddh4r4m/wallpaper-collection/main/collection/wallpapers/space/098.jpg",
        "thumb": "https://media.githubusercontent.com/media/ddh4r4m/wallpaper-collection/main/collection/thumbnails/space/098.jpg"
      }
    },
    {
      "id": "space_099",
      "category": "space",
      "title": "Reprocessed horsehead nebula - Reddit AI",
      "tags": [
        "space",
        "ai-generated",
        "hd",
        "mobile",
        "community"
      ],
      "metadata": {
        "dimensions": {
          "width": 1080,
          "height": 625
        },
        "file_size": 49935,
        "format": "JPEG",
        "added_at": "2025-07-19T11:45:14.605420",
        "hash": "eeb3890f93bc37bac0ea26049736e7ef",
        "ai_source": "reddit",
        "ai_generated": true,
        "community_score": 292
      },
      "urls": {
        "raw": "https://media.githubusercontent.com/media/ddh4r4m/wallpaper-collection/main/collection/wallpapers/space/099.jpg",
        "thumb": "https://media.githubusercontent.com/media/ddh4r4m/wallpaper-collection/main/collection/thumbnails/space/099.jpg"
      }
    },
    {
      "id": "space_100",
      "category": "space",
      "title": "Saturn over the years - Reddit AI",
      "tags": [
        "space",
        "ai-generated",
        "hd",
        "mobile",
        "community"
      ],
      "metadata": {
        "dimensions": {
          "width": 1080,
          "height": 1080
        },
        "file_size": 71340,
        "format": "JPEG",
        "added_at": "2025-07-19T11:45:15.706732",
        "hash": "cc563c9ca9990c3b6e25430c3b3bc01c",
        "ai_source": "reddit",
        "ai_generated": true,
        "community_score": 363
      },
      "urls": {
        "raw": "https://media.githubusercontent.com/media/ddh4r4m/wallpaper-collection/main/collection/wallpapers/space/100.jpg",
        "thumb": "https://media.githubusercontent.com/media/ddh4r4m/wallpaper-collection/main/collection/thumbnails/space/100.jpg"
      }
    },
    {
      "id": "space_101",
      "category": "space",
      "title": "Auroras over waterfall - Reddit AI",
      "tags": [
        "space",
        "ai-generated",
        "hd",
        "mobile",
        "community"
      ],
      "metadata": {
        "dimensions": {
          "width": 1080,
          "height": 788
        },
        "file_size": 159317,
        "format": "JPEG",
        "added_at": "2025-07-19T11:45:16.830606",
        "hash": "ec9ecbea604fbef71a289f7e6349c41a",
        "ai_source": "reddit",
        "ai_generated": true,
        "community_score": 62
      },
      "urls": {
        "raw": "https://media.githubusercontent.com/media/ddh4r4m/wallpaper-collection/main/collection/wallpapers/space/101.jpg",
        "thumb": "https://media.githubusercontent.com/media/ddh4r4m/wallpaper-collection/main/collection/thumbnails/space/101.jpg"
      }
    },
    {
      "id": "space_102",
      "category": "space",
      "title": "Cool Artifact From Chicago, IL - Reddit AI",
      "tags": [
        "space",
        "ai-generated",
        "hd",
        "mobile",
        "community"
      ],
      "metadata": {
        "dimensions": {
          "width": 1080,
          "height": 1440
        },
        "file_size": 245146,
        "format": "JPEG",
        "added_at": "2025-07-19T11:45:18.097667",
        "hash": "a8500bd3df0412e9e4c643efcfc44ecb",
        "ai_source": "reddit",
        "ai_generated": true,
        "community_score": 47
      },
      "urls": {
        "raw": "https://media.githubusercontent.com/media/ddh4r4m/wallpaper-collection/main/collection/wallpapers/space/102.jpg",
        "thumb": "https://media.githubusercontent.com/media/ddh4r4m/wallpaper-collection/main/collection/thumbnails/space/102.jpg"
      }
    },
    {
      "id": "space_103",
      "category": "space",
      "title": "Colours of the Milky Way - Reddit AI",
      "tags": [
        "space",
        "ai-generated",
        "hd",
        "mobile",
        "community"
      ],
      "metadata": {
        "dimensions": {
          "width": 1080,
          "height": 1167
        },
        "file_size": 273586,
        "format": "JPEG",
        "added_at": "2025-07-19T11:45:19.237584",
        "hash": "cf9a128f02738b186a634d2e875ccef2",
        "ai_source": "reddit",
        "ai_generated": true,
        "community_score": 500
      },
      "urls": {
        "raw": "https://media.githubusercontent.com/media/ddh4r4m/wallpaper-collection/main/collection/wallpapers/space/103.jpg",
        "thumb": "https://media.githubusercontent.com/media/ddh4r4m/wallpaper-collection/main/collection/thumbnails/space/103.jpg"
      }
    },
    {
      "id": "space_104",
      "category": "space",
      "title": "LARGEST piece of Mars on Earth - Reddit AI",
      "tags": [
        "space",
        "ai-generated",
        "hd",
        "mobile",
        "community"
      ],
      "metadata": {
        "dimensions": {
          "width": 1080,
          "height": 720
        },
        "file_size": 140224,
        "format": "JPEG",
        "added_at": "2025-07-19T11:49:28.508646",
        "hash": "b0935cc2454c0d97b5f24bcb30d0959a",
        "ai_source": "reddit",
        "ai_generated": true,
        "community_score": 8164
      },
      "urls": {
        "raw": "https://media.githubusercontent.com/media/ddh4r4m/wallpaper-collection/main/collection/wallpapers/space/104.jpg",
        "thumb": "https://media.githubusercontent.com/media/ddh4r4m/wallpaper-collection/main/collection/thumbnails/space/104.jpg"
      }
    },
    {
      "id": "space_105",
      "category": "space",
      "title": "Meteor impact may have trigger - Reddit AI",
      "tags": [
        "space",
        "ai-generated",
        "hd",
        "mobile",
        "community"
      ],
      "metadata": {
        "dimensions": {
          "width": 1080,
          "height": 608
        },
        "file_size": 151611,
        "format": "JPEG",
        "added_at": "2025-07-19T11:49:29.580666",
        "hash": "893dcb19cd6364d0ff1b8ba36d96c19e",
        "ai_source": "reddit",
        "ai_generated": true,
        "community_score": 4302
      },
      "urls": {
        "raw": "https://media.githubusercontent.com/media/ddh4r4m/wallpaper-collection/main/collection/wallpapers/space/105.jpg",
        "thumb": "https://media.githubusercontent.com/media/ddh4r4m/wallpaper-collection/main/collection/thumbnails/space/105.jpg"
      }
    }
  ]
}