{
  "meta": {
    "version": "1.0",
    "generated_at": "2025-07-28T23:12:02.393375",
    "category": "space",
    "page": 8,
    "per_page": 15,
    "total_pages": 9,
    "total_count": 125,
    "count_on_page": 15,
    "has_next": true,
    "has_prev": true,
    "next_page_url": "/api/v1/space/pages/9.json",
    "prev_page_url": "/api/v1/space/pages/7.json"
  },
  "data": [
    {
      "id": "space_106",
      "category": "space",
      "title": "In new analysis, NASA and Oxfo - Reddit AI",
      "tags": [
        "space",
        "ai-generated",
        "hd",
        "mobile",
        "community"
      ],
      "metadata": {
        "dimensions": {
          "width": 1080,
          "height": 1080
        },
        "file_size": 74643,
        "format": "JPEG",
        "added_at": "2025-07-19T11:49:30.779204",
        "hash": "dbaabbed822fca055d13a586047101d1",
        "ai_source": "reddit",
        "ai_generated": true,
        "community_score": 11988
      },
      "urls": {
        "raw": "https://media.githubusercontent.com/media/ddh4r4m/wallpaper-collection/main/collection/wallpapers/space/106.jpg",
        "thumb": "https://media.githubusercontent.com/media/ddh4r4m/wallpaper-collection/main/collection/thumbnails/space/106.jpg"
      }
    },
    {
      "id": "space_107",
      "category": "space",
      "title": "Zigzag High-altitude clouds on - Reddit AI",
      "tags": [
        "space",
        "ai-generated",
        "hd",
        "mobile",
        "community"
      ],
      "metadata": {
        "dimensions": {
          "width": 1080,
          "height": 750
        },
        "file_size": 55486,
        "format": "JPEG",
        "added_at": "2025-07-19T11:49:31.888091",
        "hash": "e7c021980096113df0b058e7bc8d6ddb",
        "ai_source": "reddit",
        "ai_generated": true,
        "community_score": 1209
      },
      "urls": {
        "raw": "https://media.githubusercontent.com/media/ddh4r4m/wallpaper-collection/main/collection/wallpapers/space/107.jpg",
        "thumb": "https://media.githubusercontent.com/media/ddh4r4m/wallpaper-collection/main/collection/thumbnails/space/107.jpg"
      }
    },
    {
      "id": "space_108",
      "category": "space",
      "title": "Reprocessed horsehead nebula - Reddit AI",
      "tags": [
        "space",
        "ai-generated",
        "hd",
        "mobile",
        "community"
      ],
      "metadata": {
        "dimensions": {
          "width": 1080,
          "height": 625
        },
        "file_size": 49935,
        "format": "JPEG",
        "added_at": "2025-07-19T11:49:34.434586",
        "hash": "eeb3890f93bc37bac0ea26049736e7ef",
        "ai_source": "reddit",
        "ai_generated": true,
        "community_score": 290
      },
      "urls": {
        "raw": "https://media.githubusercontent.com/media/ddh4r4m/wallpaper-collection/main/collection/wallpapers/space/108.jpg",
        "thumb": "https://media.githubusercontent.com/media/ddh4r4m/wallpaper-collection/main/collection/thumbnails/space/108.jpg"
      }
    },
    {
      "id": "space_109",
      "category": "space",
      "title": "Saturn over the years - Reddit AI",
      "tags": [
        "space",
        "ai-generated",
        "hd",
        "mobile",
        "community"
      ],
      "metadata": {
        "dimensions": {
          "width": 1080,
          "height": 1080
        },
        "file_size": 71340,
        "format": "JPEG",
        "added_at": "2025-07-19T11:49:35.559030",
        "hash": "cc563c9ca9990c3b6e25430c3b3bc01c",
        "ai_source": "reddit",
        "ai_generated": true,
        "community_score": 362
      },
      "urls": {
        "raw": "https://media.githubusercontent.com/media/ddh4r4m/wallpaper-collection/main/collection/wallpapers/space/109.jpg",
        "thumb": "https://media.githubusercontent.com/media/ddh4r4m/wallpaper-collection/main/collection/thumbnails/space/109.jpg"
      }
    },
    {
      "id": "space_110",
      "category": "space",
      "title": "Auroras over waterfall - Reddit AI",
      "tags": [
        "space",
        "ai-generated",
        "hd",
        "mobile",
        "community"
      ],
      "metadata": {
        "dimensions": {
          "width": 1080,
          "height": 788
        },
        "file_size": 159317,
        "format": "JPEG",
        "added_at": "2025-07-19T11:49:36.705667",
        "hash": "ec9ecbea604fbef71a289f7e6349c41a",
        "ai_source": "reddit",
        "ai_generated": true,
        "community_score": 62
      },
      "urls": {
        "raw": "https://media.githubusercontent.com/media/ddh4r4m/wallpaper-collection/main/collection/wallpapers/space/110.jpg",
        "thumb": "https://media.githubusercontent.com/media/ddh4r4m/wallpaper-collection/main/collection/thumbnails/space/110.jpg"
      }
    },
    {
      "id": "space_111",
      "category": "space",
      "title": "Cool Artifact From Chicago, IL - Reddit AI",
      "tags": [
        "space",
        "ai-generated",
        "hd",
        "mobile",
        "community"
      ],
      "metadata": {
        "dimensions": {
          "width": 1080,
          "height": 1440
        },
        "file_size": 245146,
        "format": "JPEG",
        "added_at": "2025-07-19T11:49:38.033988",
        "hash": "a8500bd3df0412e9e4c643efcfc44ecb",
        "ai_source": "reddit",
        "ai_generated": true,
        "community_score": 48
      },
      "urls": {
        "raw": "https://media.githubusercontent.com/media/ddh4r4m/wallpaper-collection/main/collection/wallpapers/space/111.jpg",
        "thumb": "https://media.githubusercontent.com/media/ddh4r4m/wallpaper-collection/main/collection/thumbnails/space/111.jpg"
      }
    },
    {
      "id": "space_112",
      "category": "space",
      "title": "Colours of the Milky Way - Reddit AI",
      "tags": [
        "space",
        "ai-generated",
        "hd",
        "mobile",
        "community"
      ],
      "metadata": {
        "dimensions": {
          "width": 1080,
          "height": 1167
        },
        "file_size": 273586,
        "format": "JPEG",
        "added_at": "2025-07-19T11:49:39.165711",
        "hash": "cf9a128f02738b186a634d2e875ccef2",
        "ai_source": "reddit",
        "ai_generated": true,
        "community_score": 503
      },
      "urls": {
        "raw": "https://media.githubusercontent.com/media/ddh4r4m/wallpaper-collection/main/collection/wallpapers/space/112.jpg",
        "thumb": "https://media.githubusercontent.com/media/ddh4r4m/wallpaper-collection/main/collection/thumbnails/space/112.jpg"
      }
    },
    {
      "id": "space_113",
      "category": "space",
      "title": "RAW photo, analog photography.  Sensual - Civitai AI",
      "tags": [
        "space",
        "ai-generated",
        "civitai",
        "stable-diffusion",
        "hd",
        "mobile",
        "community-rated"
      ],
      "metadata": {
        "dimensions": {
          "width": 832,
          "height": 1216
        },
        "file_size": 107124,
        "format": "JPEG",
        "added_at": "2025-07-19T11:59:31.425393",
        "hash": "2d6f52b8c855ea24238d286006f45b20",
        "ai_source": "civitai",
        "ai_generated": true,
        "source_platform": "civitai.com",
        "ai_prompt": "RAW photo, analog photography.  Sensual young woman, solo, looking at camera, ((blushing, flustered, horny, naughty smile, smirk)), ((gold hairband)), (mascara, eyeliner,eyeshadow), ((black choker)), ",
        "civitai_stats": {
          "cryCount": 10,
          "laughCount": 29,
          "likeCount": 216,
          "dislikeCount": 0,
          "heartCount": 73,
          "commentCount": 0
        }
      },
      "urls": {
        "raw": "https://media.githubusercontent.com/media/ddh4r4m/wallpaper-collection/main/collection/wallpapers/space/113.jpg",
        "thumb": "https://media.githubusercontent.com/media/ddh4r4m/wallpaper-collection/main/collection/thumbnails/space/113.jpg"
      }
    },
    {
      "id": "space_114",
      "category": "space",
      "title": "Space AI Art - Civitai",
      "tags": [
        "space",
        "ai-generated",
        "civitai",
        "stable-diffusion",
        "hd",
        "mobile",
        "community-rated"
      ],
      "metadata": {
        "dimensions": {
          "width": 1080,
          "height": 1607
        },
        "file_size": 178255,
        "format": "JPEG",
        "added_at": "2025-07-19T11:59:34.626286",
        "hash": "de208147e519a4edb6c4527c09926366",
        "ai_source": "civitai",
        "ai_generated": true,
        "source_platform": "civitai.com",
        "civitai_stats": {
          "cryCount": 6,
          "laughCount": 17,
          "likeCount": 227,
          "dislikeCount": 0,
          "heartCount": 45,
          "commentCount": 0
        }
      },
      "urls": {
        "raw": "https://media.githubusercontent.com/media/ddh4r4m/wallpaper-collection/main/collection/wallpapers/space/114.jpg",
        "thumb": "https://media.githubusercontent.com/media/ddh4r4m/wallpaper-collection/main/collection/thumbnails/space/114.jpg"
      }
    },
    {
      "id": "space_115",
      "category": "space",
      "title": "full length photo, sensual elite woman, - Civitai AI",
      "tags": [
        "space",
        "ai-generated",
        "civitai",
        "stable-diffusion",
        "hd",
        "mobile",
        "community-rated"
      ],
      "metadata": {
        "dimensions": {
          "width": 832,
          "height": 1216
        },
        "file_size": 155116,
        "format": "JPEG",
        "added_at": "2025-07-19T11:59:36.425818",
        "hash": "604812bee6c9e58df00cb95a7ccafc68",
        "ai_source": "civitai",
        "ai_generated": true,
        "source_platform": "civitai.com",
        "ai_prompt": "full length photo, sensual elite woman, sexy attire, photorealistic, glamour photography, artistic photo, seductive adult woman, sensual fashionista woman, sexy long grey hair with dark highlights, go",
        "civitai_stats": {
          "cryCount": 11,
          "laughCount": 21,
          "likeCount": 148,
          "dislikeCount": 0,
          "heartCount": 56,
          "commentCount": 0
        }
      },
      "urls": {
        "raw": "https://media.githubusercontent.com/media/ddh4r4m/wallpaper-collection/main/collection/wallpapers/space/115.jpg",
        "thumb": "https://media.githubusercontent.com/media/ddh4r4m/wallpaper-collection/main/collection/thumbnails/space/115.jpg"
      }
    },
    {
      "id": "space_116",
      "category": "space",
      "title": "full length photo, sensual elite woman, - Civitai AI",
      "tags": [
        "space",
        "ai-generated",
        "civitai",
        "stable-diffusion",
        "hd",
        "mobile",
        "community-rated"
      ],
      "metadata": {
        "dimensions": {
          "width": 832,
          "height": 1216
        },
        "file_size": 141585,
        "format": "JPEG",
        "added_at": "2025-07-19T11:59:37.755005",
        "hash": "a20f7c27675bdd0da797d50d94a8ebc0",
        "ai_source": "civitai",
        "ai_generated": true,
        "source_platform": "civitai.com",
        "ai_prompt": "full length photo, sensual elite woman, sexy attire, photorealistic, glamour photography, artistic photo, seductive adult woman, sensual fashionista woman, sexy long grey hair with dark highlights, go",
        "civitai_stats": {
          "cryCount": 9,
          "laughCount": 14,
          "likeCount": 139,
          "dislikeCount": 0,
          "heartCount": 57,
          "commentCount": 0
        }
      },
      "urls": {
        "raw": "https://media.githubusercontent.com/media/ddh4r4m/wallpaper-collection/main/collection/wallpapers/space/116.jpg",
        "thumb": "https://media.githubusercontent.com/media/ddh4r4m/wallpaper-collection/main/collection/thumbnails/space/116.jpg"
      }
    },
    {
      "id": "space_117",
      "category": "space",
      "title": "full length photo, sensual elite woman, - Civitai AI",
      "tags": [
        "space",
        "ai-generated",
        "civitai",
        "stable-diffusion",
        "hd",
        "mobile",
        "community-rated"
      ],
      "metadata": {
        "dimensions": {
          "width": 832,
          "height": 1216
        },
        "file_size": 135956,
        "format": "JPEG",
        "added_at": "2025-07-19T11:59:39.087704",
        "hash": "f774e7ed0aed2dafdfd08b93bb0ff4c1",
        "ai_source": "civitai",
        "ai_generated": true,
        "source_platform": "civitai.com",
        "ai_prompt": "full length photo, sensual elite woman, sexy attire, photorealistic, glamour photography, artistic photo, seductive adult woman, sensual fashionista woman, sexy long grey hair with dark highlights, go",
        "civitai_stats": {
          "cryCount": 1,
          "laughCount": 15,
          "likeCount": 115,
          "dislikeCount": 0,
          "heartCount": 48,
          "commentCount": 0
        }
      },
      "urls": {
        "raw": "https://media.githubusercontent.com/media/ddh4r4m/wallpaper-collection/main/collection/wallpapers/space/117.jpg",
        "thumb": "https://media.githubusercontent.com/media/ddh4r4m/wallpaper-collection/main/collection/thumbnails/space/117.jpg"
      }
    },
    {
      "id": "space_118",
      "category": "space",
      "title": "full length photo, sensual elite woman, - Civitai AI",
      "tags": [
        "space",
        "ai-generated",
        "civitai",
        "stable-diffusion",
        "hd",
        "mobile",
        "community-rated"
      ],
      "metadata": {
        "dimensions": {
          "width": 832,
          "height": 1216
        },
        "file_size": 143026,
        "format": "JPEG",
        "added_at": "2025-07-19T11:59:41.453199",
        "hash": "8745f95fb64d4c3bf0a8ee14c2fcd141",
        "ai_source": "civitai",
        "ai_generated": true,
        "source_platform": "civitai.com",
        "ai_prompt": "full length photo, sensual elite woman, sexy attire, photorealistic, glamour photography, artistic photo, seductive adult woman, sensual fashionista woman, sexy long grey hair with dark highlights, go",
        "civitai_stats": {
          "cryCount": 1,
          "laughCount": 11,
          "likeCount": 124,
          "dislikeCount": 0,
          "heartCount": 41,
          "commentCount": 0
        }
      },
      "urls": {
        "raw": "https://media.githubusercontent.com/media/ddh4r4m/wallpaper-collection/main/collection/wallpapers/space/118.jpg",
        "thumb": "https://media.githubusercontent.com/media/ddh4r4m/wallpaper-collection/main/collection/thumbnails/space/118.jpg"
      }
    },
    {
      "id": "space_119",
      "category": "space",
      "title": "luxury magazine phtotography, Full body - Civitai AI",
      "tags": [
        "space",
        "ai-generated",
        "civitai",
        "stable-diffusion",
        "hd",
        "mobile",
        "community-rated"
      ],
      "metadata": {
        "dimensions": {
          "width": 1080,
          "height": 739
        },
        "file_size": 146462,
        "format": "JPEG",
        "added_at": "2025-07-19T11:59:43.894204",
        "hash": "fb65ae2d30f7f2b0c84b9659011ad00f",
        "ai_source": "civitai",
        "ai_generated": true,
        "source_platform": "civitai.com",
        "ai_prompt": "luxury magazine phtotography, Full body photography of a sensual lady pirate, black hair blowing, tattoo at her neck, sits near the window, relaxed while holding a glass of whiskey. highly detailed dr",
        "civitai_stats": {
          "cryCount": 1,
          "laughCount": 11,
          "likeCount": 100,
          "dislikeCount": 0,
          "heartCount": 40,
          "commentCount": 0
        }
      },
      "urls": {
        "raw": "https://media.githubusercontent.com/media/ddh4r4m/wallpaper-collection/main/collection/wallpapers/space/119.jpg",
        "thumb": "https://media.githubusercontent.com/media/ddh4r4m/wallpaper-collection/main/collection/thumbnails/space/119.jpg"
      }
    },
    {
      "id": "space_120",
      "category": "space",
      "title": "full length photo, sensual elite woman, - Civitai AI",
      "tags": [
        "space",
        "ai-generated",
        "civitai",
        "stable-diffusion",
        "hd",
        "mobile",
        "community-rated"
      ],
      "metadata": {
        "dimensions": {
          "width": 832,
          "height": 1216
        },
        "file_size": 142085,
        "format": "JPEG",
        "added_at": "2025-07-19T11:59:45.742210",
        "hash": "b86e6be5c9db7fae670d43b24ca8a5e5",
        "ai_source": "civitai",
        "ai_generated": true,
        "source_platform": "civitai.com",
        "ai_prompt": "full length photo, sensual elite woman, sexy attire, photorealistic, glamour photography, artistic photo, seductive adult woman, sensual fashionista woman, sexy long grey hair with dark highlights, go",
        "civitai_stats": {
          "cryCount": 0,
          "laughCount": 5,
          "likeCount": 95,
          "dislikeCount": 0,
          "heartCount": 35,
          "commentCount": 0
        }
      },
      "urls": {
        "raw": "https://media.githubusercontent.com/media/ddh4r4m/wallpaper-collection/main/collection/wallpapers/space/120.jpg",
        "thumb": "https://media.githubusercontent.com/media/ddh4r4m/wallpaper-collection/main/collection/thumbnails/space/120.jpg"
      }
    }
  ]
}