{
  "meta": {
    "version": "1.0",
    "generated_at": "2025-07-28T23:12:02.393375",
    "category": "sports",
    "page": 1,
    "per_page": 15,
    "total_pages": 8,
    "total_count": 115,
    "count_on_page": 15,
    "has_next": true,
    "has_prev": false,
    "next_page_url": "/api/v1/sports/pages/2.json",
    "prev_page_url": null
  },
  "data": [
    {
      "id": "sports_001",
      "category": "sports",
      "title": "Sports Wallpaper 001",
      "tags": [
        "sports"
      ],
      "urls": {
        "raw": "https://media.githubusercontent.com/media/ddh4r4m/wallpaper-collection/main/collection/wallpapers/sports/001.jpg",
        "thumb": "https://media.githubusercontent.com/media/ddh4r4m/wallpaper-collection/main/collection/thumbnails/sports/001.jpg"
      },
      "metadata": {
        "added_at": "2025-07-21T01:01:48.684571",
        "file_size": 319206,
        "dimensions": {
          "width": 1080,
          "height": 1920
        }
      }
    },
    {
      "id": "sports_002",
      "category": "sports",
      "title": "Sports Wallpaper 002",
      "tags": [
        "sports"
      ],
      "urls": {
        "raw": "https://media.githubusercontent.com/media/ddh4r4m/wallpaper-collection/main/collection/wallpapers/sports/002.jpg",
        "thumb": "https://media.githubusercontent.com/media/ddh4r4m/wallpaper-collection/main/collection/thumbnails/sports/002.jpg"
      },
      "metadata": {
        "added_at": "2025-07-21T01:01:48.792540",
        "file_size": 292741,
        "dimensions": {
          "width": 1080,
          "height": 1920
        }
      }
    },
    {
      "id": "sports_003",
      "category": "sports",
      "title": "Sports Wallpaper 003",
      "tags": [
        "sports"
      ],
      "urls": {
        "raw": "https://media.githubusercontent.com/media/ddh4r4m/wallpaper-collection/main/collection/wallpapers/sports/003.jpg",
        "thumb": "https://media.githubusercontent.com/media/ddh4r4m/wallpaper-collection/main/collection/thumbnails/sports/003.jpg"
      },
      "metadata": {
        "added_at": "2025-07-21T01:01:48.922003",
        "file_size": 351508,
        "dimensions": {
          "width": 1080,
          "height": 1920
        }
      }
    },
    {
      "id": "sports_004",
      "category": "sports",
      "title": "Sports Wallpaper 004",
      "tags": [
        "sports"
      ],
      "urls": {
        "raw": "https://media.githubusercontent.com/media/ddh4r4m/wallpaper-collection/main/collection/wallpapers/sports/004.jpg",
        "thumb": "https://media.githubusercontent.com/media/ddh4r4m/wallpaper-collection/main/collection/thumbnails/sports/004.jpg"
      },
      "metadata": {
        "added_at": "2025-07-21T01:01:49.223329",
        "file_size": 62938,
        "dimensions": {
          "width": 1080,
          "height": 1920
        }
      }
    },
    {
      "id": "sports_005",
      "category": "sports",
      "title": "Sports Wallpaper 005",
      "tags": [
        "sports"
      ],
      "urls": {
        "raw": "https://media.githubusercontent.com/media/ddh4r4m/wallpaper-collection/main/collection/wallpapers/sports/005.jpg",
        "thumb": "https://media.githubusercontent.com/media/ddh4r4m/wallpaper-collection/main/collection/thumbnails/sports/005.jpg"
      },
      "metadata": {
        "added_at": "2025-07-21T01:01:49.316399",
        "file_size": 125592,
        "dimensions": {
          "width": 1080,
          "height": 1920
        }
      }
    },
    {
      "id": "sports_006",
      "category": "sports",
      "title": "Sports Wallpaper 006",
      "tags": [
        "sports"
      ],
      "urls": {
        "raw": "https://media.githubusercontent.com/media/ddh4r4m/wallpaper-collection/main/collection/wallpapers/sports/006.jpg",
        "thumb": "https://media.githubusercontent.com/media/ddh4r4m/wallpaper-collection/main/collection/thumbnails/sports/006.jpg"
      },
      "metadata": {
        "added_at": "2025-07-21T01:01:49.448833",
        "file_size": 201930,
        "dimensions": {
          "width": 1080,
          "height": 1920
        }
      }
    },
    {
      "id": "sports_007",
      "category": "sports",
      "title": "Sports Wallpaper 007",
      "tags": [
        "sports"
      ],
      "urls": {
        "raw": "https://media.githubusercontent.com/media/ddh4r4m/wallpaper-collection/main/collection/wallpapers/sports/007.jpg",
        "thumb": "https://media.githubusercontent.com/media/ddh4r4m/wallpaper-collection/main/collection/thumbnails/sports/007.jpg"
      },
      "metadata": {
        "added_at": "2025-07-21T01:01:49.580393",
        "file_size": 201930,
        "dimensions": {
          "width": 1080,
          "height": 1920
        }
      }
    },
    {
      "id": "sports_008",
      "category": "sports",
      "title": "Sports Wallpaper 008",
      "tags": [
        "sports"
      ],
      "urls": {
        "raw": "https://media.githubusercontent.com/media/ddh4r4m/wallpaper-collection/main/collection/wallpapers/sports/008.jpg",
        "thumb": "https://media.githubusercontent.com/media/ddh4r4m/wallpaper-collection/main/collection/thumbnails/sports/008.jpg"
      },
      "metadata": {
        "added_at": "2025-07-21T01:01:49.780293",
        "file_size": 225664,
        "dimensions": {
          "width": 1080,
          "height": 1920
        }
      }
    },
    {
      "id": "sports_009",
      "category": "sports",
      "title": "Sports Wallpaper 009",
      "tags": [
        "sports"
      ],
      "urls": {
        "raw": "https://media.githubusercontent.com/media/ddh4r4m/wallpaper-collection/main/collection/wallpapers/sports/009.jpg",
        "thumb": "https://media.githubusercontent.com/media/ddh4r4m/wallpaper-collection/main/collection/thumbnails/sports/009.jpg"
      },
      "metadata": {
        "added_at": "2025-07-21T01:01:49.892609",
        "file_size": 300345,
        "dimensions": {
          "width": 1080,
          "height": 1920
        }
      }
    },
    {
      "id": "sports_010",
      "category": "sports",
      "title": "Sports Wallpaper 010",
      "tags": [
        "sports"
      ],
      "urls": {
        "raw": "https://media.githubusercontent.com/media/ddh4r4m/wallpaper-collection/main/collection/wallpapers/sports/010.jpg",
        "thumb": "https://media.githubusercontent.com/media/ddh4r4m/wallpaper-collection/main/collection/thumbnails/sports/010.jpg"
      },
      "metadata": {
        "added_at": "2025-07-21T01:01:50.030159",
        "file_size": 367161,
        "dimensions": {
          "width": 1080,
          "height": 1920
        }
      }
    },
    {
      "id": "sports_011",
      "category": "sports",
      "title": "Sports Wallpaper 011",
      "tags": [
        "sports"
      ],
      "urls": {
        "raw": "https://media.githubusercontent.com/media/ddh4r4m/wallpaper-collection/main/collection/wallpapers/sports/011.jpg",
        "thumb": "https://media.githubusercontent.com/media/ddh4r4m/wallpaper-collection/main/collection/thumbnails/sports/011.jpg"
      },
      "metadata": {
        "added_at": "2025-07-21T01:01:50.168441",
        "file_size": 451331,
        "dimensions": {
          "width": 1080,
          "height": 1920
        }
      }
    },
    {
      "id": "sports_012",
      "category": "sports",
      "title": "Sports Wallpaper 012",
      "tags": [
        "sports"
      ],
      "urls": {
        "raw": "https://media.githubusercontent.com/media/ddh4r4m/wallpaper-collection/main/collection/wallpapers/sports/012.jpg",
        "thumb": "https://media.githubusercontent.com/media/ddh4r4m/wallpaper-collection/main/collection/thumbnails/sports/012.jpg"
      },
      "metadata": {
        "added_at": "2025-07-21T01:01:50.308317",
        "file_size": 451331,
        "dimensions": {
          "width": 1080,
          "height": 1920
        }
      }
    },
    {
      "id": "sports_013",
      "category": "sports",
      "title": "Sports Wallpaper 013",
      "tags": [
        "sports"
      ],
      "urls": {
        "raw": "https://media.githubusercontent.com/media/ddh4r4m/wallpaper-collection/main/collection/wallpapers/sports/013.jpg",
        "thumb": "https://media.githubusercontent.com/media/ddh4r4m/wallpaper-collection/main/collection/thumbnails/sports/013.jpg"
      },
      "metadata": {
        "added_at": "2025-07-21T01:01:50.466727",
        "file_size": 680437,
        "dimensions": {
          "width": 1080,
          "height": 1920
        }
      }
    },
    {
      "id": "sports_014",
      "category": "sports",
      "title": "Sports Wallpaper 014",
      "tags": [
        "sports"
      ],
      "urls": {
        "raw": "https://media.githubusercontent.com/media/ddh4r4m/wallpaper-collection/main/collection/wallpapers/sports/014.jpg",
        "thumb": "https://media.githubusercontent.com/media/ddh4r4m/wallpaper-collection/main/collection/thumbnails/sports/014.jpg"
      },
      "metadata": {
        "added_at": "2025-07-21T01:01:50.604545",
        "file_size": 214697,
        "dimensions": {
          "width": 1080,
          "height": 1920
        }
      }
    },
    {
      "id": "sports_015",
      "category": "sports",
      "title": "Sports Wallpaper 015",
      "tags": [
        "sports"
      ],
      "urls": {
        "raw": "https://media.githubusercontent.com/media/ddh4r4m/wallpaper-collection/main/collection/wallpapers/sports/015.jpg",
        "thumb": "https://media.githubusercontent.com/media/ddh4r4m/wallpaper-collection/main/collection/thumbnails/sports/015.jpg"
      },
      "metadata": {
        "added_at": "2025-07-21T01:01:50.745659",
        "file_size": 491856,
        "dimensions": {
          "width": 1080,
          "height": 1920
        }
      }
    }
  ]
}