{
  "meta": {
    "version": "1.0",
    "generated_at": "2025-07-28T22:38:03.579947",
    "category": "sports",
    "page": 3,
    "per_page": 15,
    "total_pages": 8,
    "total_count": 115,
    "count_on_page": 15,
    "has_next": true,
    "has_prev": true,
    "next_page_url": "/api/v1/sports/pages/4.json",
    "prev_page_url": "/api/v1/sports/pages/2.json"
  },
  "data": [
    {
      "id": "sports_031",
      "category": "sports",
      "title": "Sports Wallpaper 031",
      "tags": [
        "sports"
      ],
      "urls": {
        "raw": "https://media.githubusercontent.com/media/ddh4r4m/wallpaper-collection/main/collection/wallpapers/sports/031.jpg",
        "thumb": "https://media.githubusercontent.com/media/ddh4r4m/wallpaper-collection/main/collection/thumbnails/sports/031.jpg"
      },
      "metadata": {
        "added_at": "2025-07-21T01:01:53.132433",
        "file_size": 255072,
        "dimensions": {
          "width": 1080,
          "height": 1920
        }
      }
    },
    {
      "id": "sports_032",
      "category": "sports",
      "title": "Sports Wallpaper 032",
      "tags": [
        "sports"
      ],
      "urls": {
        "raw": "https://media.githubusercontent.com/media/ddh4r4m/wallpaper-collection/main/collection/wallpapers/sports/032.jpg",
        "thumb": "https://media.githubusercontent.com/media/ddh4r4m/wallpaper-collection/main/collection/thumbnails/sports/032.jpg"
      },
      "metadata": {
        "added_at": "2025-07-21T01:01:53.258927",
        "file_size": 145092,
        "dimensions": {
          "width": 1080,
          "height": 1920
        }
      }
    },
    {
      "id": "sports_033",
      "category": "sports",
      "title": "Sports Wallpaper 033",
      "tags": [
        "sports"
      ],
      "urls": {
        "raw": "https://media.githubusercontent.com/media/ddh4r4m/wallpaper-collection/main/collection/wallpapers/sports/033.jpg",
        "thumb": "https://media.githubusercontent.com/media/ddh4r4m/wallpaper-collection/main/collection/thumbnails/sports/033.jpg"
      },
      "metadata": {
        "added_at": "2025-07-21T01:01:53.386171",
        "file_size": 289119,
        "dimensions": {
          "width": 1080,
          "height": 1920
        }
      }
    },
    {
      "id": "sports_034",
      "category": "sports",
      "title": "Sports Wallpaper 034",
      "tags": [
        "sports"
      ],
      "urls": {
        "raw": "https://media.githubusercontent.com/media/ddh4r4m/wallpaper-collection/main/collection/wallpapers/sports/034.jpg",
        "thumb": "https://media.githubusercontent.com/media/ddh4r4m/wallpaper-collection/main/collection/thumbnails/sports/034.jpg"
      },
      "metadata": {
        "added_at": "2025-07-21T01:01:53.525523",
        "file_size": 491856,
        "dimensions": {
          "width": 1080,
          "height": 1920
        }
      }
    },
    {
      "id": "sports_035",
      "category": "sports",
      "title": "Sports Wallpaper 035",
      "tags": [
        "sports"
      ],
      "urls": {
        "raw": "https://media.githubusercontent.com/media/ddh4r4m/wallpaper-collection/main/collection/wallpapers/sports/035.jpg",
        "thumb": "https://media.githubusercontent.com/media/ddh4r4m/wallpaper-collection/main/collection/thumbnails/sports/035.jpg"
      },
      "metadata": {
        "added_at": "2025-07-21T01:01:53.621964",
        "file_size": 156090,
        "dimensions": {
          "width": 1080,
          "height": 1920
        }
      }
    },
    {
      "id": "sports_036",
      "category": "sports",
      "title": "Sports Wallpaper 036",
      "tags": [
        "sports"
      ],
      "urls": {
        "raw": "https://media.githubusercontent.com/media/ddh4r4m/wallpaper-collection/main/collection/wallpapers/sports/036.jpg",
        "thumb": "https://media.githubusercontent.com/media/ddh4r4m/wallpaper-collection/main/collection/thumbnails/sports/036.jpg"
      },
      "metadata": {
        "added_at": "2025-07-21T01:01:53.856282",
        "file_size": 246416,
        "dimensions": {
          "width": 1080,
          "height": 1920
        }
      }
    },
    {
      "id": "sports_037",
      "category": "sports",
      "title": "Sports Wallpaper 037",
      "tags": [
        "sports"
      ],
      "urls": {
        "raw": "https://media.githubusercontent.com/media/ddh4r4m/wallpaper-collection/main/collection/wallpapers/sports/037.jpg",
        "thumb": "https://media.githubusercontent.com/media/ddh4r4m/wallpaper-collection/main/collection/thumbnails/sports/037.jpg"
      },
      "metadata": {
        "added_at": "2025-07-21T01:01:53.989780",
        "file_size": 367161,
        "dimensions": {
          "width": 1080,
          "height": 1920
        }
      }
    },
    {
      "id": "sports_038",
      "category": "sports",
      "title": "Sports Wallpaper 038",
      "tags": [
        "sports"
      ],
      "urls": {
        "raw": "https://media.githubusercontent.com/media/ddh4r4m/wallpaper-collection/main/collection/wallpapers/sports/038.jpg",
        "thumb": "https://media.githubusercontent.com/media/ddh4r4m/wallpaper-collection/main/collection/thumbnails/sports/038.jpg"
      },
      "metadata": {
        "added_at": "2025-07-21T01:01:54.228647",
        "file_size": 239439,
        "dimensions": {
          "width": 1080,
          "height": 1920
        }
      }
    },
    {
      "id": "sports_039",
      "category": "sports",
      "title": "Sports Wallpaper 039",
      "tags": [
        "sports"
      ],
      "urls": {
        "raw": "https://media.githubusercontent.com/media/ddh4r4m/wallpaper-collection/main/collection/wallpapers/sports/039.jpg",
        "thumb": "https://media.githubusercontent.com/media/ddh4r4m/wallpaper-collection/main/collection/thumbnails/sports/039.jpg"
      },
      "metadata": {
        "added_at": "2025-07-21T01:01:54.354396",
        "file_size": 298755,
        "dimensions": {
          "width": 1080,
          "height": 1920
        }
      }
    },
    {
      "id": "sports_040",
      "category": "sports",
      "title": "Sports Wallpaper 040",
      "tags": [
        "sports"
      ],
      "urls": {
        "raw": "https://media.githubusercontent.com/media/ddh4r4m/wallpaper-collection/main/collection/wallpapers/sports/040.jpg",
        "thumb": "https://media.githubusercontent.com/media/ddh4r4m/wallpaper-collection/main/collection/thumbnails/sports/040.jpg"
      },
      "metadata": {
        "added_at": "2025-07-21T01:01:54.473946",
        "file_size": 410481,
        "dimensions": {
          "width": 1080,
          "height": 1920
        }
      }
    },
    {
      "id": "sports_041",
      "category": "sports",
      "title": "Sports Wallpaper 041",
      "tags": [
        "sports"
      ],
      "urls": {
        "raw": "https://media.githubusercontent.com/media/ddh4r4m/wallpaper-collection/main/collection/wallpapers/sports/041.jpg",
        "thumb": "https://media.githubusercontent.com/media/ddh4r4m/wallpaper-collection/main/collection/thumbnails/sports/041.jpg"
      },
      "metadata": {
        "added_at": "2025-07-21T01:08:35.243357",
        "file_size": 619643,
        "dimensions": {
          "width": 1080,
          "height": 1920
        }
      }
    },
    {
      "id": "sports_042",
      "category": "sports",
      "title": "Sports Wallpaper 042",
      "tags": [
        "sports"
      ],
      "urls": {
        "raw": "https://media.githubusercontent.com/media/ddh4r4m/wallpaper-collection/main/collection/wallpapers/sports/042.jpg",
        "thumb": "https://media.githubusercontent.com/media/ddh4r4m/wallpaper-collection/main/collection/thumbnails/sports/042.jpg"
      },
      "metadata": {
        "added_at": "2025-07-21T01:08:35.402072",
        "file_size": 215030,
        "dimensions": {
          "width": 1080,
          "height": 1920
        }
      }
    },
    {
      "id": "sports_043",
      "category": "sports",
      "title": "Sports Wallpaper 043",
      "tags": [
        "sports"
      ],
      "urls": {
        "raw": "https://media.githubusercontent.com/media/ddh4r4m/wallpaper-collection/main/collection/wallpapers/sports/043.jpg",
        "thumb": "https://media.githubusercontent.com/media/ddh4r4m/wallpaper-collection/main/collection/thumbnails/sports/043.jpg"
      },
      "metadata": {
        "added_at": "2025-07-21T01:08:35.511425",
        "file_size": 286121,
        "dimensions": {
          "width": 1080,
          "height": 1920
        }
      }
    },
    {
      "id": "sports_044",
      "category": "sports",
      "title": "Sports Wallpaper 044",
      "tags": [
        "sports"
      ],
      "urls": {
        "raw": "https://media.githubusercontent.com/media/ddh4r4m/wallpaper-collection/main/collection/wallpapers/sports/044.jpg",
        "thumb": "https://media.githubusercontent.com/media/ddh4r4m/wallpaper-collection/main/collection/thumbnails/sports/044.jpg"
      },
      "metadata": {
        "added_at": "2025-07-21T01:08:35.690635",
        "file_size": 241684,
        "dimensions": {
          "width": 1080,
          "height": 1920
        }
      }
    },
    {
      "id": "sports_045",
      "category": "sports",
      "title": "Sports Wallpaper 045",
      "tags": [
        "sports"
      ],
      "urls": {
        "raw": "https://media.githubusercontent.com/media/ddh4r4m/wallpaper-collection/main/collection/wallpapers/sports/045.jpg",
        "thumb": "https://media.githubusercontent.com/media/ddh4r4m/wallpaper-collection/main/collection/thumbnails/sports/045.jpg"
      },
      "metadata": {
        "added_at": "2025-07-21T01:08:35.803061",
        "file_size": 235507,
        "dimensions": {
          "width": 1080,
          "height": 1920
        }
      }
    }
  ]
}