{
  "meta": {
    "version": "1.0",
    "generated_at": "2025-07-28T22:48:38.208699",
    "category": "sports",
    "page": 4,
    "per_page": 15,
    "total_pages": 8,
    "total_count": 115,
    "count_on_page": 15,
    "has_next": true,
    "has_prev": true,
    "next_page_url": "/api/v1/sports/pages/5.json",
    "prev_page_url": "/api/v1/sports/pages/3.json"
  },
  "data": [
    {
      "id": "sports_046",
      "category": "sports",
      "title": "Sports Wallpaper 046",
      "tags": [
        "sports"
      ],
      "urls": {
        "raw": "https://media.githubusercontent.com/media/ddh4r4m/wallpaper-collection/main/collection/wallpapers/sports/046.jpg",
        "thumb": "https://media.githubusercontent.com/media/ddh4r4m/wallpaper-collection/main/collection/thumbnails/sports/046.jpg"
      },
      "metadata": {
        "added_at": "2025-07-21T01:08:35.930620",
        "file_size": 451120,
        "dimensions": {
          "width": 1080,
          "height": 1920
        }
      }
    },
    {
      "id": "sports_047",
      "category": "sports",
      "title": "Sports Wallpaper 047",
      "tags": [
        "sports"
      ],
      "urls": {
        "raw": "https://media.githubusercontent.com/media/ddh4r4m/wallpaper-collection/main/collection/wallpapers/sports/047.jpg",
        "thumb": "https://media.githubusercontent.com/media/ddh4r4m/wallpaper-collection/main/collection/thumbnails/sports/047.jpg"
      },
      "metadata": {
        "added_at": "2025-07-21T01:08:36.084953",
        "file_size": 294945,
        "dimensions": {
          "width": 1080,
          "height": 1920
        }
      }
    },
    {
      "id": "sports_048",
      "category": "sports",
      "title": "Sports Wallpaper 048",
      "tags": [
        "sports"
      ],
      "urls": {
        "raw": "https://media.githubusercontent.com/media/ddh4r4m/wallpaper-collection/main/collection/wallpapers/sports/048.jpg",
        "thumb": "https://media.githubusercontent.com/media/ddh4r4m/wallpaper-collection/main/collection/thumbnails/sports/048.jpg"
      },
      "metadata": {
        "added_at": "2025-07-21T01:08:36.398379",
        "file_size": 357441,
        "dimensions": {
          "width": 1080,
          "height": 1920
        }
      }
    },
    {
      "id": "sports_049",
      "category": "sports",
      "title": "Sports Wallpaper 049",
      "tags": [
        "sports"
      ],
      "urls": {
        "raw": "https://media.githubusercontent.com/media/ddh4r4m/wallpaper-collection/main/collection/wallpapers/sports/049.jpg",
        "thumb": "https://media.githubusercontent.com/media/ddh4r4m/wallpaper-collection/main/collection/thumbnails/sports/049.jpg"
      },
      "metadata": {
        "added_at": "2025-07-21T01:08:36.510195",
        "file_size": 240707,
        "dimensions": {
          "width": 1080,
          "height": 1920
        }
      }
    },
    {
      "id": "sports_050",
      "category": "sports",
      "title": "Sports Wallpaper 050",
      "tags": [
        "sports"
      ],
      "urls": {
        "raw": "https://media.githubusercontent.com/media/ddh4r4m/wallpaper-collection/main/collection/wallpapers/sports/050.jpg",
        "thumb": "https://media.githubusercontent.com/media/ddh4r4m/wallpaper-collection/main/collection/thumbnails/sports/050.jpg"
      },
      "metadata": {
        "added_at": "2025-07-21T01:08:36.612176",
        "file_size": 162020,
        "dimensions": {
          "width": 1080,
          "height": 1920
        }
      }
    },
    {
      "id": "sports_051",
      "category": "sports",
      "title": "Sports Wallpaper 051",
      "tags": [
        "sports"
      ],
      "urls": {
        "raw": "https://media.githubusercontent.com/media/ddh4r4m/wallpaper-collection/main/collection/wallpapers/sports/051.jpg",
        "thumb": "https://media.githubusercontent.com/media/ddh4r4m/wallpaper-collection/main/collection/thumbnails/sports/051.jpg"
      },
      "metadata": {
        "added_at": "2025-07-21T01:08:36.737367",
        "file_size": 398633,
        "dimensions": {
          "width": 1080,
          "height": 1920
        }
      }
    },
    {
      "id": "sports_052",
      "category": "sports",
      "title": "Sports Wallpaper 052",
      "tags": [
        "sports"
      ],
      "urls": {
        "raw": "https://media.githubusercontent.com/media/ddh4r4m/wallpaper-collection/main/collection/wallpapers/sports/052.jpg",
        "thumb": "https://media.githubusercontent.com/media/ddh4r4m/wallpaper-collection/main/collection/thumbnails/sports/052.jpg"
      },
      "metadata": {
        "added_at": "2025-07-21T01:08:36.856462",
        "file_size": 353537,
        "dimensions": {
          "width": 1080,
          "height": 1920
        }
      }
    },
    {
      "id": "sports_053",
      "category": "sports",
      "title": "Sports Wallpaper 053",
      "tags": [
        "sports"
      ],
      "urls": {
        "raw": "https://media.githubusercontent.com/media/ddh4r4m/wallpaper-collection/main/collection/wallpapers/sports/053.jpg",
        "thumb": "https://media.githubusercontent.com/media/ddh4r4m/wallpaper-collection/main/collection/thumbnails/sports/053.jpg"
      },
      "metadata": {
        "added_at": "2025-07-21T01:08:37.028753",
        "file_size": 350739,
        "dimensions": {
          "width": 1080,
          "height": 1920
        }
      }
    },
    {
      "id": "sports_054",
      "category": "sports",
      "title": "Sports Wallpaper 054",
      "tags": [
        "sports"
      ],
      "urls": {
        "raw": "https://media.githubusercontent.com/media/ddh4r4m/wallpaper-collection/main/collection/wallpapers/sports/054.jpg",
        "thumb": "https://media.githubusercontent.com/media/ddh4r4m/wallpaper-collection/main/collection/thumbnails/sports/054.jpg"
      },
      "metadata": {
        "added_at": "2025-07-21T01:08:37.135166",
        "file_size": 218309,
        "dimensions": {
          "width": 1080,
          "height": 1920
        }
      }
    },
    {
      "id": "sports_055",
      "category": "sports",
      "title": "Sports Wallpaper 055",
      "tags": [
        "sports"
      ],
      "urls": {
        "raw": "https://media.githubusercontent.com/media/ddh4r4m/wallpaper-collection/main/collection/wallpapers/sports/055.jpg",
        "thumb": "https://media.githubusercontent.com/media/ddh4r4m/wallpaper-collection/main/collection/thumbnails/sports/055.jpg"
      },
      "metadata": {
        "added_at": "2025-07-21T01:08:37.248706",
        "file_size": 277314,
        "dimensions": {
          "width": 1080,
          "height": 1920
        }
      }
    },
    {
      "id": "sports_056",
      "category": "sports",
      "title": "Sports Wallpaper 056",
      "tags": [
        "sports"
      ],
      "urls": {
        "raw": "https://media.githubusercontent.com/media/ddh4r4m/wallpaper-collection/main/collection/wallpapers/sports/056.jpg",
        "thumb": "https://media.githubusercontent.com/media/ddh4r4m/wallpaper-collection/main/collection/thumbnails/sports/056.jpg"
      },
      "metadata": {
        "added_at": "2025-07-21T01:08:37.357322",
        "file_size": 263486,
        "dimensions": {
          "width": 1080,
          "height": 1920
        }
      }
    },
    {
      "id": "sports_057",
      "category": "sports",
      "title": "Sports Wallpaper 057",
      "tags": [
        "sports"
      ],
      "urls": {
        "raw": "https://media.githubusercontent.com/media/ddh4r4m/wallpaper-collection/main/collection/wallpapers/sports/057.jpg",
        "thumb": "https://media.githubusercontent.com/media/ddh4r4m/wallpaper-collection/main/collection/thumbnails/sports/057.jpg"
      },
      "metadata": {
        "added_at": "2025-07-21T01:08:37.547223",
        "file_size": 134428,
        "dimensions": {
          "width": 1080,
          "height": 1920
        }
      }
    },
    {
      "id": "sports_058",
      "category": "sports",
      "title": "Sports Wallpaper 058",
      "tags": [
        "sports"
      ],
      "urls": {
        "raw": "https://media.githubusercontent.com/media/ddh4r4m/wallpaper-collection/main/collection/wallpapers/sports/058.jpg",
        "thumb": "https://media.githubusercontent.com/media/ddh4r4m/wallpaper-collection/main/collection/thumbnails/sports/058.jpg"
      },
      "metadata": {
        "added_at": "2025-07-21T01:08:37.714151",
        "file_size": 268956,
        "dimensions": {
          "width": 1080,
          "height": 1920
        }
      }
    },
    {
      "id": "sports_059",
      "category": "sports",
      "title": "Sports Wallpaper 059",
      "tags": [
        "sports"
      ],
      "urls": {
        "raw": "https://media.githubusercontent.com/media/ddh4r4m/wallpaper-collection/main/collection/wallpapers/sports/059.jpg",
        "thumb": "https://media.githubusercontent.com/media/ddh4r4m/wallpaper-collection/main/collection/thumbnails/sports/059.jpg"
      },
      "metadata": {
        "added_at": "2025-07-21T01:08:37.870436",
        "file_size": 243928,
        "dimensions": {
          "width": 1080,
          "height": 1920
        }
      }
    },
    {
      "id": "sports_060",
      "category": "sports",
      "title": "Sports Wallpaper 060",
      "tags": [
        "sports"
      ],
      "urls": {
        "raw": "https://media.githubusercontent.com/media/ddh4r4m/wallpaper-collection/main/collection/wallpapers/sports/060.jpg",
        "thumb": "https://media.githubusercontent.com/media/ddh4r4m/wallpaper-collection/main/collection/thumbnails/sports/060.jpg"
      },
      "metadata": {
        "added_at": "2025-07-21T01:08:37.988700",
        "file_size": 349258,
        "dimensions": {
          "width": 1080,
          "height": 1920
        }
      }
    }
  ]
}