{
  "meta": {
    "version": "1.0",
    "generated_at": "2025-07-28T23:12:02.393375",
    "category": "sports",
    "page": 5,
    "per_page": 15,
    "total_pages": 8,
    "total_count": 115,
    "count_on_page": 15,
    "has_next": true,
    "has_prev": true,
    "next_page_url": "/api/v1/sports/pages/6.json",
    "prev_page_url": "/api/v1/sports/pages/4.json"
  },
  "data": [
    {
      "id": "sports_061",
      "category": "sports",
      "title": "Sports Wallpaper 061",
      "tags": [
        "sports"
      ],
      "urls": {
        "raw": "https://media.githubusercontent.com/media/ddh4r4m/wallpaper-collection/main/collection/wallpapers/sports/061.jpg",
        "thumb": "https://media.githubusercontent.com/media/ddh4r4m/wallpaper-collection/main/collection/thumbnails/sports/061.jpg"
      },
      "metadata": {
        "added_at": "2025-07-21T01:08:38.129056",
        "file_size": 347904,
        "dimensions": {
          "width": 1080,
          "height": 1920
        }
      }
    },
    {
      "id": "sports_062",
      "category": "sports",
      "title": "Sports Wallpaper 062",
      "tags": [
        "sports"
      ],
      "urls": {
        "raw": "https://media.githubusercontent.com/media/ddh4r4m/wallpaper-collection/main/collection/wallpapers/sports/062.jpg",
        "thumb": "https://media.githubusercontent.com/media/ddh4r4m/wallpaper-collection/main/collection/thumbnails/sports/062.jpg"
      },
      "metadata": {
        "added_at": "2025-07-21T01:08:38.237868",
        "file_size": 259466,
        "dimensions": {
          "width": 1080,
          "height": 1920
        }
      }
    },
    {
      "id": "sports_063",
      "category": "sports",
      "title": "Sports Wallpaper 063",
      "tags": [
        "sports"
      ],
      "urls": {
        "raw": "https://media.githubusercontent.com/media/ddh4r4m/wallpaper-collection/main/collection/wallpapers/sports/063.jpg",
        "thumb": "https://media.githubusercontent.com/media/ddh4r4m/wallpaper-collection/main/collection/thumbnails/sports/063.jpg"
      },
      "metadata": {
        "added_at": "2025-07-21T01:08:38.339140",
        "file_size": 186859,
        "dimensions": {
          "width": 1080,
          "height": 1920
        }
      }
    },
    {
      "id": "sports_064",
      "category": "sports",
      "title": "Sports Wallpaper 064",
      "tags": [
        "sports"
      ],
      "urls": {
        "raw": "https://media.githubusercontent.com/media/ddh4r4m/wallpaper-collection/main/collection/wallpapers/sports/064.jpg",
        "thumb": "https://media.githubusercontent.com/media/ddh4r4m/wallpaper-collection/main/collection/thumbnails/sports/064.jpg"
      },
      "metadata": {
        "added_at": "2025-07-21T01:08:38.457479",
        "file_size": 380808,
        "dimensions": {
          "width": 1080,
          "height": 1920
        }
      }
    },
    {
      "id": "sports_065",
      "category": "sports",
      "title": "Sports Wallpaper 065",
      "tags": [
        "sports"
      ],
      "urls": {
        "raw": "https://media.githubusercontent.com/media/ddh4r4m/wallpaper-collection/main/collection/wallpapers/sports/065.jpg",
        "thumb": "https://media.githubusercontent.com/media/ddh4r4m/wallpaper-collection/main/collection/thumbnails/sports/065.jpg"
      },
      "metadata": {
        "added_at": "2025-07-21T01:08:38.680551",
        "file_size": 244601,
        "dimensions": {
          "width": 1080,
          "height": 1920
        }
      }
    },
    {
      "id": "sports_066",
      "category": "sports",
      "title": "Sports Wallpaper 066",
      "tags": [
        "sports"
      ],
      "urls": {
        "raw": "https://media.githubusercontent.com/media/ddh4r4m/wallpaper-collection/main/collection/wallpapers/sports/066.jpg",
        "thumb": "https://media.githubusercontent.com/media/ddh4r4m/wallpaper-collection/main/collection/thumbnails/sports/066.jpg"
      },
      "metadata": {
        "added_at": "2025-07-21T01:08:38.796793",
        "file_size": 285871,
        "dimensions": {
          "width": 1080,
          "height": 1920
        }
      }
    },
    {
      "id": "sports_067",
      "category": "sports",
      "title": "Sports Wallpaper 067",
      "tags": [
        "sports"
      ],
      "urls": {
        "raw": "https://media.githubusercontent.com/media/ddh4r4m/wallpaper-collection/main/collection/wallpapers/sports/067.jpg",
        "thumb": "https://media.githubusercontent.com/media/ddh4r4m/wallpaper-collection/main/collection/thumbnails/sports/067.jpg"
      },
      "metadata": {
        "added_at": "2025-07-21T01:08:38.900062",
        "file_size": 180358,
        "dimensions": {
          "width": 1080,
          "height": 1920
        }
      }
    },
    {
      "id": "sports_068",
      "category": "sports",
      "title": "Sports Wallpaper 068",
      "tags": [
        "sports"
      ],
      "urls": {
        "raw": "https://media.githubusercontent.com/media/ddh4r4m/wallpaper-collection/main/collection/wallpapers/sports/068.jpg",
        "thumb": "https://media.githubusercontent.com/media/ddh4r4m/wallpaper-collection/main/collection/thumbnails/sports/068.jpg"
      },
      "metadata": {
        "added_at": "2025-07-21T01:08:39.003545",
        "file_size": 190424,
        "dimensions": {
          "width": 1080,
          "height": 1920
        }
      }
    },
    {
      "id": "sports_069",
      "category": "sports",
      "title": "Sports Wallpaper 069",
      "tags": [
        "sports"
      ],
      "urls": {
        "raw": "https://media.githubusercontent.com/media/ddh4r4m/wallpaper-collection/main/collection/wallpapers/sports/069.jpg",
        "thumb": "https://media.githubusercontent.com/media/ddh4r4m/wallpaper-collection/main/collection/thumbnails/sports/069.jpg"
      },
      "metadata": {
        "added_at": "2025-07-21T01:08:39.111899",
        "file_size": 241724,
        "dimensions": {
          "width": 1080,
          "height": 1920
        }
      }
    },
    {
      "id": "sports_070",
      "category": "sports",
      "title": "Sports Wallpaper 070",
      "tags": [
        "sports"
      ],
      "urls": {
        "raw": "https://media.githubusercontent.com/media/ddh4r4m/wallpaper-collection/main/collection/wallpapers/sports/070.jpg",
        "thumb": "https://media.githubusercontent.com/media/ddh4r4m/wallpaper-collection/main/collection/thumbnails/sports/070.jpg"
      },
      "metadata": {
        "added_at": "2025-07-21T01:08:39.264365",
        "file_size": 248003,
        "dimensions": {
          "width": 1080,
          "height": 1920
        }
      }
    },
    {
      "id": "sports_071",
      "category": "sports",
      "title": "Sports Wallpaper 071",
      "tags": [
        "sports"
      ],
      "urls": {
        "raw": "https://media.githubusercontent.com/media/ddh4r4m/wallpaper-collection/main/collection/wallpapers/sports/071.jpg",
        "thumb": "https://media.githubusercontent.com/media/ddh4r4m/wallpaper-collection/main/collection/thumbnails/sports/071.jpg"
      },
      "metadata": {
        "added_at": "2025-07-21T01:08:39.364947",
        "file_size": 162020,
        "dimensions": {
          "width": 1080,
          "height": 1920
        }
      }
    },
    {
      "id": "sports_072",
      "category": "sports",
      "title": "Sports Wallpaper 072",
      "tags": [
        "sports"
      ],
      "urls": {
        "raw": "https://media.githubusercontent.com/media/ddh4r4m/wallpaper-collection/main/collection/wallpapers/sports/072.jpg",
        "thumb": "https://media.githubusercontent.com/media/ddh4r4m/wallpaper-collection/main/collection/thumbnails/sports/072.jpg"
      },
      "metadata": {
        "added_at": "2025-07-21T01:08:39.473996",
        "file_size": 241724,
        "dimensions": {
          "width": 1080,
          "height": 1920
        }
      }
    },
    {
      "id": "sports_073",
      "category": "sports",
      "title": "Sports Wallpaper 073",
      "tags": [
        "sports"
      ],
      "urls": {
        "raw": "https://media.githubusercontent.com/media/ddh4r4m/wallpaper-collection/main/collection/wallpapers/sports/073.jpg",
        "thumb": "https://media.githubusercontent.com/media/ddh4r4m/wallpaper-collection/main/collection/thumbnails/sports/073.jpg"
      },
      "metadata": {
        "added_at": "2025-07-21T01:08:39.601578",
        "file_size": 451120,
        "dimensions": {
          "width": 1080,
          "height": 1920
        }
      }
    },
    {
      "id": "sports_074",
      "category": "sports",
      "title": "Sports Wallpaper 074",
      "tags": [
        "sports"
      ],
      "urls": {
        "raw": "https://media.githubusercontent.com/media/ddh4r4m/wallpaper-collection/main/collection/wallpapers/sports/074.jpg",
        "thumb": "https://media.githubusercontent.com/media/ddh4r4m/wallpaper-collection/main/collection/thumbnails/sports/074.jpg"
      },
      "metadata": {
        "added_at": "2025-07-21T01:08:39.776229",
        "file_size": 220714,
        "dimensions": {
          "width": 1080,
          "height": 1920
        }
      }
    },
    {
      "id": "sports_075",
      "category": "sports",
      "title": "Sports Wallpaper 075",
      "tags": [
        "sports"
      ],
      "urls": {
        "raw": "https://media.githubusercontent.com/media/ddh4r4m/wallpaper-collection/main/collection/wallpapers/sports/075.jpg",
        "thumb": "https://media.githubusercontent.com/media/ddh4r4m/wallpaper-collection/main/collection/thumbnails/sports/075.jpg"
      },
      "metadata": {
        "added_at": "2025-07-21T01:08:39.882883",
        "file_size": 258825,
        "dimensions": {
          "width": 1080,
          "height": 1920
        }
      }
    }
  ]
}