{
  "meta": {
    "version": "1.0",
    "generated_at": "2025-07-28T23:12:02.393375",
    "category": "sports",
    "page": 6,
    "per_page": 15,
    "total_pages": 8,
    "total_count": 115,
    "count_on_page": 15,
    "has_next": true,
    "has_prev": true,
    "next_page_url": "/api/v1/sports/pages/7.json",
    "prev_page_url": "/api/v1/sports/pages/5.json"
  },
  "data": [
    {
      "id": "sports_076",
      "category": "sports",
      "title": "Sports Wallpaper 076",
      "tags": [
        "sports"
      ],
      "urls": {
        "raw": "https://media.githubusercontent.com/media/ddh4r4m/wallpaper-collection/main/collection/wallpapers/sports/076.jpg",
        "thumb": "https://media.githubusercontent.com/media/ddh4r4m/wallpaper-collection/main/collection/thumbnails/sports/076.jpg"
      },
      "metadata": {
        "added_at": "2025-07-21T01:08:39.993072",
        "file_size": 277314,
        "dimensions": {
          "width": 1080,
          "height": 1920
        }
      }
    },
    {
      "id": "sports_077",
      "category": "sports",
      "title": "Sports Wallpaper 077",
      "tags": [
        "sports"
      ],
      "urls": {
        "raw": "https://media.githubusercontent.com/media/ddh4r4m/wallpaper-collection/main/collection/wallpapers/sports/077.jpg",
        "thumb": "https://media.githubusercontent.com/media/ddh4r4m/wallpaper-collection/main/collection/thumbnails/sports/077.jpg"
      },
      "metadata": {
        "added_at": "2025-07-21T01:08:40.108741",
        "file_size": 339826,
        "dimensions": {
          "width": 1080,
          "height": 1920
        }
      }
    },
    {
      "id": "sports_078",
      "category": "sports",
      "title": "Sports Wallpaper 078",
      "tags": [
        "sports"
      ],
      "urls": {
        "raw": "https://media.githubusercontent.com/media/ddh4r4m/wallpaper-collection/main/collection/wallpapers/sports/078.jpg",
        "thumb": "https://media.githubusercontent.com/media/ddh4r4m/wallpaper-collection/main/collection/thumbnails/sports/078.jpg"
      },
      "metadata": {
        "added_at": "2025-07-21T01:08:40.233886",
        "file_size": 427277,
        "dimensions": {
          "width": 1080,
          "height": 1920
        }
      }
    },
    {
      "id": "sports_079",
      "category": "sports",
      "title": "Sports Wallpaper 079",
      "tags": [
        "sports"
      ],
      "urls": {
        "raw": "https://media.githubusercontent.com/media/ddh4r4m/wallpaper-collection/main/collection/wallpapers/sports/079.jpg",
        "thumb": "https://media.githubusercontent.com/media/ddh4r4m/wallpaper-collection/main/collection/thumbnails/sports/079.jpg"
      },
      "metadata": {
        "added_at": "2025-07-21T01:08:40.342064",
        "file_size": 218309,
        "dimensions": {
          "width": 1080,
          "height": 1920
        }
      }
    },
    {
      "id": "sports_080",
      "category": "sports",
      "title": "Sports Wallpaper 080",
      "tags": [
        "sports"
      ],
      "urls": {
        "raw": "https://media.githubusercontent.com/media/ddh4r4m/wallpaper-collection/main/collection/wallpapers/sports/080.jpg",
        "thumb": "https://media.githubusercontent.com/media/ddh4r4m/wallpaper-collection/main/collection/thumbnails/sports/080.jpg"
      },
      "metadata": {
        "added_at": "2025-07-21T01:08:40.491924",
        "file_size": 181802,
        "dimensions": {
          "width": 1080,
          "height": 1920
        }
      }
    },
    {
      "id": "sports_081",
      "category": "sports",
      "title": "Sports Wallpaper 081",
      "tags": [
        "sports"
      ],
      "urls": {
        "raw": "https://media.githubusercontent.com/media/ddh4r4m/wallpaper-collection/main/collection/wallpapers/sports/081.jpg",
        "thumb": "https://media.githubusercontent.com/media/ddh4r4m/wallpaper-collection/main/collection/thumbnails/sports/081.jpg"
      },
      "metadata": {
        "added_at": "2025-07-21T01:09:14.517634",
        "file_size": 451120,
        "dimensions": {
          "width": 1080,
          "height": 1920
        }
      }
    },
    {
      "id": "sports_082",
      "category": "sports",
      "title": "Sports Wallpaper 082",
      "tags": [
        "sports"
      ],
      "urls": {
        "raw": "https://media.githubusercontent.com/media/ddh4r4m/wallpaper-collection/main/collection/wallpapers/sports/082.jpg",
        "thumb": "https://media.githubusercontent.com/media/ddh4r4m/wallpaper-collection/main/collection/thumbnails/sports/082.jpg"
      },
      "metadata": {
        "added_at": "2025-07-21T01:09:14.634113",
        "file_size": 294945,
        "dimensions": {
          "width": 1080,
          "height": 1920
        }
      }
    },
    {
      "id": "sports_083",
      "category": "sports",
      "title": "Sports Wallpaper 083",
      "tags": [
        "sports"
      ],
      "urls": {
        "raw": "https://media.githubusercontent.com/media/ddh4r4m/wallpaper-collection/main/collection/wallpapers/sports/083.jpg",
        "thumb": "https://media.githubusercontent.com/media/ddh4r4m/wallpaper-collection/main/collection/thumbnails/sports/083.jpg"
      },
      "metadata": {
        "added_at": "2025-07-21T01:09:14.958048",
        "file_size": 357441,
        "dimensions": {
          "width": 1080,
          "height": 1920
        }
      }
    },
    {
      "id": "sports_084",
      "category": "sports",
      "title": "Sports Wallpaper 084",
      "tags": [
        "sports"
      ],
      "urls": {
        "raw": "https://media.githubusercontent.com/media/ddh4r4m/wallpaper-collection/main/collection/wallpapers/sports/084.jpg",
        "thumb": "https://media.githubusercontent.com/media/ddh4r4m/wallpaper-collection/main/collection/thumbnails/sports/084.jpg"
      },
      "metadata": {
        "added_at": "2025-07-21T01:09:15.065974",
        "file_size": 240707,
        "dimensions": {
          "width": 1080,
          "height": 1920
        }
      }
    },
    {
      "id": "sports_085",
      "category": "sports",
      "title": "Sports Wallpaper 085",
      "tags": [
        "sports"
      ],
      "urls": {
        "raw": "https://media.githubusercontent.com/media/ddh4r4m/wallpaper-collection/main/collection/wallpapers/sports/085.jpg",
        "thumb": "https://media.githubusercontent.com/media/ddh4r4m/wallpaper-collection/main/collection/thumbnails/sports/085.jpg"
      },
      "metadata": {
        "added_at": "2025-07-21T01:09:15.165356",
        "file_size": 162020,
        "dimensions": {
          "width": 1080,
          "height": 1920
        }
      }
    },
    {
      "id": "sports_086",
      "category": "sports",
      "title": "Sports Wallpaper 086",
      "tags": [
        "sports"
      ],
      "urls": {
        "raw": "https://media.githubusercontent.com/media/ddh4r4m/wallpaper-collection/main/collection/wallpapers/sports/086.jpg",
        "thumb": "https://media.githubusercontent.com/media/ddh4r4m/wallpaper-collection/main/collection/thumbnails/sports/086.jpg"
      },
      "metadata": {
        "added_at": "2025-07-21T01:09:15.285671",
        "file_size": 398633,
        "dimensions": {
          "width": 1080,
          "height": 1920
        }
      }
    },
    {
      "id": "sports_087",
      "category": "sports",
      "title": "Sports Wallpaper 087",
      "tags": [
        "sports"
      ],
      "urls": {
        "raw": "https://media.githubusercontent.com/media/ddh4r4m/wallpaper-collection/main/collection/wallpapers/sports/087.jpg",
        "thumb": "https://media.githubusercontent.com/media/ddh4r4m/wallpaper-collection/main/collection/thumbnails/sports/087.jpg"
      },
      "metadata": {
        "added_at": "2025-07-21T01:09:15.404436",
        "file_size": 353537,
        "dimensions": {
          "width": 1080,
          "height": 1920
        }
      }
    },
    {
      "id": "sports_088",
      "category": "sports",
      "title": "Sports Wallpaper 088",
      "tags": [
        "sports"
      ],
      "urls": {
        "raw": "https://media.githubusercontent.com/media/ddh4r4m/wallpaper-collection/main/collection/wallpapers/sports/088.jpg",
        "thumb": "https://media.githubusercontent.com/media/ddh4r4m/wallpaper-collection/main/collection/thumbnails/sports/088.jpg"
      },
      "metadata": {
        "added_at": "2025-07-21T01:09:15.573247",
        "file_size": 350739,
        "dimensions": {
          "width": 1080,
          "height": 1920
        }
      }
    },
    {
      "id": "sports_089",
      "category": "sports",
      "title": "Sports Wallpaper 089",
      "tags": [
        "sports"
      ],
      "urls": {
        "raw": "https://media.githubusercontent.com/media/ddh4r4m/wallpaper-collection/main/collection/wallpapers/sports/089.jpg",
        "thumb": "https://media.githubusercontent.com/media/ddh4r4m/wallpaper-collection/main/collection/thumbnails/sports/089.jpg"
      },
      "metadata": {
        "added_at": "2025-07-21T01:09:15.672389",
        "file_size": 218309,
        "dimensions": {
          "width": 1080,
          "height": 1920
        }
      }
    },
    {
      "id": "sports_090",
      "category": "sports",
      "title": "Sports Wallpaper 090",
      "tags": [
        "sports"
      ],
      "urls": {
        "raw": "https://media.githubusercontent.com/media/ddh4r4m/wallpaper-collection/main/collection/wallpapers/sports/090.jpg",
        "thumb": "https://media.githubusercontent.com/media/ddh4r4m/wallpaper-collection/main/collection/thumbnails/sports/090.jpg"
      },
      "metadata": {
        "added_at": "2025-07-21T01:09:15.779733",
        "file_size": 277314,
        "dimensions": {
          "width": 1080,
          "height": 1920
        }
      }
    }
  ]
}