{
  "meta": {
    "version": "1.0",
    "generated_at": "2025-07-28T23:12:02.393375",
    "category": "sports",
    "page": 8,
    "per_page": 15,
    "total_pages": 8,
    "total_count": 115,
    "count_on_page": 10,
    "has_next": false,
    "has_prev": true,
    "next_page_url": null,
    "prev_page_url": "/api/v1/sports/pages/7.json"
  },
  "data": [
    {
      "id": "sports_106",
      "category": "sports",
      "title": "Sports Wallpaper 106",
      "tags": [
        "sports"
      ],
      "urls": {
        "raw": "https://media.githubusercontent.com/media/ddh4r4m/wallpaper-collection/main/collection/wallpapers/sports/106.jpg",
        "thumb": "https://media.githubusercontent.com/media/ddh4r4m/wallpaper-collection/main/collection/thumbnails/sports/106.jpg"
      },
      "metadata": {
        "added_at": "2025-07-21T01:09:17.823444",
        "file_size": 162020,
        "dimensions": {
          "width": 1080,
          "height": 1920
        }
      }
    },
    {
      "id": "sports_107",
      "category": "sports",
      "title": "Sports Wallpaper 107",
      "tags": [
        "sports"
      ],
      "urls": {
        "raw": "https://media.githubusercontent.com/media/ddh4r4m/wallpaper-collection/main/collection/wallpapers/sports/107.jpg",
        "thumb": "https://media.githubusercontent.com/media/ddh4r4m/wallpaper-collection/main/collection/thumbnails/sports/107.jpg"
      },
      "metadata": {
        "added_at": "2025-07-21T01:09:17.927728",
        "file_size": 241724,
        "dimensions": {
          "width": 1080,
          "height": 1920
        }
      }
    },
    {
      "id": "sports_108",
      "category": "sports",
      "title": "Sports Wallpaper 108",
      "tags": [
        "sports"
      ],
      "urls": {
        "raw": "https://media.githubusercontent.com/media/ddh4r4m/wallpaper-collection/main/collection/wallpapers/sports/108.jpg",
        "thumb": "https://media.githubusercontent.com/media/ddh4r4m/wallpaper-collection/main/collection/thumbnails/sports/108.jpg"
      },
      "metadata": {
        "added_at": "2025-07-21T01:09:18.054257",
        "file_size": 451120,
        "dimensions": {
          "width": 1080,
          "height": 1920
        }
      }
    },
    {
      "id": "sports_109",
      "category": "sports",
      "title": "Sports Wallpaper 109",
      "tags": [
        "sports"
      ],
      "urls": {
        "raw": "https://media.githubusercontent.com/media/ddh4r4m/wallpaper-collection/main/collection/wallpapers/sports/109.jpg",
        "thumb": "https://media.githubusercontent.com/media/ddh4r4m/wallpaper-collection/main/collection/thumbnails/sports/109.jpg"
      },
      "metadata": {
        "added_at": "2025-07-21T01:09:18.225335",
        "file_size": 220714,
        "dimensions": {
          "width": 1080,
          "height": 1920
        }
      }
    },
    {
      "id": "sports_110",
      "category": "sports",
      "title": "Sports Wallpaper 110",
      "tags": [
        "sports"
      ],
      "urls": {
        "raw": "https://media.githubusercontent.com/media/ddh4r4m/wallpaper-collection/main/collection/wallpapers/sports/110.jpg",
        "thumb": "https://media.githubusercontent.com/media/ddh4r4m/wallpaper-collection/main/collection/thumbnails/sports/110.jpg"
      },
      "metadata": {
        "added_at": "2025-07-21T01:09:18.332474",
        "file_size": 258825,
        "dimensions": {
          "width": 1080,
          "height": 1920
        }
      }
    },
    {
      "id": "sports_111",
      "category": "sports",
      "title": "Sports Wallpaper 111",
      "tags": [
        "sports"
      ],
      "urls": {
        "raw": "https://media.githubusercontent.com/media/ddh4r4m/wallpaper-collection/main/collection/wallpapers/sports/111.jpg",
        "thumb": "https://media.githubusercontent.com/media/ddh4r4m/wallpaper-collection/main/collection/thumbnails/sports/111.jpg"
      },
      "metadata": {
        "added_at": "2025-07-21T01:09:18.438860",
        "file_size": 277314,
        "dimensions": {
          "width": 1080,
          "height": 1920
        }
      }
    },
    {
      "id": "sports_112",
      "category": "sports",
      "title": "Sports Wallpaper 112",
      "tags": [
        "sports"
      ],
      "urls": {
        "raw": "https://media.githubusercontent.com/media/ddh4r4m/wallpaper-collection/main/collection/wallpapers/sports/112.jpg",
        "thumb": "https://media.githubusercontent.com/media/ddh4r4m/wallpaper-collection/main/collection/thumbnails/sports/112.jpg"
      },
      "metadata": {
        "added_at": "2025-07-21T01:09:18.551617",
        "file_size": 339826,
        "dimensions": {
          "width": 1080,
          "height": 1920
        }
      }
    },
    {
      "id": "sports_113",
      "category": "sports",
      "title": "Sports Wallpaper 113",
      "tags": [
        "sports"
      ],
      "urls": {
        "raw": "https://media.githubusercontent.com/media/ddh4r4m/wallpaper-collection/main/collection/wallpapers/sports/113.jpg",
        "thumb": "https://media.githubusercontent.com/media/ddh4r4m/wallpaper-collection/main/collection/thumbnails/sports/113.jpg"
      },
      "metadata": {
        "added_at": "2025-07-21T01:09:18.675967",
        "file_size": 427277,
        "dimensions": {
          "width": 1080,
          "height": 1920
        }
      }
    },
    {
      "id": "sports_114",
      "category": "sports",
      "title": "Sports Wallpaper 114",
      "tags": [
        "sports"
      ],
      "urls": {
        "raw": "https://media.githubusercontent.com/media/ddh4r4m/wallpaper-collection/main/collection/wallpapers/sports/114.jpg",
        "thumb": "https://media.githubusercontent.com/media/ddh4r4m/wallpaper-collection/main/collection/thumbnails/sports/114.jpg"
      },
      "metadata": {
        "added_at": "2025-07-21T01:09:18.781762",
        "file_size": 218309,
        "dimensions": {
          "width": 1080,
          "height": 1920
        }
      }
    },
    {
      "id": "sports_115",
      "category": "sports",
      "title": "Sports Wallpaper 115",
      "tags": [
        "sports"
      ],
      "urls": {
        "raw": "https://media.githubusercontent.com/media/ddh4r4m/wallpaper-collection/main/collection/wallpapers/sports/115.jpg",
        "thumb": "https://media.githubusercontent.com/media/ddh4r4m/wallpaper-collection/main/collection/thumbnails/sports/115.jpg"
      },
      "metadata": {
        "added_at": "2025-07-21T01:09:18.924527",
        "file_size": 181802,
        "dimensions": {
          "width": 1080,
          "height": 1920
        }
      }
    }
  ]
}