{
  "meta": {
    "version": "1.0",
    "generated_at": "2025-07-28T22:48:38.208699",
    "category": "4k",
    "page": 1,
    "per_page": 15,
    "total_pages": 14,
    "total_count": 200,
    "count_on_page": 15,
    "has_next": true,
    "has_prev": false,
    "next_page_url": "/api/v1/4k/pages/2.json",
    "prev_page_url": null
  },
  "data": [
    {
      "id": "4k_001",
      "category": "4k",
      "title": "Pink Flower 4K Wallpaper",
      "tags": [
        "4k",
        "wallpaper",
        "pink",
        "flower",
        "nature",
        "portrait"
      ],
      "metadata": {
        "dimensions": {
          "width": 1080,
          "height": 1920
        },
        "file_size": 98252,
        "format": "JPEG",
        "added_at": "2025-07-16T21:34:41.205709",
        "hash": "7c3a0596157f9236646aedebd3123f3e",
        "photographer": "Alexandru Acea"
      },
      "urls": {
        "raw": "https://media.githubusercontent.com/media/ddh4r4m/wallpaper-collection/main/collection/wallpapers/4k/001.jpg",
        "thumb": "https://media.githubusercontent.com/media/ddh4r4m/wallpaper-collection/main/collection/thumbnails/4k/001.jpg"
      }
    },
    {
      "id": "4k_002",
      "category": "4k",
      "title": "Abstract Teal 4K Wallpaper",
      "tags": [
        "4k",
        "wallpaper",
        "abstract",
        "teal",
        "portrait",
        "geometric"
      ],
      "metadata": {
        "dimensions": {
          "width": 1080,
          "height": 1920
        },
        "file_size": 490442,
        "format": "JPEG",
        "added_at": "2025-07-16T21:34:47.707983",
        "hash": "25489f2f1840fc1e1680c3f7c738ba01",
        "photographer": "Yannick Apollon"
      },
      "urls": {
        "raw": "https://media.githubusercontent.com/media/ddh4r4m/wallpaper-collection/main/collection/wallpapers/4k/002.jpg",
        "thumb": "https://media.githubusercontent.com/media/ddh4r4m/wallpaper-collection/main/collection/thumbnails/4k/002.jpg"
      }
    },
    {
      "id": "4k_003",
      "category": "4k",
      "title": "Dark Nature 4K Wallpaper",
      "tags": [
        "4k",
        "wallpaper",
        "dark",
        "nature",
        "forest",
        "portrait",
        "minimal"
      ],
      "metadata": {
        "dimensions": {
          "width": 1080,
          "height": 1920
        },
        "file_size": 375080,
        "format": "JPEG",
        "added_at": "2025-07-16T21:34:53.998013",
        "hash": "08e247a93a8070d4def9c73a94f0974e",
        "photographer": "Roland Denes"
      },
      "urls": {
        "raw": "https://media.githubusercontent.com/media/ddh4r4m/wallpaper-collection/main/collection/wallpapers/4k/003.jpg",
        "thumb": "https://media.githubusercontent.com/media/ddh4r4m/wallpaper-collection/main/collection/thumbnails/4k/003.jpg"
      }
    },
    {
      "id": "4k_004",
      "category": "4k",
      "title": "Light Blue Gradient 4K Wallpaper",
      "tags": [
        "4k",
        "wallpaper",
        "gradient",
        "blue",
        "light",
        "pastel",
        "portrait"
      ],
      "metadata": {
        "dimensions": {
          "width": 1080,
          "height": 1920
        },
        "file_size": 453338,
        "format": "JPEG",
        "added_at": "2025-07-16T21:34:59.598098",
        "hash": "8a78b62e5329e8d06ffe58f9cf48df10",
        "photographer": "Stephan Louis"
      },
      "urls": {
        "raw": "https://media.githubusercontent.com/media/ddh4r4m/wallpaper-collection/main/collection/wallpapers/4k/004.jpg",
        "thumb": "https://media.githubusercontent.com/media/ddh4r4m/wallpaper-collection/main/collection/thumbnails/4k/004.jpg"
      }
    },
    {
      "id": "4k_005",
      "category": "4k",
      "title": "Minimal Gray 4K Wallpaper",
      "tags": [
        "4k",
        "wallpaper",
        "minimal",
        "gray",
        "clean",
        "portrait",
        "simple"
      ],
      "metadata": {
        "dimensions": {
          "width": 1080,
          "height": 1920
        },
        "file_size": 224713,
        "format": "JPEG",
        "added_at": "2025-07-16T21:35:04.802845",
        "hash": "b079d731ce436b5cca0de9cedef2842b",
        "photographer": "Kevin Oetiker"
      },
      "urls": {
        "raw": "https://media.githubusercontent.com/media/ddh4r4m/wallpaper-collection/main/collection/wallpapers/4k/005.jpg",
        "thumb": "https://media.githubusercontent.com/media/ddh4r4m/wallpaper-collection/main/collection/thumbnails/4k/005.jpg"
      }
    },
    {
      "id": "4k_006",
      "category": "4k",
      "title": "4K Wallpaper 006",
      "tags": [
        "4k",
        "wallpaper",
        "curated",
        "hd",
        "portrait"
      ],
      "metadata": {
        "dimensions": {
          "width": 1080,
          "height": 1920
        },
        "file_size": 98252,
        "format": "JPEG",
        "added_at": "2025-07-16T22:14:26.720402",
        "hash": "7c3a0596157f9236646aedebd3123f3e"
      },
      "urls": {
        "raw": "https://media.githubusercontent.com/media/ddh4r4m/wallpaper-collection/main/collection/wallpapers/4k/006.jpg",
        "thumb": "https://media.githubusercontent.com/media/ddh4r4m/wallpaper-collection/main/collection/thumbnails/4k/006.jpg"
      }
    },
    {
      "id": "4k_007",
      "category": "4k",
      "title": "4K Wallpaper 007",
      "tags": [
        "4k",
        "wallpaper",
        "curated",
        "hd",
        "portrait"
      ],
      "metadata": {
        "dimensions": {
          "width": 1080,
          "height": 1920
        },
        "file_size": 490442,
        "format": "JPEG",
        "added_at": "2025-07-16T22:14:26.905164",
        "hash": "25489f2f1840fc1e1680c3f7c738ba01"
      },
      "urls": {
        "raw": "https://media.githubusercontent.com/media/ddh4r4m/wallpaper-collection/main/collection/wallpapers/4k/007.jpg",
        "thumb": "https://media.githubusercontent.com/media/ddh4r4m/wallpaper-collection/main/collection/thumbnails/4k/007.jpg"
      }
    },
    {
      "id": "4k_008",
      "category": "4k",
      "title": "4K Wallpaper 008",
      "tags": [
        "4k",
        "wallpaper",
        "curated",
        "hd",
        "portrait"
      ],
      "metadata": {
        "dimensions": {
          "width": 1080,
          "height": 1920
        },
        "file_size": 375080,
        "format": "JPEG",
        "added_at": "2025-07-16T22:14:27.067726",
        "hash": "08e247a93a8070d4def9c73a94f0974e"
      },
      "urls": {
        "raw": "https://media.githubusercontent.com/media/ddh4r4m/wallpaper-collection/main/collection/wallpapers/4k/008.jpg",
        "thumb": "https://media.githubusercontent.com/media/ddh4r4m/wallpaper-collection/main/collection/thumbnails/4k/008.jpg"
      }
    },
    {
      "id": "4k_009",
      "category": "4k",
      "title": "4K Wallpaper 009",
      "tags": [
        "4k",
        "wallpaper",
        "curated",
        "hd",
        "portrait"
      ],
      "metadata": {
        "dimensions": {
          "width": 1080,
          "height": 1920
        },
        "file_size": 453338,
        "format": "JPEG",
        "added_at": "2025-07-16T22:14:27.238350",
        "hash": "8a78b62e5329e8d06ffe58f9cf48df10"
      },
      "urls": {
        "raw": "https://media.githubusercontent.com/media/ddh4r4m/wallpaper-collection/main/collection/wallpapers/4k/009.jpg",
        "thumb": "https://media.githubusercontent.com/media/ddh4r4m/wallpaper-collection/main/collection/thumbnails/4k/009.jpg"
      }
    },
    {
      "id": "4k_010",
      "category": "4k",
      "title": "4K Wallpaper 010",
      "tags": [
        "4k",
        "wallpaper",
        "curated",
        "hd",
        "portrait"
      ],
      "metadata": {
        "dimensions": {
          "width": 1080,
          "height": 1920
        },
        "file_size": 224713,
        "format": "JPEG",
        "added_at": "2025-07-16T22:14:27.384007",
        "hash": "b079d731ce436b5cca0de9cedef2842b"
      },
      "urls": {
        "raw": "https://media.githubusercontent.com/media/ddh4r4m/wallpaper-collection/main/collection/wallpapers/4k/010.jpg",
        "thumb": "https://media.githubusercontent.com/media/ddh4r4m/wallpaper-collection/main/collection/thumbnails/4k/010.jpg"
      }
    },
    {
      "id": "4k_011",
      "category": "4k",
      "title": "4K Wallpaper 011",
      "tags": [
        "4k",
        "wallpaper",
        "curated",
        "hd",
        "portrait"
      ],
      "metadata": {
        "dimensions": {
          "width": 1080,
          "height": 1920
        },
        "file_size": 504281,
        "format": "JPEG",
        "added_at": "2025-07-16T22:14:27.553971",
        "hash": "607c6929a75bc8347440cf5a650996e4"
      },
      "urls": {
        "raw": "https://media.githubusercontent.com/media/ddh4r4m/wallpaper-collection/main/collection/wallpapers/4k/011.jpg",
        "thumb": "https://media.githubusercontent.com/media/ddh4r4m/wallpaper-collection/main/collection/thumbnails/4k/011.jpg"
      }
    },
    {
      "id": "4k_012",
      "category": "4k",
      "title": "4K Wallpaper 012",
      "tags": [
        "4k",
        "wallpaper",
        "curated",
        "hd",
        "portrait"
      ],
      "metadata": {
        "dimensions": {
          "width": 1080,
          "height": 1920
        },
        "file_size": 495047,
        "format": "JPEG",
        "added_at": "2025-07-16T22:14:27.717593",
        "hash": "97a899a61596f26114aeaf708177cb06"
      },
      "urls": {
        "raw": "https://media.githubusercontent.com/media/ddh4r4m/wallpaper-collection/main/collection/wallpapers/4k/012.jpg",
        "thumb": "https://media.githubusercontent.com/media/ddh4r4m/wallpaper-collection/main/collection/thumbnails/4k/012.jpg"
      }
    },
    {
      "id": "4k_013",
      "category": "4k",
      "title": "4K Wallpaper 013",
      "tags": [
        "4k",
        "wallpaper",
        "curated",
        "hd",
        "portrait"
      ],
      "metadata": {
        "dimensions": {
          "width": 1080,
          "height": 1920
        },
        "file_size": 236933,
        "format": "JPEG",
        "added_at": "2025-07-16T22:14:27.867128",
        "hash": "ee8c6a13d8b4a613cf3e81d0df721e62"
      },
      "urls": {
        "raw": "https://media.githubusercontent.com/media/ddh4r4m/wallpaper-collection/main/collection/wallpapers/4k/013.jpg",
        "thumb": "https://media.githubusercontent.com/media/ddh4r4m/wallpaper-collection/main/collection/thumbnails/4k/013.jpg"
      }
    },
    {
      "id": "4k_014",
      "category": "4k",
      "title": "4K Wallpaper 014",
      "tags": [
        "4k",
        "wallpaper",
        "curated",
        "hd",
        "portrait"
      ],
      "metadata": {
        "dimensions": {
          "width": 1080,
          "height": 1920
        },
        "file_size": 355534,
        "format": "JPEG",
        "added_at": "2025-07-16T22:14:28.026319",
        "hash": "39ca3059c0916b111d5d0b5898ddd624"
      },
      "urls": {
        "raw": "https://media.githubusercontent.com/media/ddh4r4m/wallpaper-collection/main/collection/wallpapers/4k/014.jpg",
        "thumb": "https://media.githubusercontent.com/media/ddh4r4m/wallpaper-collection/main/collection/thumbnails/4k/014.jpg"
      }
    },
    {
      "id": "4k_015",
      "category": "4k",
      "title": "4K Wallpaper 015",
      "tags": [
        "4k",
        "wallpaper",
        "curated",
        "hd",
        "portrait"
      ],
      "metadata": {
        "dimensions": {
          "width": 1080,
          "height": 1920
        },
        "file_size": 109919,
        "format": "JPEG",
        "added_at": "2025-07-16T22:14:28.169207",
        "hash": "f308748b664648b4307dabebc454dabd"
      },
      "urls": {
        "raw": "https://media.githubusercontent.com/media/ddh4r4m/wallpaper-collection/main/collection/wallpapers/4k/015.jpg",
        "thumb": "https://media.githubusercontent.com/media/ddh4r4m/wallpaper-collection/main/collection/thumbnails/4k/015.jpg"
      }
    }
  ]
}