{
  "meta": {
    "version": "1.0",
    "generated_at": "2025-07-17T00:06:19.072196",
    "category": "4k",
    "page": 10,
    "per_page": 15,
    "total_pages": 14,
    "total_count": 200,
    "count_on_page": 15,
    "has_next": true,
    "has_prev": true,
    "next_page_url": "/api/v1/4k/pages/11.json",
    "prev_page_url": "/api/v1/4k/pages/9.json"
  },
  "data": [
    {
      "id": "4k_136",
      "category": "4k",
      "title": "4K Wallpaper 136",
      "tags": [
        "4k"
      ],
      "urls": {
        "raw": "https://raw.githubusercontent.com/ddh4r4m/wallpaper-collection/main/collection/wallpapers/4k/136.jpg",
        "thumb": "https://raw.githubusercontent.com/ddh4r4m/wallpaper-collection/main/collection/thumbnails/4k/136.jpg"
      },
      "metadata": {
        "added_at": "2025-07-16T22:20:41.776307",
        "file_size": 243084,
        "dimensions": {
          "width": 1080,
          "height": 1920
        }
      }
    },
    {
      "id": "4k_137",
      "category": "4k",
      "title": "4K Wallpaper 137",
      "tags": [
        "4k"
      ],
      "urls": {
        "raw": "https://raw.githubusercontent.com/ddh4r4m/wallpaper-collection/main/collection/wallpapers/4k/137.jpg",
        "thumb": "https://raw.githubusercontent.com/ddh4r4m/wallpaper-collection/main/collection/thumbnails/4k/137.jpg"
      },
      "metadata": {
        "added_at": "2025-07-16T22:20:41.848748",
        "file_size": 458197,
        "dimensions": {
          "width": 1080,
          "height": 1920
        }
      }
    },
    {
      "id": "4k_138",
      "category": "4k",
      "title": "4K Wallpaper 138",
      "tags": [
        "4k"
      ],
      "urls": {
        "raw": "https://raw.githubusercontent.com/ddh4r4m/wallpaper-collection/main/collection/wallpapers/4k/138.jpg",
        "thumb": "https://raw.githubusercontent.com/ddh4r4m/wallpaper-collection/main/collection/thumbnails/4k/138.jpg"
      },
      "metadata": {
        "added_at": "2025-07-16T22:20:41.908640",
        "file_size": 194354,
        "dimensions": {
          "width": 1080,
          "height": 1920
        }
      }
    },
    {
      "id": "4k_139",
      "category": "4k",
      "title": "4K Wallpaper 139",
      "tags": [
        "4k"
      ],
      "urls": {
        "raw": "https://raw.githubusercontent.com/ddh4r4m/wallpaper-collection/main/collection/wallpapers/4k/139.jpg",
        "thumb": "https://raw.githubusercontent.com/ddh4r4m/wallpaper-collection/main/collection/thumbnails/4k/139.jpg"
      },
      "metadata": {
        "added_at": "2025-07-16T22:20:41.979821",
        "file_size": 464805,
        "dimensions": {
          "width": 1080,
          "height": 1920
        }
      }
    },
    {
      "id": "4k_140",
      "category": "4k",
      "title": "4K Wallpaper 140",
      "tags": [
        "4k"
      ],
      "urls": {
        "raw": "https://raw.githubusercontent.com/ddh4r4m/wallpaper-collection/main/collection/wallpapers/4k/140.jpg",
        "thumb": "https://raw.githubusercontent.com/ddh4r4m/wallpaper-collection/main/collection/thumbnails/4k/140.jpg"
      },
      "metadata": {
        "added_at": "2025-07-16T22:20:42.042491",
        "file_size": 347120,
        "dimensions": {
          "width": 1080,
          "height": 1920
        }
      }
    },
    {
      "id": "4k_141",
      "category": "4k",
      "title": "4K Wallpaper 141",
      "tags": [
        "4k"
      ],
      "urls": {
        "raw": "https://raw.githubusercontent.com/ddh4r4m/wallpaper-collection/main/collection/wallpapers/4k/141.jpg",
        "thumb": "https://raw.githubusercontent.com/ddh4r4m/wallpaper-collection/main/collection/thumbnails/4k/141.jpg"
      },
      "metadata": {
        "added_at": "2025-07-16T22:20:42.110296",
        "file_size": 452233,
        "dimensions": {
          "width": 1080,
          "height": 1920
        }
      }
    },
    {
      "id": "4k_142",
      "category": "4k",
      "title": "4K Wallpaper 142",
      "tags": [
        "4k"
      ],
      "urls": {
        "raw": "https://raw.githubusercontent.com/ddh4r4m/wallpaper-collection/main/collection/wallpapers/4k/142.jpg",
        "thumb": "https://raw.githubusercontent.com/ddh4r4m/wallpaper-collection/main/collection/thumbnails/4k/142.jpg"
      },
      "metadata": {
        "added_at": "2025-07-16T22:20:42.163500",
        "file_size": 227322,
        "dimensions": {
          "width": 1080,
          "height": 1920
        }
      }
    },
    {
      "id": "4k_143",
      "category": "4k",
      "title": "4K Wallpaper 143",
      "tags": [
        "4k"
      ],
      "urls": {
        "raw": "https://raw.githubusercontent.com/ddh4r4m/wallpaper-collection/main/collection/wallpapers/4k/143.jpg",
        "thumb": "https://raw.githubusercontent.com/ddh4r4m/wallpaper-collection/main/collection/thumbnails/4k/143.jpg"
      },
      "metadata": {
        "added_at": "2025-07-16T22:20:42.219371",
        "file_size": 248485,
        "dimensions": {
          "width": 1080,
          "height": 1920
        }
      }
    },
    {
      "id": "4k_144",
      "category": "4k",
      "title": "4K Wallpaper 144",
      "tags": [
        "4k"
      ],
      "urls": {
        "raw": "https://raw.githubusercontent.com/ddh4r4m/wallpaper-collection/main/collection/wallpapers/4k/144.jpg",
        "thumb": "https://raw.githubusercontent.com/ddh4r4m/wallpaper-collection/main/collection/thumbnails/4k/144.jpg"
      },
      "metadata": {
        "added_at": "2025-07-16T22:20:42.275055",
        "file_size": 292994,
        "dimensions": {
          "width": 1080,
          "height": 1920
        }
      }
    },
    {
      "id": "4k_145",
      "category": "4k",
      "title": "4K Wallpaper 145",
      "tags": [
        "4k"
      ],
      "urls": {
        "raw": "https://raw.githubusercontent.com/ddh4r4m/wallpaper-collection/main/collection/wallpapers/4k/145.jpg",
        "thumb": "https://raw.githubusercontent.com/ddh4r4m/wallpaper-collection/main/collection/thumbnails/4k/145.jpg"
      },
      "metadata": {
        "added_at": "2025-07-16T22:20:42.333521",
        "file_size": 266263,
        "dimensions": {
          "width": 1080,
          "height": 1920
        }
      }
    },
    {
      "id": "4k_146",
      "category": "4k",
      "title": "4K Wallpaper 146",
      "tags": [
        "4k"
      ],
      "urls": {
        "raw": "https://raw.githubusercontent.com/ddh4r4m/wallpaper-collection/main/collection/wallpapers/4k/146.jpg",
        "thumb": "https://raw.githubusercontent.com/ddh4r4m/wallpaper-collection/main/collection/thumbnails/4k/146.jpg"
      },
      "metadata": {
        "added_at": "2025-07-16T22:20:42.398865",
        "file_size": 471217,
        "dimensions": {
          "width": 1080,
          "height": 1920
        }
      }
    },
    {
      "id": "4k_147",
      "category": "4k",
      "title": "4K Wallpaper 147",
      "tags": [
        "4k"
      ],
      "urls": {
        "raw": "https://raw.githubusercontent.com/ddh4r4m/wallpaper-collection/main/collection/wallpapers/4k/147.jpg",
        "thumb": "https://raw.githubusercontent.com/ddh4r4m/wallpaper-collection/main/collection/thumbnails/4k/147.jpg"
      },
      "metadata": {
        "added_at": "2025-07-16T22:20:42.486695",
        "file_size": 767425,
        "dimensions": {
          "width": 1080,
          "height": 1920
        }
      }
    },
    {
      "id": "4k_148",
      "category": "4k",
      "title": "4K Wallpaper 148",
      "tags": [
        "4k"
      ],
      "urls": {
        "raw": "https://raw.githubusercontent.com/ddh4r4m/wallpaper-collection/main/collection/wallpapers/4k/148.jpg",
        "thumb": "https://raw.githubusercontent.com/ddh4r4m/wallpaper-collection/main/collection/thumbnails/4k/148.jpg"
      },
      "metadata": {
        "added_at": "2025-07-16T22:20:42.546427",
        "file_size": 254754,
        "dimensions": {
          "width": 1080,
          "height": 1920
        }
      }
    },
    {
      "id": "4k_149",
      "category": "4k",
      "title": "4K Wallpaper 149",
      "tags": [
        "4k"
      ],
      "urls": {
        "raw": "https://raw.githubusercontent.com/ddh4r4m/wallpaper-collection/main/collection/wallpapers/4k/149.jpg",
        "thumb": "https://raw.githubusercontent.com/ddh4r4m/wallpaper-collection/main/collection/thumbnails/4k/149.jpg"
      },
      "metadata": {
        "added_at": "2025-07-16T22:20:42.621743",
        "file_size": 328544,
        "dimensions": {
          "width": 1080,
          "height": 1920
        }
      }
    },
    {
      "id": "4k_150",
      "category": "4k",
      "title": "4K Wallpaper 150",
      "tags": [
        "4k"
      ],
      "urls": {
        "raw": "https://raw.githubusercontent.com/ddh4r4m/wallpaper-collection/main/collection/wallpapers/4k/150.jpg",
        "thumb": "https://raw.githubusercontent.com/ddh4r4m/wallpaper-collection/main/collection/thumbnails/4k/150.jpg"
      },
      "metadata": {
        "added_at": "2025-07-16T22:20:42.681126",
        "file_size": 232421,
        "dimensions": {
          "width": 1080,
          "height": 1920
        }
      }
    }
  ]
}