{
  "meta": {
    "version": "1.0",
    "generated_at": "2025-07-17T21:14:17.488868",
    "category": "4k",
    "page": 12,
    "per_page": 15,
    "total_pages": 14,
    "total_count": 200,
    "count_on_page": 15,
    "has_next": true,
    "has_prev": true,
    "next_page_url": "/api/v1/4k/pages/13.json",
    "prev_page_url": "/api/v1/4k/pages/11.json"
  },
  "data": [
    {
      "id": "4k_166",
      "filename": "166.jpg",
      "title": "4K Wallpaper 166",
      "photographer": "Unknown",
      "source": "unsplash",
      "source_id": "",
      "source_url": "",
      "tags": [],
      "color": "#000000",
      "created_at": "",
      "download_url": "https://raw.githubusercontent.com/username/wallpaper-collection/main/collection/wallpapers/4k/166.jpg",
      "thumbnail_url": "https://raw.githubusercontent.com/username/wallpaper-collection/main/collection/thumbnails/4k/166.jpg",
      "urls": {
        "raw": "https://media.githubusercontent.com/media/ddh4r4m/wallpaper-collection/main/collection/wallpapers/4k/166.jpg",
        "thumb": "https://media.githubusercontent.com/media/ddh4r4m/wallpaper-collection/main/collection/thumbnails/4k/166.jpg"
      },
      "category": "4k"
    },
    {
      "id": "4k_167",
      "filename": "167.jpg",
      "title": "4K Wallpaper 167",
      "photographer": "Unknown",
      "source": "unsplash",
      "source_id": "",
      "source_url": "",
      "tags": [],
      "color": "#000000",
      "created_at": "",
      "download_url": "https://raw.githubusercontent.com/username/wallpaper-collection/main/collection/wallpapers/4k/167.jpg",
      "thumbnail_url": "https://raw.githubusercontent.com/username/wallpaper-collection/main/collection/thumbnails/4k/167.jpg",
      "urls": {
        "raw": "https://media.githubusercontent.com/media/ddh4r4m/wallpaper-collection/main/collection/wallpapers/4k/167.jpg",
        "thumb": "https://media.githubusercontent.com/media/ddh4r4m/wallpaper-collection/main/collection/thumbnails/4k/167.jpg"
      },
      "category": "4k"
    },
    {
      "id": "4k_168",
      "filename": "168.jpg",
      "title": "4K Wallpaper 168",
      "photographer": "Unknown",
      "source": "unsplash",
      "source_id": "",
      "source_url": "",
      "tags": [],
      "color": "#000000",
      "created_at": "",
      "download_url": "https://raw.githubusercontent.com/username/wallpaper-collection/main/collection/wallpapers/4k/168.jpg",
      "thumbnail_url": "https://raw.githubusercontent.com/username/wallpaper-collection/main/collection/thumbnails/4k/168.jpg",
      "urls": {
        "raw": "https://media.githubusercontent.com/media/ddh4r4m/wallpaper-collection/main/collection/wallpapers/4k/168.jpg",
        "thumb": "https://media.githubusercontent.com/media/ddh4r4m/wallpaper-collection/main/collection/thumbnails/4k/168.jpg"
      },
      "category": "4k"
    },
    {
      "id": "4k_169",
      "filename": "169.jpg",
      "title": "4K Wallpaper 169",
      "photographer": "Unknown",
      "source": "unsplash",
      "source_id": "",
      "source_url": "",
      "tags": [],
      "color": "#000000",
      "created_at": "",
      "download_url": "https://raw.githubusercontent.com/username/wallpaper-collection/main/collection/wallpapers/4k/169.jpg",
      "thumbnail_url": "https://raw.githubusercontent.com/username/wallpaper-collection/main/collection/thumbnails/4k/169.jpg",
      "urls": {
        "raw": "https://media.githubusercontent.com/media/ddh4r4m/wallpaper-collection/main/collection/wallpapers/4k/169.jpg",
        "thumb": "https://media.githubusercontent.com/media/ddh4r4m/wallpaper-collection/main/collection/thumbnails/4k/169.jpg"
      },
      "category": "4k"
    },
    {
      "id": "4k_170",
      "filename": "170.jpg",
      "title": "4K Wallpaper 170",
      "photographer": "Unknown",
      "source": "unsplash",
      "source_id": "",
      "source_url": "",
      "tags": [],
      "color": "#000000",
      "created_at": "",
      "download_url": "https://raw.githubusercontent.com/username/wallpaper-collection/main/collection/wallpapers/4k/170.jpg",
      "thumbnail_url": "https://raw.githubusercontent.com/username/wallpaper-collection/main/collection/thumbnails/4k/170.jpg",
      "urls": {
        "raw": "https://media.githubusercontent.com/media/ddh4r4m/wallpaper-collection/main/collection/wallpapers/4k/170.jpg",
        "thumb": "https://media.githubusercontent.com/media/ddh4r4m/wallpaper-collection/main/collection/thumbnails/4k/170.jpg"
      },
      "category": "4k"
    },
    {
      "id": "4k_171",
      "filename": "171.jpg",
      "title": "4K Wallpaper 171",
      "photographer": "Unknown",
      "source": "unsplash",
      "source_id": "",
      "source_url": "",
      "tags": [],
      "color": "#000000",
      "created_at": "",
      "download_url": "https://raw.githubusercontent.com/username/wallpaper-collection/main/collection/wallpapers/4k/171.jpg",
      "thumbnail_url": "https://raw.githubusercontent.com/username/wallpaper-collection/main/collection/thumbnails/4k/171.jpg",
      "urls": {
        "raw": "https://media.githubusercontent.com/media/ddh4r4m/wallpaper-collection/main/collection/wallpapers/4k/171.jpg",
        "thumb": "https://media.githubusercontent.com/media/ddh4r4m/wallpaper-collection/main/collection/thumbnails/4k/171.jpg"
      },
      "category": "4k"
    },
    {
      "id": "4k_172",
      "filename": "172.jpg",
      "title": "4K Wallpaper 172",
      "photographer": "Unknown",
      "source": "unsplash",
      "source_id": "",
      "source_url": "",
      "tags": [],
      "color": "#000000",
      "created_at": "",
      "download_url": "https://raw.githubusercontent.com/username/wallpaper-collection/main/collection/wallpapers/4k/172.jpg",
      "thumbnail_url": "https://raw.githubusercontent.com/username/wallpaper-collection/main/collection/thumbnails/4k/172.jpg",
      "urls": {
        "raw": "https://media.githubusercontent.com/media/ddh4r4m/wallpaper-collection/main/collection/wallpapers/4k/172.jpg",
        "thumb": "https://media.githubusercontent.com/media/ddh4r4m/wallpaper-collection/main/collection/thumbnails/4k/172.jpg"
      },
      "category": "4k"
    },
    {
      "id": "4k_173",
      "filename": "173.jpg",
      "title": "4K Wallpaper 173",
      "photographer": "Unknown",
      "source": "unsplash",
      "source_id": "",
      "source_url": "",
      "tags": [],
      "color": "#000000",
      "created_at": "",
      "download_url": "https://raw.githubusercontent.com/username/wallpaper-collection/main/collection/wallpapers/4k/173.jpg",
      "thumbnail_url": "https://raw.githubusercontent.com/username/wallpaper-collection/main/collection/thumbnails/4k/173.jpg",
      "urls": {
        "raw": "https://media.githubusercontent.com/media/ddh4r4m/wallpaper-collection/main/collection/wallpapers/4k/173.jpg",
        "thumb": "https://media.githubusercontent.com/media/ddh4r4m/wallpaper-collection/main/collection/thumbnails/4k/173.jpg"
      },
      "category": "4k"
    },
    {
      "id": "4k_174",
      "filename": "174.jpg",
      "title": "4K Wallpaper 174",
      "photographer": "Unknown",
      "source": "unsplash",
      "source_id": "",
      "source_url": "",
      "tags": [],
      "color": "#000000",
      "created_at": "",
      "download_url": "https://raw.githubusercontent.com/username/wallpaper-collection/main/collection/wallpapers/4k/174.jpg",
      "thumbnail_url": "https://raw.githubusercontent.com/username/wallpaper-collection/main/collection/thumbnails/4k/174.jpg",
      "urls": {
        "raw": "https://media.githubusercontent.com/media/ddh4r4m/wallpaper-collection/main/collection/wallpapers/4k/174.jpg",
        "thumb": "https://media.githubusercontent.com/media/ddh4r4m/wallpaper-collection/main/collection/thumbnails/4k/174.jpg"
      },
      "category": "4k"
    },
    {
      "id": "4k_175",
      "filename": "175.jpg",
      "title": "4K Wallpaper 175",
      "photographer": "Unknown",
      "source": "unsplash",
      "source_id": "",
      "source_url": "",
      "tags": [],
      "color": "#000000",
      "created_at": "",
      "download_url": "https://raw.githubusercontent.com/username/wallpaper-collection/main/collection/wallpapers/4k/175.jpg",
      "thumbnail_url": "https://raw.githubusercontent.com/username/wallpaper-collection/main/collection/thumbnails/4k/175.jpg",
      "urls": {
        "raw": "https://media.githubusercontent.com/media/ddh4r4m/wallpaper-collection/main/collection/wallpapers/4k/175.jpg",
        "thumb": "https://media.githubusercontent.com/media/ddh4r4m/wallpaper-collection/main/collection/thumbnails/4k/175.jpg"
      },
      "category": "4k"
    },
    {
      "id": "4k_176",
      "filename": "176.jpg",
      "title": "4K Wallpaper 176",
      "photographer": "Unknown",
      "source": "unsplash",
      "source_id": "",
      "source_url": "",
      "tags": [],
      "color": "#000000",
      "created_at": "",
      "download_url": "https://raw.githubusercontent.com/username/wallpaper-collection/main/collection/wallpapers/4k/176.jpg",
      "thumbnail_url": "https://raw.githubusercontent.com/username/wallpaper-collection/main/collection/thumbnails/4k/176.jpg",
      "urls": {
        "raw": "https://media.githubusercontent.com/media/ddh4r4m/wallpaper-collection/main/collection/wallpapers/4k/176.jpg",
        "thumb": "https://media.githubusercontent.com/media/ddh4r4m/wallpaper-collection/main/collection/thumbnails/4k/176.jpg"
      },
      "category": "4k"
    },
    {
      "id": "4k_177",
      "filename": "177.jpg",
      "title": "4K Wallpaper 177",
      "photographer": "Unknown",
      "source": "unsplash",
      "source_id": "",
      "source_url": "",
      "tags": [],
      "color": "#000000",
      "created_at": "",
      "download_url": "https://raw.githubusercontent.com/username/wallpaper-collection/main/collection/wallpapers/4k/177.jpg",
      "thumbnail_url": "https://raw.githubusercontent.com/username/wallpaper-collection/main/collection/thumbnails/4k/177.jpg",
      "urls": {
        "raw": "https://media.githubusercontent.com/media/ddh4r4m/wallpaper-collection/main/collection/wallpapers/4k/177.jpg",
        "thumb": "https://media.githubusercontent.com/media/ddh4r4m/wallpaper-collection/main/collection/thumbnails/4k/177.jpg"
      },
      "category": "4k"
    },
    {
      "id": "4k_178",
      "filename": "178.jpg",
      "title": "4K Wallpaper 178",
      "photographer": "Unknown",
      "source": "unsplash",
      "source_id": "",
      "source_url": "",
      "tags": [],
      "color": "#000000",
      "created_at": "",
      "download_url": "https://raw.githubusercontent.com/username/wallpaper-collection/main/collection/wallpapers/4k/178.jpg",
      "thumbnail_url": "https://raw.githubusercontent.com/username/wallpaper-collection/main/collection/thumbnails/4k/178.jpg",
      "urls": {
        "raw": "https://media.githubusercontent.com/media/ddh4r4m/wallpaper-collection/main/collection/wallpapers/4k/178.jpg",
        "thumb": "https://media.githubusercontent.com/media/ddh4r4m/wallpaper-collection/main/collection/thumbnails/4k/178.jpg"
      },
      "category": "4k"
    },
    {
      "id": "4k_179",
      "filename": "179.jpg",
      "title": "4K Wallpaper 179",
      "photographer": "Unknown",
      "source": "unsplash",
      "source_id": "",
      "source_url": "",
      "tags": [],
      "color": "#000000",
      "created_at": "",
      "download_url": "https://raw.githubusercontent.com/username/wallpaper-collection/main/collection/wallpapers/4k/179.jpg",
      "thumbnail_url": "https://raw.githubusercontent.com/username/wallpaper-collection/main/collection/thumbnails/4k/179.jpg",
      "urls": {
        "raw": "https://media.githubusercontent.com/media/ddh4r4m/wallpaper-collection/main/collection/wallpapers/4k/179.jpg",
        "thumb": "https://media.githubusercontent.com/media/ddh4r4m/wallpaper-collection/main/collection/thumbnails/4k/179.jpg"
      },
      "category": "4k"
    },
    {
      "id": "4k_180",
      "filename": "180.jpg",
      "title": "4K Wallpaper 180",
      "photographer": "Unknown",
      "source": "unsplash",
      "source_id": "",
      "source_url": "",
      "tags": [],
      "color": "#000000",
      "created_at": "",
      "download_url": "https://raw.githubusercontent.com/username/wallpaper-collection/main/collection/wallpapers/4k/180.jpg",
      "thumbnail_url": "https://raw.githubusercontent.com/username/wallpaper-collection/main/collection/thumbnails/4k/180.jpg",
      "urls": {
        "raw": "https://media.githubusercontent.com/media/ddh4r4m/wallpaper-collection/main/collection/wallpapers/4k/180.jpg",
        "thumb": "https://media.githubusercontent.com/media/ddh4r4m/wallpaper-collection/main/collection/thumbnails/4k/180.jpg"
      },
      "category": "4k"
    }
  ]
}