{
  "meta": {
    "version": "1.0",
    "generated_at": "2025-07-17T21:14:17.488868",
    "category": "4k",
    "page": 2,
    "per_page": 15,
    "total_pages": 14,
    "total_count": 200,
    "count_on_page": 15,
    "has_next": true,
    "has_prev": true,
    "next_page_url": "/api/v1/4k/pages/3.json",
    "prev_page_url": "/api/v1/4k/pages/1.json"
  },
  "data": [
    {
      "id": "4k_016",
      "category": "4k",
      "title": "4K Wallpaper 016",
      "tags": [
        "4k",
        "wallpaper",
        "curated",
        "hd",
        "portrait"
      ],
      "metadata": {
        "dimensions": {
          "width": 1080,
          "height": 1920
        },
        "file_size": 242883,
        "format": "JPEG",
        "added_at": "2025-07-16T22:14:36.941915",
        "hash": "7f5c6f07da339549cd6dcefd1e588547"
      },
      "urls": {
        "raw": "https://media.githubusercontent.com/media/ddh4r4m/wallpaper-collection/main/collection/wallpapers/4k/016.jpg",
        "thumb": "https://media.githubusercontent.com/media/ddh4r4m/wallpaper-collection/main/collection/thumbnails/4k/016.jpg"
      }
    },
    {
      "id": "4k_017",
      "category": "4k",
      "title": "4K Wallpaper 017",
      "tags": [
        "4k",
        "wallpaper",
        "curated",
        "hd",
        "portrait"
      ],
      "metadata": {
        "dimensions": {
          "width": 1080,
          "height": 1920
        },
        "file_size": 135395,
        "format": "JPEG",
        "added_at": "2025-07-16T22:14:37.083620",
        "hash": "eea3580ae02eb9722a5d17a0620f85fb"
      },
      "urls": {
        "raw": "https://media.githubusercontent.com/media/ddh4r4m/wallpaper-collection/main/collection/wallpapers/4k/017.jpg",
        "thumb": "https://media.githubusercontent.com/media/ddh4r4m/wallpaper-collection/main/collection/thumbnails/4k/017.jpg"
      }
    },
    {
      "id": "4k_018",
      "category": "4k",
      "title": "4K Wallpaper 018",
      "tags": [
        "4k",
        "wallpaper",
        "curated",
        "hd",
        "portrait"
      ],
      "metadata": {
        "dimensions": {
          "width": 1080,
          "height": 1920
        },
        "file_size": 332378,
        "format": "JPEG",
        "added_at": "2025-07-16T22:14:37.236502",
        "hash": "c1b94beec973f5547a820109ef52ca94"
      },
      "urls": {
        "raw": "https://media.githubusercontent.com/media/ddh4r4m/wallpaper-collection/main/collection/wallpapers/4k/018.jpg",
        "thumb": "https://media.githubusercontent.com/media/ddh4r4m/wallpaper-collection/main/collection/thumbnails/4k/018.jpg"
      }
    },
    {
      "id": "4k_019",
      "category": "4k",
      "title": "4K Wallpaper 019",
      "tags": [
        "4k",
        "wallpaper",
        "curated",
        "hd",
        "portrait"
      ],
      "metadata": {
        "dimensions": {
          "width": 1080,
          "height": 1920
        },
        "file_size": 434761,
        "format": "JPEG",
        "added_at": "2025-07-16T22:14:37.401191",
        "hash": "0b43ad13e15f519b029cf638eac8a4fa"
      },
      "urls": {
        "raw": "https://media.githubusercontent.com/media/ddh4r4m/wallpaper-collection/main/collection/wallpapers/4k/019.jpg",
        "thumb": "https://media.githubusercontent.com/media/ddh4r4m/wallpaper-collection/main/collection/thumbnails/4k/019.jpg"
      }
    },
    {
      "id": "4k_020",
      "category": "4k",
      "title": "4K Wallpaper 020",
      "tags": [
        "4k",
        "wallpaper",
        "curated",
        "hd",
        "portrait"
      ],
      "metadata": {
        "dimensions": {
          "width": 1080,
          "height": 1920
        },
        "file_size": 193455,
        "format": "JPEG",
        "added_at": "2025-07-16T22:14:37.548106",
        "hash": "6f0c76c55bc7a56063d7dbb32b98624b"
      },
      "urls": {
        "raw": "https://media.githubusercontent.com/media/ddh4r4m/wallpaper-collection/main/collection/wallpapers/4k/020.jpg",
        "thumb": "https://media.githubusercontent.com/media/ddh4r4m/wallpaper-collection/main/collection/thumbnails/4k/020.jpg"
      }
    },
    {
      "id": "4k_021",
      "category": "4k",
      "title": "4K Wallpaper 021",
      "tags": [
        "4k",
        "wallpaper",
        "curated",
        "hd",
        "portrait"
      ],
      "metadata": {
        "dimensions": {
          "width": 1080,
          "height": 1920
        },
        "file_size": 175056,
        "format": "JPEG",
        "added_at": "2025-07-16T22:14:37.692591",
        "hash": "3c091c84fa2428d2df908e5750d95a52"
      },
      "urls": {
        "raw": "https://media.githubusercontent.com/media/ddh4r4m/wallpaper-collection/main/collection/wallpapers/4k/021.jpg",
        "thumb": "https://media.githubusercontent.com/media/ddh4r4m/wallpaper-collection/main/collection/thumbnails/4k/021.jpg"
      }
    },
    {
      "id": "4k_022",
      "category": "4k",
      "title": "4K Wallpaper 022",
      "tags": [
        "4k",
        "wallpaper",
        "curated",
        "hd",
        "portrait"
      ],
      "metadata": {
        "dimensions": {
          "width": 1080,
          "height": 1920
        },
        "file_size": 292862,
        "format": "JPEG",
        "added_at": "2025-07-16T22:14:37.844044",
        "hash": "ab48b67374fa547003b0666ba39c1e7e"
      },
      "urls": {
        "raw": "https://media.githubusercontent.com/media/ddh4r4m/wallpaper-collection/main/collection/wallpapers/4k/022.jpg",
        "thumb": "https://media.githubusercontent.com/media/ddh4r4m/wallpaper-collection/main/collection/thumbnails/4k/022.jpg"
      }
    },
    {
      "id": "4k_023",
      "category": "4k",
      "title": "4K Wallpaper 023",
      "tags": [
        "4k",
        "wallpaper",
        "curated",
        "hd",
        "portrait"
      ],
      "metadata": {
        "dimensions": {
          "width": 1080,
          "height": 1920
        },
        "file_size": 703748,
        "format": "JPEG",
        "added_at": "2025-07-16T22:14:38.018024",
        "hash": "20cd2b829214bbc93b24e32b79ccdd87"
      },
      "urls": {
        "raw": "https://media.githubusercontent.com/media/ddh4r4m/wallpaper-collection/main/collection/wallpapers/4k/023.jpg",
        "thumb": "https://media.githubusercontent.com/media/ddh4r4m/wallpaper-collection/main/collection/thumbnails/4k/023.jpg"
      }
    },
    {
      "id": "4k_024",
      "category": "4k",
      "title": "4K Wallpaper 024",
      "tags": [
        "4k",
        "wallpaper",
        "curated",
        "hd",
        "portrait"
      ],
      "metadata": {
        "dimensions": {
          "width": 1080,
          "height": 1920
        },
        "file_size": 117642,
        "format": "JPEG",
        "added_at": "2025-07-16T22:14:38.160842",
        "hash": "7d72c417df10c714516f1b14fceb429e"
      },
      "urls": {
        "raw": "https://media.githubusercontent.com/media/ddh4r4m/wallpaper-collection/main/collection/wallpapers/4k/024.jpg",
        "thumb": "https://media.githubusercontent.com/media/ddh4r4m/wallpaper-collection/main/collection/thumbnails/4k/024.jpg"
      }
    },
    {
      "id": "4k_025",
      "category": "4k",
      "title": "4K Wallpaper 025",
      "tags": [
        "4k",
        "wallpaper",
        "curated",
        "hd",
        "portrait"
      ],
      "metadata": {
        "dimensions": {
          "width": 1080,
          "height": 1920
        },
        "file_size": 529764,
        "format": "JPEG",
        "added_at": "2025-07-16T22:14:38.327474",
        "hash": "005813979a4fe23aeb794517336cc23d"
      },
      "urls": {
        "raw": "https://media.githubusercontent.com/media/ddh4r4m/wallpaper-collection/main/collection/wallpapers/4k/025.jpg",
        "thumb": "https://media.githubusercontent.com/media/ddh4r4m/wallpaper-collection/main/collection/thumbnails/4k/025.jpg"
      }
    },
    {
      "id": "4k_026",
      "category": "4k",
      "title": "4K Wallpaper 026",
      "tags": [
        "4k",
        "wallpaper",
        "curated",
        "hd",
        "portrait"
      ],
      "metadata": {
        "dimensions": {
          "width": 1080,
          "height": 1920
        },
        "file_size": 235401,
        "format": "JPEG",
        "added_at": "2025-07-16T22:14:38.478036",
        "hash": "c51b09d730bafd952ef872d3ae2d7a8e"
      },
      "urls": {
        "raw": "https://media.githubusercontent.com/media/ddh4r4m/wallpaper-collection/main/collection/wallpapers/4k/026.jpg",
        "thumb": "https://media.githubusercontent.com/media/ddh4r4m/wallpaper-collection/main/collection/thumbnails/4k/026.jpg"
      }
    },
    {
      "id": "4k_027",
      "category": "4k",
      "title": "4K Wallpaper 027",
      "tags": [
        "4k",
        "wallpaper",
        "curated",
        "hd",
        "portrait"
      ],
      "metadata": {
        "dimensions": {
          "width": 1080,
          "height": 1920
        },
        "file_size": 220879,
        "format": "JPEG",
        "added_at": "2025-07-16T22:14:38.628939",
        "hash": "0d02fce75ee563cb3b1760c4b4523165"
      },
      "urls": {
        "raw": "https://media.githubusercontent.com/media/ddh4r4m/wallpaper-collection/main/collection/wallpapers/4k/027.jpg",
        "thumb": "https://media.githubusercontent.com/media/ddh4r4m/wallpaper-collection/main/collection/thumbnails/4k/027.jpg"
      }
    },
    {
      "id": "4k_028",
      "category": "4k",
      "title": "4K Wallpaper 028",
      "tags": [
        "4k",
        "wallpaper",
        "curated",
        "hd",
        "portrait"
      ],
      "metadata": {
        "dimensions": {
          "width": 1080,
          "height": 1920
        },
        "file_size": 77159,
        "format": "JPEG",
        "added_at": "2025-07-16T22:14:38.771882",
        "hash": "c9824f4a802e894068a519a26cdd6505"
      },
      "urls": {
        "raw": "https://media.githubusercontent.com/media/ddh4r4m/wallpaper-collection/main/collection/wallpapers/4k/028.jpg",
        "thumb": "https://media.githubusercontent.com/media/ddh4r4m/wallpaper-collection/main/collection/thumbnails/4k/028.jpg"
      }
    },
    {
      "id": "4k_029",
      "category": "4k",
      "title": "4K Wallpaper 029",
      "tags": [
        "4k",
        "wallpaper",
        "curated",
        "hd",
        "portrait"
      ],
      "metadata": {
        "dimensions": {
          "width": 1080,
          "height": 1920
        },
        "file_size": 458402,
        "format": "JPEG",
        "added_at": "2025-07-16T22:14:38.933627",
        "hash": "852403dcdbb61bb5656f284a3842c2c1"
      },
      "urls": {
        "raw": "https://media.githubusercontent.com/media/ddh4r4m/wallpaper-collection/main/collection/wallpapers/4k/029.jpg",
        "thumb": "https://media.githubusercontent.com/media/ddh4r4m/wallpaper-collection/main/collection/thumbnails/4k/029.jpg"
      }
    },
    {
      "id": "4k_030",
      "category": "4k",
      "title": "4K Wallpaper 030",
      "tags": [
        "4k",
        "wallpaper",
        "curated",
        "hd",
        "portrait"
      ],
      "metadata": {
        "dimensions": {
          "width": 1080,
          "height": 1920
        },
        "file_size": 73372,
        "format": "JPEG",
        "added_at": "2025-07-16T22:14:39.070679",
        "hash": "b537a36ded7a7d6d13d855000b9a7c38"
      },
      "urls": {
        "raw": "https://media.githubusercontent.com/media/ddh4r4m/wallpaper-collection/main/collection/wallpapers/4k/030.jpg",
        "thumb": "https://media.githubusercontent.com/media/ddh4r4m/wallpaper-collection/main/collection/thumbnails/4k/030.jpg"
      }
    }
  ]
}