{
  "meta": {
    "version": "1.0",
    "generated_at": "2025-07-28T22:38:03.579947",
    "category": "4k",
    "page": 3,
    "per_page": 15,
    "total_pages": 14,
    "total_count": 200,
    "count_on_page": 15,
    "has_next": true,
    "has_prev": true,
    "next_page_url": "/api/v1/4k/pages/4.json",
    "prev_page_url": "/api/v1/4k/pages/2.json"
  },
  "data": [
    {
      "id": "4k_031",
      "category": "4k",
      "title": "4K Wallpaper 031",
      "tags": [
        "4k",
        "wallpaper",
        "curated",
        "hd",
        "portrait"
      ],
      "metadata": {
        "dimensions": {
          "width": 1080,
          "height": 1920
        },
        "file_size": 258209,
        "format": "JPEG",
        "added_at": "2025-07-16T22:14:47.675947",
        "hash": "ed3194cc2d3eb8b2d85da36e5a42a787"
      },
      "urls": {
        "raw": "https://media.githubusercontent.com/media/ddh4r4m/wallpaper-collection/main/collection/wallpapers/4k/031.jpg",
        "thumb": "https://media.githubusercontent.com/media/ddh4r4m/wallpaper-collection/main/collection/thumbnails/4k/031.jpg"
      }
    },
    {
      "id": "4k_032",
      "category": "4k",
      "title": "4K Wallpaper 032",
      "tags": [
        "4k",
        "wallpaper",
        "curated",
        "hd",
        "portrait"
      ],
      "metadata": {
        "dimensions": {
          "width": 1080,
          "height": 1920
        },
        "file_size": 329100,
        "format": "JPEG",
        "added_at": "2025-07-16T22:14:47.835571",
        "hash": "3b1828e1c555f80716542bf1bff6cf0b"
      },
      "urls": {
        "raw": "https://media.githubusercontent.com/media/ddh4r4m/wallpaper-collection/main/collection/wallpapers/4k/032.jpg",
        "thumb": "https://media.githubusercontent.com/media/ddh4r4m/wallpaper-collection/main/collection/thumbnails/4k/032.jpg"
      }
    },
    {
      "id": "4k_033",
      "category": "4k",
      "title": "4K Wallpaper 033",
      "tags": [
        "4k",
        "wallpaper",
        "curated",
        "hd",
        "portrait"
      ],
      "metadata": {
        "dimensions": {
          "width": 1080,
          "height": 1920
        },
        "file_size": 238782,
        "format": "JPEG",
        "added_at": "2025-07-16T22:14:47.985712",
        "hash": "0a9f80e939aa615a9ab9f5a8d3da8784"
      },
      "urls": {
        "raw": "https://media.githubusercontent.com/media/ddh4r4m/wallpaper-collection/main/collection/wallpapers/4k/033.jpg",
        "thumb": "https://media.githubusercontent.com/media/ddh4r4m/wallpaper-collection/main/collection/thumbnails/4k/033.jpg"
      }
    },
    {
      "id": "4k_034",
      "category": "4k",
      "title": "4K Wallpaper 034",
      "tags": [
        "4k",
        "wallpaper",
        "curated",
        "hd",
        "portrait"
      ],
      "metadata": {
        "dimensions": {
          "width": 1080,
          "height": 1920
        },
        "file_size": 419101,
        "format": "JPEG",
        "added_at": "2025-07-16T22:14:48.144695",
        "hash": "7b311908b7d53a6d8534aee3ba3c71d7"
      },
      "urls": {
        "raw": "https://media.githubusercontent.com/media/ddh4r4m/wallpaper-collection/main/collection/wallpapers/4k/034.jpg",
        "thumb": "https://media.githubusercontent.com/media/ddh4r4m/wallpaper-collection/main/collection/thumbnails/4k/034.jpg"
      }
    },
    {
      "id": "4k_035",
      "category": "4k",
      "title": "4K Wallpaper 035",
      "tags": [
        "4k",
        "wallpaper",
        "curated",
        "hd",
        "portrait"
      ],
      "metadata": {
        "dimensions": {
          "width": 1080,
          "height": 1920
        },
        "file_size": 203275,
        "format": "JPEG",
        "added_at": "2025-07-16T22:14:48.293695",
        "hash": "aaf879861f9385dc215a51bda7ed41b8"
      },
      "urls": {
        "raw": "https://media.githubusercontent.com/media/ddh4r4m/wallpaper-collection/main/collection/wallpapers/4k/035.jpg",
        "thumb": "https://media.githubusercontent.com/media/ddh4r4m/wallpaper-collection/main/collection/thumbnails/4k/035.jpg"
      }
    },
    {
      "id": "4k_036",
      "category": "4k",
      "title": "4K Wallpaper 036",
      "tags": [
        "4k",
        "wallpaper",
        "curated",
        "hd",
        "portrait"
      ],
      "metadata": {
        "dimensions": {
          "width": 1080,
          "height": 1920
        },
        "file_size": 488776,
        "format": "JPEG",
        "added_at": "2025-07-16T22:14:48.455864",
        "hash": "aee238aa32e9d4d05ddfa2970ec7119a"
      },
      "urls": {
        "raw": "https://media.githubusercontent.com/media/ddh4r4m/wallpaper-collection/main/collection/wallpapers/4k/036.jpg",
        "thumb": "https://media.githubusercontent.com/media/ddh4r4m/wallpaper-collection/main/collection/thumbnails/4k/036.jpg"
      }
    },
    {
      "id": "4k_037",
      "category": "4k",
      "title": "4K Wallpaper 037",
      "tags": [
        "4k",
        "wallpaper",
        "curated",
        "hd",
        "portrait"
      ],
      "metadata": {
        "dimensions": {
          "width": 1080,
          "height": 1920
        },
        "file_size": 282478,
        "format": "JPEG",
        "added_at": "2025-07-16T22:14:48.610627",
        "hash": "9eee2693ed871a743af0f0271db24c54"
      },
      "urls": {
        "raw": "https://media.githubusercontent.com/media/ddh4r4m/wallpaper-collection/main/collection/wallpapers/4k/037.jpg",
        "thumb": "https://media.githubusercontent.com/media/ddh4r4m/wallpaper-collection/main/collection/thumbnails/4k/037.jpg"
      }
    },
    {
      "id": "4k_038",
      "category": "4k",
      "title": "4K Wallpaper 038",
      "tags": [
        "4k",
        "wallpaper",
        "curated",
        "hd",
        "portrait"
      ],
      "metadata": {
        "dimensions": {
          "width": 1080,
          "height": 1920
        },
        "file_size": 391402,
        "format": "JPEG",
        "added_at": "2025-07-16T22:14:48.771172",
        "hash": "76fb2228e5d4d4f8227fdc3ca7ec6ee1"
      },
      "urls": {
        "raw": "https://media.githubusercontent.com/media/ddh4r4m/wallpaper-collection/main/collection/wallpapers/4k/038.jpg",
        "thumb": "https://media.githubusercontent.com/media/ddh4r4m/wallpaper-collection/main/collection/thumbnails/4k/038.jpg"
      }
    },
    {
      "id": "4k_039",
      "category": "4k",
      "title": "4K Wallpaper 039",
      "tags": [
        "4k",
        "wallpaper",
        "curated",
        "hd",
        "portrait"
      ],
      "metadata": {
        "dimensions": {
          "width": 1080,
          "height": 1920
        },
        "file_size": 311193,
        "format": "JPEG",
        "added_at": "2025-07-16T22:14:48.932870",
        "hash": "a16e382b81ccf6db74c484af1204147e"
      },
      "urls": {
        "raw": "https://media.githubusercontent.com/media/ddh4r4m/wallpaper-collection/main/collection/wallpapers/4k/039.jpg",
        "thumb": "https://media.githubusercontent.com/media/ddh4r4m/wallpaper-collection/main/collection/thumbnails/4k/039.jpg"
      }
    },
    {
      "id": "4k_040",
      "category": "4k",
      "title": "4K Wallpaper 040",
      "tags": [
        "4k",
        "wallpaper",
        "curated",
        "hd",
        "portrait"
      ],
      "metadata": {
        "dimensions": {
          "width": 1080,
          "height": 1920
        },
        "file_size": 330249,
        "format": "JPEG",
        "added_at": "2025-07-16T22:14:49.103618",
        "hash": "bcdaf1c929c6e2944fa9ec0b99a566d3"
      },
      "urls": {
        "raw": "https://media.githubusercontent.com/media/ddh4r4m/wallpaper-collection/main/collection/wallpapers/4k/040.jpg",
        "thumb": "https://media.githubusercontent.com/media/ddh4r4m/wallpaper-collection/main/collection/thumbnails/4k/040.jpg"
      }
    },
    {
      "id": "4k_041",
      "category": "4k",
      "title": "4K Wallpaper 041",
      "tags": [
        "4k",
        "wallpaper",
        "curated",
        "hd",
        "portrait"
      ],
      "metadata": {
        "dimensions": {
          "width": 1080,
          "height": 1920
        },
        "file_size": 327389,
        "format": "JPEG",
        "added_at": "2025-07-16T22:14:49.277103",
        "hash": "75ad7577a3eff7c91d86f47a651ec00b"
      },
      "urls": {
        "raw": "https://media.githubusercontent.com/media/ddh4r4m/wallpaper-collection/main/collection/wallpapers/4k/041.jpg",
        "thumb": "https://media.githubusercontent.com/media/ddh4r4m/wallpaper-collection/main/collection/thumbnails/4k/041.jpg"
      }
    },
    {
      "id": "4k_042",
      "category": "4k",
      "title": "4K Wallpaper 042",
      "tags": [
        "4k",
        "wallpaper",
        "curated",
        "hd",
        "portrait"
      ],
      "metadata": {
        "dimensions": {
          "width": 1080,
          "height": 1920
        },
        "file_size": 430971,
        "format": "JPEG",
        "added_at": "2025-07-16T22:14:49.442955",
        "hash": "105efb387a85e3f1c3f8fa120e4a4ee9"
      },
      "urls": {
        "raw": "https://media.githubusercontent.com/media/ddh4r4m/wallpaper-collection/main/collection/wallpapers/4k/042.jpg",
        "thumb": "https://media.githubusercontent.com/media/ddh4r4m/wallpaper-collection/main/collection/thumbnails/4k/042.jpg"
      }
    },
    {
      "id": "4k_043",
      "category": "4k",
      "title": "4K Wallpaper 043",
      "tags": [
        "4k",
        "wallpaper",
        "curated",
        "hd",
        "portrait"
      ],
      "metadata": {
        "dimensions": {
          "width": 1080,
          "height": 1920
        },
        "file_size": 243267,
        "format": "JPEG",
        "added_at": "2025-07-16T22:14:49.607175",
        "hash": "7b4dc88c512ef146cfde8c6dffa5b4ae"
      },
      "urls": {
        "raw": "https://media.githubusercontent.com/media/ddh4r4m/wallpaper-collection/main/collection/wallpapers/4k/043.jpg",
        "thumb": "https://media.githubusercontent.com/media/ddh4r4m/wallpaper-collection/main/collection/thumbnails/4k/043.jpg"
      }
    },
    {
      "id": "4k_044",
      "category": "4k",
      "title": "4K Wallpaper 044",
      "tags": [
        "4k",
        "wallpaper",
        "curated",
        "hd",
        "portrait"
      ],
      "metadata": {
        "dimensions": {
          "width": 1080,
          "height": 1920
        },
        "file_size": 314458,
        "format": "JPEG",
        "added_at": "2025-07-16T22:14:49.774225",
        "hash": "7e059483ad9f961223b17ea94d8bcc5a"
      },
      "urls": {
        "raw": "https://media.githubusercontent.com/media/ddh4r4m/wallpaper-collection/main/collection/wallpapers/4k/044.jpg",
        "thumb": "https://media.githubusercontent.com/media/ddh4r4m/wallpaper-collection/main/collection/thumbnails/4k/044.jpg"
      }
    },
    {
      "id": "4k_045",
      "category": "4k",
      "title": "4K Wallpaper 045",
      "tags": [
        "4k",
        "wallpaper",
        "curated",
        "hd",
        "portrait"
      ],
      "metadata": {
        "dimensions": {
          "width": 1080,
          "height": 1920
        },
        "file_size": 595816,
        "format": "JPEG",
        "added_at": "2025-07-16T22:14:49.960668",
        "hash": "5f37f61c985ecf1d799e9960c03f51b8"
      },
      "urls": {
        "raw": "https://media.githubusercontent.com/media/ddh4r4m/wallpaper-collection/main/collection/wallpapers/4k/045.jpg",
        "thumb": "https://media.githubusercontent.com/media/ddh4r4m/wallpaper-collection/main/collection/thumbnails/4k/045.jpg"
      }
    }
  ]
}