{
  "meta": {
    "version": "1.0",
    "generated_at": "2025-07-28T22:48:38.208699",
    "category": "4k",
    "page": 5,
    "per_page": 15,
    "total_pages": 14,
    "total_count": 200,
    "count_on_page": 15,
    "has_next": true,
    "has_prev": true,
    "next_page_url": "/api/v1/4k/pages/6.json",
    "prev_page_url": "/api/v1/4k/pages/4.json"
  },
  "data": [
    {
      "id": "4k_061",
      "category": "4k",
      "title": "4K Wallpaper 061",
      "tags": [
        "4k",
        "wallpaper",
        "curated",
        "hd",
        "portrait"
      ],
      "metadata": {
        "dimensions": {
          "width": 1080,
          "height": 1920
        },
        "file_size": 506115,
        "format": "JPEG",
        "added_at": "2025-07-16T22:15:09.893002",
        "hash": "9009c19ce934f6054d19dd0960879a5b"
      },
      "urls": {
        "raw": "https://media.githubusercontent.com/media/ddh4r4m/wallpaper-collection/main/collection/wallpapers/4k/061.jpg",
        "thumb": "https://media.githubusercontent.com/media/ddh4r4m/wallpaper-collection/main/collection/thumbnails/4k/061.jpg"
      }
    },
    {
      "id": "4k_062",
      "category": "4k",
      "title": "4K Wallpaper 062",
      "tags": [
        "4k",
        "wallpaper",
        "curated",
        "hd",
        "portrait"
      ],
      "metadata": {
        "dimensions": {
          "width": 1080,
          "height": 1920
        },
        "file_size": 194354,
        "format": "JPEG",
        "added_at": "2025-07-16T22:15:10.040529",
        "hash": "a8cba06272748ce9cbdf3bb6cd0e7992"
      },
      "urls": {
        "raw": "https://media.githubusercontent.com/media/ddh4r4m/wallpaper-collection/main/collection/wallpapers/4k/062.jpg",
        "thumb": "https://media.githubusercontent.com/media/ddh4r4m/wallpaper-collection/main/collection/thumbnails/4k/062.jpg"
      }
    },
    {
      "id": "4k_063",
      "category": "4k",
      "title": "4K Wallpaper 063",
      "tags": [
        "4k",
        "wallpaper",
        "curated",
        "hd",
        "portrait"
      ],
      "metadata": {
        "dimensions": {
          "width": 1080,
          "height": 1920
        },
        "file_size": 687389,
        "format": "JPEG",
        "added_at": "2025-07-16T22:15:10.215897",
        "hash": "107773a0a8b4ca70e3a76abe6d1394f0"
      },
      "urls": {
        "raw": "https://media.githubusercontent.com/media/ddh4r4m/wallpaper-collection/main/collection/wallpapers/4k/063.jpg",
        "thumb": "https://media.githubusercontent.com/media/ddh4r4m/wallpaper-collection/main/collection/thumbnails/4k/063.jpg"
      }
    },
    {
      "id": "4k_064",
      "category": "4k",
      "title": "4K Wallpaper 064",
      "tags": [
        "4k",
        "wallpaper",
        "curated",
        "hd",
        "portrait"
      ],
      "metadata": {
        "dimensions": {
          "width": 1080,
          "height": 1920
        },
        "file_size": 464805,
        "format": "JPEG",
        "added_at": "2025-07-16T22:15:10.378665",
        "hash": "cfa0eac5cbdd50640895518115839176"
      },
      "urls": {
        "raw": "https://media.githubusercontent.com/media/ddh4r4m/wallpaper-collection/main/collection/wallpapers/4k/064.jpg",
        "thumb": "https://media.githubusercontent.com/media/ddh4r4m/wallpaper-collection/main/collection/thumbnails/4k/064.jpg"
      }
    },
    {
      "id": "4k_065",
      "category": "4k",
      "title": "4K Wallpaper 065",
      "tags": [
        "4k",
        "wallpaper",
        "curated",
        "hd",
        "portrait"
      ],
      "metadata": {
        "dimensions": {
          "width": 1080,
          "height": 1920
        },
        "file_size": 147010,
        "format": "JPEG",
        "added_at": "2025-07-16T22:15:10.521581",
        "hash": "82c8ce0c28c52d5e81368b2bf7d71117"
      },
      "urls": {
        "raw": "https://media.githubusercontent.com/media/ddh4r4m/wallpaper-collection/main/collection/wallpapers/4k/065.jpg",
        "thumb": "https://media.githubusercontent.com/media/ddh4r4m/wallpaper-collection/main/collection/thumbnails/4k/065.jpg"
      }
    },
    {
      "id": "4k_066",
      "category": "4k",
      "title": "4K Wallpaper 066",
      "tags": [
        "4k",
        "wallpaper",
        "curated",
        "hd",
        "portrait"
      ],
      "metadata": {
        "dimensions": {
          "width": 1080,
          "height": 1920
        },
        "file_size": 347120,
        "format": "JPEG",
        "added_at": "2025-07-16T22:15:10.682674",
        "hash": "b37238279d4425bb0a41c12f4ff43018"
      },
      "urls": {
        "raw": "https://media.githubusercontent.com/media/ddh4r4m/wallpaper-collection/main/collection/wallpapers/4k/066.jpg",
        "thumb": "https://media.githubusercontent.com/media/ddh4r4m/wallpaper-collection/main/collection/thumbnails/4k/066.jpg"
      }
    },
    {
      "id": "4k_067",
      "category": "4k",
      "title": "4K Wallpaper 067",
      "tags": [
        "4k",
        "wallpaper",
        "curated",
        "hd",
        "portrait"
      ],
      "metadata": {
        "dimensions": {
          "width": 1080,
          "height": 1920
        },
        "file_size": 605852,
        "format": "JPEG",
        "added_at": "2025-07-16T22:15:10.849433",
        "hash": "692091652b05e7e7a481256aaeb61a95"
      },
      "urls": {
        "raw": "https://media.githubusercontent.com/media/ddh4r4m/wallpaper-collection/main/collection/wallpapers/4k/067.jpg",
        "thumb": "https://media.githubusercontent.com/media/ddh4r4m/wallpaper-collection/main/collection/thumbnails/4k/067.jpg"
      }
    },
    {
      "id": "4k_068",
      "category": "4k",
      "title": "4K Wallpaper 068",
      "tags": [
        "4k",
        "wallpaper",
        "curated",
        "hd",
        "portrait"
      ],
      "metadata": {
        "dimensions": {
          "width": 1080,
          "height": 1920
        },
        "file_size": 452233,
        "format": "JPEG",
        "added_at": "2025-07-16T22:15:11.009408",
        "hash": "7a39d9992f7368f2be064b6f5fe897b4"
      },
      "urls": {
        "raw": "https://media.githubusercontent.com/media/ddh4r4m/wallpaper-collection/main/collection/wallpapers/4k/068.jpg",
        "thumb": "https://media.githubusercontent.com/media/ddh4r4m/wallpaper-collection/main/collection/thumbnails/4k/068.jpg"
      }
    },
    {
      "id": "4k_069",
      "category": "4k",
      "title": "4K Wallpaper 069",
      "tags": [
        "4k",
        "wallpaper",
        "curated",
        "hd",
        "portrait"
      ],
      "metadata": {
        "dimensions": {
          "width": 1080,
          "height": 1920
        },
        "file_size": 483958,
        "format": "JPEG",
        "added_at": "2025-07-16T22:15:11.172517",
        "hash": "b977d1add7adfcaf313270b519f114dd"
      },
      "urls": {
        "raw": "https://media.githubusercontent.com/media/ddh4r4m/wallpaper-collection/main/collection/wallpapers/4k/069.jpg",
        "thumb": "https://media.githubusercontent.com/media/ddh4r4m/wallpaper-collection/main/collection/thumbnails/4k/069.jpg"
      }
    },
    {
      "id": "4k_070",
      "category": "4k",
      "title": "4K Wallpaper 070",
      "tags": [
        "4k",
        "wallpaper",
        "curated",
        "hd",
        "portrait"
      ],
      "metadata": {
        "dimensions": {
          "width": 1080,
          "height": 1920
        },
        "file_size": 227322,
        "format": "JPEG",
        "added_at": "2025-07-16T22:15:11.318794",
        "hash": "7d893df9fe8927fc78441b6ce4a38d8b"
      },
      "urls": {
        "raw": "https://media.githubusercontent.com/media/ddh4r4m/wallpaper-collection/main/collection/wallpapers/4k/070.jpg",
        "thumb": "https://media.githubusercontent.com/media/ddh4r4m/wallpaper-collection/main/collection/thumbnails/4k/070.jpg"
      }
    },
    {
      "id": "4k_071",
      "category": "4k",
      "title": "4K Wallpaper 071",
      "tags": [
        "4k",
        "wallpaper",
        "curated",
        "hd",
        "portrait"
      ],
      "metadata": {
        "dimensions": {
          "width": 1080,
          "height": 1920
        },
        "file_size": 179423,
        "format": "JPEG",
        "added_at": "2025-07-16T22:15:11.463767",
        "hash": "0e3ff539736017c68c750375c3f18196"
      },
      "urls": {
        "raw": "https://media.githubusercontent.com/media/ddh4r4m/wallpaper-collection/main/collection/wallpapers/4k/071.jpg",
        "thumb": "https://media.githubusercontent.com/media/ddh4r4m/wallpaper-collection/main/collection/thumbnails/4k/071.jpg"
      }
    },
    {
      "id": "4k_072",
      "category": "4k",
      "title": "4K Wallpaper 072",
      "tags": [
        "4k",
        "wallpaper",
        "curated",
        "hd",
        "portrait"
      ],
      "metadata": {
        "dimensions": {
          "width": 1080,
          "height": 1920
        },
        "file_size": 248485,
        "format": "JPEG",
        "added_at": "2025-07-16T22:15:11.610789",
        "hash": "3a952ca7598f86718691c2f4adad7c3c"
      },
      "urls": {
        "raw": "https://media.githubusercontent.com/media/ddh4r4m/wallpaper-collection/main/collection/wallpapers/4k/072.jpg",
        "thumb": "https://media.githubusercontent.com/media/ddh4r4m/wallpaper-collection/main/collection/thumbnails/4k/072.jpg"
      }
    },
    {
      "id": "4k_073",
      "category": "4k",
      "title": "4K Wallpaper 073",
      "tags": [
        "4k",
        "wallpaper",
        "curated",
        "hd",
        "portrait"
      ],
      "metadata": {
        "dimensions": {
          "width": 1080,
          "height": 1920
        },
        "file_size": 420776,
        "format": "JPEG",
        "added_at": "2025-07-16T22:15:11.770884",
        "hash": "e3a53c47e9860e6e504cc295b875648d"
      },
      "urls": {
        "raw": "https://media.githubusercontent.com/media/ddh4r4m/wallpaper-collection/main/collection/wallpapers/4k/073.jpg",
        "thumb": "https://media.githubusercontent.com/media/ddh4r4m/wallpaper-collection/main/collection/thumbnails/4k/073.jpg"
      }
    },
    {
      "id": "4k_074",
      "category": "4k",
      "title": "4K Wallpaper 074",
      "tags": [
        "4k",
        "wallpaper",
        "curated",
        "hd",
        "portrait"
      ],
      "metadata": {
        "dimensions": {
          "width": 1080,
          "height": 1920
        },
        "file_size": 292994,
        "format": "JPEG",
        "added_at": "2025-07-16T22:15:11.923127",
        "hash": "33d5126cac006c7a45a9d289e84aeab4"
      },
      "urls": {
        "raw": "https://media.githubusercontent.com/media/ddh4r4m/wallpaper-collection/main/collection/wallpapers/4k/074.jpg",
        "thumb": "https://media.githubusercontent.com/media/ddh4r4m/wallpaper-collection/main/collection/thumbnails/4k/074.jpg"
      }
    },
    {
      "id": "4k_075",
      "category": "4k",
      "title": "4K Wallpaper 075",
      "tags": [
        "4k",
        "wallpaper",
        "curated",
        "hd",
        "portrait"
      ],
      "metadata": {
        "dimensions": {
          "width": 1080,
          "height": 1920
        },
        "file_size": 267889,
        "format": "JPEG",
        "added_at": "2025-07-16T22:15:12.075033",
        "hash": "7c45ec514ce15b1cd952a9937e299144"
      },
      "urls": {
        "raw": "https://media.githubusercontent.com/media/ddh4r4m/wallpaper-collection/main/collection/wallpapers/4k/075.jpg",
        "thumb": "https://media.githubusercontent.com/media/ddh4r4m/wallpaper-collection/main/collection/thumbnails/4k/075.jpg"
      }
    }
  ]
}