{
  "meta": {
    "version": "1.0",
    "generated_at": "2025-07-28T21:27:34.814586",
    "category": "4k",
    "page": 7,
    "per_page": 15,
    "total_pages": 14,
    "total_count": 200,
    "count_on_page": 15,
    "has_next": true,
    "has_prev": true,
    "next_page_url": "/api/v1/4k/pages/8.json",
    "prev_page_url": "/api/v1/4k/pages/6.json"
  },
  "data": [
    {
      "id": "4k_091",
      "category": "4k",
      "title": "4K Wallpaper 091",
      "tags": [
        "4k",
        "wallpaper",
        "curated",
        "hd",
        "portrait"
      ],
      "metadata": {
        "dimensions": {
          "width": 1080,
          "height": 1920
        },
        "file_size": 646769,
        "format": "JPEG",
        "added_at": "2025-07-16T22:15:27.331485",
        "hash": "270c97113a07e04987a4a1f507530d2e"
      },
      "urls": {
        "raw": "https://media.githubusercontent.com/media/ddh4r4m/wallpaper-collection/main/collection/wallpapers/4k/091.jpg",
        "thumb": "https://media.githubusercontent.com/media/ddh4r4m/wallpaper-collection/main/collection/thumbnails/4k/091.jpg"
      }
    },
    {
      "id": "4k_092",
      "category": "4k",
      "title": "4K Wallpaper 092",
      "tags": [
        "4k",
        "wallpaper",
        "curated",
        "hd",
        "portrait"
      ],
      "metadata": {
        "dimensions": {
          "width": 1080,
          "height": 1920
        },
        "file_size": 432993,
        "format": "JPEG",
        "added_at": "2025-07-16T22:15:27.497338",
        "hash": "87c110168601cbf94a95ec849d04b18a"
      },
      "urls": {
        "raw": "https://media.githubusercontent.com/media/ddh4r4m/wallpaper-collection/main/collection/wallpapers/4k/092.jpg",
        "thumb": "https://media.githubusercontent.com/media/ddh4r4m/wallpaper-collection/main/collection/thumbnails/4k/092.jpg"
      }
    },
    {
      "id": "4k_093",
      "category": "4k",
      "title": "4K Wallpaper 093",
      "tags": [
        "4k",
        "wallpaper",
        "curated",
        "hd",
        "portrait"
      ],
      "metadata": {
        "dimensions": {
          "width": 1080,
          "height": 1920
        },
        "file_size": 462514,
        "format": "JPEG",
        "added_at": "2025-07-16T22:15:27.661056",
        "hash": "bf29dbc7d08658a31c91f072b1923345"
      },
      "urls": {
        "raw": "https://media.githubusercontent.com/media/ddh4r4m/wallpaper-collection/main/collection/wallpapers/4k/093.jpg",
        "thumb": "https://media.githubusercontent.com/media/ddh4r4m/wallpaper-collection/main/collection/thumbnails/4k/093.jpg"
      }
    },
    {
      "id": "4k_094",
      "category": "4k",
      "title": "4K Wallpaper 094",
      "tags": [
        "4k",
        "wallpaper",
        "curated",
        "hd",
        "portrait"
      ],
      "metadata": {
        "dimensions": {
          "width": 1080,
          "height": 1920
        },
        "file_size": 491424,
        "format": "JPEG",
        "added_at": "2025-07-16T22:15:27.827930",
        "hash": "6fa3a4feb1d88ff38e1c21997b0380a0"
      },
      "urls": {
        "raw": "https://media.githubusercontent.com/media/ddh4r4m/wallpaper-collection/main/collection/wallpapers/4k/094.jpg",
        "thumb": "https://media.githubusercontent.com/media/ddh4r4m/wallpaper-collection/main/collection/thumbnails/4k/094.jpg"
      }
    },
    {
      "id": "4k_095",
      "category": "4k",
      "title": "4K Wallpaper 095",
      "tags": [
        "4k",
        "wallpaper",
        "curated",
        "hd",
        "portrait"
      ],
      "metadata": {
        "dimensions": {
          "width": 1080,
          "height": 1920
        },
        "file_size": 663805,
        "format": "JPEG",
        "added_at": "2025-07-16T22:15:28.003948",
        "hash": "9f31d8a5b98372e3797d8d8e0b5547df"
      },
      "urls": {
        "raw": "https://media.githubusercontent.com/media/ddh4r4m/wallpaper-collection/main/collection/wallpapers/4k/095.jpg",
        "thumb": "https://media.githubusercontent.com/media/ddh4r4m/wallpaper-collection/main/collection/thumbnails/4k/095.jpg"
      }
    },
    {
      "id": "4k_096",
      "category": "4k",
      "title": "4K Wallpaper 096",
      "tags": [
        "4k",
        "wallpaper",
        "curated",
        "hd",
        "portrait"
      ],
      "metadata": {
        "dimensions": {
          "width": 1080,
          "height": 1920
        },
        "file_size": 272191,
        "format": "JPEG",
        "added_at": "2025-07-16T22:15:28.155576",
        "hash": "af0f2681ad8acf8a596524f2553fa366"
      },
      "urls": {
        "raw": "https://media.githubusercontent.com/media/ddh4r4m/wallpaper-collection/main/collection/wallpapers/4k/096.jpg",
        "thumb": "https://media.githubusercontent.com/media/ddh4r4m/wallpaper-collection/main/collection/thumbnails/4k/096.jpg"
      }
    },
    {
      "id": "4k_097",
      "category": "4k",
      "title": "4K Wallpaper 097",
      "tags": [
        "4k",
        "wallpaper",
        "curated",
        "hd",
        "portrait"
      ],
      "metadata": {
        "dimensions": {
          "width": 1080,
          "height": 1920
        },
        "file_size": 321372,
        "format": "JPEG",
        "added_at": "2025-07-16T22:15:28.310432",
        "hash": "aa158c5c0332cde5a1fd9ba957441393"
      },
      "urls": {
        "raw": "https://media.githubusercontent.com/media/ddh4r4m/wallpaper-collection/main/collection/wallpapers/4k/097.jpg",
        "thumb": "https://media.githubusercontent.com/media/ddh4r4m/wallpaper-collection/main/collection/thumbnails/4k/097.jpg"
      }
    },
    {
      "id": "4k_098",
      "category": "4k",
      "title": "4K Wallpaper 098",
      "tags": [
        "4k",
        "wallpaper",
        "curated",
        "hd",
        "portrait"
      ],
      "metadata": {
        "dimensions": {
          "width": 1080,
          "height": 1920
        },
        "file_size": 316258,
        "format": "JPEG",
        "added_at": "2025-07-16T22:15:28.466130",
        "hash": "6a53e18f31c1997eb9667008a0da0227"
      },
      "urls": {
        "raw": "https://media.githubusercontent.com/media/ddh4r4m/wallpaper-collection/main/collection/wallpapers/4k/098.jpg",
        "thumb": "https://media.githubusercontent.com/media/ddh4r4m/wallpaper-collection/main/collection/thumbnails/4k/098.jpg"
      }
    },
    {
      "id": "4k_099",
      "category": "4k",
      "title": "4K Wallpaper 099",
      "tags": [
        "4k",
        "wallpaper",
        "curated",
        "hd",
        "portrait"
      ],
      "metadata": {
        "dimensions": {
          "width": 1080,
          "height": 1920
        },
        "file_size": 715261,
        "format": "JPEG",
        "added_at": "2025-07-16T22:15:28.644557",
        "hash": "5b60ce01864d86edda9045c99982447c"
      },
      "urls": {
        "raw": "https://media.githubusercontent.com/media/ddh4r4m/wallpaper-collection/main/collection/wallpapers/4k/099.jpg",
        "thumb": "https://media.githubusercontent.com/media/ddh4r4m/wallpaper-collection/main/collection/thumbnails/4k/099.jpg"
      }
    },
    {
      "id": "4k_100",
      "category": "4k",
      "title": "4K Wallpaper 100",
      "tags": [
        "4k",
        "wallpaper",
        "curated",
        "hd",
        "portrait"
      ],
      "metadata": {
        "dimensions": {
          "width": 1080,
          "height": 1920
        },
        "file_size": 711333,
        "format": "JPEG",
        "added_at": "2025-07-16T22:15:28.823793",
        "hash": "6245ab06cf56ec2d1fe0cdfd7a238ee8"
      },
      "urls": {
        "raw": "https://media.githubusercontent.com/media/ddh4r4m/wallpaper-collection/main/collection/wallpapers/4k/100.jpg",
        "thumb": "https://media.githubusercontent.com/media/ddh4r4m/wallpaper-collection/main/collection/thumbnails/4k/100.jpg"
      }
    },
    {
      "id": "4k_101",
      "category": "4k",
      "title": "4K Wallpaper 101",
      "tags": [
        "4k",
        "wallpaper",
        "curated",
        "hd",
        "portrait"
      ],
      "metadata": {
        "dimensions": {
          "width": 1080,
          "height": 1920
        },
        "file_size": 543399,
        "format": "JPEG",
        "added_at": "2025-07-16T22:15:28.994207",
        "hash": "153ed6908efdc48b4fe05baf47ec8653"
      },
      "urls": {
        "raw": "https://media.githubusercontent.com/media/ddh4r4m/wallpaper-collection/main/collection/wallpapers/4k/101.jpg",
        "thumb": "https://media.githubusercontent.com/media/ddh4r4m/wallpaper-collection/main/collection/thumbnails/4k/101.jpg"
      }
    },
    {
      "id": "4k_102",
      "category": "4k",
      "title": "4K Wallpaper 102",
      "tags": [
        "4k",
        "wallpaper",
        "curated",
        "hd",
        "portrait"
      ],
      "metadata": {
        "dimensions": {
          "width": 1080,
          "height": 1920
        },
        "file_size": 360022,
        "format": "JPEG",
        "added_at": "2025-07-16T22:15:29.153047",
        "hash": "761597033000d3f05f2601862eeb383e"
      },
      "urls": {
        "raw": "https://media.githubusercontent.com/media/ddh4r4m/wallpaper-collection/main/collection/wallpapers/4k/102.jpg",
        "thumb": "https://media.githubusercontent.com/media/ddh4r4m/wallpaper-collection/main/collection/thumbnails/4k/102.jpg"
      }
    },
    {
      "id": "4k_103",
      "category": "4k",
      "title": "4K Wallpaper 103",
      "tags": [
        "4k",
        "wallpaper",
        "curated",
        "hd",
        "portrait"
      ],
      "metadata": {
        "dimensions": {
          "width": 1080,
          "height": 1920
        },
        "file_size": 358284,
        "format": "JPEG",
        "added_at": "2025-07-16T22:15:29.310708",
        "hash": "aeee98bbee442ec4b33f011b9fcf02ed"
      },
      "urls": {
        "raw": "https://media.githubusercontent.com/media/ddh4r4m/wallpaper-collection/main/collection/wallpapers/4k/103.jpg",
        "thumb": "https://media.githubusercontent.com/media/ddh4r4m/wallpaper-collection/main/collection/thumbnails/4k/103.jpg"
      }
    },
    {
      "id": "4k_104",
      "category": "4k",
      "title": "4K Wallpaper 104",
      "tags": [
        "4k",
        "wallpaper",
        "curated",
        "hd",
        "portrait"
      ],
      "metadata": {
        "dimensions": {
          "width": 1080,
          "height": 1920
        },
        "file_size": 683593,
        "format": "JPEG",
        "added_at": "2025-07-16T22:15:29.487823",
        "hash": "d3020e3ba65256fce58be7a1c0d1a564"
      },
      "urls": {
        "raw": "https://media.githubusercontent.com/media/ddh4r4m/wallpaper-collection/main/collection/wallpapers/4k/104.jpg",
        "thumb": "https://media.githubusercontent.com/media/ddh4r4m/wallpaper-collection/main/collection/thumbnails/4k/104.jpg"
      }
    },
    {
      "id": "4k_105",
      "category": "4k",
      "title": "4K Wallpaper 105",
      "tags": [
        "4k",
        "wallpaper",
        "curated",
        "hd",
        "portrait"
      ],
      "metadata": {
        "dimensions": {
          "width": 1080,
          "height": 1920
        },
        "file_size": 519898,
        "format": "JPEG",
        "added_at": "2025-07-16T22:15:29.656886",
        "hash": "f6d09e9bd90cc4402b82e850fe38d5a4"
      },
      "urls": {
        "raw": "https://media.githubusercontent.com/media/ddh4r4m/wallpaper-collection/main/collection/wallpapers/4k/105.jpg",
        "thumb": "https://media.githubusercontent.com/media/ddh4r4m/wallpaper-collection/main/collection/thumbnails/4k/105.jpg"
      }
    }
  ]
}