{
  "meta": {
    "version": "1.0",
    "generated_at": "2025-07-17T21:14:17.488868",
    "category": "4k",
    "page": 9,
    "per_page": 15,
    "total_pages": 14,
    "total_count": 200,
    "count_on_page": 15,
    "has_next": true,
    "has_prev": true,
    "next_page_url": "/api/v1/4k/pages/10.json",
    "prev_page_url": "/api/v1/4k/pages/8.json"
  },
  "data": [
    {
      "id": "4k_121",
      "category": "4k",
      "title": "4K Wallpaper 121",
      "tags": [
        "4k"
      ],
      "urls": {
        "raw": "https://media.githubusercontent.com/media/ddh4r4m/wallpaper-collection/main/collection/wallpapers/4k/121.jpg",
        "thumb": "https://media.githubusercontent.com/media/ddh4r4m/wallpaper-collection/main/collection/thumbnails/4k/121.jpg"
      },
      "metadata": {
        "added_at": "2025-07-17T00:41:05.432760",
        "file_size": 77159,
        "dimensions": {
          "width": 1080,
          "height": 1920
        }
      }
    },
    {
      "id": "4k_122",
      "category": "4k",
      "title": "4K Wallpaper 122",
      "tags": [
        "4k"
      ],
      "urls": {
        "raw": "https://media.githubusercontent.com/media/ddh4r4m/wallpaper-collection/main/collection/wallpapers/4k/122.jpg",
        "thumb": "https://media.githubusercontent.com/media/ddh4r4m/wallpaper-collection/main/collection/thumbnails/4k/122.jpg"
      },
      "metadata": {
        "added_at": "2025-07-17T00:41:05.432769",
        "file_size": 73372,
        "dimensions": {
          "width": 1080,
          "height": 1920
        }
      }
    },
    {
      "id": "4k_123",
      "category": "4k",
      "title": "4K Wallpaper 123",
      "tags": [
        "4k"
      ],
      "urls": {
        "raw": "https://media.githubusercontent.com/media/ddh4r4m/wallpaper-collection/main/collection/wallpapers/4k/123.jpg",
        "thumb": "https://media.githubusercontent.com/media/ddh4r4m/wallpaper-collection/main/collection/thumbnails/4k/123.jpg"
      },
      "metadata": {
        "added_at": "2025-07-17T00:41:05.432780",
        "file_size": 329100,
        "dimensions": {
          "width": 1080,
          "height": 1920
        }
      }
    },
    {
      "id": "4k_124",
      "category": "4k",
      "title": "4K Wallpaper 124",
      "tags": [
        "4k"
      ],
      "urls": {
        "raw": "https://media.githubusercontent.com/media/ddh4r4m/wallpaper-collection/main/collection/wallpapers/4k/124.jpg",
        "thumb": "https://media.githubusercontent.com/media/ddh4r4m/wallpaper-collection/main/collection/thumbnails/4k/124.jpg"
      },
      "metadata": {
        "added_at": "2025-07-17T00:41:05.432789",
        "file_size": 419101,
        "dimensions": {
          "width": 1080,
          "height": 1920
        }
      }
    },
    {
      "id": "4k_125",
      "category": "4k",
      "title": "4K Wallpaper 125",
      "tags": [
        "4k"
      ],
      "urls": {
        "raw": "https://media.githubusercontent.com/media/ddh4r4m/wallpaper-collection/main/collection/wallpapers/4k/125.jpg",
        "thumb": "https://media.githubusercontent.com/media/ddh4r4m/wallpaper-collection/main/collection/thumbnails/4k/125.jpg"
      },
      "metadata": {
        "added_at": "2025-07-17T00:41:05.432798",
        "file_size": 488776,
        "dimensions": {
          "width": 1080,
          "height": 1920
        }
      }
    },
    {
      "id": "4k_126",
      "category": "4k",
      "title": "4K Wallpaper 126",
      "tags": [
        "4k"
      ],
      "urls": {
        "raw": "https://media.githubusercontent.com/media/ddh4r4m/wallpaper-collection/main/collection/wallpapers/4k/126.jpg",
        "thumb": "https://media.githubusercontent.com/media/ddh4r4m/wallpaper-collection/main/collection/thumbnails/4k/126.jpg"
      },
      "metadata": {
        "added_at": "2025-07-17T00:41:05.432816",
        "file_size": 391402,
        "dimensions": {
          "width": 1080,
          "height": 1920
        }
      }
    },
    {
      "id": "4k_127",
      "category": "4k",
      "title": "4K Wallpaper 127",
      "tags": [
        "4k"
      ],
      "urls": {
        "raw": "https://media.githubusercontent.com/media/ddh4r4m/wallpaper-collection/main/collection/wallpapers/4k/127.jpg",
        "thumb": "https://media.githubusercontent.com/media/ddh4r4m/wallpaper-collection/main/collection/thumbnails/4k/127.jpg"
      },
      "metadata": {
        "added_at": "2025-07-17T00:41:05.432826",
        "file_size": 330249,
        "dimensions": {
          "width": 1080,
          "height": 1920
        }
      }
    },
    {
      "id": "4k_128",
      "category": "4k",
      "title": "4K Wallpaper 128",
      "tags": [
        "4k"
      ],
      "urls": {
        "raw": "https://media.githubusercontent.com/media/ddh4r4m/wallpaper-collection/main/collection/wallpapers/4k/128.jpg",
        "thumb": "https://media.githubusercontent.com/media/ddh4r4m/wallpaper-collection/main/collection/thumbnails/4k/128.jpg"
      },
      "metadata": {
        "added_at": "2025-07-17T00:41:05.432843",
        "file_size": 430971,
        "dimensions": {
          "width": 1080,
          "height": 1920
        }
      }
    },
    {
      "id": "4k_129",
      "category": "4k",
      "title": "4K Wallpaper 129",
      "tags": [
        "4k"
      ],
      "urls": {
        "raw": "https://media.githubusercontent.com/media/ddh4r4m/wallpaper-collection/main/collection/wallpapers/4k/129.jpg",
        "thumb": "https://media.githubusercontent.com/media/ddh4r4m/wallpaper-collection/main/collection/thumbnails/4k/129.jpg"
      },
      "metadata": {
        "added_at": "2025-07-17T00:41:05.432852",
        "file_size": 314458,
        "dimensions": {
          "width": 1080,
          "height": 1920
        }
      }
    },
    {
      "id": "4k_130",
      "category": "4k",
      "title": "4K Wallpaper 130",
      "tags": [
        "4k"
      ],
      "urls": {
        "raw": "https://media.githubusercontent.com/media/ddh4r4m/wallpaper-collection/main/collection/wallpapers/4k/130.jpg",
        "thumb": "https://media.githubusercontent.com/media/ddh4r4m/wallpaper-collection/main/collection/thumbnails/4k/130.jpg"
      },
      "metadata": {
        "added_at": "2025-07-17T00:41:05.432866",
        "file_size": 469469,
        "dimensions": {
          "width": 1080,
          "height": 1920
        }
      }
    },
    {
      "id": "4k_131",
      "category": "4k",
      "title": "4K Wallpaper 131",
      "tags": [
        "4k"
      ],
      "urls": {
        "raw": "https://media.githubusercontent.com/media/ddh4r4m/wallpaper-collection/main/collection/wallpapers/4k/131.jpg",
        "thumb": "https://media.githubusercontent.com/media/ddh4r4m/wallpaper-collection/main/collection/thumbnails/4k/131.jpg"
      },
      "metadata": {
        "added_at": "2025-07-17T00:41:05.432877",
        "file_size": 155464,
        "dimensions": {
          "width": 1080,
          "height": 1920
        }
      }
    },
    {
      "id": "4k_132",
      "category": "4k",
      "title": "4K Wallpaper 132",
      "tags": [
        "4k"
      ],
      "urls": {
        "raw": "https://media.githubusercontent.com/media/ddh4r4m/wallpaper-collection/main/collection/wallpapers/4k/132.jpg",
        "thumb": "https://media.githubusercontent.com/media/ddh4r4m/wallpaper-collection/main/collection/thumbnails/4k/132.jpg"
      },
      "metadata": {
        "added_at": "2025-07-17T00:41:05.432887",
        "file_size": 551141,
        "dimensions": {
          "width": 1080,
          "height": 1920
        }
      }
    },
    {
      "id": "4k_133",
      "category": "4k",
      "title": "4K Wallpaper 133",
      "tags": [
        "4k"
      ],
      "urls": {
        "raw": "https://media.githubusercontent.com/media/ddh4r4m/wallpaper-collection/main/collection/wallpapers/4k/133.jpg",
        "thumb": "https://media.githubusercontent.com/media/ddh4r4m/wallpaper-collection/main/collection/thumbnails/4k/133.jpg"
      },
      "metadata": {
        "added_at": "2025-07-17T00:41:05.432898",
        "file_size": 411357,
        "dimensions": {
          "width": 1080,
          "height": 1920
        }
      }
    },
    {
      "id": "4k_134",
      "category": "4k",
      "title": "4K Wallpaper 134",
      "tags": [
        "4k"
      ],
      "urls": {
        "raw": "https://media.githubusercontent.com/media/ddh4r4m/wallpaper-collection/main/collection/wallpapers/4k/134.jpg",
        "thumb": "https://media.githubusercontent.com/media/ddh4r4m/wallpaper-collection/main/collection/thumbnails/4k/134.jpg"
      },
      "metadata": {
        "added_at": "2025-07-17T00:41:05.432909",
        "file_size": 193204,
        "dimensions": {
          "width": 1080,
          "height": 1920
        }
      }
    },
    {
      "id": "4k_135",
      "category": "4k",
      "title": "4K Wallpaper 135",
      "tags": [
        "4k"
      ],
      "urls": {
        "raw": "https://media.githubusercontent.com/media/ddh4r4m/wallpaper-collection/main/collection/wallpapers/4k/135.jpg",
        "thumb": "https://media.githubusercontent.com/media/ddh4r4m/wallpaper-collection/main/collection/thumbnails/4k/135.jpg"
      },
      "metadata": {
        "added_at": "2025-07-17T00:41:05.432920",
        "file_size": 555317,
        "dimensions": {
          "width": 1080,
          "height": 1920
        }
      }
    }
  ]
}