{
  "meta": {
    "version": "1.0",
    "generated_at": "2025-07-28T22:38:03.579947",
    "category": "art",
    "page": 2,
    "per_page": 15,
    "total_pages": 6,
    "total_count": 90,
    "count_on_page": 15,
    "has_next": true,
    "has_prev": true,
    "next_page_url": "/api/v1/art/pages/3.json",
    "prev_page_url": "/api/v1/art/pages/1.json"
  },
  "data": [
    {
      "id": "art_016",
      "category": "art",
      "title": "Art Wallpaper 016",
      "tags": [
        "art",
        "wallpaper",
        "hd",
        "mobile"
      ],
      "urls": {
        "raw": "https://media.githubusercontent.com/media/ddh4r4m/wallpaper-collection/main/collection/wallpapers/art/016.jpg",
        "thumb": "https://media.githubusercontent.com/media/ddh4r4m/wallpaper-collection/main/collection/thumbnails/art/016.jpg"
      },
      "metadata": {
        "dimensions": {
          "width": 1080,
          "height": 1920
        },
        "file_size": 415261,
        "format": "JPEG",
        "added_at": "2025-07-17T00:03:03.011052",
        "hash": "f2bf7654bf17aac8b57a1dbb23d7a5b4",
        "source": "migrated"
      }
    },
    {
      "id": "art_017",
      "category": "art",
      "title": "Art Wallpaper 017",
      "tags": [
        "art",
        "wallpaper",
        "hd",
        "mobile"
      ],
      "urls": {
        "raw": "https://media.githubusercontent.com/media/ddh4r4m/wallpaper-collection/main/collection/wallpapers/art/017.jpg",
        "thumb": "https://media.githubusercontent.com/media/ddh4r4m/wallpaper-collection/main/collection/thumbnails/art/017.jpg"
      },
      "metadata": {
        "dimensions": {
          "width": 1080,
          "height": 1920
        },
        "file_size": 160863,
        "format": "JPEG",
        "added_at": "2025-07-17T00:03:03.062883",
        "hash": "8af1e15d007f2b3b05fd678da312faf4",
        "source": "migrated"
      }
    },
    {
      "id": "art_018",
      "category": "art",
      "title": "Art Wallpaper 018",
      "tags": [
        "art",
        "wallpaper",
        "hd",
        "mobile"
      ],
      "urls": {
        "raw": "https://media.githubusercontent.com/media/ddh4r4m/wallpaper-collection/main/collection/wallpapers/art/018.jpg",
        "thumb": "https://media.githubusercontent.com/media/ddh4r4m/wallpaper-collection/main/collection/thumbnails/art/018.jpg"
      },
      "metadata": {
        "dimensions": {
          "width": 1080,
          "height": 1920
        },
        "file_size": 250554,
        "format": "JPEG",
        "added_at": "2025-07-17T00:03:03.116672",
        "hash": "2f3b5afddbd33848feba3c37dba5bbf3",
        "source": "migrated"
      }
    },
    {
      "id": "art_019",
      "category": "art",
      "title": "Art Wallpaper 019",
      "tags": [
        "art",
        "wallpaper",
        "hd",
        "mobile"
      ],
      "urls": {
        "raw": "https://media.githubusercontent.com/media/ddh4r4m/wallpaper-collection/main/collection/wallpapers/art/019.jpg",
        "thumb": "https://media.githubusercontent.com/media/ddh4r4m/wallpaper-collection/main/collection/thumbnails/art/019.jpg"
      },
      "metadata": {
        "dimensions": {
          "width": 1080,
          "height": 1920
        },
        "file_size": 314962,
        "format": "JPEG",
        "added_at": "2025-07-17T00:03:03.174696",
        "hash": "428429c1597ac34cadb8bf4452f07cb5",
        "source": "migrated"
      }
    },
    {
      "id": "art_020",
      "category": "art",
      "title": "Art Wallpaper 020",
      "tags": [
        "art",
        "wallpaper",
        "hd",
        "mobile"
      ],
      "urls": {
        "raw": "https://media.githubusercontent.com/media/ddh4r4m/wallpaper-collection/main/collection/wallpapers/art/020.jpg",
        "thumb": "https://media.githubusercontent.com/media/ddh4r4m/wallpaper-collection/main/collection/thumbnails/art/020.jpg"
      },
      "metadata": {
        "dimensions": {
          "width": 1080,
          "height": 1920
        },
        "file_size": 112484,
        "format": "JPEG",
        "added_at": "2025-07-17T00:03:03.220471",
        "hash": "6870d93654582469b914d4030828dfe2",
        "source": "migrated"
      }
    },
    {
      "id": "art_021",
      "category": "art",
      "title": "Art Wallpaper 021",
      "tags": [
        "art",
        "wallpaper",
        "hd",
        "mobile"
      ],
      "urls": {
        "raw": "https://media.githubusercontent.com/media/ddh4r4m/wallpaper-collection/main/collection/wallpapers/art/021.jpg",
        "thumb": "https://media.githubusercontent.com/media/ddh4r4m/wallpaper-collection/main/collection/thumbnails/art/021.jpg"
      },
      "metadata": {
        "dimensions": {
          "width": 1080,
          "height": 1920
        },
        "file_size": 174737,
        "format": "JPEG",
        "added_at": "2025-07-17T00:03:03.270856",
        "hash": "1523ec94ee860ab611ed35830b212ffa",
        "source": "migrated"
      }
    },
    {
      "id": "art_022",
      "category": "art",
      "title": "Art Wallpaper 022",
      "tags": [
        "art",
        "wallpaper",
        "hd",
        "mobile"
      ],
      "urls": {
        "raw": "https://media.githubusercontent.com/media/ddh4r4m/wallpaper-collection/main/collection/wallpapers/art/022.jpg",
        "thumb": "https://media.githubusercontent.com/media/ddh4r4m/wallpaper-collection/main/collection/thumbnails/art/022.jpg"
      },
      "metadata": {
        "dimensions": {
          "width": 1080,
          "height": 1920
        },
        "file_size": 294101,
        "format": "JPEG",
        "added_at": "2025-07-17T00:03:03.327992",
        "hash": "40bbec8adc4ae581571f84de3f97782c",
        "source": "migrated"
      }
    },
    {
      "id": "art_023",
      "category": "art",
      "title": "Art Wallpaper 023",
      "tags": [
        "art",
        "wallpaper",
        "hd",
        "mobile"
      ],
      "urls": {
        "raw": "https://media.githubusercontent.com/media/ddh4r4m/wallpaper-collection/main/collection/wallpapers/art/023.jpg",
        "thumb": "https://media.githubusercontent.com/media/ddh4r4m/wallpaper-collection/main/collection/thumbnails/art/023.jpg"
      },
      "metadata": {
        "dimensions": {
          "width": 1080,
          "height": 1920
        },
        "file_size": 84263,
        "format": "JPEG",
        "added_at": "2025-07-17T00:03:03.393664",
        "hash": "c8cbb2d24acf212d97a9ad6903322401",
        "source": "migrated"
      }
    },
    {
      "id": "art_024",
      "category": "art",
      "title": "Art Wallpaper 024",
      "tags": [
        "art",
        "wallpaper",
        "hd",
        "mobile"
      ],
      "urls": {
        "raw": "https://media.githubusercontent.com/media/ddh4r4m/wallpaper-collection/main/collection/wallpapers/art/024.jpg",
        "thumb": "https://media.githubusercontent.com/media/ddh4r4m/wallpaper-collection/main/collection/thumbnails/art/024.jpg"
      },
      "metadata": {
        "dimensions": {
          "width": 1080,
          "height": 1920
        },
        "file_size": 121040,
        "format": "JPEG",
        "added_at": "2025-07-17T00:03:03.445087",
        "hash": "001e81a20edcef163b0cdad622ebf129",
        "source": "migrated"
      }
    },
    {
      "id": "art_025",
      "category": "art",
      "title": "Art Wallpaper 025",
      "tags": [
        "art",
        "wallpaper",
        "hd",
        "mobile"
      ],
      "urls": {
        "raw": "https://media.githubusercontent.com/media/ddh4r4m/wallpaper-collection/main/collection/wallpapers/art/025.jpg",
        "thumb": "https://media.githubusercontent.com/media/ddh4r4m/wallpaper-collection/main/collection/thumbnails/art/025.jpg"
      },
      "metadata": {
        "dimensions": {
          "width": 1080,
          "height": 1920
        },
        "file_size": 516761,
        "format": "JPEG",
        "added_at": "2025-07-17T00:03:03.514943",
        "hash": "2c0c5f2374a25b5deb22262460d6f741",
        "source": "migrated"
      }
    },
    {
      "id": "art_026",
      "category": "art",
      "title": "Art Wallpaper 026",
      "tags": [
        "art",
        "wallpaper",
        "hd",
        "mobile"
      ],
      "urls": {
        "raw": "https://media.githubusercontent.com/media/ddh4r4m/wallpaper-collection/main/collection/wallpapers/art/026.jpg",
        "thumb": "https://media.githubusercontent.com/media/ddh4r4m/wallpaper-collection/main/collection/thumbnails/art/026.jpg"
      },
      "metadata": {
        "dimensions": {
          "width": 1080,
          "height": 1920
        },
        "file_size": 344266,
        "format": "JPEG",
        "added_at": "2025-07-17T00:03:03.575671",
        "hash": "a16498a738a21c2104fa3fa6b049f46d",
        "source": "migrated"
      }
    },
    {
      "id": "art_027",
      "category": "art",
      "title": "Art Wallpaper 027",
      "tags": [
        "art",
        "wallpaper",
        "hd",
        "mobile"
      ],
      "urls": {
        "raw": "https://media.githubusercontent.com/media/ddh4r4m/wallpaper-collection/main/collection/wallpapers/art/027.jpg",
        "thumb": "https://media.githubusercontent.com/media/ddh4r4m/wallpaper-collection/main/collection/thumbnails/art/027.jpg"
      },
      "metadata": {
        "dimensions": {
          "width": 1080,
          "height": 1920
        },
        "file_size": 600878,
        "format": "JPEG",
        "added_at": "2025-07-17T00:03:03.649780",
        "hash": "95b6121b218f93b268f41d1b6b0d53a0",
        "source": "migrated"
      }
    },
    {
      "id": "art_028",
      "category": "art",
      "title": "Art Wallpaper 028",
      "tags": [
        "art",
        "wallpaper",
        "hd",
        "mobile"
      ],
      "urls": {
        "raw": "https://media.githubusercontent.com/media/ddh4r4m/wallpaper-collection/main/collection/wallpapers/art/028.jpg",
        "thumb": "https://media.githubusercontent.com/media/ddh4r4m/wallpaper-collection/main/collection/thumbnails/art/028.jpg"
      },
      "metadata": {
        "dimensions": {
          "width": 1080,
          "height": 1920
        },
        "file_size": 25504,
        "format": "JPEG",
        "added_at": "2025-07-17T00:03:03.691085",
        "hash": "a1feb6e371cd5047bfa84e54283a6e41",
        "source": "migrated"
      }
    },
    {
      "id": "art_029",
      "category": "art",
      "title": "Art Wallpaper 029",
      "tags": [
        "art",
        "wallpaper",
        "hd",
        "mobile"
      ],
      "urls": {
        "raw": "https://media.githubusercontent.com/media/ddh4r4m/wallpaper-collection/main/collection/wallpapers/art/029.jpg",
        "thumb": "https://media.githubusercontent.com/media/ddh4r4m/wallpaper-collection/main/collection/thumbnails/art/029.jpg"
      },
      "metadata": {
        "dimensions": {
          "width": 1080,
          "height": 1920
        },
        "file_size": 37277,
        "format": "JPEG",
        "added_at": "2025-07-17T00:03:03.733966",
        "hash": "eb2922342489f53bf12e41c0ed7ad914",
        "source": "migrated"
      }
    },
    {
      "id": "art_030",
      "category": "art",
      "title": "Art Wallpaper 030",
      "tags": [
        "art",
        "wallpaper",
        "hd",
        "mobile"
      ],
      "urls": {
        "raw": "https://media.githubusercontent.com/media/ddh4r4m/wallpaper-collection/main/collection/wallpapers/art/030.jpg",
        "thumb": "https://media.githubusercontent.com/media/ddh4r4m/wallpaper-collection/main/collection/thumbnails/art/030.jpg"
      },
      "metadata": {
        "dimensions": {
          "width": 1080,
          "height": 1920
        },
        "file_size": 371077,
        "format": "JPEG",
        "added_at": "2025-07-17T00:03:03.801768",
        "hash": "9aea3d729f55ba76a1e9a1e4e9f42b98",
        "source": "migrated"
      }
    }
  ]
}