{
  "meta": {
    "version": "1.0",
    "generated_at": "2025-07-19T12:26:57.111378",
    "category": "art",
    "page": 6,
    "per_page": 15,
    "total_pages": 6,
    "total_count": 90,
    "count_on_page": 15,
    "has_next": false,
    "has_prev": true,
    "next_page_url": null,
    "prev_page_url": "/api/v1/art/pages/5.json"
  },
  "data": [
    {
      "id": "art_076",
      "category": "art",
      "title": "\u201cBefore the Void\u201d by me, blend - Reddit AI",
      "tags": [
        "art",
        "ai-generated",
        "hd",
        "mobile",
        "community"
      ],
      "metadata": {
        "dimensions": {
          "width": 1080,
          "height": 1728
        },
        "file_size": 222504,
        "format": "JPEG",
        "added_at": "2025-07-18T00:34:02.934895",
        "hash": "277d4a1c95965863ea026d6b20b01cc0",
        "ai_source": "reddit",
        "ai_generated": true,
        "community_score": 580
      },
      "urls": {
        "raw": "https://media.githubusercontent.com/media/ddh4r4m/wallpaper-collection/main/collection/wallpapers/art/076.jpg",
        "thumb": "https://media.githubusercontent.com/media/ddh4r4m/wallpaper-collection/main/collection/thumbnails/art/076.jpg"
      }
    },
    {
      "id": "art_077",
      "category": "art",
      "title": "I quit my j*b to do art. Was i - Reddit AI",
      "tags": [
        "art",
        "ai-generated",
        "hd",
        "mobile",
        "community"
      ],
      "metadata": {
        "dimensions": {
          "width": 1080,
          "height": 1441
        },
        "file_size": 276311,
        "format": "JPEG",
        "added_at": "2025-07-18T00:34:04.100273",
        "hash": "1f9e92605022e4cc08390361ae7cef25",
        "ai_source": "reddit",
        "ai_generated": true,
        "community_score": 4017
      },
      "urls": {
        "raw": "https://media.githubusercontent.com/media/ddh4r4m/wallpaper-collection/main/collection/wallpapers/art/077.jpg",
        "thumb": "https://media.githubusercontent.com/media/ddh4r4m/wallpaper-collection/main/collection/thumbnails/art/077.jpg"
      }
    },
    {
      "id": "art_078",
      "category": "art",
      "title": "Glowing - Reddit AI",
      "tags": [
        "art",
        "ai-generated",
        "hd",
        "mobile",
        "community"
      ],
      "metadata": {
        "dimensions": {
          "width": 1062,
          "height": 1920
        },
        "file_size": 184604,
        "format": "JPEG",
        "added_at": "2025-07-18T00:34:05.398336",
        "hash": "d058bfc7401eeb3999a32855068b168c",
        "ai_source": "reddit",
        "ai_generated": true,
        "community_score": 272
      },
      "urls": {
        "raw": "https://media.githubusercontent.com/media/ddh4r4m/wallpaper-collection/main/collection/wallpapers/art/078.jpg",
        "thumb": "https://media.githubusercontent.com/media/ddh4r4m/wallpaper-collection/main/collection/thumbnails/art/078.jpg"
      }
    },
    {
      "id": "art_079",
      "category": "art",
      "title": "Any advice on how/what to impr - Reddit AI",
      "tags": [
        "art",
        "ai-generated",
        "hd",
        "mobile",
        "community"
      ],
      "metadata": {
        "dimensions": {
          "width": 1080,
          "height": 833
        },
        "file_size": 149415,
        "format": "JPEG",
        "added_at": "2025-07-18T00:34:06.968914",
        "hash": "5c840e266402d0e18e8825c8dc645e3e",
        "ai_source": "reddit",
        "ai_generated": true,
        "community_score": 47
      },
      "urls": {
        "raw": "https://media.githubusercontent.com/media/ddh4r4m/wallpaper-collection/main/collection/wallpapers/art/079.jpg",
        "thumb": "https://media.githubusercontent.com/media/ddh4r4m/wallpaper-collection/main/collection/thumbnails/art/079.jpg"
      }
    },
    {
      "id": "art_080",
      "category": "art",
      "title": "a more sketchy sketch tdy:D - Reddit AI",
      "tags": [
        "art",
        "ai-generated",
        "hd",
        "mobile",
        "community"
      ],
      "metadata": {
        "dimensions": {
          "width": 1080,
          "height": 1920
        },
        "file_size": 253286,
        "format": "JPEG",
        "added_at": "2025-07-18T00:34:11.192760",
        "hash": "4e19a4d93cad4854818422f112f03dcf",
        "ai_source": "reddit",
        "ai_generated": true,
        "community_score": 12
      },
      "urls": {
        "raw": "https://media.githubusercontent.com/media/ddh4r4m/wallpaper-collection/main/collection/wallpapers/art/080.jpg",
        "thumb": "https://media.githubusercontent.com/media/ddh4r4m/wallpaper-collection/main/collection/thumbnails/art/080.jpg"
      }
    },
    {
      "id": "art_081",
      "category": "art",
      "title": "Art-Nouveau-Inspired art I did - Reddit AI",
      "tags": [
        "art",
        "ai-generated",
        "hd",
        "mobile",
        "community"
      ],
      "metadata": {
        "dimensions": {
          "width": 1080,
          "height": 1398
        },
        "file_size": 373473,
        "format": "JPEG",
        "added_at": "2025-07-19T11:47:27.602654",
        "hash": "4ea93b762e4f209254a73f56052e740c",
        "ai_source": "reddit",
        "ai_generated": true,
        "community_score": 220
      },
      "urls": {
        "raw": "https://media.githubusercontent.com/media/ddh4r4m/wallpaper-collection/main/collection/wallpapers/art/081.jpg",
        "thumb": "https://media.githubusercontent.com/media/ddh4r4m/wallpaper-collection/main/collection/thumbnails/art/081.jpg"
      }
    },
    {
      "id": "art_082",
      "category": "art",
      "title": "Architectural drawing done by  - Reddit AI",
      "tags": [
        "art",
        "ai-generated",
        "hd",
        "mobile",
        "community"
      ],
      "metadata": {
        "dimensions": {
          "width": 1080,
          "height": 1393
        },
        "file_size": 298188,
        "format": "JPEG",
        "added_at": "2025-07-19T11:47:28.855751",
        "hash": "f6c073d01f5e8390f9f85099fe9baa37",
        "ai_source": "reddit",
        "ai_generated": true,
        "community_score": 362
      },
      "urls": {
        "raw": "https://media.githubusercontent.com/media/ddh4r4m/wallpaper-collection/main/collection/wallpapers/art/082.jpg",
        "thumb": "https://media.githubusercontent.com/media/ddh4r4m/wallpaper-collection/main/collection/thumbnails/art/082.jpg"
      }
    },
    {
      "id": "art_083",
      "category": "art",
      "title": "Mascarilla oc \ud83d\udd25 - Reddit AI",
      "tags": [
        "art",
        "ai-generated",
        "hd",
        "mobile",
        "community"
      ],
      "metadata": {
        "dimensions": {
          "width": 1080,
          "height": 1528
        },
        "file_size": 184250,
        "format": "JPEG",
        "added_at": "2025-07-19T11:47:30.959047",
        "hash": "03b2edc402f52c7a908cd89439ed0626",
        "ai_source": "reddit",
        "ai_generated": true,
        "community_score": 101
      },
      "urls": {
        "raw": "https://media.githubusercontent.com/media/ddh4r4m/wallpaper-collection/main/collection/wallpapers/art/083.jpg",
        "thumb": "https://media.githubusercontent.com/media/ddh4r4m/wallpaper-collection/main/collection/thumbnails/art/083.jpg"
      }
    },
    {
      "id": "art_084",
      "category": "art",
      "title": "Would you eat this ramen? - Reddit AI",
      "tags": [
        "art",
        "ai-generated",
        "hd",
        "mobile",
        "community"
      ],
      "metadata": {
        "dimensions": {
          "width": 1080,
          "height": 870
        },
        "file_size": 165625,
        "format": "JPEG",
        "added_at": "2025-07-19T11:47:32.329802",
        "hash": "d6391c36632c3d1584ab4f8f1837ca3a",
        "ai_source": "reddit",
        "ai_generated": true,
        "community_score": 15
      },
      "urls": {
        "raw": "https://media.githubusercontent.com/media/ddh4r4m/wallpaper-collection/main/collection/wallpapers/art/084.jpg",
        "thumb": "https://media.githubusercontent.com/media/ddh4r4m/wallpaper-collection/main/collection/thumbnails/art/084.jpg"
      }
    },
    {
      "id": "art_085",
      "category": "art",
      "title": "Glitchflies - Reddit AI",
      "tags": [
        "art",
        "ai-generated",
        "hd",
        "mobile",
        "community"
      ],
      "metadata": {
        "dimensions": {
          "width": 1080,
          "height": 1523
        },
        "file_size": 274173,
        "format": "JPEG",
        "added_at": "2025-07-19T11:47:34.217936",
        "hash": "26f52b500f72bac311d4ac527f6d7c03",
        "ai_source": "reddit",
        "ai_generated": true,
        "community_score": 122
      },
      "urls": {
        "raw": "https://media.githubusercontent.com/media/ddh4r4m/wallpaper-collection/main/collection/wallpapers/art/085.jpg",
        "thumb": "https://media.githubusercontent.com/media/ddh4r4m/wallpaper-collection/main/collection/thumbnails/art/085.jpg"
      }
    },
    {
      "id": "art_086",
      "category": "art",
      "title": "is this cloth good? - Reddit AI",
      "tags": [
        "art",
        "ai-generated",
        "hd",
        "mobile",
        "community"
      ],
      "metadata": {
        "dimensions": {
          "width": 1080,
          "height": 950
        },
        "file_size": 65880,
        "format": "JPEG",
        "added_at": "2025-07-19T11:47:35.594389",
        "hash": "f96470332e61a32eb86c024b0b624744",
        "ai_source": "reddit",
        "ai_generated": true,
        "community_score": 19
      },
      "urls": {
        "raw": "https://media.githubusercontent.com/media/ddh4r4m/wallpaper-collection/main/collection/wallpapers/art/086.jpg",
        "thumb": "https://media.githubusercontent.com/media/ddh4r4m/wallpaper-collection/main/collection/thumbnails/art/086.jpg"
      }
    },
    {
      "id": "art_087",
      "category": "art",
      "title": "Something I am working on - Reddit AI",
      "tags": [
        "art",
        "ai-generated",
        "hd",
        "mobile",
        "community"
      ],
      "metadata": {
        "dimensions": {
          "width": 887,
          "height": 1920
        },
        "file_size": 159850,
        "format": "JPEG",
        "added_at": "2025-07-19T11:47:36.967075",
        "hash": "d16acdce44e340a4d2de4d59f03667ca",
        "ai_source": "reddit",
        "ai_generated": true,
        "community_score": 12
      },
      "urls": {
        "raw": "https://media.githubusercontent.com/media/ddh4r4m/wallpaper-collection/main/collection/wallpapers/art/087.jpg",
        "thumb": "https://media.githubusercontent.com/media/ddh4r4m/wallpaper-collection/main/collection/thumbnails/art/087.jpg"
      }
    },
    {
      "id": "art_088",
      "category": "art",
      "title": "One of my newest pieces - Reddit AI",
      "tags": [
        "art",
        "ai-generated",
        "hd",
        "mobile",
        "community"
      ],
      "metadata": {
        "dimensions": {
          "width": 1080,
          "height": 1528
        },
        "file_size": 158578,
        "format": "JPEG",
        "added_at": "2025-07-19T11:47:38.448165",
        "hash": "e28ee67a2129133dc47af5d64792130c",
        "ai_source": "reddit",
        "ai_generated": true,
        "community_score": 9
      },
      "urls": {
        "raw": "https://media.githubusercontent.com/media/ddh4r4m/wallpaper-collection/main/collection/wallpapers/art/088.jpg",
        "thumb": "https://media.githubusercontent.com/media/ddh4r4m/wallpaper-collection/main/collection/thumbnails/art/088.jpg"
      }
    },
    {
      "id": "art_089",
      "category": "art",
      "title": "Full illustration I did for a  - Reddit AI",
      "tags": [
        "art",
        "ai-generated",
        "hd",
        "mobile",
        "community"
      ],
      "metadata": {
        "dimensions": {
          "width": 1080,
          "height": 618
        },
        "file_size": 195299,
        "format": "JPEG",
        "added_at": "2025-07-19T11:47:40.010566",
        "hash": "796bca7f3b3b9acc3a829cd9b4792592",
        "ai_source": "reddit",
        "ai_generated": true,
        "community_score": 203
      },
      "urls": {
        "raw": "https://media.githubusercontent.com/media/ddh4r4m/wallpaper-collection/main/collection/wallpapers/art/089.jpg",
        "thumb": "https://media.githubusercontent.com/media/ddh4r4m/wallpaper-collection/main/collection/thumbnails/art/089.jpg"
      }
    },
    {
      "id": "art_090",
      "category": "art",
      "title": "Untitled (I need help finding  - Reddit AI",
      "tags": [
        "art",
        "ai-generated",
        "hd",
        "mobile",
        "community"
      ],
      "metadata": {
        "dimensions": {
          "width": 1080,
          "height": 1080
        },
        "file_size": 408691,
        "format": "JPEG",
        "added_at": "2025-07-19T11:47:41.680697",
        "hash": "c10ed8724f2f4b911d71ade8f4547ee4",
        "ai_source": "reddit",
        "ai_generated": true,
        "community_score": 4
      },
      "urls": {
        "raw": "https://media.githubusercontent.com/media/ddh4r4m/wallpaper-collection/main/collection/wallpapers/art/090.jpg",
        "thumb": "https://media.githubusercontent.com/media/ddh4r4m/wallpaper-collection/main/collection/thumbnails/art/090.jpg"
      }
    }
  ]
}