{
  "meta": {
    "version": "1.0",
    "generated_at": "2025-07-28T22:38:03.579947",
    "category": "ai",
    "page": 1,
    "per_page": 15,
    "total_pages": 6,
    "total_count": 83,
    "count_on_page": 15,
    "has_next": true,
    "has_prev": false,
    "next_page_url": "/api/v1/ai/pages/2.json",
    "prev_page_url": null
  },
  "data": [
    {
      "id": "ai_001",
      "category": "ai",
      "title": "The SeedVR2 video upscaler is  - Reddit AI",
      "tags": [
        "ai",
        "ai-generated",
        "hd",
        "mobile",
        "community"
      ],
      "metadata": {
        "dimensions": {
          "width": 960,
          "height": 1440
        },
        "file_size": 189862,
        "format": "JPEG",
        "added_at": "2025-07-18T00:55:16.058531",
        "hash": "e87030a470a8aace74b5c088c2dd8ac8",
        "ai_source": "reddit",
        "ai_generated": true,
        "community_score": 213
      },
      "urls": {
        "raw": "https://media.githubusercontent.com/media/ddh4r4m/wallpaper-collection/main/collection/wallpapers/ai/001.jpg",
        "thumb": "https://media.githubusercontent.com/media/ddh4r4m/wallpaper-collection/main/collection/thumbnails/ai/001.jpg"
      }
    },
    {
      "id": "ai_002",
      "category": "ai",
      "title": "AtomicHeartTwinsCosplay in absolute darkness profo - Premium Civitai",
      "tags": [
        "ai",
        "ai-generated",
        "civitai",
        "stable-diffusion",
        "hd",
        "mobile",
        "viral",
        "community-rated"
      ],
      "metadata": {
        "dimensions": {
          "width": 832,
          "height": 1216
        },
        "file_size": 107136,
        "format": "JPEG",
        "added_at": "2025-07-19T12:10:33.064361",
        "hash": "66ccf76d60ee035e626acd1d1d864997",
        "ai_source": "civitai",
        "ai_generated": true,
        "source_platform": "civitai.com",
        "civitai_tag_id": 5133,
        "ai_prompt": "AtomicHeartTwinsCosplay in absolute darkness, profoundly no light, holding black-pink heart shaped orbstaff, \npointed hat, translucent skin, Describe the captivating scene captured in the vintage photograph featuring a Bedouin artist skillfully swallowing a massive sword in the style of Final Fantas",
        "civitai_stats": {
          "cryCount": 1536,
          "laughCount": 2386,
          "likeCount": 19057,
          "dislikeCount": 0,
          "heartCount": 7067,
          "commentCount": 50
        },
        "total_reactions": 26124
      },
      "urls": {
        "raw": "https://media.githubusercontent.com/media/ddh4r4m/wallpaper-collection/main/collection/wallpapers/ai/002.jpg",
        "thumb": "https://media.githubusercontent.com/media/ddh4r4m/wallpaper-collection/main/collection/thumbnails/ai/002.jpg"
      }
    },
    {
      "id": "ai_003",
      "category": "ai",
      "title": "score_9 score_8_up score_7_up  san 1girl full body - Premium Civitai",
      "tags": [
        "ai",
        "ai-generated",
        "civitai",
        "stable-diffusion",
        "hd",
        "mobile",
        "viral",
        "high-resolution",
        "community-rated"
      ],
      "metadata": {
        "dimensions": {
          "width": 1080,
          "height": 1387
        },
        "file_size": 334494,
        "format": "JPEG",
        "added_at": "2025-07-19T12:10:36.264971",
        "hash": "4a6fd3bd88ab6452e971d964884626af",
        "ai_source": "civitai",
        "ai_generated": true,
        "source_platform": "civitai.com",
        "civitai_tag_id": 5133,
        "ai_prompt": "score_9, score_8_up, score_7_up,  san, 1girl, full body, squatting, solo, short hair, brown hair, gray eyes, headband, face paint, earrings, white sleeveless top, navy under dress, arm cuffs, fur headdress, fur cape, light-skinned female, female focus, looking at viewer, smiling, forest, (blush:1.1)",
        "civitai_stats": {
          "cryCount": 835,
          "laughCount": 1670,
          "likeCount": 12973,
          "dislikeCount": 0,
          "heartCount": 5831,
          "commentCount": 23
        },
        "total_reactions": 18804
      },
      "urls": {
        "raw": "https://media.githubusercontent.com/media/ddh4r4m/wallpaper-collection/main/collection/wallpapers/ai/003.jpg",
        "thumb": "https://media.githubusercontent.com/media/ddh4r4m/wallpaper-collection/main/collection/thumbnails/ai/003.jpg"
      }
    },
    {
      "id": "ai_004",
      "category": "ai",
      "title": "A close-up of a face adorned with intricate black - Premium Civitai",
      "tags": [
        "ai",
        "ai-generated",
        "civitai",
        "stable-diffusion",
        "hd",
        "mobile",
        "viral",
        "community-rated"
      ],
      "metadata": {
        "dimensions": {
          "width": 832,
          "height": 1216
        },
        "file_size": 174675,
        "format": "JPEG",
        "added_at": "2025-07-19T12:10:38.325648",
        "hash": "7aa99deec07a00383993af096e7a9d2f",
        "ai_source": "civitai",
        "ai_generated": true,
        "source_platform": "civitai.com",
        "civitai_tag_id": 5133,
        "ai_prompt": "A close-up of a face adorned with intricate black and blue patterns. The left side of the face is predominantly yellow, with symbols and doodles, while the right side is dark, featuring mechanical elements. The eye on the left is a striking shade of yellow, contrasting sharply with the surrounding p",
        "civitai_stats": {
          "cryCount": 1085,
          "laughCount": 1782,
          "likeCount": 12799,
          "dislikeCount": 0,
          "heartCount": 4564,
          "commentCount": 27
        },
        "total_reactions": 17363
      },
      "urls": {
        "raw": "https://media.githubusercontent.com/media/ddh4r4m/wallpaper-collection/main/collection/wallpapers/ai/004.jpg",
        "thumb": "https://media.githubusercontent.com/media/ddh4r4m/wallpaper-collection/main/collection/thumbnails/ai/004.jpg"
      }
    },
    {
      "id": "ai_005",
      "category": "ai",
      "title": "Smoking coffee - Reddit AI",
      "tags": [
        "ai",
        "ai-generated",
        "hd",
        "mobile",
        "community"
      ],
      "metadata": {
        "dimensions": {
          "width": 1024,
          "height": 1024
        },
        "file_size": 116221,
        "format": "JPEG",
        "added_at": "2025-07-18T00:55:22.242852",
        "hash": "e65893e5ead55a1d1ede3a75275746eb",
        "ai_source": "reddit",
        "ai_generated": true,
        "community_score": 26
      },
      "urls": {
        "raw": "https://media.githubusercontent.com/media/ddh4r4m/wallpaper-collection/main/collection/wallpapers/ai/005.jpg",
        "thumb": "https://media.githubusercontent.com/media/ddh4r4m/wallpaper-collection/main/collection/thumbnails/ai/005.jpg"
      }
    },
    {
      "id": "ai_006",
      "category": "ai",
      "title": "score_9 score_8_up score_7_up score_6_up  lorap3tl - Premium Civitai",
      "tags": [
        "ai",
        "ai-generated",
        "civitai",
        "stable-diffusion",
        "hd",
        "mobile",
        "viral",
        "community-rated"
      ],
      "metadata": {
        "dimensions": {
          "width": 832,
          "height": 1216
        },
        "file_size": 153979,
        "format": "JPEG",
        "added_at": "2025-07-19T12:10:39.981522",
        "hash": "e4897b3c3b6cb54146eebdea95aaa6ba",
        "ai_source": "civitai",
        "ai_generated": true,
        "source_platform": "civitai.com",
        "civitai_tag_id": 5133,
        "ai_prompt": "score_9, score_8_up, score_7_up, score_6_up,  <lora:p3tl0v3XLP:1> p3tl0v3, 1girl, rumi usagiyama, dark skinned female, hugging a white rabbit,",
        "civitai_stats": {
          "cryCount": 718,
          "laughCount": 1343,
          "likeCount": 10884,
          "dislikeCount": 0,
          "heartCount": 5402,
          "commentCount": 24
        },
        "total_reactions": 16286
      },
      "urls": {
        "raw": "https://media.githubusercontent.com/media/ddh4r4m/wallpaper-collection/main/collection/wallpapers/ai/006.jpg",
        "thumb": "https://media.githubusercontent.com/media/ddh4r4m/wallpaper-collection/main/collection/thumbnails/ai/006.jpg"
      }
    },
    {
      "id": "ai_007",
      "category": "ai",
      "title": "The Lone Wanderer - Reddit AI",
      "tags": [
        "ai",
        "ai-generated",
        "hd",
        "mobile",
        "community"
      ],
      "metadata": {
        "dimensions": {
          "width": 900,
          "height": 900
        },
        "file_size": 206607,
        "format": "JPEG",
        "added_at": "2025-07-18T00:55:25.242154",
        "hash": "ac9db80c7048ecb3359cf0cfad0a1824",
        "ai_source": "reddit",
        "ai_generated": true,
        "community_score": 33
      },
      "urls": {
        "raw": "https://media.githubusercontent.com/media/ddh4r4m/wallpaper-collection/main/collection/wallpapers/ai/007.jpg",
        "thumb": "https://media.githubusercontent.com/media/ddh4r4m/wallpaper-collection/main/collection/thumbnails/ai/007.jpg"
      }
    },
    {
      "id": "ai_008",
      "category": "ai",
      "title": "Waspbewwy - Reddit AI",
      "tags": [
        "ai",
        "ai-generated",
        "hd",
        "mobile",
        "community"
      ],
      "metadata": {
        "dimensions": {
          "width": 1080,
          "height": 893
        },
        "file_size": 135098,
        "format": "JPEG",
        "added_at": "2025-07-18T00:55:26.439770",
        "hash": "564cdd8919f980928535588644d1532b",
        "ai_source": "reddit",
        "ai_generated": true,
        "community_score": 67
      },
      "urls": {
        "raw": "https://media.githubusercontent.com/media/ddh4r4m/wallpaper-collection/main/collection/wallpapers/ai/008.jpg",
        "thumb": "https://media.githubusercontent.com/media/ddh4r4m/wallpaper-collection/main/collection/thumbnails/ai/008.jpg"
      }
    },
    {
      "id": "ai_009",
      "category": "ai",
      "title": "The Veilstone Reliquary - Reddit AI",
      "tags": [
        "ai",
        "ai-generated",
        "hd",
        "mobile",
        "community"
      ],
      "metadata": {
        "dimensions": {
          "width": 1080,
          "height": 1620
        },
        "file_size": 422237,
        "format": "JPEG",
        "added_at": "2025-07-18T00:55:27.756061",
        "hash": "e681b3fb7fbd0aa6bf575c0551a76ee4",
        "ai_source": "reddit",
        "ai_generated": true,
        "community_score": 15
      },
      "urls": {
        "raw": "https://media.githubusercontent.com/media/ddh4r4m/wallpaper-collection/main/collection/wallpapers/ai/009.jpg",
        "thumb": "https://media.githubusercontent.com/media/ddh4r4m/wallpaper-collection/main/collection/thumbnails/ai/009.jpg"
      }
    },
    {
      "id": "ai_010",
      "category": "ai",
      "title": "She wasn't beautiful but she h - Reddit AI",
      "tags": [
        "ai",
        "ai-generated",
        "hd",
        "mobile",
        "community"
      ],
      "metadata": {
        "dimensions": {
          "width": 1080,
          "height": 1306
        },
        "file_size": 316482,
        "format": "JPEG",
        "added_at": "2025-07-18T00:55:28.921708",
        "hash": "dafc234a389e67ac6c5145a3e6e58d6e",
        "ai_source": "reddit",
        "ai_generated": true,
        "community_score": 25
      },
      "urls": {
        "raw": "https://media.githubusercontent.com/media/ddh4r4m/wallpaper-collection/main/collection/wallpapers/ai/010.jpg",
        "thumb": "https://media.githubusercontent.com/media/ddh4r4m/wallpaper-collection/main/collection/thumbnails/ai/010.jpg"
      }
    },
    {
      "id": "ai_011",
      "category": "ai",
      "title": "at least we have one eye - Reddit AI",
      "tags": [
        "ai",
        "ai-generated",
        "hd",
        "mobile",
        "community"
      ],
      "metadata": {
        "dimensions": {
          "width": 1080,
          "height": 1080
        },
        "file_size": 294858,
        "format": "JPEG",
        "added_at": "2025-07-18T00:55:30.371508",
        "hash": "2a56f3e1c8ec52b2c4da8c5d61f629a4",
        "ai_source": "reddit",
        "ai_generated": true,
        "community_score": 19
      },
      "urls": {
        "raw": "https://media.githubusercontent.com/media/ddh4r4m/wallpaper-collection/main/collection/wallpapers/ai/011.jpg",
        "thumb": "https://media.githubusercontent.com/media/ddh4r4m/wallpaper-collection/main/collection/thumbnails/ai/011.jpg"
      }
    },
    {
      "id": "ai_012",
      "category": "ai",
      "title": "The EYE - Reddit AI",
      "tags": [
        "ai",
        "ai-generated",
        "hd",
        "mobile",
        "community"
      ],
      "metadata": {
        "dimensions": {
          "width": 1080,
          "height": 893
        },
        "file_size": 112922,
        "format": "JPEG",
        "added_at": "2025-07-18T00:55:31.525432",
        "hash": "740dbb6a1e714dcac231566865bbcd43",
        "ai_source": "reddit",
        "ai_generated": true,
        "community_score": 10
      },
      "urls": {
        "raw": "https://media.githubusercontent.com/media/ddh4r4m/wallpaper-collection/main/collection/wallpapers/ai/012.jpg",
        "thumb": "https://media.githubusercontent.com/media/ddh4r4m/wallpaper-collection/main/collection/thumbnails/ai/012.jpg"
      }
    },
    {
      "id": "ai_013",
      "category": "ai",
      "title": "Battle - Reddit AI",
      "tags": [
        "ai",
        "ai-generated",
        "hd",
        "mobile",
        "community"
      ],
      "metadata": {
        "dimensions": {
          "width": 1024,
          "height": 1024
        },
        "file_size": 111299,
        "format": "JPEG",
        "added_at": "2025-07-18T00:55:32.901428",
        "hash": "1608ee6c5820c6b268757c9d65411fd4",
        "ai_source": "reddit",
        "ai_generated": true,
        "community_score": 4
      },
      "urls": {
        "raw": "https://media.githubusercontent.com/media/ddh4r4m/wallpaper-collection/main/collection/wallpapers/ai/013.jpg",
        "thumb": "https://media.githubusercontent.com/media/ddh4r4m/wallpaper-collection/main/collection/thumbnails/ai/013.jpg"
      }
    },
    {
      "id": "ai_014",
      "category": "ai",
      "title": "Microcosm - Reddit AI",
      "tags": [
        "ai",
        "ai-generated",
        "hd",
        "mobile",
        "community"
      ],
      "metadata": {
        "dimensions": {
          "width": 1024,
          "height": 1024
        },
        "file_size": 256084,
        "format": "JPEG",
        "added_at": "2025-07-18T00:55:34.583120",
        "hash": "597aefcdec83e283976d80902a6ffcb7",
        "ai_source": "reddit",
        "ai_generated": true,
        "community_score": 3
      },
      "urls": {
        "raw": "https://media.githubusercontent.com/media/ddh4r4m/wallpaper-collection/main/collection/wallpapers/ai/014.jpg",
        "thumb": "https://media.githubusercontent.com/media/ddh4r4m/wallpaper-collection/main/collection/thumbnails/ai/014.jpg"
      }
    },
    {
      "id": "ai_016",
      "category": "ai",
      "title": "score_9 score_8_up score_7_up BREAK\n1girl portrait - Premium Civitai",
      "tags": [
        "ai",
        "ai-generated",
        "civitai",
        "stable-diffusion",
        "hd",
        "mobile",
        "viral",
        "community-rated"
      ],
      "metadata": {
        "dimensions": {
          "width": 832,
          "height": 1216
        },
        "file_size": 160241,
        "format": "JPEG",
        "added_at": "2025-07-19T12:10:42.348676",
        "hash": "376353b3f7634e0221529f1ad6987e95",
        "ai_source": "civitai",
        "ai_generated": true,
        "source_platform": "civitai.com",
        "civitai_tag_id": 5133,
        "ai_prompt": "score_9, score_8_up, score_7_up, BREAK,\n1girl, portrait, beautiful, tiefling shaman, white hair, (long hair:1.3), side bangs, horns, barbarian, gladiator, war paint, tribal markings, long tail, blue skin, pink eyes, glowing eyes, (smug:0.85), (big breast:1.25), dramatic lights\n<lora:Fant5yP0ny:0.6> ",
        "civitai_stats": {
          "cryCount": 683,
          "laughCount": 1233,
          "likeCount": 11266,
          "dislikeCount": 0,
          "heartCount": 4661,
          "commentCount": 13
        },
        "total_reactions": 15927
      },
      "urls": {
        "raw": "https://media.githubusercontent.com/media/ddh4r4m/wallpaper-collection/main/collection/wallpapers/ai/015.jpg",
        "thumb": "https://media.githubusercontent.com/media/ddh4r4m/wallpaper-collection/main/collection/thumbnails/ai/015.jpg"
      }
    }
  ]
}