{
  "meta": {
    "version": "1.0",
    "generated_at": "2025-07-28T23:12:02.393375",
    "category": "ai",
    "page": 4,
    "per_page": 15,
    "total_pages": 6,
    "total_count": 83,
    "count_on_page": 15,
    "has_next": true,
    "has_prev": true,
    "next_page_url": "/api/v1/ai/pages/5.json",
    "prev_page_url": "/api/v1/ai/pages/3.json"
  },
  "data": [
    {
      "id": "ai_100",
      "category": "ai",
      "title": "Hyperrealism extreme close-up Portrait of a beauti - Premium Civitai",
      "tags": [
        "ai",
        "ai-generated",
        "civitai",
        "stable-diffusion",
        "hd",
        "mobile",
        "viral",
        "community-rated"
      ],
      "metadata": {
        "dimensions": {
          "width": 832,
          "height": 1216
        },
        "file_size": 197610,
        "format": "JPEG",
        "added_at": "2025-07-19T12:13:50.503827",
        "hash": "1a84b19e26bd39458b5afa0c22649eaa",
        "ai_source": "civitai",
        "ai_generated": true,
        "source_platform": "civitai.com",
        "civitai_tag_id": 5133,
        "ai_prompt": "Hyperrealism, extreme close-up Portrait of a beautiful, stunning unique female character. She has large turquoise eyes filled with joy and excitement, extravagant eyelashes, making this image a masterpiece of photography and digital art. Style: realistic hyper-detailed rendering, 32k UHD, expressive",
        "civitai_stats": {
          "cryCount": 671,
          "laughCount": 1102,
          "likeCount": 8091,
          "dislikeCount": 0,
          "heartCount": 3280,
          "commentCount": 24
        },
        "total_reactions": 11371
      },
      "urls": {
        "raw": "https://media.githubusercontent.com/media/ddh4r4m/wallpaper-collection/main/collection/wallpapers/ai/046.jpg",
        "thumb": "https://media.githubusercontent.com/media/ddh4r4m/wallpaper-collection/main/collection/thumbnails/ai/046.jpg"
      }
    },
    {
      "id": "ai_101",
      "category": "ai",
      "title": "drunken fist leaning forward Red and Grey color gr - Premium Civitai",
      "tags": [
        "ai",
        "ai-generated",
        "civitai",
        "stable-diffusion",
        "hd",
        "mobile",
        "viral",
        "community-rated"
      ],
      "metadata": {
        "dimensions": {
          "width": 832,
          "height": 1216
        },
        "file_size": 112425,
        "format": "JPEG",
        "added_at": "2025-07-19T12:13:52.599235",
        "hash": "f20dc4b51b1bb4a3d8722332ccbd4f6e",
        "ai_source": "civitai",
        "ai_generated": true,
        "source_platform": "civitai.com",
        "civitai_tag_id": 5133,
        "ai_prompt": "drunken fist, leaning forward, Red and Grey color graded glamour portrait photo of an Cyborg Samurai, macro, a captivating vibrant dark neon capturing the essence of a translucent amber cyborg Bedouin sorcerer in fight stance, defying expectations by conjuring a whimsical robot 'freak' from an overs",
        "civitai_stats": {
          "cryCount": 516,
          "laughCount": 1004,
          "likeCount": 8138,
          "dislikeCount": 0,
          "heartCount": 3107,
          "commentCount": 5
        },
        "total_reactions": 11245
      },
      "urls": {
        "raw": "https://media.githubusercontent.com/media/ddh4r4m/wallpaper-collection/main/collection/wallpapers/ai/047.jpg",
        "thumb": "https://media.githubusercontent.com/media/ddh4r4m/wallpaper-collection/main/collection/thumbnails/ai/047.jpg"
      }
    },
    {
      "id": "ai_102",
      "category": "ai",
      "title": "score_9 score_8_up score_7_up \r\nmonster girl llami - Premium Civitai",
      "tags": [
        "ai",
        "ai-generated",
        "civitai",
        "stable-diffusion",
        "hd",
        "mobile",
        "viral",
        "ponydiffusionv6xl-v6",
        "community-rated"
      ],
      "metadata": {
        "dimensions": {
          "width": 1080,
          "height": 1578
        },
        "file_size": 323647,
        "format": "JPEG",
        "added_at": "2025-07-19T12:13:54.231825",
        "hash": "ff3d7eb1d52503113981cd676f7d9eef",
        "ai_source": "civitai",
        "ai_generated": true,
        "source_platform": "civitai.com",
        "civitai_tag_id": 5133,
        "ai_prompt": "score_9, score_8_up, score_7_up, \r\nmonster girl, llamia, slit pupils, green eyes, horns, kunoichi, long hair, action pose, forest,",
        "ai_model": "ponyDiffusionV6XL_v6StartWithThisOne.safetensors",
        "civitai_stats": {
          "cryCount": 503,
          "laughCount": 916,
          "likeCount": 8162,
          "dislikeCount": 0,
          "heartCount": 3063,
          "commentCount": 7
        },
        "total_reactions": 11225
      },
      "urls": {
        "raw": "https://media.githubusercontent.com/media/ddh4r4m/wallpaper-collection/main/collection/wallpapers/ai/048.jpg",
        "thumb": "https://media.githubusercontent.com/media/ddh4r4m/wallpaper-collection/main/collection/thumbnails/ai/048.jpg"
      }
    },
    {
      "id": "ai_103",
      "category": "ai",
      "title": "Ai Premium AI - Civitai",
      "tags": [
        "ai",
        "ai-generated",
        "civitai",
        "stable-diffusion",
        "hd",
        "mobile",
        "viral",
        "high-resolution",
        "community-rated"
      ],
      "metadata": {
        "dimensions": {
          "width": 1080,
          "height": 1578
        },
        "file_size": 310524,
        "format": "JPEG",
        "added_at": "2025-07-19T12:13:57.180441",
        "hash": "d3eb8b0b32d33771cf79629f86d294c8",
        "ai_source": "civitai",
        "ai_generated": true,
        "source_platform": "civitai.com",
        "civitai_tag_id": 5133,
        "civitai_stats": {
          "cryCount": 565,
          "laughCount": 1183,
          "likeCount": 8193,
          "dislikeCount": 0,
          "heartCount": 3019,
          "commentCount": 10
        },
        "total_reactions": 11212
      },
      "urls": {
        "raw": "https://media.githubusercontent.com/media/ddh4r4m/wallpaper-collection/main/collection/wallpapers/ai/049.jpg",
        "thumb": "https://media.githubusercontent.com/media/ddh4r4m/wallpaper-collection/main/collection/thumbnails/ai/049.jpg"
      }
    },
    {
      "id": "ai_104",
      "category": "ai",
      "title": "atmosphere masterpiece high_quality absurdres very - Premium Civitai",
      "tags": [
        "ai",
        "ai-generated",
        "civitai",
        "stable-diffusion",
        "hd",
        "mobile",
        "viral",
        "glances-v1-safetenso",
        "high-resolution",
        "community-rated"
      ],
      "metadata": {
        "dimensions": {
          "width": 1080,
          "height": 1389
        },
        "file_size": 253759,
        "format": "JPEG",
        "added_at": "2025-07-19T12:14:00.975981",
        "hash": "5a9399a044ba680aa000081b8a7ff4a9",
        "ai_source": "civitai",
        "ai_generated": true,
        "source_platform": "civitai.com",
        "civitai_tag_id": 5133,
        "ai_prompt": "(atmosphere, masterpiece, high_quality, absurdres, very aesthetic, blurry_background, grainy_texture, film_grain, light particles textured clothing, textured hair, painterly, watercolor_\\(medium\\), colored_pencil_\\(medium\\), blending)\n(w1tchyc0ttagec0re, petting fox in foreground, 1girl, solo, long_",
        "ai_model": "glances_v1.safetensors",
        "civitai_stats": {
          "cryCount": 632,
          "laughCount": 1101,
          "likeCount": 8019,
          "dislikeCount": 0,
          "heartCount": 3122,
          "commentCount": 10
        },
        "total_reactions": 11141
      },
      "urls": {
        "raw": "https://media.githubusercontent.com/media/ddh4r4m/wallpaper-collection/main/collection/wallpapers/ai/050.jpg",
        "thumb": "https://media.githubusercontent.com/media/ddh4r4m/wallpaper-collection/main/collection/thumbnails/ai/050.jpg"
      }
    },
    {
      "id": "ai_105",
      "category": "ai",
      "title": "yfg-sm0rg Bask in the realm of abstract expression - Premium Civitai",
      "tags": [
        "ai",
        "ai-generated",
        "civitai",
        "stable-diffusion",
        "hd",
        "mobile",
        "viral",
        "flux-flux1-dev-fp8-s",
        "community-rated"
      ],
      "metadata": {
        "dimensions": {
          "width": 1080,
          "height": 1620
        },
        "file_size": 258426,
        "format": "JPEG",
        "added_at": "2025-07-19T12:14:02.605562",
        "hash": "78b59a4b362a7dc4cf8cdf860c3110b9",
        "ai_source": "civitai",
        "ai_generated": true,
        "source_platform": "civitai.com",
        "civitai_tag_id": 5133,
        "ai_prompt": "yfg-sm0rg, Bask in the realm of abstract expressionism as a mysterious figure cloaked in a vibrant red shawl steps into view against an ebony void. Her head hangs low, enveloped in a cloud of bewitching curiosity. In stark contrast with her crimson surroundings, crisp white lines dance alongside her",
        "ai_model": "Flux\\flux1-dev-fp8.safetensors",
        "civitai_stats": {
          "cryCount": 627,
          "laughCount": 957,
          "likeCount": 8193,
          "dislikeCount": 0,
          "heartCount": 2932,
          "commentCount": 5
        },
        "total_reactions": 11125
      },
      "urls": {
        "raw": "https://media.githubusercontent.com/media/ddh4r4m/wallpaper-collection/main/collection/wallpapers/ai/051.jpg",
        "thumb": "https://media.githubusercontent.com/media/ddh4r4m/wallpaper-collection/main/collection/thumbnails/ai/051.jpg"
      }
    },
    {
      "id": "ai_106",
      "category": "ai",
      "title": "A close-up portrait of a demon woman with molten l - Premium Civitai",
      "tags": [
        "ai",
        "ai-generated",
        "civitai",
        "stable-diffusion",
        "hd",
        "mobile",
        "viral",
        "community-rated"
      ],
      "metadata": {
        "dimensions": {
          "width": 832,
          "height": 1216
        },
        "file_size": 116496,
        "format": "JPEG",
        "added_at": "2025-07-19T12:14:04.867254",
        "hash": "68f2743ffbfde7954d1264f4e210c278",
        "ai_source": "civitai",
        "ai_generated": true,
        "source_platform": "civitai.com",
        "civitai_tag_id": 5133,
        "ai_prompt": "A close-up portrait of a demon woman with molten lava-like cracks on her skin, her fiery eyes glowing intensely. Her horns are jagged and sharp, resembling molten stone, and her expression is one of wrath and destruction, with flames flickering around her face, anime style, women, demon women, cute ",
        "civitai_stats": {
          "cryCount": 539,
          "laughCount": 896,
          "likeCount": 7604,
          "dislikeCount": 0,
          "heartCount": 3081,
          "commentCount": 10
        },
        "total_reactions": 10685
      },
      "urls": {
        "raw": "https://media.githubusercontent.com/media/ddh4r4m/wallpaper-collection/main/collection/wallpapers/ai/052.jpg",
        "thumb": "https://media.githubusercontent.com/media/ddh4r4m/wallpaper-collection/main/collection/thumbnails/ai/052.jpg"
      }
    },
    {
      "id": "ai_107",
      "category": "ai",
      "title": "elegant woman futuristic explorer flowing high-fas - Premium Civitai",
      "tags": [
        "ai",
        "ai-generated",
        "civitai",
        "stable-diffusion",
        "hd",
        "mobile",
        "viral",
        "high-resolution",
        "community-rated"
      ],
      "metadata": {
        "dimensions": {
          "width": 960,
          "height": 1920
        },
        "file_size": 409087,
        "format": "JPEG",
        "added_at": "2025-07-19T12:14:07.757942",
        "hash": "e5ea6245535d61ccee1099a47f41ba9b",
        "ai_source": "civitai",
        "ai_generated": true,
        "source_platform": "civitai.com",
        "civitai_tag_id": 5133,
        "ai_prompt": "elegant woman, futuristic explorer, flowing high-fashion attire, exploring an alien world, floating monoliths, mysterious energy, surreal atmosphere, dreamlike lighting, intricate alien architecture, glowing glyphs, Remedios Varo inspired, sci-fi fantasy, cinematic composition, ultra-detailed textur",
        "civitai_stats": {
          "cryCount": 524,
          "laughCount": 849,
          "likeCount": 7565,
          "dislikeCount": 0,
          "heartCount": 2740,
          "commentCount": 5
        },
        "total_reactions": 10305
      },
      "urls": {
        "raw": "https://media.githubusercontent.com/media/ddh4r4m/wallpaper-collection/main/collection/wallpapers/ai/053.jpg",
        "thumb": "https://media.githubusercontent.com/media/ddh4r4m/wallpaper-collection/main/collection/thumbnails/ai/053.jpg"
      }
    },
    {
      "id": "ai_108",
      "category": "ai",
      "title": "Ai Premium AI - Civitai",
      "tags": [
        "ai",
        "ai-generated",
        "civitai",
        "stable-diffusion",
        "hd",
        "mobile",
        "viral",
        "community-rated"
      ],
      "metadata": {
        "dimensions": {
          "width": 832,
          "height": 1472
        },
        "file_size": 165866,
        "format": "JPEG",
        "added_at": "2025-07-19T12:14:10.164771",
        "hash": "7794c6eedb36c0d13dbffbeb52df7c4c",
        "ai_source": "civitai",
        "ai_generated": true,
        "source_platform": "civitai.com",
        "civitai_tag_id": 5133,
        "civitai_stats": {
          "cryCount": 486,
          "laughCount": 866,
          "likeCount": 7520,
          "dislikeCount": 0,
          "heartCount": 2646,
          "commentCount": 8
        },
        "total_reactions": 10166
      },
      "urls": {
        "raw": "https://media.githubusercontent.com/media/ddh4r4m/wallpaper-collection/main/collection/wallpapers/ai/054.jpg",
        "thumb": "https://media.githubusercontent.com/media/ddh4r4m/wallpaper-collection/main/collection/thumbnails/ai/054.jpg"
      }
    },
    {
      "id": "ai_109",
      "category": "ai",
      "title": "flux1-dev-bnb-nf4-v2 Ai - Premium Civitai",
      "tags": [
        "ai",
        "ai-generated",
        "civitai",
        "stable-diffusion",
        "hd",
        "mobile",
        "viral",
        "flux1-dev-bnb-nf4-v2",
        "high-resolution",
        "community-rated"
      ],
      "metadata": {
        "dimensions": {
          "width": 1080,
          "height": 1578
        },
        "file_size": 377133,
        "format": "JPEG",
        "added_at": "2025-07-19T12:14:11.891146",
        "hash": "b5021d282da2a5c9f6c26e28bb49e0e4",
        "ai_source": "civitai",
        "ai_generated": true,
        "source_platform": "civitai.com",
        "civitai_tag_id": 5133,
        "ai_model": "flux1-dev-bnb-nf4-v2",
        "civitai_stats": {
          "cryCount": 529,
          "laughCount": 836,
          "likeCount": 7429,
          "dislikeCount": 0,
          "heartCount": 2631,
          "commentCount": 11
        },
        "total_reactions": 10060
      },
      "urls": {
        "raw": "https://media.githubusercontent.com/media/ddh4r4m/wallpaper-collection/main/collection/wallpapers/ai/055.jpg",
        "thumb": "https://media.githubusercontent.com/media/ddh4r4m/wallpaper-collection/main/collection/thumbnails/ai/055.jpg"
      }
    },
    {
      "id": "ai_110",
      "category": "ai",
      "title": "Ai Premium AI - Civitai",
      "tags": [
        "ai",
        "ai-generated",
        "civitai",
        "stable-diffusion",
        "hd",
        "mobile",
        "viral",
        "community-rated"
      ],
      "metadata": {
        "dimensions": {
          "width": 832,
          "height": 1216
        },
        "file_size": 130561,
        "format": "JPEG",
        "added_at": "2025-07-19T12:14:13.224043",
        "hash": "d02767b4d21a658c437e34b06c65b7e7",
        "ai_source": "civitai",
        "ai_generated": true,
        "source_platform": "civitai.com",
        "civitai_tag_id": 5133,
        "civitai_stats": {
          "cryCount": 526,
          "laughCount": 882,
          "likeCount": 6949,
          "dislikeCount": 0,
          "heartCount": 2881,
          "commentCount": 9
        },
        "total_reactions": 9830
      },
      "urls": {
        "raw": "https://media.githubusercontent.com/media/ddh4r4m/wallpaper-collection/main/collection/wallpapers/ai/056.jpg",
        "thumb": "https://media.githubusercontent.com/media/ddh4r4m/wallpaper-collection/main/collection/thumbnails/ai/056.jpg"
      }
    },
    {
      "id": "ai_111",
      "category": "ai",
      "title": "masterpiece ultimate detailed tiny finnest details - Premium Civitai",
      "tags": [
        "ai",
        "ai-generated",
        "civitai",
        "stable-diffusion",
        "hd",
        "mobile",
        "viral",
        "f-flux1-dev-bnb-nf4-",
        "community-rated"
      ],
      "metadata": {
        "dimensions": {
          "width": 896,
          "height": 1152
        },
        "file_size": 170669,
        "format": "JPEG",
        "added_at": "2025-07-19T12:14:14.692602",
        "hash": "384e6f72fef06ae4c9ed6823db457df6",
        "ai_source": "civitai",
        "ai_generated": true,
        "source_platform": "civitai.com",
        "civitai_tag_id": 5133,
        "ai_prompt": "masterpiece, ultimate detailed, tiny finnest details,\nFierce japanese female warrior is holding a reflective shiny (katana:1.3) in front of  her face, (an ancient mythical Japanese demon is reflected in the katana blade:1.6),\n<lora:MJanime_Flux_LoRa:0.25> anime style <lora:NeonFantasyFLUX:0.5> ne0nf",
        "ai_model": "F_flux1-dev-bnb-nf4-v2",
        "civitai_stats": {
          "cryCount": 508,
          "laughCount": 838,
          "likeCount": 6978,
          "dislikeCount": 0,
          "heartCount": 2765,
          "commentCount": 23
        },
        "total_reactions": 9743
      },
      "urls": {
        "raw": "https://media.githubusercontent.com/media/ddh4r4m/wallpaper-collection/main/collection/wallpapers/ai/057.jpg",
        "thumb": "https://media.githubusercontent.com/media/ddh4r4m/wallpaper-collection/main/collection/thumbnails/ai/057.jpg"
      }
    },
    {
      "id": "ai_112",
      "category": "ai",
      "title": "flux_dev Ai - Premium Civitai",
      "tags": [
        "ai",
        "ai-generated",
        "civitai",
        "stable-diffusion",
        "hd",
        "mobile",
        "viral",
        "flux-dev",
        "community-rated"
      ],
      "metadata": {
        "dimensions": {
          "width": 1080,
          "height": 1389
        },
        "file_size": 278242,
        "format": "JPEG",
        "added_at": "2025-07-19T12:14:18.039319",
        "hash": "e3b0560e1ab1ee93aca31a15d3a51a07",
        "ai_source": "civitai",
        "ai_generated": true,
        "source_platform": "civitai.com",
        "civitai_tag_id": 5133,
        "ai_model": "flux_dev",
        "civitai_stats": {
          "cryCount": 506,
          "laughCount": 944,
          "likeCount": 7003,
          "dislikeCount": 0,
          "heartCount": 2713,
          "commentCount": 7
        },
        "total_reactions": 9716
      },
      "urls": {
        "raw": "https://media.githubusercontent.com/media/ddh4r4m/wallpaper-collection/main/collection/wallpapers/ai/058.jpg",
        "thumb": "https://media.githubusercontent.com/media/ddh4r4m/wallpaper-collection/main/collection/thumbnails/ai/058.jpg"
      }
    },
    {
      "id": "ai_059",
      "category": "ai",
      "title": "Ai Premium AI - Civitai",
      "tags": [
        "ai",
        "ai-generated",
        "civitai",
        "stable-diffusion",
        "hd",
        "mobile",
        "viral",
        "community-rated"
      ],
      "metadata": {
        "dimensions": {
          "width": 1080,
          "height": 1579
        },
        "file_size": 230798,
        "format": "JPEG",
        "added_at": "2025-07-19T12:26:12.286609",
        "hash": "76baa857d26108996dd6521bce890149",
        "ai_source": "civitai",
        "ai_generated": true,
        "source_platform": "civitai.com",
        "scraping_method": "scroll_based",
        "civitai_tag_id": 4,
        "civitai_stats": {
          "cryCount": 134,
          "laughCount": 267,
          "likeCount": 2820,
          "dislikeCount": 0,
          "heartCount": 913,
          "commentCount": 1
        },
        "total_reactions": 3733
      },
      "urls": {
        "raw": "https://media.githubusercontent.com/media/ddh4r4m/wallpaper-collection/main/collection/wallpapers/ai/059.jpg",
        "thumb": "https://media.githubusercontent.com/media/ddh4r4m/wallpaper-collection/main/collection/thumbnails/ai/059.jpg"
      }
    },
    {
      "id": "ai_060",
      "category": "ai",
      "title": "Ai Premium AI - Civitai",
      "tags": [
        "ai",
        "ai-generated",
        "civitai",
        "stable-diffusion",
        "hd",
        "mobile",
        "viral",
        "community-rated"
      ],
      "metadata": {
        "dimensions": {
          "width": 1080,
          "height": 1576
        },
        "file_size": 240116,
        "format": "JPEG",
        "added_at": "2025-07-19T12:26:14.694989",
        "hash": "fea85300c9c2190b604cabee10d28038",
        "ai_source": "civitai",
        "ai_generated": true,
        "source_platform": "civitai.com",
        "scraping_method": "scroll_based",
        "civitai_tag_id": 4,
        "civitai_stats": {
          "cryCount": 149,
          "laughCount": 243,
          "likeCount": 2787,
          "dislikeCount": 0,
          "heartCount": 943,
          "commentCount": 2
        },
        "total_reactions": 3730
      },
      "urls": {
        "raw": "https://media.githubusercontent.com/media/ddh4r4m/wallpaper-collection/main/collection/wallpapers/ai/060.jpg",
        "thumb": "https://media.githubusercontent.com/media/ddh4r4m/wallpaper-collection/main/collection/thumbnails/ai/060.jpg"
      }
    }
  ]
}