{
  "meta": {
    "version": "1.0",
    "generated_at": "2025-07-19T12:15:32.791759",
    "category": "ai",
    "page": 7,
    "per_page": 15,
    "total_pages": 8,
    "total_count": 112,
    "count_on_page": 15,
    "has_next": true,
    "has_prev": true,
    "next_page_url": "/api/v1/ai/pages/8.json",
    "prev_page_url": "/api/v1/ai/pages/6.json"
  },
  "data": [
    {
      "id": "ai_091",
      "category": "ai",
      "title": "silhouette_with_gold_foil15 1girl pretty woman gre - Premium Civitai",
      "tags": [
        "ai",
        "ai-generated",
        "civitai",
        "stable-diffusion",
        "hd",
        "mobile",
        "viral",
        "community-rated"
      ],
      "metadata": {
        "dimensions": {
          "width": 832,
          "height": 1216
        },
        "file_size": 194691,
        "format": "JPEG",
        "added_at": "2025-07-19T12:13:37.497776",
        "hash": "cd03014cf2ed182bf9e120853f9e2740",
        "ai_source": "civitai",
        "ai_generated": true,
        "source_platform": "civitai.com",
        "civitai_tag_id": 5133,
        "ai_prompt": "(silhouette_with_gold_foil:1.5), 1girl, pretty woman, grey eyes, detailed face, long hair, twintails, capelet, dress, gloves, cherry blossom flower petals floating around her, setting sun in back ground illuminating the body, lost the deep forest, many trees and foliage around her, a mysterious terr",
        "civitai_stats": {
          "cryCount": 709,
          "laughCount": 1225,
          "likeCount": 8948,
          "dislikeCount": 0,
          "heartCount": 3328,
          "commentCount": 8
        },
        "total_reactions": 12276
      },
      "urls": {
        "raw": "https://media.githubusercontent.com/media/ddh4r4m/wallpaper-collection/main/collection/wallpapers/ai/091.jpg",
        "thumb": "https://media.githubusercontent.com/media/ddh4r4m/wallpaper-collection/main/collection/thumbnails/ai/091.jpg"
      }
    },
    {
      "id": "ai_092",
      "category": "ai",
      "title": "nistyle in the style of ck-mgs Mh1AgThS2 intricate - Premium Civitai",
      "tags": [
        "ai",
        "ai-generated",
        "civitai",
        "stable-diffusion",
        "hd",
        "mobile",
        "viral",
        "community-rated"
      ],
      "metadata": {
        "dimensions": {
          "width": 832,
          "height": 1216
        },
        "file_size": 218575,
        "format": "JPEG",
        "added_at": "2025-07-19T12:13:38.595782",
        "hash": "4b7597ed52d6fbae279b9aebb45ed50d",
        "ai_source": "civitai",
        "ai_generated": true,
        "source_platform": "civitai.com",
        "civitai_tag_id": 5133,
        "ai_prompt": "nistyle, in the style of ck-mgs, Mh1$AgThS2, intricate linework with expressive contrasts, soft lighting with dynamic highlights, image of a dusty desert with a 1930s female explorer, blonde hair, safari hat and jacket, standing looking up at an Egyptian pyramid, silhouetted at sunset, sparse clouds",
        "civitai_stats": {
          "cryCount": 637,
          "laughCount": 1110,
          "likeCount": 8902,
          "dislikeCount": 0,
          "heartCount": 3274,
          "commentCount": 8
        },
        "total_reactions": 12176
      },
      "urls": {
        "raw": "https://media.githubusercontent.com/media/ddh4r4m/wallpaper-collection/main/collection/wallpapers/ai/092.jpg",
        "thumb": "https://media.githubusercontent.com/media/ddh4r4m/wallpaper-collection/main/collection/thumbnails/ai/092.jpg"
      }
    },
    {
      "id": "ai_093",
      "category": "ai",
      "title": "score_9 score_8_up score_7_up detailed 1girl solo - Premium Civitai",
      "tags": [
        "ai",
        "ai-generated",
        "civitai",
        "stable-diffusion",
        "hd",
        "mobile",
        "viral",
        "incursio-smemedifv2-",
        "high-resolution",
        "community-rated"
      ],
      "metadata": {
        "dimensions": {
          "width": 1080,
          "height": 1578
        },
        "file_size": 280002,
        "format": "JPEG",
        "added_at": "2025-07-19T12:13:40.146562",
        "hash": "a3039cf414d283b54e6dcd8bc3d69b2b",
        "ai_source": "civitai",
        "ai_generated": true,
        "source_platform": "civitai.com",
        "civitai_tag_id": 5133,
        "ai_prompt": "score_9, score_8_up, score_7_up, detailed, 1girl, solo, intricate details, chromatic aberration, realistic, long hair, pink hair, red head ornament, pink highlights, hair over one eye, purple eyes, earrings, sharp eyes, choker, neon shirt, torn legwear, open jacket, turtleneck sweater, night,against",
        "ai_model": "Incursio'sMemeDifV2.1.fp16",
        "civitai_stats": {
          "cryCount": 551,
          "laughCount": 999,
          "likeCount": 8576,
          "dislikeCount": 0,
          "heartCount": 3551,
          "commentCount": 5
        },
        "total_reactions": 12127
      },
      "urls": {
        "raw": "https://media.githubusercontent.com/media/ddh4r4m/wallpaper-collection/main/collection/wallpapers/ai/093.jpg",
        "thumb": "https://media.githubusercontent.com/media/ddh4r4m/wallpaper-collection/main/collection/thumbnails/ai/093.jpg"
      }
    },
    {
      "id": "ai_094",
      "category": "ai",
      "title": "masterpiece best quality very aesthetic absurdres - Premium Civitai",
      "tags": [
        "ai",
        "ai-generated",
        "civitai",
        "stable-diffusion",
        "hd",
        "mobile",
        "viral",
        "ems-325360-ems",
        "community-rated"
      ],
      "metadata": {
        "dimensions": {
          "width": 1024,
          "height": 1440
        },
        "file_size": 267964,
        "format": "JPEG",
        "added_at": "2025-07-19T12:13:41.345918",
        "hash": "8527516b0f207fbe4f9acc4eca790249",
        "ai_source": "civitai",
        "ai_generated": true,
        "source_platform": "civitai.com",
        "civitai_tag_id": 5133,
        "ai_prompt": "masterpiece, best quality, very aesthetic, absurdres\nwlop miimalism  \n  cinematic  lighting \n   1girl, aged up\n  walking in the alley black suit white collar shirt \n perspective from above\n cyberpunk, neon",
        "ai_model": "EMS-325360-EMS",
        "civitai_stats": {
          "cryCount": 533,
          "laughCount": 1094,
          "likeCount": 8486,
          "dislikeCount": 0,
          "heartCount": 3459,
          "commentCount": 5
        },
        "total_reactions": 11945
      },
      "urls": {
        "raw": "https://media.githubusercontent.com/media/ddh4r4m/wallpaper-collection/main/collection/wallpapers/ai/094.jpg",
        "thumb": "https://media.githubusercontent.com/media/ddh4r4m/wallpaper-collection/main/collection/thumbnails/ai/094.jpg"
      }
    },
    {
      "id": "ai_095",
      "category": "ai",
      "title": "realistic vibrant detailed a cinematic photograph - Premium Civitai",
      "tags": [
        "ai",
        "ai-generated",
        "civitai",
        "stable-diffusion",
        "hd",
        "mobile",
        "viral",
        "community-rated"
      ],
      "metadata": {
        "dimensions": {
          "width": 1024,
          "height": 1536
        },
        "file_size": 150934,
        "format": "JPEG",
        "added_at": "2025-07-19T12:13:42.884378",
        "hash": "8373856f58d91ae0c558189340678e8c",
        "ai_source": "civitai",
        "ai_generated": true,
        "source_platform": "civitai.com",
        "civitai_tag_id": 5133,
        "ai_prompt": "realistic, vibrant, detailed. a cinematic photograph classily depicts a prestigious beautiful woman dressed in an all white dress. The woman has no face. Her head is a sphere, a colorful gradient foreign planet, and not a human head. Her outfit is adorned by luxurious gold trim and other attire. Her",
        "civitai_stats": {
          "cryCount": 728,
          "laughCount": 1512,
          "likeCount": 8740,
          "dislikeCount": 0,
          "heartCount": 3183,
          "commentCount": 4
        },
        "total_reactions": 11923
      },
      "urls": {
        "raw": "https://media.githubusercontent.com/media/ddh4r4m/wallpaper-collection/main/collection/wallpapers/ai/095.jpg",
        "thumb": "https://media.githubusercontent.com/media/ddh4r4m/wallpaper-collection/main/collection/thumbnails/ai/095.jpg"
      }
    },
    {
      "id": "ai_096",
      "category": "ai",
      "title": "loragr33nXLP1 gr33n solo 1girl long hair plant flo - Premium Civitai",
      "tags": [
        "ai",
        "ai-generated",
        "civitai",
        "stable-diffusion",
        "hd",
        "mobile",
        "viral",
        "community-rated"
      ],
      "metadata": {
        "dimensions": {
          "width": 832,
          "height": 1216
        },
        "file_size": 177149,
        "format": "JPEG",
        "added_at": "2025-07-19T12:13:44.201611",
        "hash": "4533d1ad2dfb97f416351a6f3161886e",
        "ai_source": "civitai",
        "ai_generated": true,
        "source_platform": "civitai.com",
        "civitai_tag_id": 5133,
        "ai_prompt": "<lora:gr33nXLP:1> gr33n, solo, 1girl, long hair, plant, flower, score_9, score_8_up, score_7_up, score_6_up,",
        "civitai_stats": {
          "cryCount": 534,
          "laughCount": 996,
          "likeCount": 8594,
          "dislikeCount": 0,
          "heartCount": 3204,
          "commentCount": 9
        },
        "total_reactions": 11798
      },
      "urls": {
        "raw": "https://media.githubusercontent.com/media/ddh4r4m/wallpaper-collection/main/collection/wallpapers/ai/096.jpg",
        "thumb": "https://media.githubusercontent.com/media/ddh4r4m/wallpaper-collection/main/collection/thumbnails/ai/096.jpg"
      }
    },
    {
      "id": "ai_097",
      "category": "ai",
      "title": "in the style of ck-mgs nistyle Special Ink-drawing - Premium Civitai",
      "tags": [
        "ai",
        "ai-generated",
        "civitai",
        "stable-diffusion",
        "hd",
        "mobile",
        "viral",
        "community-rated"
      ],
      "metadata": {
        "dimensions": {
          "width": 832,
          "height": 1216
        },
        "file_size": 254721,
        "format": "JPEG",
        "added_at": "2025-07-19T12:13:45.531939",
        "hash": "d09d0f98cac4f0cf1092a28cb6899e3e",
        "ai_source": "civitai",
        "ai_generated": true,
        "source_platform": "civitai.com",
        "civitai_tag_id": 5133,
        "ai_prompt": "in the style of ck-mgs, nistyle, Special Ink-drawing mode, intricate linework with expressive contrasts, Mh1$AgThS2, Inkplash art on rice paper, sepia, henna , Silhouette Art, magnificent, inksplash closeup portrait of Chinese woman punting, sunset, calm lake, redlection",
        "civitai_stats": {
          "cryCount": 629,
          "laughCount": 1105,
          "likeCount": 8611,
          "dislikeCount": 0,
          "heartCount": 3164,
          "commentCount": 9
        },
        "total_reactions": 11775
      },
      "urls": {
        "raw": "https://media.githubusercontent.com/media/ddh4r4m/wallpaper-collection/main/collection/wallpapers/ai/097.jpg",
        "thumb": "https://media.githubusercontent.com/media/ddh4r4m/wallpaper-collection/main/collection/thumbnails/ai/097.jpg"
      }
    },
    {
      "id": "ai_098",
      "category": "ai",
      "title": "in the style of ck-mgs nistyle Special Ink-drawing - Premium Civitai",
      "tags": [
        "ai",
        "ai-generated",
        "civitai",
        "stable-diffusion",
        "hd",
        "mobile",
        "viral",
        "community-rated"
      ],
      "metadata": {
        "dimensions": {
          "width": 832,
          "height": 1216
        },
        "file_size": 296324,
        "format": "JPEG",
        "added_at": "2025-07-19T12:13:47.509857",
        "hash": "cc56051801b75cb2ff023808e9d68264",
        "ai_source": "civitai",
        "ai_generated": true,
        "source_platform": "civitai.com",
        "civitai_tag_id": 5133,
        "ai_prompt": "in the style of ck-mgs, nistyle, Special Ink-drawing mode, intricate linework with expressive contrasts, Mh1$AgThS2, Inkplash art on rice paper, sepia, henna , Silhouette Art, magnificent, inksplash closeup portrait of stunning japanese female sc-fi soldier, helmet, mirrored visor reflecting jungle ",
        "civitai_stats": {
          "cryCount": 674,
          "laughCount": 1040,
          "likeCount": 8443,
          "dislikeCount": 0,
          "heartCount": 3193,
          "commentCount": 7
        },
        "total_reactions": 11636
      },
      "urls": {
        "raw": "https://media.githubusercontent.com/media/ddh4r4m/wallpaper-collection/main/collection/wallpapers/ai/098.jpg",
        "thumb": "https://media.githubusercontent.com/media/ddh4r4m/wallpaper-collection/main/collection/thumbnails/ai/098.jpg"
      }
    },
    {
      "id": "ai_099",
      "category": "ai",
      "title": "concept art hidden face mysterious hooded full bod - Premium Civitai",
      "tags": [
        "ai",
        "ai-generated",
        "civitai",
        "stable-diffusion",
        "hd",
        "mobile",
        "viral",
        "wildcardxxlfusion-fu",
        "high-resolution",
        "community-rated"
      ],
      "metadata": {
        "dimensions": {
          "width": 1080,
          "height": 1389
        },
        "file_size": 208778,
        "format": "JPEG",
        "added_at": "2025-07-19T12:13:49.190566",
        "hash": "0a6dd0ae43f1024e371fefe2c0852934",
        "ai_source": "civitai",
        "ai_generated": true,
        "source_platform": "civitai.com",
        "civitai_tag_id": 5133,
        "ai_prompt": "concept art hidden face, mysterious, hooded, full body, dark enigmatic warrior, standing, storm of falling shards, glowing ethereal giant heavy thick sword in hand, warrior\u00e2\u0080\u0099s intricate armor, tattered cloak that billows in the wind, atmosphere is charged with an otherworldly energy, fantasy realis",
        "ai_model": "wildcardxXLFusion_fusionOG",
        "civitai_stats": {
          "cryCount": 557,
          "laughCount": 1018,
          "likeCount": 8477,
          "dislikeCount": 0,
          "heartCount": 3138,
          "commentCount": 11
        },
        "total_reactions": 11615
      },
      "urls": {
        "raw": "https://media.githubusercontent.com/media/ddh4r4m/wallpaper-collection/main/collection/wallpapers/ai/099.jpg",
        "thumb": "https://media.githubusercontent.com/media/ddh4r4m/wallpaper-collection/main/collection/thumbnails/ai/099.jpg"
      }
    },
    {
      "id": "ai_100",
      "category": "ai",
      "title": "Hyperrealism extreme close-up Portrait of a beauti - Premium Civitai",
      "tags": [
        "ai",
        "ai-generated",
        "civitai",
        "stable-diffusion",
        "hd",
        "mobile",
        "viral",
        "community-rated"
      ],
      "metadata": {
        "dimensions": {
          "width": 832,
          "height": 1216
        },
        "file_size": 197610,
        "format": "JPEG",
        "added_at": "2025-07-19T12:13:50.503827",
        "hash": "1a84b19e26bd39458b5afa0c22649eaa",
        "ai_source": "civitai",
        "ai_generated": true,
        "source_platform": "civitai.com",
        "civitai_tag_id": 5133,
        "ai_prompt": "Hyperrealism, extreme close-up Portrait of a beautiful, stunning unique female character. She has large turquoise eyes filled with joy and excitement, extravagant eyelashes, making this image a masterpiece of photography and digital art. Style: realistic hyper-detailed rendering, 32k UHD, expressive",
        "civitai_stats": {
          "cryCount": 671,
          "laughCount": 1102,
          "likeCount": 8091,
          "dislikeCount": 0,
          "heartCount": 3280,
          "commentCount": 24
        },
        "total_reactions": 11371
      },
      "urls": {
        "raw": "https://media.githubusercontent.com/media/ddh4r4m/wallpaper-collection/main/collection/wallpapers/ai/100.jpg",
        "thumb": "https://media.githubusercontent.com/media/ddh4r4m/wallpaper-collection/main/collection/thumbnails/ai/100.jpg"
      }
    },
    {
      "id": "ai_101",
      "category": "ai",
      "title": "drunken fist leaning forward Red and Grey color gr - Premium Civitai",
      "tags": [
        "ai",
        "ai-generated",
        "civitai",
        "stable-diffusion",
        "hd",
        "mobile",
        "viral",
        "community-rated"
      ],
      "metadata": {
        "dimensions": {
          "width": 832,
          "height": 1216
        },
        "file_size": 112425,
        "format": "JPEG",
        "added_at": "2025-07-19T12:13:52.599235",
        "hash": "f20dc4b51b1bb4a3d8722332ccbd4f6e",
        "ai_source": "civitai",
        "ai_generated": true,
        "source_platform": "civitai.com",
        "civitai_tag_id": 5133,
        "ai_prompt": "drunken fist, leaning forward, Red and Grey color graded glamour portrait photo of an Cyborg Samurai, macro, a captivating vibrant dark neon capturing the essence of a translucent amber cyborg Bedouin sorcerer in fight stance, defying expectations by conjuring a whimsical robot 'freak' from an overs",
        "civitai_stats": {
          "cryCount": 516,
          "laughCount": 1004,
          "likeCount": 8138,
          "dislikeCount": 0,
          "heartCount": 3107,
          "commentCount": 5
        },
        "total_reactions": 11245
      },
      "urls": {
        "raw": "https://media.githubusercontent.com/media/ddh4r4m/wallpaper-collection/main/collection/wallpapers/ai/101.jpg",
        "thumb": "https://media.githubusercontent.com/media/ddh4r4m/wallpaper-collection/main/collection/thumbnails/ai/101.jpg"
      }
    },
    {
      "id": "ai_102",
      "category": "ai",
      "title": "score_9 score_8_up score_7_up \r\nmonster girl llami - Premium Civitai",
      "tags": [
        "ai",
        "ai-generated",
        "civitai",
        "stable-diffusion",
        "hd",
        "mobile",
        "viral",
        "ponydiffusionv6xl-v6",
        "community-rated"
      ],
      "metadata": {
        "dimensions": {
          "width": 1080,
          "height": 1578
        },
        "file_size": 323647,
        "format": "JPEG",
        "added_at": "2025-07-19T12:13:54.231825",
        "hash": "ff3d7eb1d52503113981cd676f7d9eef",
        "ai_source": "civitai",
        "ai_generated": true,
        "source_platform": "civitai.com",
        "civitai_tag_id": 5133,
        "ai_prompt": "score_9, score_8_up, score_7_up, \r\nmonster girl, llamia, slit pupils, green eyes, horns, kunoichi, long hair, action pose, forest,",
        "ai_model": "ponyDiffusionV6XL_v6StartWithThisOne.safetensors",
        "civitai_stats": {
          "cryCount": 503,
          "laughCount": 916,
          "likeCount": 8162,
          "dislikeCount": 0,
          "heartCount": 3063,
          "commentCount": 7
        },
        "total_reactions": 11225
      },
      "urls": {
        "raw": "https://media.githubusercontent.com/media/ddh4r4m/wallpaper-collection/main/collection/wallpapers/ai/102.jpg",
        "thumb": "https://media.githubusercontent.com/media/ddh4r4m/wallpaper-collection/main/collection/thumbnails/ai/102.jpg"
      }
    },
    {
      "id": "ai_103",
      "category": "ai",
      "title": "Ai Premium AI - Civitai",
      "tags": [
        "ai",
        "ai-generated",
        "civitai",
        "stable-diffusion",
        "hd",
        "mobile",
        "viral",
        "high-resolution",
        "community-rated"
      ],
      "metadata": {
        "dimensions": {
          "width": 1080,
          "height": 1578
        },
        "file_size": 310524,
        "format": "JPEG",
        "added_at": "2025-07-19T12:13:57.180441",
        "hash": "d3eb8b0b32d33771cf79629f86d294c8",
        "ai_source": "civitai",
        "ai_generated": true,
        "source_platform": "civitai.com",
        "civitai_tag_id": 5133,
        "civitai_stats": {
          "cryCount": 565,
          "laughCount": 1183,
          "likeCount": 8193,
          "dislikeCount": 0,
          "heartCount": 3019,
          "commentCount": 10
        },
        "total_reactions": 11212
      },
      "urls": {
        "raw": "https://media.githubusercontent.com/media/ddh4r4m/wallpaper-collection/main/collection/wallpapers/ai/103.jpg",
        "thumb": "https://media.githubusercontent.com/media/ddh4r4m/wallpaper-collection/main/collection/thumbnails/ai/103.jpg"
      }
    },
    {
      "id": "ai_104",
      "category": "ai",
      "title": "atmosphere masterpiece high_quality absurdres very - Premium Civitai",
      "tags": [
        "ai",
        "ai-generated",
        "civitai",
        "stable-diffusion",
        "hd",
        "mobile",
        "viral",
        "glances-v1-safetenso",
        "high-resolution",
        "community-rated"
      ],
      "metadata": {
        "dimensions": {
          "width": 1080,
          "height": 1389
        },
        "file_size": 253759,
        "format": "JPEG",
        "added_at": "2025-07-19T12:14:00.975981",
        "hash": "5a9399a044ba680aa000081b8a7ff4a9",
        "ai_source": "civitai",
        "ai_generated": true,
        "source_platform": "civitai.com",
        "civitai_tag_id": 5133,
        "ai_prompt": "(atmosphere, masterpiece, high_quality, absurdres, very aesthetic, blurry_background, grainy_texture, film_grain, light particles textured clothing, textured hair, painterly, watercolor_\\(medium\\), colored_pencil_\\(medium\\), blending)\n(w1tchyc0ttagec0re, petting fox in foreground, 1girl, solo, long_",
        "ai_model": "glances_v1.safetensors",
        "civitai_stats": {
          "cryCount": 632,
          "laughCount": 1101,
          "likeCount": 8019,
          "dislikeCount": 0,
          "heartCount": 3122,
          "commentCount": 10
        },
        "total_reactions": 11141
      },
      "urls": {
        "raw": "https://media.githubusercontent.com/media/ddh4r4m/wallpaper-collection/main/collection/wallpapers/ai/104.jpg",
        "thumb": "https://media.githubusercontent.com/media/ddh4r4m/wallpaper-collection/main/collection/thumbnails/ai/104.jpg"
      }
    },
    {
      "id": "ai_105",
      "category": "ai",
      "title": "yfg-sm0rg Bask in the realm of abstract expression - Premium Civitai",
      "tags": [
        "ai",
        "ai-generated",
        "civitai",
        "stable-diffusion",
        "hd",
        "mobile",
        "viral",
        "flux-flux1-dev-fp8-s",
        "community-rated"
      ],
      "metadata": {
        "dimensions": {
          "width": 1080,
          "height": 1620
        },
        "file_size": 258426,
        "format": "JPEG",
        "added_at": "2025-07-19T12:14:02.605562",
        "hash": "78b59a4b362a7dc4cf8cdf860c3110b9",
        "ai_source": "civitai",
        "ai_generated": true,
        "source_platform": "civitai.com",
        "civitai_tag_id": 5133,
        "ai_prompt": "yfg-sm0rg, Bask in the realm of abstract expressionism as a mysterious figure cloaked in a vibrant red shawl steps into view against an ebony void. Her head hangs low, enveloped in a cloud of bewitching curiosity. In stark contrast with her crimson surroundings, crisp white lines dance alongside her",
        "ai_model": "Flux\\flux1-dev-fp8.safetensors",
        "civitai_stats": {
          "cryCount": 627,
          "laughCount": 957,
          "likeCount": 8193,
          "dislikeCount": 0,
          "heartCount": 2932,
          "commentCount": 5
        },
        "total_reactions": 11125
      },
      "urls": {
        "raw": "https://media.githubusercontent.com/media/ddh4r4m/wallpaper-collection/main/collection/wallpapers/ai/105.jpg",
        "thumb": "https://media.githubusercontent.com/media/ddh4r4m/wallpaper-collection/main/collection/thumbnails/ai/105.jpg"
      }
    }
  ]
}