{
  "meta": {
    "version": "1.0",
    "generated_at": "2025-07-19T12:15:32.791759",
    "category": "ai",
    "page": 8,
    "per_page": 15,
    "total_pages": 8,
    "total_count": 112,
    "count_on_page": 7,
    "has_next": false,
    "has_prev": true,
    "next_page_url": null,
    "prev_page_url": "/api/v1/ai/pages/7.json"
  },
  "data": [
    {
      "id": "ai_106",
      "category": "ai",
      "title": "A close-up portrait of a demon woman with molten l - Premium Civitai",
      "tags": [
        "ai",
        "ai-generated",
        "civitai",
        "stable-diffusion",
        "hd",
        "mobile",
        "viral",
        "community-rated"
      ],
      "metadata": {
        "dimensions": {
          "width": 832,
          "height": 1216
        },
        "file_size": 116496,
        "format": "JPEG",
        "added_at": "2025-07-19T12:14:04.867254",
        "hash": "68f2743ffbfde7954d1264f4e210c278",
        "ai_source": "civitai",
        "ai_generated": true,
        "source_platform": "civitai.com",
        "civitai_tag_id": 5133,
        "ai_prompt": "A close-up portrait of a demon woman with molten lava-like cracks on her skin, her fiery eyes glowing intensely. Her horns are jagged and sharp, resembling molten stone, and her expression is one of wrath and destruction, with flames flickering around her face, anime style, women, demon women, cute ",
        "civitai_stats": {
          "cryCount": 539,
          "laughCount": 896,
          "likeCount": 7604,
          "dislikeCount": 0,
          "heartCount": 3081,
          "commentCount": 10
        },
        "total_reactions": 10685
      },
      "urls": {
        "raw": "https://media.githubusercontent.com/media/ddh4r4m/wallpaper-collection/main/collection/wallpapers/ai/106.jpg",
        "thumb": "https://media.githubusercontent.com/media/ddh4r4m/wallpaper-collection/main/collection/thumbnails/ai/106.jpg"
      }
    },
    {
      "id": "ai_107",
      "category": "ai",
      "title": "elegant woman futuristic explorer flowing high-fas - Premium Civitai",
      "tags": [
        "ai",
        "ai-generated",
        "civitai",
        "stable-diffusion",
        "hd",
        "mobile",
        "viral",
        "high-resolution",
        "community-rated"
      ],
      "metadata": {
        "dimensions": {
          "width": 960,
          "height": 1920
        },
        "file_size": 409087,
        "format": "JPEG",
        "added_at": "2025-07-19T12:14:07.757942",
        "hash": "e5ea6245535d61ccee1099a47f41ba9b",
        "ai_source": "civitai",
        "ai_generated": true,
        "source_platform": "civitai.com",
        "civitai_tag_id": 5133,
        "ai_prompt": "elegant woman, futuristic explorer, flowing high-fashion attire, exploring an alien world, floating monoliths, mysterious energy, surreal atmosphere, dreamlike lighting, intricate alien architecture, glowing glyphs, Remedios Varo inspired, sci-fi fantasy, cinematic composition, ultra-detailed textur",
        "civitai_stats": {
          "cryCount": 524,
          "laughCount": 849,
          "likeCount": 7565,
          "dislikeCount": 0,
          "heartCount": 2740,
          "commentCount": 5
        },
        "total_reactions": 10305
      },
      "urls": {
        "raw": "https://media.githubusercontent.com/media/ddh4r4m/wallpaper-collection/main/collection/wallpapers/ai/107.jpg",
        "thumb": "https://media.githubusercontent.com/media/ddh4r4m/wallpaper-collection/main/collection/thumbnails/ai/107.jpg"
      }
    },
    {
      "id": "ai_108",
      "category": "ai",
      "title": "Ai Premium AI - Civitai",
      "tags": [
        "ai",
        "ai-generated",
        "civitai",
        "stable-diffusion",
        "hd",
        "mobile",
        "viral",
        "community-rated"
      ],
      "metadata": {
        "dimensions": {
          "width": 832,
          "height": 1472
        },
        "file_size": 165866,
        "format": "JPEG",
        "added_at": "2025-07-19T12:14:10.164771",
        "hash": "7794c6eedb36c0d13dbffbeb52df7c4c",
        "ai_source": "civitai",
        "ai_generated": true,
        "source_platform": "civitai.com",
        "civitai_tag_id": 5133,
        "civitai_stats": {
          "cryCount": 486,
          "laughCount": 866,
          "likeCount": 7520,
          "dislikeCount": 0,
          "heartCount": 2646,
          "commentCount": 8
        },
        "total_reactions": 10166
      },
      "urls": {
        "raw": "https://media.githubusercontent.com/media/ddh4r4m/wallpaper-collection/main/collection/wallpapers/ai/108.jpg",
        "thumb": "https://media.githubusercontent.com/media/ddh4r4m/wallpaper-collection/main/collection/thumbnails/ai/108.jpg"
      }
    },
    {
      "id": "ai_109",
      "category": "ai",
      "title": "flux1-dev-bnb-nf4-v2 Ai - Premium Civitai",
      "tags": [
        "ai",
        "ai-generated",
        "civitai",
        "stable-diffusion",
        "hd",
        "mobile",
        "viral",
        "flux1-dev-bnb-nf4-v2",
        "high-resolution",
        "community-rated"
      ],
      "metadata": {
        "dimensions": {
          "width": 1080,
          "height": 1578
        },
        "file_size": 377133,
        "format": "JPEG",
        "added_at": "2025-07-19T12:14:11.891146",
        "hash": "b5021d282da2a5c9f6c26e28bb49e0e4",
        "ai_source": "civitai",
        "ai_generated": true,
        "source_platform": "civitai.com",
        "civitai_tag_id": 5133,
        "ai_model": "flux1-dev-bnb-nf4-v2",
        "civitai_stats": {
          "cryCount": 529,
          "laughCount": 836,
          "likeCount": 7429,
          "dislikeCount": 0,
          "heartCount": 2631,
          "commentCount": 11
        },
        "total_reactions": 10060
      },
      "urls": {
        "raw": "https://media.githubusercontent.com/media/ddh4r4m/wallpaper-collection/main/collection/wallpapers/ai/109.jpg",
        "thumb": "https://media.githubusercontent.com/media/ddh4r4m/wallpaper-collection/main/collection/thumbnails/ai/109.jpg"
      }
    },
    {
      "id": "ai_110",
      "category": "ai",
      "title": "Ai Premium AI - Civitai",
      "tags": [
        "ai",
        "ai-generated",
        "civitai",
        "stable-diffusion",
        "hd",
        "mobile",
        "viral",
        "community-rated"
      ],
      "metadata": {
        "dimensions": {
          "width": 832,
          "height": 1216
        },
        "file_size": 130561,
        "format": "JPEG",
        "added_at": "2025-07-19T12:14:13.224043",
        "hash": "d02767b4d21a658c437e34b06c65b7e7",
        "ai_source": "civitai",
        "ai_generated": true,
        "source_platform": "civitai.com",
        "civitai_tag_id": 5133,
        "civitai_stats": {
          "cryCount": 526,
          "laughCount": 882,
          "likeCount": 6949,
          "dislikeCount": 0,
          "heartCount": 2881,
          "commentCount": 9
        },
        "total_reactions": 9830
      },
      "urls": {
        "raw": "https://media.githubusercontent.com/media/ddh4r4m/wallpaper-collection/main/collection/wallpapers/ai/110.jpg",
        "thumb": "https://media.githubusercontent.com/media/ddh4r4m/wallpaper-collection/main/collection/thumbnails/ai/110.jpg"
      }
    },
    {
      "id": "ai_111",
      "category": "ai",
      "title": "masterpiece ultimate detailed tiny finnest details - Premium Civitai",
      "tags": [
        "ai",
        "ai-generated",
        "civitai",
        "stable-diffusion",
        "hd",
        "mobile",
        "viral",
        "f-flux1-dev-bnb-nf4-",
        "community-rated"
      ],
      "metadata": {
        "dimensions": {
          "width": 896,
          "height": 1152
        },
        "file_size": 170669,
        "format": "JPEG",
        "added_at": "2025-07-19T12:14:14.692602",
        "hash": "384e6f72fef06ae4c9ed6823db457df6",
        "ai_source": "civitai",
        "ai_generated": true,
        "source_platform": "civitai.com",
        "civitai_tag_id": 5133,
        "ai_prompt": "masterpiece, ultimate detailed, tiny finnest details,\nFierce japanese female warrior is holding a reflective shiny (katana:1.3) in front of  her face, (an ancient mythical Japanese demon is reflected in the katana blade:1.6),\n<lora:MJanime_Flux_LoRa:0.25> anime style <lora:NeonFantasyFLUX:0.5> ne0nf",
        "ai_model": "F_flux1-dev-bnb-nf4-v2",
        "civitai_stats": {
          "cryCount": 508,
          "laughCount": 838,
          "likeCount": 6978,
          "dislikeCount": 0,
          "heartCount": 2765,
          "commentCount": 23
        },
        "total_reactions": 9743
      },
      "urls": {
        "raw": "https://media.githubusercontent.com/media/ddh4r4m/wallpaper-collection/main/collection/wallpapers/ai/111.jpg",
        "thumb": "https://media.githubusercontent.com/media/ddh4r4m/wallpaper-collection/main/collection/thumbnails/ai/111.jpg"
      }
    },
    {
      "id": "ai_112",
      "category": "ai",
      "title": "flux_dev Ai - Premium Civitai",
      "tags": [
        "ai",
        "ai-generated",
        "civitai",
        "stable-diffusion",
        "hd",
        "mobile",
        "viral",
        "flux-dev",
        "community-rated"
      ],
      "metadata": {
        "dimensions": {
          "width": 1080,
          "height": 1389
        },
        "file_size": 278242,
        "format": "JPEG",
        "added_at": "2025-07-19T12:14:18.039319",
        "hash": "e3b0560e1ab1ee93aca31a15d3a51a07",
        "ai_source": "civitai",
        "ai_generated": true,
        "source_platform": "civitai.com",
        "civitai_tag_id": 5133,
        "ai_model": "flux_dev",
        "civitai_stats": {
          "cryCount": 506,
          "laughCount": 944,
          "likeCount": 7003,
          "dislikeCount": 0,
          "heartCount": 2713,
          "commentCount": 7
        },
        "total_reactions": 9716
      },
      "urls": {
        "raw": "https://media.githubusercontent.com/media/ddh4r4m/wallpaper-collection/main/collection/wallpapers/ai/112.jpg",
        "thumb": "https://media.githubusercontent.com/media/ddh4r4m/wallpaper-collection/main/collection/thumbnails/ai/112.jpg"
      }
    }
  ]
}