{
  "meta": {
    "version": "1.0",
    "generated_at": "2025-07-28T22:48:38.208699",
    "category": "gradient",
    "page": 10,
    "per_page": 15,
    "total_pages": 10,
    "total_count": 145,
    "count_on_page": 10,
    "has_next": false,
    "has_prev": true,
    "next_page_url": null,
    "prev_page_url": "/api/v1/gradient/pages/9.json"
  },
  "data": [
    {
      "id": "gradient_140",
      "category": "gradient",
      "title": "Gradient Wallpaper 140",
      "tags": [
        "gradient"
      ],
      "urls": {
        "raw": "https://media.githubusercontent.com/media/ddh4r4m/wallpaper-collection/main/collection/wallpapers/gradient/140.jpg",
        "thumb": "https://media.githubusercontent.com/media/ddh4r4m/wallpaper-collection/main/collection/thumbnails/gradient/140.jpg"
      },
      "metadata": {
        "added_at": "2025-07-20T23:12:21.645474",
        "file_size": 259167,
        "dimensions": {
          "width": 1080,
          "height": 1920
        }
      }
    },
    {
      "id": "gradient_141",
      "category": "gradient",
      "title": "Gradient Wallpaper 141",
      "tags": [
        "gradient"
      ],
      "urls": {
        "raw": "https://media.githubusercontent.com/media/ddh4r4m/wallpaper-collection/main/collection/wallpapers/gradient/141.jpg",
        "thumb": "https://media.githubusercontent.com/media/ddh4r4m/wallpaper-collection/main/collection/thumbnails/gradient/141.jpg"
      },
      "metadata": {
        "added_at": "2025-07-20T23:12:21.834867",
        "file_size": 772145,
        "dimensions": {
          "width": 1080,
          "height": 1920
        }
      }
    },
    {
      "id": "gradient_142",
      "category": "gradient",
      "title": "Gradient Wallpaper 142",
      "tags": [
        "gradient"
      ],
      "urls": {
        "raw": "https://media.githubusercontent.com/media/ddh4r4m/wallpaper-collection/main/collection/wallpapers/gradient/142.jpg",
        "thumb": "https://media.githubusercontent.com/media/ddh4r4m/wallpaper-collection/main/collection/thumbnails/gradient/142.jpg"
      },
      "metadata": {
        "added_at": "2025-07-20T23:12:21.929388",
        "file_size": 93547,
        "dimensions": {
          "width": 1080,
          "height": 1920
        }
      }
    },
    {
      "id": "gradient_143",
      "category": "gradient",
      "title": "Gradient Wallpaper 143",
      "tags": [
        "gradient"
      ],
      "urls": {
        "raw": "https://media.githubusercontent.com/media/ddh4r4m/wallpaper-collection/main/collection/wallpapers/gradient/143.jpg",
        "thumb": "https://media.githubusercontent.com/media/ddh4r4m/wallpaper-collection/main/collection/thumbnails/gradient/143.jpg"
      },
      "metadata": {
        "added_at": "2025-07-20T23:12:22.015091",
        "file_size": 28756,
        "dimensions": {
          "width": 1080,
          "height": 1920
        }
      }
    },
    {
      "id": "gradient_144",
      "category": "gradient",
      "title": "Gradient Wallpaper 144",
      "tags": [
        "gradient"
      ],
      "urls": {
        "raw": "https://media.githubusercontent.com/media/ddh4r4m/wallpaper-collection/main/collection/wallpapers/gradient/144.jpg",
        "thumb": "https://media.githubusercontent.com/media/ddh4r4m/wallpaper-collection/main/collection/thumbnails/gradient/144.jpg"
      },
      "metadata": {
        "added_at": "2025-07-20T23:12:22.338352",
        "file_size": 171842,
        "dimensions": {
          "width": 1080,
          "height": 1920
        }
      }
    },
    {
      "id": "gradient_145",
      "category": "gradient",
      "title": "Gradient Wallpaper 145",
      "tags": [
        "gradient"
      ],
      "urls": {
        "raw": "https://media.githubusercontent.com/media/ddh4r4m/wallpaper-collection/main/collection/wallpapers/gradient/145.jpg",
        "thumb": "https://media.githubusercontent.com/media/ddh4r4m/wallpaper-collection/main/collection/thumbnails/gradient/145.jpg"
      },
      "metadata": {
        "added_at": "2025-07-20T23:12:22.495144",
        "file_size": 294728,
        "dimensions": {
          "width": 1080,
          "height": 1920
        }
      }
    },
    {
      "id": "gradient_146",
      "category": "gradient",
      "title": "Gradient Wallpaper 146",
      "tags": [
        "gradient"
      ],
      "urls": {
        "raw": "https://media.githubusercontent.com/media/ddh4r4m/wallpaper-collection/main/collection/wallpapers/gradient/146.jpg",
        "thumb": "https://media.githubusercontent.com/media/ddh4r4m/wallpaper-collection/main/collection/thumbnails/gradient/146.jpg"
      },
      "metadata": {
        "added_at": "2025-07-20T23:12:22.657923",
        "file_size": 293240,
        "dimensions": {
          "width": 1080,
          "height": 1920
        }
      }
    },
    {
      "id": "gradient_147",
      "category": "gradient",
      "title": "Gradient Wallpaper 147",
      "tags": [
        "gradient"
      ],
      "urls": {
        "raw": "https://media.githubusercontent.com/media/ddh4r4m/wallpaper-collection/main/collection/wallpapers/gradient/147.jpg",
        "thumb": "https://media.githubusercontent.com/media/ddh4r4m/wallpaper-collection/main/collection/thumbnails/gradient/147.jpg"
      },
      "metadata": {
        "added_at": "2025-07-20T23:12:22.780923",
        "file_size": 40848,
        "dimensions": {
          "width": 1080,
          "height": 1920
        }
      }
    },
    {
      "id": "gradient_148",
      "category": "gradient",
      "title": "Gradient Wallpaper 148",
      "tags": [
        "gradient"
      ],
      "urls": {
        "raw": "https://media.githubusercontent.com/media/ddh4r4m/wallpaper-collection/main/collection/wallpapers/gradient/148.jpg",
        "thumb": "https://media.githubusercontent.com/media/ddh4r4m/wallpaper-collection/main/collection/thumbnails/gradient/148.jpg"
      },
      "metadata": {
        "added_at": "2025-07-20T23:12:22.882577",
        "file_size": 173605,
        "dimensions": {
          "width": 1080,
          "height": 1920
        }
      }
    },
    {
      "id": "gradient_149",
      "category": "gradient",
      "title": "Gradient Wallpaper 149",
      "tags": [
        "gradient"
      ],
      "urls": {
        "raw": "https://media.githubusercontent.com/media/ddh4r4m/wallpaper-collection/main/collection/wallpapers/gradient/149.jpg",
        "thumb": "https://media.githubusercontent.com/media/ddh4r4m/wallpaper-collection/main/collection/thumbnails/gradient/149.jpg"
      },
      "metadata": {
        "added_at": "2025-07-20T23:12:23.040759",
        "file_size": 444981,
        "dimensions": {
          "width": 1080,
          "height": 1920
        }
      }
    }
  ]
}