{
  "meta": {
    "version": "1.0",
    "generated_at": "2025-07-28T23:12:02.393375",
    "category": "gradient",
    "page": 2,
    "per_page": 15,
    "total_pages": 10,
    "total_count": 145,
    "count_on_page": 15,
    "has_next": true,
    "has_prev": true,
    "next_page_url": "/api/v1/gradient/pages/3.json",
    "prev_page_url": "/api/v1/gradient/pages/1.json"
  },
  "data": [
    {
      "id": "gradient_016",
      "category": "gradient",
      "title": "Gradient Wallpaper 016",
      "tags": [
        "gradient"
      ],
      "urls": {
        "raw": "https://media.githubusercontent.com/media/ddh4r4m/wallpaper-collection/main/collection/wallpapers/gradient/016.jpg",
        "thumb": "https://media.githubusercontent.com/media/ddh4r4m/wallpaper-collection/main/collection/thumbnails/gradient/016.jpg"
      },
      "metadata": {
        "added_at": "2025-07-20T21:26:42.695772",
        "file_size": 48939,
        "dimensions": {
          "width": 1080,
          "height": 1920
        }
      }
    },
    {
      "id": "gradient_017",
      "category": "gradient",
      "title": "Gradient Wallpaper 017",
      "tags": [
        "gradient"
      ],
      "urls": {
        "raw": "https://media.githubusercontent.com/media/ddh4r4m/wallpaper-collection/main/collection/wallpapers/gradient/017.jpg",
        "thumb": "https://media.githubusercontent.com/media/ddh4r4m/wallpaper-collection/main/collection/thumbnails/gradient/017.jpg"
      },
      "metadata": {
        "added_at": "2025-07-20T21:26:42.835820",
        "file_size": 310290,
        "dimensions": {
          "width": 1080,
          "height": 1920
        }
      }
    },
    {
      "id": "gradient_018",
      "category": "gradient",
      "title": "Gradient Wallpaper 018",
      "tags": [
        "gradient"
      ],
      "urls": {
        "raw": "https://media.githubusercontent.com/media/ddh4r4m/wallpaper-collection/main/collection/wallpapers/gradient/018.jpg",
        "thumb": "https://media.githubusercontent.com/media/ddh4r4m/wallpaper-collection/main/collection/thumbnails/gradient/018.jpg"
      },
      "metadata": {
        "added_at": "2025-07-20T21:26:42.982882",
        "file_size": 128792,
        "dimensions": {
          "width": 1080,
          "height": 1920
        }
      }
    },
    {
      "id": "gradient_019",
      "category": "gradient",
      "title": "Gradient Wallpaper 019",
      "tags": [
        "gradient"
      ],
      "urls": {
        "raw": "https://media.githubusercontent.com/media/ddh4r4m/wallpaper-collection/main/collection/wallpapers/gradient/019.jpg",
        "thumb": "https://media.githubusercontent.com/media/ddh4r4m/wallpaper-collection/main/collection/thumbnails/gradient/019.jpg"
      },
      "metadata": {
        "added_at": "2025-07-20T21:26:43.121842",
        "file_size": 456193,
        "dimensions": {
          "width": 1080,
          "height": 1920
        }
      }
    },
    {
      "id": "gradient_020",
      "category": "gradient",
      "title": "Gradient Wallpaper 020",
      "tags": [
        "gradient"
      ],
      "urls": {
        "raw": "https://media.githubusercontent.com/media/ddh4r4m/wallpaper-collection/main/collection/wallpapers/gradient/020.jpg",
        "thumb": "https://media.githubusercontent.com/media/ddh4r4m/wallpaper-collection/main/collection/thumbnails/gradient/020.jpg"
      },
      "metadata": {
        "added_at": "2025-07-20T21:26:43.231580",
        "file_size": 54537,
        "dimensions": {
          "width": 1080,
          "height": 1920
        }
      }
    },
    {
      "id": "gradient_021",
      "category": "gradient",
      "title": "Gradient Wallpaper 021",
      "tags": [
        "gradient"
      ],
      "urls": {
        "raw": "https://media.githubusercontent.com/media/ddh4r4m/wallpaper-collection/main/collection/wallpapers/gradient/021.jpg",
        "thumb": "https://media.githubusercontent.com/media/ddh4r4m/wallpaper-collection/main/collection/thumbnails/gradient/021.jpg"
      },
      "metadata": {
        "added_at": "2025-07-20T21:26:43.335401",
        "file_size": 39115,
        "dimensions": {
          "width": 1080,
          "height": 1920
        }
      }
    },
    {
      "id": "gradient_022",
      "category": "gradient",
      "title": "Gradient Wallpaper 022",
      "tags": [
        "gradient"
      ],
      "urls": {
        "raw": "https://media.githubusercontent.com/media/ddh4r4m/wallpaper-collection/main/collection/wallpapers/gradient/022.jpg",
        "thumb": "https://media.githubusercontent.com/media/ddh4r4m/wallpaper-collection/main/collection/thumbnails/gradient/022.jpg"
      },
      "metadata": {
        "added_at": "2025-07-20T21:26:43.440355",
        "file_size": 43544,
        "dimensions": {
          "width": 1080,
          "height": 1920
        }
      }
    },
    {
      "id": "gradient_023",
      "category": "gradient",
      "title": "Gradient Wallpaper 023",
      "tags": [
        "gradient"
      ],
      "urls": {
        "raw": "https://media.githubusercontent.com/media/ddh4r4m/wallpaper-collection/main/collection/wallpapers/gradient/023.jpg",
        "thumb": "https://media.githubusercontent.com/media/ddh4r4m/wallpaper-collection/main/collection/thumbnails/gradient/023.jpg"
      },
      "metadata": {
        "added_at": "2025-07-20T21:26:43.528382",
        "file_size": 44522,
        "dimensions": {
          "width": 1080,
          "height": 1920
        }
      }
    },
    {
      "id": "gradient_024",
      "category": "gradient",
      "title": "Gradient Wallpaper 024",
      "tags": [
        "gradient"
      ],
      "urls": {
        "raw": "https://media.githubusercontent.com/media/ddh4r4m/wallpaper-collection/main/collection/wallpapers/gradient/024.jpg",
        "thumb": "https://media.githubusercontent.com/media/ddh4r4m/wallpaper-collection/main/collection/thumbnails/gradient/024.jpg"
      },
      "metadata": {
        "added_at": "2025-07-20T21:26:43.637452",
        "file_size": 41048,
        "dimensions": {
          "width": 1080,
          "height": 1920
        }
      }
    },
    {
      "id": "gradient_025",
      "category": "gradient",
      "title": "Gradient Wallpaper 025",
      "tags": [
        "gradient"
      ],
      "urls": {
        "raw": "https://media.githubusercontent.com/media/ddh4r4m/wallpaper-collection/main/collection/wallpapers/gradient/025.jpg",
        "thumb": "https://media.githubusercontent.com/media/ddh4r4m/wallpaper-collection/main/collection/thumbnails/gradient/025.jpg"
      },
      "metadata": {
        "added_at": "2025-07-20T21:26:43.754230",
        "file_size": 95971,
        "dimensions": {
          "width": 1080,
          "height": 1920
        }
      }
    },
    {
      "id": "gradient_026",
      "category": "gradient",
      "title": "Gradient Wallpaper 026",
      "tags": [
        "gradient"
      ],
      "urls": {
        "raw": "https://media.githubusercontent.com/media/ddh4r4m/wallpaper-collection/main/collection/wallpapers/gradient/026.jpg",
        "thumb": "https://media.githubusercontent.com/media/ddh4r4m/wallpaper-collection/main/collection/thumbnails/gradient/026.jpg"
      },
      "metadata": {
        "added_at": "2025-07-20T21:26:43.893831",
        "file_size": 466210,
        "dimensions": {
          "width": 1080,
          "height": 1920
        }
      }
    },
    {
      "id": "gradient_027",
      "category": "gradient",
      "title": "Gradient Wallpaper 027",
      "tags": [
        "gradient"
      ],
      "urls": {
        "raw": "https://media.githubusercontent.com/media/ddh4r4m/wallpaper-collection/main/collection/wallpapers/gradient/027.jpg",
        "thumb": "https://media.githubusercontent.com/media/ddh4r4m/wallpaper-collection/main/collection/thumbnails/gradient/027.jpg"
      },
      "metadata": {
        "added_at": "2025-07-20T21:26:44.010671",
        "file_size": 34885,
        "dimensions": {
          "width": 1080,
          "height": 1920
        }
      }
    },
    {
      "id": "gradient_028",
      "category": "gradient",
      "title": "Gradient Wallpaper 028",
      "tags": [
        "gradient"
      ],
      "urls": {
        "raw": "https://media.githubusercontent.com/media/ddh4r4m/wallpaper-collection/main/collection/wallpapers/gradient/028.jpg",
        "thumb": "https://media.githubusercontent.com/media/ddh4r4m/wallpaper-collection/main/collection/thumbnails/gradient/028.jpg"
      },
      "metadata": {
        "added_at": "2025-07-20T21:26:44.115335",
        "file_size": 44632,
        "dimensions": {
          "width": 1080,
          "height": 1920
        }
      }
    },
    {
      "id": "gradient_029",
      "category": "gradient",
      "title": "Gradient Wallpaper 029",
      "tags": [
        "gradient"
      ],
      "urls": {
        "raw": "https://media.githubusercontent.com/media/ddh4r4m/wallpaper-collection/main/collection/wallpapers/gradient/029.jpg",
        "thumb": "https://media.githubusercontent.com/media/ddh4r4m/wallpaper-collection/main/collection/thumbnails/gradient/029.jpg"
      },
      "metadata": {
        "added_at": "2025-07-20T21:26:44.248319",
        "file_size": 31581,
        "dimensions": {
          "width": 1080,
          "height": 1920
        }
      }
    },
    {
      "id": "gradient_030",
      "category": "gradient",
      "title": "Gradient Wallpaper 030",
      "tags": [
        "gradient"
      ],
      "urls": {
        "raw": "https://media.githubusercontent.com/media/ddh4r4m/wallpaper-collection/main/collection/wallpapers/gradient/030.jpg",
        "thumb": "https://media.githubusercontent.com/media/ddh4r4m/wallpaper-collection/main/collection/thumbnails/gradient/030.jpg"
      },
      "metadata": {
        "added_at": "2025-07-20T23:09:21.184916",
        "file_size": 697110,
        "dimensions": {
          "width": 1080,
          "height": 1920
        }
      }
    }
  ]
}