{
  "meta": {
    "version": "1.0",
    "generated_at": "2025-07-28T22:48:38.208699",
    "category": "gradient",
    "page": 4,
    "per_page": 15,
    "total_pages": 10,
    "total_count": 145,
    "count_on_page": 15,
    "has_next": true,
    "has_prev": true,
    "next_page_url": "/api/v1/gradient/pages/5.json",
    "prev_page_url": "/api/v1/gradient/pages/3.json"
  },
  "data": [
    {
      "id": "gradient_046",
      "category": "gradient",
      "title": "Gradient Wallpaper 046",
      "tags": [
        "gradient"
      ],
      "urls": {
        "raw": "https://media.githubusercontent.com/media/ddh4r4m/wallpaper-collection/main/collection/wallpapers/gradient/046.jpg",
        "thumb": "https://media.githubusercontent.com/media/ddh4r4m/wallpaper-collection/main/collection/thumbnails/gradient/046.jpg"
      },
      "metadata": {
        "added_at": "2025-07-20T23:09:23.651130",
        "file_size": 80584,
        "dimensions": {
          "width": 1080,
          "height": 1920
        }
      }
    },
    {
      "id": "gradient_047",
      "category": "gradient",
      "title": "Gradient Wallpaper 047",
      "tags": [
        "gradient"
      ],
      "urls": {
        "raw": "https://media.githubusercontent.com/media/ddh4r4m/wallpaper-collection/main/collection/wallpapers/gradient/047.jpg",
        "thumb": "https://media.githubusercontent.com/media/ddh4r4m/wallpaper-collection/main/collection/thumbnails/gradient/047.jpg"
      },
      "metadata": {
        "added_at": "2025-07-20T23:09:23.794941",
        "file_size": 56627,
        "dimensions": {
          "width": 1080,
          "height": 1920
        }
      }
    },
    {
      "id": "gradient_048",
      "category": "gradient",
      "title": "Gradient Wallpaper 048",
      "tags": [
        "gradient"
      ],
      "urls": {
        "raw": "https://media.githubusercontent.com/media/ddh4r4m/wallpaper-collection/main/collection/wallpapers/gradient/048.jpg",
        "thumb": "https://media.githubusercontent.com/media/ddh4r4m/wallpaper-collection/main/collection/thumbnails/gradient/048.jpg"
      },
      "metadata": {
        "added_at": "2025-07-20T23:09:24.001597",
        "file_size": 21968,
        "dimensions": {
          "width": 1080,
          "height": 1920
        }
      }
    },
    {
      "id": "gradient_049",
      "category": "gradient",
      "title": "Gradient Wallpaper 049",
      "tags": [
        "gradient"
      ],
      "urls": {
        "raw": "https://media.githubusercontent.com/media/ddh4r4m/wallpaper-collection/main/collection/wallpapers/gradient/049.jpg",
        "thumb": "https://media.githubusercontent.com/media/ddh4r4m/wallpaper-collection/main/collection/thumbnails/gradient/049.jpg"
      },
      "metadata": {
        "added_at": "2025-07-20T23:09:24.137580",
        "file_size": 185527,
        "dimensions": {
          "width": 1080,
          "height": 1920
        }
      }
    },
    {
      "id": "gradient_050",
      "category": "gradient",
      "title": "Gradient Wallpaper 050",
      "tags": [
        "gradient"
      ],
      "urls": {
        "raw": "https://media.githubusercontent.com/media/ddh4r4m/wallpaper-collection/main/collection/wallpapers/gradient/050.jpg",
        "thumb": "https://media.githubusercontent.com/media/ddh4r4m/wallpaper-collection/main/collection/thumbnails/gradient/050.jpg"
      },
      "metadata": {
        "added_at": "2025-07-20T23:09:24.330554",
        "file_size": 66639,
        "dimensions": {
          "width": 1080,
          "height": 1920
        }
      }
    },
    {
      "id": "gradient_051",
      "category": "gradient",
      "title": "Gradient Wallpaper 051",
      "tags": [
        "gradient"
      ],
      "urls": {
        "raw": "https://media.githubusercontent.com/media/ddh4r4m/wallpaper-collection/main/collection/wallpapers/gradient/051.jpg",
        "thumb": "https://media.githubusercontent.com/media/ddh4r4m/wallpaper-collection/main/collection/thumbnails/gradient/051.jpg"
      },
      "metadata": {
        "added_at": "2025-07-20T23:09:24.457707",
        "file_size": 75379,
        "dimensions": {
          "width": 1080,
          "height": 1920
        }
      }
    },
    {
      "id": "gradient_052",
      "category": "gradient",
      "title": "Gradient Wallpaper 052",
      "tags": [
        "gradient"
      ],
      "urls": {
        "raw": "https://media.githubusercontent.com/media/ddh4r4m/wallpaper-collection/main/collection/wallpapers/gradient/052.jpg",
        "thumb": "https://media.githubusercontent.com/media/ddh4r4m/wallpaper-collection/main/collection/thumbnails/gradient/052.jpg"
      },
      "metadata": {
        "added_at": "2025-07-20T23:09:24.871587",
        "file_size": 39557,
        "dimensions": {
          "width": 1080,
          "height": 1920
        }
      }
    },
    {
      "id": "gradient_053",
      "category": "gradient",
      "title": "Gradient Wallpaper 053",
      "tags": [
        "gradient"
      ],
      "urls": {
        "raw": "https://media.githubusercontent.com/media/ddh4r4m/wallpaper-collection/main/collection/wallpapers/gradient/053.jpg",
        "thumb": "https://media.githubusercontent.com/media/ddh4r4m/wallpaper-collection/main/collection/thumbnails/gradient/053.jpg"
      },
      "metadata": {
        "added_at": "2025-07-20T23:09:25.005271",
        "file_size": 53775,
        "dimensions": {
          "width": 1080,
          "height": 1920
        }
      }
    },
    {
      "id": "gradient_054",
      "category": "gradient",
      "title": "Gradient Wallpaper 054",
      "tags": [
        "gradient"
      ],
      "urls": {
        "raw": "https://media.githubusercontent.com/media/ddh4r4m/wallpaper-collection/main/collection/wallpapers/gradient/054.jpg",
        "thumb": "https://media.githubusercontent.com/media/ddh4r4m/wallpaper-collection/main/collection/thumbnails/gradient/054.jpg"
      },
      "metadata": {
        "added_at": "2025-07-20T23:09:25.132947",
        "file_size": 40927,
        "dimensions": {
          "width": 1080,
          "height": 1920
        }
      }
    },
    {
      "id": "gradient_055",
      "category": "gradient",
      "title": "Gradient Wallpaper 055",
      "tags": [
        "gradient"
      ],
      "urls": {
        "raw": "https://media.githubusercontent.com/media/ddh4r4m/wallpaper-collection/main/collection/wallpapers/gradient/055.jpg",
        "thumb": "https://media.githubusercontent.com/media/ddh4r4m/wallpaper-collection/main/collection/thumbnails/gradient/055.jpg"
      },
      "metadata": {
        "added_at": "2025-07-20T23:09:25.274259",
        "file_size": 63459,
        "dimensions": {
          "width": 1080,
          "height": 1920
        }
      }
    },
    {
      "id": "gradient_056",
      "category": "gradient",
      "title": "Gradient Wallpaper 056",
      "tags": [
        "gradient"
      ],
      "urls": {
        "raw": "https://media.githubusercontent.com/media/ddh4r4m/wallpaper-collection/main/collection/wallpapers/gradient/056.jpg",
        "thumb": "https://media.githubusercontent.com/media/ddh4r4m/wallpaper-collection/main/collection/thumbnails/gradient/056.jpg"
      },
      "metadata": {
        "added_at": "2025-07-20T23:09:25.414777",
        "file_size": 75938,
        "dimensions": {
          "width": 1080,
          "height": 1920
        }
      }
    },
    {
      "id": "gradient_057",
      "category": "gradient",
      "title": "Gradient Wallpaper 057",
      "tags": [
        "gradient"
      ],
      "urls": {
        "raw": "https://media.githubusercontent.com/media/ddh4r4m/wallpaper-collection/main/collection/wallpapers/gradient/057.jpg",
        "thumb": "https://media.githubusercontent.com/media/ddh4r4m/wallpaper-collection/main/collection/thumbnails/gradient/057.jpg"
      },
      "metadata": {
        "added_at": "2025-07-20T23:09:25.571049",
        "file_size": 63461,
        "dimensions": {
          "width": 1080,
          "height": 1920
        }
      }
    },
    {
      "id": "gradient_058",
      "category": "gradient",
      "title": "Gradient Wallpaper 058",
      "tags": [
        "gradient"
      ],
      "urls": {
        "raw": "https://media.githubusercontent.com/media/ddh4r4m/wallpaper-collection/main/collection/wallpapers/gradient/058.jpg",
        "thumb": "https://media.githubusercontent.com/media/ddh4r4m/wallpaper-collection/main/collection/thumbnails/gradient/058.jpg"
      },
      "metadata": {
        "added_at": "2025-07-20T23:09:25.706864",
        "file_size": 35559,
        "dimensions": {
          "width": 1080,
          "height": 1920
        }
      }
    },
    {
      "id": "gradient_059",
      "category": "gradient",
      "title": "Gradient Wallpaper 059",
      "tags": [
        "gradient"
      ],
      "urls": {
        "raw": "https://media.githubusercontent.com/media/ddh4r4m/wallpaper-collection/main/collection/wallpapers/gradient/059.jpg",
        "thumb": "https://media.githubusercontent.com/media/ddh4r4m/wallpaper-collection/main/collection/thumbnails/gradient/059.jpg"
      },
      "metadata": {
        "added_at": "2025-07-20T23:09:25.803527",
        "file_size": 157136,
        "dimensions": {
          "width": 1080,
          "height": 1920
        }
      }
    },
    {
      "id": "gradient_060",
      "category": "gradient",
      "title": "Gradient Wallpaper 060",
      "tags": [
        "gradient"
      ],
      "urls": {
        "raw": "https://media.githubusercontent.com/media/ddh4r4m/wallpaper-collection/main/collection/wallpapers/gradient/060.jpg",
        "thumb": "https://media.githubusercontent.com/media/ddh4r4m/wallpaper-collection/main/collection/thumbnails/gradient/060.jpg"
      },
      "metadata": {
        "added_at": "2025-07-20T23:09:25.930562",
        "file_size": 24871,
        "dimensions": {
          "width": 1080,
          "height": 1920
        }
      }
    }
  ]
}