{
  "meta": {
    "version": "1.0",
    "generated_at": "2025-07-28T22:48:38.208699",
    "category": "gradient",
    "page": 5,
    "per_page": 15,
    "total_pages": 10,
    "total_count": 145,
    "count_on_page": 15,
    "has_next": true,
    "has_prev": true,
    "next_page_url": "/api/v1/gradient/pages/6.json",
    "prev_page_url": "/api/v1/gradient/pages/4.json"
  },
  "data": [
    {
      "id": "gradient_061",
      "category": "gradient",
      "title": "Gradient Wallpaper 061",
      "tags": [
        "gradient"
      ],
      "urls": {
        "raw": "https://media.githubusercontent.com/media/ddh4r4m/wallpaper-collection/main/collection/wallpapers/gradient/061.jpg",
        "thumb": "https://media.githubusercontent.com/media/ddh4r4m/wallpaper-collection/main/collection/thumbnails/gradient/061.jpg"
      },
      "metadata": {
        "added_at": "2025-07-20T23:09:26.024195",
        "file_size": 24860,
        "dimensions": {
          "width": 1080,
          "height": 1920
        }
      }
    },
    {
      "id": "gradient_062",
      "category": "gradient",
      "title": "Gradient Wallpaper 062",
      "tags": [
        "gradient"
      ],
      "urls": {
        "raw": "https://media.githubusercontent.com/media/ddh4r4m/wallpaper-collection/main/collection/wallpapers/gradient/062.jpg",
        "thumb": "https://media.githubusercontent.com/media/ddh4r4m/wallpaper-collection/main/collection/thumbnails/gradient/062.jpg"
      },
      "metadata": {
        "added_at": "2025-07-20T23:09:26.112771",
        "file_size": 35597,
        "dimensions": {
          "width": 1080,
          "height": 1920
        }
      }
    },
    {
      "id": "gradient_063",
      "category": "gradient",
      "title": "Gradient Wallpaper 063",
      "tags": [
        "gradient"
      ],
      "urls": {
        "raw": "https://media.githubusercontent.com/media/ddh4r4m/wallpaper-collection/main/collection/wallpapers/gradient/063.jpg",
        "thumb": "https://media.githubusercontent.com/media/ddh4r4m/wallpaper-collection/main/collection/thumbnails/gradient/063.jpg"
      },
      "metadata": {
        "added_at": "2025-07-20T23:09:26.277380",
        "file_size": 694546,
        "dimensions": {
          "width": 1080,
          "height": 1920
        }
      }
    },
    {
      "id": "gradient_064",
      "category": "gradient",
      "title": "Gradient Wallpaper 064",
      "tags": [
        "gradient"
      ],
      "urls": {
        "raw": "https://media.githubusercontent.com/media/ddh4r4m/wallpaper-collection/main/collection/wallpapers/gradient/064.jpg",
        "thumb": "https://media.githubusercontent.com/media/ddh4r4m/wallpaper-collection/main/collection/thumbnails/gradient/064.jpg"
      },
      "metadata": {
        "added_at": "2025-07-20T23:09:26.447823",
        "file_size": 28147,
        "dimensions": {
          "width": 1080,
          "height": 1920
        }
      }
    },
    {
      "id": "gradient_065",
      "category": "gradient",
      "title": "Gradient Wallpaper 065",
      "tags": [
        "gradient"
      ],
      "urls": {
        "raw": "https://media.githubusercontent.com/media/ddh4r4m/wallpaper-collection/main/collection/wallpapers/gradient/065.jpg",
        "thumb": "https://media.githubusercontent.com/media/ddh4r4m/wallpaper-collection/main/collection/thumbnails/gradient/065.jpg"
      },
      "metadata": {
        "added_at": "2025-07-20T23:09:26.590011",
        "file_size": 239311,
        "dimensions": {
          "width": 1080,
          "height": 1920
        }
      }
    },
    {
      "id": "gradient_066",
      "category": "gradient",
      "title": "Gradient Wallpaper 066",
      "tags": [
        "gradient"
      ],
      "urls": {
        "raw": "https://media.githubusercontent.com/media/ddh4r4m/wallpaper-collection/main/collection/wallpapers/gradient/066.jpg",
        "thumb": "https://media.githubusercontent.com/media/ddh4r4m/wallpaper-collection/main/collection/thumbnails/gradient/066.jpg"
      },
      "metadata": {
        "added_at": "2025-07-20T23:09:26.697698",
        "file_size": 271106,
        "dimensions": {
          "width": 1080,
          "height": 1920
        }
      }
    },
    {
      "id": "gradient_067",
      "category": "gradient",
      "title": "Gradient Wallpaper 067",
      "tags": [
        "gradient"
      ],
      "urls": {
        "raw": "https://media.githubusercontent.com/media/ddh4r4m/wallpaper-collection/main/collection/wallpapers/gradient/067.jpg",
        "thumb": "https://media.githubusercontent.com/media/ddh4r4m/wallpaper-collection/main/collection/thumbnails/gradient/067.jpg"
      },
      "metadata": {
        "added_at": "2025-07-20T23:09:26.830120",
        "file_size": 176288,
        "dimensions": {
          "width": 1080,
          "height": 1920
        }
      }
    },
    {
      "id": "gradient_068",
      "category": "gradient",
      "title": "Gradient Wallpaper 068",
      "tags": [
        "gradient"
      ],
      "urls": {
        "raw": "https://media.githubusercontent.com/media/ddh4r4m/wallpaper-collection/main/collection/wallpapers/gradient/068.jpg",
        "thumb": "https://media.githubusercontent.com/media/ddh4r4m/wallpaper-collection/main/collection/thumbnails/gradient/068.jpg"
      },
      "metadata": {
        "added_at": "2025-07-20T23:09:26.960908",
        "file_size": 153033,
        "dimensions": {
          "width": 1080,
          "height": 1920
        }
      }
    },
    {
      "id": "gradient_069",
      "category": "gradient",
      "title": "Gradient Wallpaper 069",
      "tags": [
        "gradient"
      ],
      "urls": {
        "raw": "https://media.githubusercontent.com/media/ddh4r4m/wallpaper-collection/main/collection/wallpapers/gradient/069.jpg",
        "thumb": "https://media.githubusercontent.com/media/ddh4r4m/wallpaper-collection/main/collection/thumbnails/gradient/069.jpg"
      },
      "metadata": {
        "added_at": "2025-07-20T23:09:27.184733",
        "file_size": 409747,
        "dimensions": {
          "width": 1080,
          "height": 1920
        }
      }
    },
    {
      "id": "gradient_070",
      "category": "gradient",
      "title": "Gradient Wallpaper 070",
      "tags": [
        "gradient"
      ],
      "urls": {
        "raw": "https://media.githubusercontent.com/media/ddh4r4m/wallpaper-collection/main/collection/wallpapers/gradient/070.jpg",
        "thumb": "https://media.githubusercontent.com/media/ddh4r4m/wallpaper-collection/main/collection/thumbnails/gradient/070.jpg"
      },
      "metadata": {
        "added_at": "2025-07-20T23:09:27.320166",
        "file_size": 57050,
        "dimensions": {
          "width": 1080,
          "height": 1920
        }
      }
    },
    {
      "id": "gradient_071",
      "category": "gradient",
      "title": "Gradient Wallpaper 071",
      "tags": [
        "gradient"
      ],
      "urls": {
        "raw": "https://media.githubusercontent.com/media/ddh4r4m/wallpaper-collection/main/collection/wallpapers/gradient/071.jpg",
        "thumb": "https://media.githubusercontent.com/media/ddh4r4m/wallpaper-collection/main/collection/thumbnails/gradient/071.jpg"
      },
      "metadata": {
        "added_at": "2025-07-20T23:09:27.451882",
        "file_size": 45339,
        "dimensions": {
          "width": 1080,
          "height": 1920
        }
      }
    },
    {
      "id": "gradient_072",
      "category": "gradient",
      "title": "Gradient Wallpaper 072",
      "tags": [
        "gradient"
      ],
      "urls": {
        "raw": "https://media.githubusercontent.com/media/ddh4r4m/wallpaper-collection/main/collection/wallpapers/gradient/072.jpg",
        "thumb": "https://media.githubusercontent.com/media/ddh4r4m/wallpaper-collection/main/collection/thumbnails/gradient/072.jpg"
      },
      "metadata": {
        "added_at": "2025-07-20T23:09:27.621830",
        "file_size": 82959,
        "dimensions": {
          "width": 1080,
          "height": 1920
        }
      }
    },
    {
      "id": "gradient_073",
      "category": "gradient",
      "title": "Gradient Wallpaper 073",
      "tags": [
        "gradient"
      ],
      "urls": {
        "raw": "https://media.githubusercontent.com/media/ddh4r4m/wallpaper-collection/main/collection/wallpapers/gradient/073.jpg",
        "thumb": "https://media.githubusercontent.com/media/ddh4r4m/wallpaper-collection/main/collection/thumbnails/gradient/073.jpg"
      },
      "metadata": {
        "added_at": "2025-07-20T23:09:27.772894",
        "file_size": 317346,
        "dimensions": {
          "width": 1080,
          "height": 1920
        }
      }
    },
    {
      "id": "gradient_074",
      "category": "gradient",
      "title": "Gradient Wallpaper 074",
      "tags": [
        "gradient"
      ],
      "urls": {
        "raw": "https://media.githubusercontent.com/media/ddh4r4m/wallpaper-collection/main/collection/wallpapers/gradient/074.jpg",
        "thumb": "https://media.githubusercontent.com/media/ddh4r4m/wallpaper-collection/main/collection/thumbnails/gradient/074.jpg"
      },
      "metadata": {
        "added_at": "2025-07-20T23:09:27.922194",
        "file_size": 151853,
        "dimensions": {
          "width": 1080,
          "height": 1920
        }
      }
    },
    {
      "id": "gradient_075",
      "category": "gradient",
      "title": "Gradient Wallpaper 075",
      "tags": [
        "gradient"
      ],
      "urls": {
        "raw": "https://media.githubusercontent.com/media/ddh4r4m/wallpaper-collection/main/collection/wallpapers/gradient/075.jpg",
        "thumb": "https://media.githubusercontent.com/media/ddh4r4m/wallpaper-collection/main/collection/thumbnails/gradient/075.jpg"
      },
      "metadata": {
        "added_at": "2025-07-20T23:09:28.054754",
        "file_size": 67951,
        "dimensions": {
          "width": 1080,
          "height": 1920
        }
      }
    }
  ]
}