{
  "meta": {
    "version": "1.0",
    "generated_at": "2025-07-28T23:12:02.393375",
    "category": "gradient",
    "page": 6,
    "per_page": 15,
    "total_pages": 10,
    "total_count": 145,
    "count_on_page": 15,
    "has_next": true,
    "has_prev": true,
    "next_page_url": "/api/v1/gradient/pages/7.json",
    "prev_page_url": "/api/v1/gradient/pages/5.json"
  },
  "data": [
    {
      "id": "gradient_076",
      "category": "gradient",
      "title": "Gradient Wallpaper 076",
      "tags": [
        "gradient"
      ],
      "urls": {
        "raw": "https://media.githubusercontent.com/media/ddh4r4m/wallpaper-collection/main/collection/wallpapers/gradient/076.jpg",
        "thumb": "https://media.githubusercontent.com/media/ddh4r4m/wallpaper-collection/main/collection/thumbnails/gradient/076.jpg"
      },
      "metadata": {
        "added_at": "2025-07-20T23:09:28.183112",
        "file_size": 38743,
        "dimensions": {
          "width": 1080,
          "height": 1920
        }
      }
    },
    {
      "id": "gradient_077",
      "category": "gradient",
      "title": "Gradient Wallpaper 077",
      "tags": [
        "gradient"
      ],
      "urls": {
        "raw": "https://media.githubusercontent.com/media/ddh4r4m/wallpaper-collection/main/collection/wallpapers/gradient/077.jpg",
        "thumb": "https://media.githubusercontent.com/media/ddh4r4m/wallpaper-collection/main/collection/thumbnails/gradient/077.jpg"
      },
      "metadata": {
        "added_at": "2025-07-20T23:09:28.322090",
        "file_size": 72871,
        "dimensions": {
          "width": 1080,
          "height": 1920
        }
      }
    },
    {
      "id": "gradient_078",
      "category": "gradient",
      "title": "Gradient Wallpaper 078",
      "tags": [
        "gradient"
      ],
      "urls": {
        "raw": "https://media.githubusercontent.com/media/ddh4r4m/wallpaper-collection/main/collection/wallpapers/gradient/078.jpg",
        "thumb": "https://media.githubusercontent.com/media/ddh4r4m/wallpaper-collection/main/collection/thumbnails/gradient/078.jpg"
      },
      "metadata": {
        "added_at": "2025-07-20T23:09:28.409250",
        "file_size": 34408,
        "dimensions": {
          "width": 1080,
          "height": 1920
        }
      }
    },
    {
      "id": "gradient_079",
      "category": "gradient",
      "title": "Gradient Wallpaper 079",
      "tags": [
        "gradient"
      ],
      "urls": {
        "raw": "https://media.githubusercontent.com/media/ddh4r4m/wallpaper-collection/main/collection/wallpapers/gradient/079.jpg",
        "thumb": "https://media.githubusercontent.com/media/ddh4r4m/wallpaper-collection/main/collection/thumbnails/gradient/079.jpg"
      },
      "metadata": {
        "added_at": "2025-07-20T23:09:28.491580",
        "file_size": 39802,
        "dimensions": {
          "width": 1080,
          "height": 1920
        }
      }
    },
    {
      "id": "gradient_080",
      "category": "gradient",
      "title": "Gradient Wallpaper 080",
      "tags": [
        "gradient"
      ],
      "urls": {
        "raw": "https://media.githubusercontent.com/media/ddh4r4m/wallpaper-collection/main/collection/wallpapers/gradient/080.jpg",
        "thumb": "https://media.githubusercontent.com/media/ddh4r4m/wallpaper-collection/main/collection/thumbnails/gradient/080.jpg"
      },
      "metadata": {
        "added_at": "2025-07-20T23:12:11.769868",
        "file_size": 384244,
        "dimensions": {
          "width": 1080,
          "height": 1920
        }
      }
    },
    {
      "id": "gradient_081",
      "category": "gradient",
      "title": "Gradient Wallpaper 081",
      "tags": [
        "gradient"
      ],
      "urls": {
        "raw": "https://media.githubusercontent.com/media/ddh4r4m/wallpaper-collection/main/collection/wallpapers/gradient/081.jpg",
        "thumb": "https://media.githubusercontent.com/media/ddh4r4m/wallpaper-collection/main/collection/thumbnails/gradient/081.jpg"
      },
      "metadata": {
        "added_at": "2025-07-20T23:12:12.025493",
        "file_size": 319376,
        "dimensions": {
          "width": 1080,
          "height": 1920
        }
      }
    },
    {
      "id": "gradient_082",
      "category": "gradient",
      "title": "Gradient Wallpaper 082",
      "tags": [
        "gradient"
      ],
      "urls": {
        "raw": "https://media.githubusercontent.com/media/ddh4r4m/wallpaper-collection/main/collection/wallpapers/gradient/082.jpg",
        "thumb": "https://media.githubusercontent.com/media/ddh4r4m/wallpaper-collection/main/collection/thumbnails/gradient/082.jpg"
      },
      "metadata": {
        "added_at": "2025-07-20T23:12:12.267628",
        "file_size": 906854,
        "dimensions": {
          "width": 1080,
          "height": 1920
        }
      }
    },
    {
      "id": "gradient_083",
      "category": "gradient",
      "title": "Gradient Wallpaper 083",
      "tags": [
        "gradient"
      ],
      "urls": {
        "raw": "https://media.githubusercontent.com/media/ddh4r4m/wallpaper-collection/main/collection/wallpapers/gradient/083.jpg",
        "thumb": "https://media.githubusercontent.com/media/ddh4r4m/wallpaper-collection/main/collection/thumbnails/gradient/083.jpg"
      },
      "metadata": {
        "added_at": "2025-07-20T23:12:12.386772",
        "file_size": 261793,
        "dimensions": {
          "width": 1080,
          "height": 1920
        }
      }
    },
    {
      "id": "gradient_084",
      "category": "gradient",
      "title": "Gradient Wallpaper 084",
      "tags": [
        "gradient"
      ],
      "urls": {
        "raw": "https://media.githubusercontent.com/media/ddh4r4m/wallpaper-collection/main/collection/wallpapers/gradient/084.jpg",
        "thumb": "https://media.githubusercontent.com/media/ddh4r4m/wallpaper-collection/main/collection/thumbnails/gradient/084.jpg"
      },
      "metadata": {
        "added_at": "2025-07-20T23:12:12.640335",
        "file_size": 123046,
        "dimensions": {
          "width": 1080,
          "height": 1920
        }
      }
    },
    {
      "id": "gradient_085",
      "category": "gradient",
      "title": "Gradient Wallpaper 085",
      "tags": [
        "gradient"
      ],
      "urls": {
        "raw": "https://media.githubusercontent.com/media/ddh4r4m/wallpaper-collection/main/collection/wallpapers/gradient/085.jpg",
        "thumb": "https://media.githubusercontent.com/media/ddh4r4m/wallpaper-collection/main/collection/thumbnails/gradient/085.jpg"
      },
      "metadata": {
        "added_at": "2025-07-20T23:12:12.820224",
        "file_size": 710584,
        "dimensions": {
          "width": 1080,
          "height": 1920
        }
      }
    },
    {
      "id": "gradient_086",
      "category": "gradient",
      "title": "Gradient Wallpaper 086",
      "tags": [
        "gradient"
      ],
      "urls": {
        "raw": "https://media.githubusercontent.com/media/ddh4r4m/wallpaper-collection/main/collection/wallpapers/gradient/086.jpg",
        "thumb": "https://media.githubusercontent.com/media/ddh4r4m/wallpaper-collection/main/collection/thumbnails/gradient/086.jpg"
      },
      "metadata": {
        "added_at": "2025-07-20T23:12:12.936554",
        "file_size": 318843,
        "dimensions": {
          "width": 1080,
          "height": 1920
        }
      }
    },
    {
      "id": "gradient_087",
      "category": "gradient",
      "title": "Gradient Wallpaper 087",
      "tags": [
        "gradient"
      ],
      "urls": {
        "raw": "https://media.githubusercontent.com/media/ddh4r4m/wallpaper-collection/main/collection/wallpapers/gradient/087.jpg",
        "thumb": "https://media.githubusercontent.com/media/ddh4r4m/wallpaper-collection/main/collection/thumbnails/gradient/087.jpg"
      },
      "metadata": {
        "added_at": "2025-07-20T23:12:13.096874",
        "file_size": 461600,
        "dimensions": {
          "width": 1080,
          "height": 1920
        }
      }
    },
    {
      "id": "gradient_088",
      "category": "gradient",
      "title": "Gradient Wallpaper 088",
      "tags": [
        "gradient"
      ],
      "urls": {
        "raw": "https://media.githubusercontent.com/media/ddh4r4m/wallpaper-collection/main/collection/wallpapers/gradient/088.jpg",
        "thumb": "https://media.githubusercontent.com/media/ddh4r4m/wallpaper-collection/main/collection/thumbnails/gradient/088.jpg"
      },
      "metadata": {
        "added_at": "2025-07-20T23:12:13.195874",
        "file_size": 187761,
        "dimensions": {
          "width": 1080,
          "height": 1920
        }
      }
    },
    {
      "id": "gradient_089",
      "category": "gradient",
      "title": "Gradient Wallpaper 089",
      "tags": [
        "gradient"
      ],
      "urls": {
        "raw": "https://media.githubusercontent.com/media/ddh4r4m/wallpaper-collection/main/collection/wallpapers/gradient/089.jpg",
        "thumb": "https://media.githubusercontent.com/media/ddh4r4m/wallpaper-collection/main/collection/thumbnails/gradient/089.jpg"
      },
      "metadata": {
        "added_at": "2025-07-20T23:12:13.390680",
        "file_size": 276345,
        "dimensions": {
          "width": 1080,
          "height": 1920
        }
      }
    },
    {
      "id": "gradient_090",
      "category": "gradient",
      "title": "Gradient Wallpaper 090",
      "tags": [
        "gradient"
      ],
      "urls": {
        "raw": "https://media.githubusercontent.com/media/ddh4r4m/wallpaper-collection/main/collection/wallpapers/gradient/090.jpg",
        "thumb": "https://media.githubusercontent.com/media/ddh4r4m/wallpaper-collection/main/collection/thumbnails/gradient/090.jpg"
      },
      "metadata": {
        "added_at": "2025-07-20T23:12:13.496550",
        "file_size": 188578,
        "dimensions": {
          "width": 1080,
          "height": 1920
        }
      }
    }
  ]
}