{
  "meta": {
    "version": "1.0",
    "generated_at": "2025-07-28T22:48:38.208699",
    "category": "gradient",
    "page": 9,
    "per_page": 15,
    "total_pages": 10,
    "total_count": 145,
    "count_on_page": 15,
    "has_next": true,
    "has_prev": true,
    "next_page_url": "/api/v1/gradient/pages/10.json",
    "prev_page_url": "/api/v1/gradient/pages/8.json"
  },
  "data": [
    {
      "id": "gradient_125",
      "category": "gradient",
      "title": "Gradient Wallpaper 125",
      "tags": [
        "gradient"
      ],
      "urls": {
        "raw": "https://media.githubusercontent.com/media/ddh4r4m/wallpaper-collection/main/collection/wallpapers/gradient/125.jpg",
        "thumb": "https://media.githubusercontent.com/media/ddh4r4m/wallpaper-collection/main/collection/thumbnails/gradient/125.jpg"
      },
      "metadata": {
        "added_at": "2025-07-20T23:12:19.288579",
        "file_size": 791665,
        "dimensions": {
          "width": 1080,
          "height": 1920
        }
      }
    },
    {
      "id": "gradient_126",
      "category": "gradient",
      "title": "Gradient Wallpaper 126",
      "tags": [
        "gradient"
      ],
      "urls": {
        "raw": "https://media.githubusercontent.com/media/ddh4r4m/wallpaper-collection/main/collection/wallpapers/gradient/126.jpg",
        "thumb": "https://media.githubusercontent.com/media/ddh4r4m/wallpaper-collection/main/collection/thumbnails/gradient/126.jpg"
      },
      "metadata": {
        "added_at": "2025-07-20T23:12:19.413364",
        "file_size": 161436,
        "dimensions": {
          "width": 1080,
          "height": 1920
        }
      }
    },
    {
      "id": "gradient_127",
      "category": "gradient",
      "title": "Gradient Wallpaper 127",
      "tags": [
        "gradient"
      ],
      "urls": {
        "raw": "https://media.githubusercontent.com/media/ddh4r4m/wallpaper-collection/main/collection/wallpapers/gradient/127.jpg",
        "thumb": "https://media.githubusercontent.com/media/ddh4r4m/wallpaper-collection/main/collection/thumbnails/gradient/127.jpg"
      },
      "metadata": {
        "added_at": "2025-07-20T23:12:19.589787",
        "file_size": 54528,
        "dimensions": {
          "width": 1080,
          "height": 1920
        }
      }
    },
    {
      "id": "gradient_128",
      "category": "gradient",
      "title": "Gradient Wallpaper 128",
      "tags": [
        "gradient"
      ],
      "urls": {
        "raw": "https://media.githubusercontent.com/media/ddh4r4m/wallpaper-collection/main/collection/wallpapers/gradient/128.jpg",
        "thumb": "https://media.githubusercontent.com/media/ddh4r4m/wallpaper-collection/main/collection/thumbnails/gradient/128.jpg"
      },
      "metadata": {
        "added_at": "2025-07-20T23:12:19.719742",
        "file_size": 150263,
        "dimensions": {
          "width": 1080,
          "height": 1920
        }
      }
    },
    {
      "id": "gradient_129",
      "category": "gradient",
      "title": "Gradient Wallpaper 129",
      "tags": [
        "gradient"
      ],
      "urls": {
        "raw": "https://media.githubusercontent.com/media/ddh4r4m/wallpaper-collection/main/collection/wallpapers/gradient/129.jpg",
        "thumb": "https://media.githubusercontent.com/media/ddh4r4m/wallpaper-collection/main/collection/thumbnails/gradient/129.jpg"
      },
      "metadata": {
        "added_at": "2025-07-20T23:12:19.822388",
        "file_size": 203003,
        "dimensions": {
          "width": 1080,
          "height": 1920
        }
      }
    },
    {
      "id": "gradient_130",
      "category": "gradient",
      "title": "Gradient Wallpaper 130",
      "tags": [
        "gradient"
      ],
      "urls": {
        "raw": "https://media.githubusercontent.com/media/ddh4r4m/wallpaper-collection/main/collection/wallpapers/gradient/130.jpg",
        "thumb": "https://media.githubusercontent.com/media/ddh4r4m/wallpaper-collection/main/collection/thumbnails/gradient/130.jpg"
      },
      "metadata": {
        "added_at": "2025-07-20T23:12:19.946997",
        "file_size": 429145,
        "dimensions": {
          "width": 1080,
          "height": 1920
        }
      }
    },
    {
      "id": "gradient_131",
      "category": "gradient",
      "title": "Gradient Wallpaper 131",
      "tags": [
        "gradient"
      ],
      "urls": {
        "raw": "https://media.githubusercontent.com/media/ddh4r4m/wallpaper-collection/main/collection/wallpapers/gradient/131.jpg",
        "thumb": "https://media.githubusercontent.com/media/ddh4r4m/wallpaper-collection/main/collection/thumbnails/gradient/131.jpg"
      },
      "metadata": {
        "added_at": "2025-07-20T23:12:20.121986",
        "file_size": 743859,
        "dimensions": {
          "width": 1080,
          "height": 1920
        }
      }
    },
    {
      "id": "gradient_132",
      "category": "gradient",
      "title": "Gradient Wallpaper 132",
      "tags": [
        "gradient"
      ],
      "urls": {
        "raw": "https://media.githubusercontent.com/media/ddh4r4m/wallpaper-collection/main/collection/wallpapers/gradient/132.jpg",
        "thumb": "https://media.githubusercontent.com/media/ddh4r4m/wallpaper-collection/main/collection/thumbnails/gradient/132.jpg"
      },
      "metadata": {
        "added_at": "2025-07-20T23:12:20.240378",
        "file_size": 346844,
        "dimensions": {
          "width": 1080,
          "height": 1920
        }
      }
    },
    {
      "id": "gradient_133",
      "category": "gradient",
      "title": "Gradient Wallpaper 133",
      "tags": [
        "gradient"
      ],
      "urls": {
        "raw": "https://media.githubusercontent.com/media/ddh4r4m/wallpaper-collection/main/collection/wallpapers/gradient/133.jpg",
        "thumb": "https://media.githubusercontent.com/media/ddh4r4m/wallpaper-collection/main/collection/thumbnails/gradient/133.jpg"
      },
      "metadata": {
        "added_at": "2025-07-20T23:12:20.402326",
        "file_size": 484708,
        "dimensions": {
          "width": 1080,
          "height": 1920
        }
      }
    },
    {
      "id": "gradient_134",
      "category": "gradient",
      "title": "Gradient Wallpaper 134",
      "tags": [
        "gradient"
      ],
      "urls": {
        "raw": "https://media.githubusercontent.com/media/ddh4r4m/wallpaper-collection/main/collection/wallpapers/gradient/134.jpg",
        "thumb": "https://media.githubusercontent.com/media/ddh4r4m/wallpaper-collection/main/collection/thumbnails/gradient/134.jpg"
      },
      "metadata": {
        "added_at": "2025-07-20T23:12:20.611893",
        "file_size": 400714,
        "dimensions": {
          "width": 1080,
          "height": 1920
        }
      }
    },
    {
      "id": "gradient_135",
      "category": "gradient",
      "title": "Gradient Wallpaper 135",
      "tags": [
        "gradient"
      ],
      "urls": {
        "raw": "https://media.githubusercontent.com/media/ddh4r4m/wallpaper-collection/main/collection/wallpapers/gradient/135.jpg",
        "thumb": "https://media.githubusercontent.com/media/ddh4r4m/wallpaper-collection/main/collection/thumbnails/gradient/135.jpg"
      },
      "metadata": {
        "added_at": "2025-07-20T23:12:20.741049",
        "file_size": 25201,
        "dimensions": {
          "width": 1080,
          "height": 1920
        }
      }
    },
    {
      "id": "gradient_136",
      "category": "gradient",
      "title": "Gradient Wallpaper 136",
      "tags": [
        "gradient"
      ],
      "urls": {
        "raw": "https://media.githubusercontent.com/media/ddh4r4m/wallpaper-collection/main/collection/wallpapers/gradient/136.jpg",
        "thumb": "https://media.githubusercontent.com/media/ddh4r4m/wallpaper-collection/main/collection/thumbnails/gradient/136.jpg"
      },
      "metadata": {
        "added_at": "2025-07-20T23:12:20.919179",
        "file_size": 40261,
        "dimensions": {
          "width": 1080,
          "height": 1920
        }
      }
    },
    {
      "id": "gradient_137",
      "category": "gradient",
      "title": "Gradient Wallpaper 137",
      "tags": [
        "gradient"
      ],
      "urls": {
        "raw": "https://media.githubusercontent.com/media/ddh4r4m/wallpaper-collection/main/collection/wallpapers/gradient/137.jpg",
        "thumb": "https://media.githubusercontent.com/media/ddh4r4m/wallpaper-collection/main/collection/thumbnails/gradient/137.jpg"
      },
      "metadata": {
        "added_at": "2025-07-20T23:12:21.057852",
        "file_size": 18874,
        "dimensions": {
          "width": 1080,
          "height": 1920
        }
      }
    },
    {
      "id": "gradient_138",
      "category": "gradient",
      "title": "Gradient Wallpaper 138",
      "tags": [
        "gradient"
      ],
      "urls": {
        "raw": "https://media.githubusercontent.com/media/ddh4r4m/wallpaper-collection/main/collection/wallpapers/gradient/138.jpg",
        "thumb": "https://media.githubusercontent.com/media/ddh4r4m/wallpaper-collection/main/collection/thumbnails/gradient/138.jpg"
      },
      "metadata": {
        "added_at": "2025-07-20T23:12:21.384579",
        "file_size": 46721,
        "dimensions": {
          "width": 1080,
          "height": 1920
        }
      }
    },
    {
      "id": "gradient_139",
      "category": "gradient",
      "title": "Gradient Wallpaper 139",
      "tags": [
        "gradient"
      ],
      "urls": {
        "raw": "https://media.githubusercontent.com/media/ddh4r4m/wallpaper-collection/main/collection/wallpapers/gradient/139.jpg",
        "thumb": "https://media.githubusercontent.com/media/ddh4r4m/wallpaper-collection/main/collection/thumbnails/gradient/139.jpg"
      },
      "metadata": {
        "added_at": "2025-07-20T23:12:21.534237",
        "file_size": 288671,
        "dimensions": {
          "width": 1080,
          "height": 1920
        }
      }
    }
  ]
}