{
  "meta": {
    "version": "1.0",
    "generated_at": "2025-07-28T22:48:38.208699",
    "category": "patterns",
    "page": 2,
    "per_page": 15,
    "total_pages": 6,
    "total_count": 81,
    "count_on_page": 15,
    "has_next": true,
    "has_prev": true,
    "next_page_url": "/api/v1/patterns/pages/3.json",
    "prev_page_url": "/api/v1/patterns/pages/1.json"
  },
  "data": [
    {
      "id": "patterns_016",
      "category": "patterns",
      "title": "Patterns Wallpaper 016",
      "tags": [
        "patterns"
      ],
      "urls": {
        "raw": "https://media.githubusercontent.com/media/ddh4r4m/wallpaper-collection/main/collection/wallpapers/patterns/016.jpg",
        "thumb": "https://media.githubusercontent.com/media/ddh4r4m/wallpaper-collection/main/collection/thumbnails/patterns/016.jpg"
      },
      "metadata": {
        "added_at": "2025-07-28T22:30:23.720224",
        "file_size": 292215,
        "dimensions": {
          "width": 900,
          "height": 1600
        }
      }
    },
    {
      "id": "patterns_017",
      "category": "patterns",
      "title": "Patterns Wallpaper 017",
      "tags": [
        "patterns"
      ],
      "urls": {
        "raw": "https://media.githubusercontent.com/media/ddh4r4m/wallpaper-collection/main/collection/wallpapers/patterns/017.jpg",
        "thumb": "https://media.githubusercontent.com/media/ddh4r4m/wallpaper-collection/main/collection/thumbnails/patterns/017.jpg"
      },
      "metadata": {
        "added_at": "2025-07-28T22:30:26.506931",
        "file_size": 391168,
        "dimensions": {
          "width": 1080,
          "height": 1920
        }
      }
    },
    {
      "id": "patterns_018",
      "category": "patterns",
      "title": "Patterns Wallpaper 018",
      "tags": [
        "patterns"
      ],
      "urls": {
        "raw": "https://media.githubusercontent.com/media/ddh4r4m/wallpaper-collection/main/collection/wallpapers/patterns/018.jpg",
        "thumb": "https://media.githubusercontent.com/media/ddh4r4m/wallpaper-collection/main/collection/thumbnails/patterns/018.jpg"
      },
      "metadata": {
        "added_at": "2025-07-28T22:30:29.470813",
        "file_size": 2807830,
        "dimensions": {
          "width": 3750,
          "height": 7500
        }
      }
    },
    {
      "id": "patterns_019",
      "category": "patterns",
      "title": "Patterns Wallpaper 019",
      "tags": [
        "patterns"
      ],
      "urls": {
        "raw": "https://media.githubusercontent.com/media/ddh4r4m/wallpaper-collection/main/collection/wallpapers/patterns/019.jpg",
        "thumb": "https://media.githubusercontent.com/media/ddh4r4m/wallpaper-collection/main/collection/thumbnails/patterns/019.jpg"
      },
      "metadata": {
        "added_at": "2025-07-28T22:30:32.283563",
        "file_size": 234238,
        "dimensions": {
          "width": 1000,
          "height": 1500
        }
      }
    },
    {
      "id": "patterns_020",
      "category": "patterns",
      "title": "Patterns Wallpaper 020",
      "tags": [
        "patterns"
      ],
      "urls": {
        "raw": "https://media.githubusercontent.com/media/ddh4r4m/wallpaper-collection/main/collection/wallpapers/patterns/020.jpg",
        "thumb": "https://media.githubusercontent.com/media/ddh4r4m/wallpaper-collection/main/collection/thumbnails/patterns/020.jpg"
      },
      "metadata": {
        "added_at": "2025-07-28T22:30:34.340857",
        "file_size": 113302,
        "dimensions": {
          "width": 1170,
          "height": 2340
        }
      }
    },
    {
      "id": "patterns_021",
      "category": "patterns",
      "title": "Patterns Wallpaper 021",
      "tags": [
        "patterns"
      ],
      "urls": {
        "raw": "https://media.githubusercontent.com/media/ddh4r4m/wallpaper-collection/main/collection/wallpapers/patterns/021.jpg",
        "thumb": "https://media.githubusercontent.com/media/ddh4r4m/wallpaper-collection/main/collection/thumbnails/patterns/021.jpg"
      },
      "metadata": {
        "added_at": "2025-07-28T22:34:44.670032",
        "file_size": 333594,
        "dimensions": {
          "width": 980,
          "height": 1742
        }
      }
    },
    {
      "id": "patterns_022",
      "category": "patterns",
      "title": "Patterns Wallpaper 022",
      "tags": [
        "patterns"
      ],
      "urls": {
        "raw": "https://media.githubusercontent.com/media/ddh4r4m/wallpaper-collection/main/collection/wallpapers/patterns/022.jpg",
        "thumb": "https://media.githubusercontent.com/media/ddh4r4m/wallpaper-collection/main/collection/thumbnails/patterns/022.jpg"
      },
      "metadata": {
        "added_at": "2025-07-28T22:34:46.324214",
        "file_size": 684504,
        "dimensions": {
          "width": 1500,
          "height": 3000
        }
      }
    },
    {
      "id": "patterns_023",
      "category": "patterns",
      "title": "Patterns Wallpaper 023",
      "tags": [
        "patterns"
      ],
      "urls": {
        "raw": "https://media.githubusercontent.com/media/ddh4r4m/wallpaper-collection/main/collection/wallpapers/patterns/023.jpg",
        "thumb": "https://media.githubusercontent.com/media/ddh4r4m/wallpaper-collection/main/collection/thumbnails/patterns/023.jpg"
      },
      "metadata": {
        "added_at": "2025-07-28T22:34:48.317593",
        "file_size": 200948,
        "dimensions": {
          "width": 850,
          "height": 1500
        }
      }
    },
    {
      "id": "patterns_024",
      "category": "patterns",
      "title": "Patterns Wallpaper 024",
      "tags": [
        "patterns"
      ],
      "urls": {
        "raw": "https://media.githubusercontent.com/media/ddh4r4m/wallpaper-collection/main/collection/wallpapers/patterns/024.jpg",
        "thumb": "https://media.githubusercontent.com/media/ddh4r4m/wallpaper-collection/main/collection/thumbnails/patterns/024.jpg"
      },
      "metadata": {
        "added_at": "2025-07-28T22:34:50.593219",
        "file_size": 929499,
        "dimensions": {
          "width": 2296,
          "height": 4096
        }
      }
    },
    {
      "id": "patterns_025",
      "category": "patterns",
      "title": "Patterns Wallpaper 025",
      "tags": [
        "patterns"
      ],
      "urls": {
        "raw": "https://media.githubusercontent.com/media/ddh4r4m/wallpaper-collection/main/collection/wallpapers/patterns/025.jpg",
        "thumb": "https://media.githubusercontent.com/media/ddh4r4m/wallpaper-collection/main/collection/thumbnails/patterns/025.jpg"
      },
      "metadata": {
        "added_at": "2025-07-28T22:34:53.115795",
        "file_size": 284369,
        "dimensions": {
          "width": 816,
          "height": 1456
        }
      }
    },
    {
      "id": "patterns_026",
      "category": "patterns",
      "title": "Patterns Wallpaper 026",
      "tags": [
        "patterns"
      ],
      "urls": {
        "raw": "https://media.githubusercontent.com/media/ddh4r4m/wallpaper-collection/main/collection/wallpapers/patterns/026.jpg",
        "thumb": "https://media.githubusercontent.com/media/ddh4r4m/wallpaper-collection/main/collection/thumbnails/patterns/026.jpg"
      },
      "metadata": {
        "added_at": "2025-07-28T22:34:55.086281",
        "file_size": 363932,
        "dimensions": {
          "width": 1200,
          "height": 2133
        }
      }
    },
    {
      "id": "patterns_027",
      "category": "patterns",
      "title": "Patterns Wallpaper 027",
      "tags": [
        "patterns"
      ],
      "urls": {
        "raw": "https://media.githubusercontent.com/media/ddh4r4m/wallpaper-collection/main/collection/wallpapers/patterns/027.jpg",
        "thumb": "https://media.githubusercontent.com/media/ddh4r4m/wallpaper-collection/main/collection/thumbnails/patterns/027.jpg"
      },
      "metadata": {
        "added_at": "2025-07-28T22:34:57.021838",
        "file_size": 226500,
        "dimensions": {
          "width": 1080,
          "height": 1919
        }
      }
    },
    {
      "id": "patterns_028",
      "category": "patterns",
      "title": "Patterns Wallpaper 028",
      "tags": [
        "patterns"
      ],
      "urls": {
        "raw": "https://media.githubusercontent.com/media/ddh4r4m/wallpaper-collection/main/collection/wallpapers/patterns/028.jpg",
        "thumb": "https://media.githubusercontent.com/media/ddh4r4m/wallpaper-collection/main/collection/thumbnails/patterns/028.jpg"
      },
      "metadata": {
        "added_at": "2025-07-28T22:34:59.579256",
        "file_size": 489339,
        "dimensions": {
          "width": 1080,
          "height": 1920
        }
      }
    },
    {
      "id": "patterns_029",
      "category": "patterns",
      "title": "Patterns Wallpaper 029",
      "tags": [
        "patterns"
      ],
      "urls": {
        "raw": "https://media.githubusercontent.com/media/ddh4r4m/wallpaper-collection/main/collection/wallpapers/patterns/029.jpg",
        "thumb": "https://media.githubusercontent.com/media/ddh4r4m/wallpaper-collection/main/collection/thumbnails/patterns/029.jpg"
      },
      "metadata": {
        "added_at": "2025-07-28T22:35:01.320259",
        "file_size": 431862,
        "dimensions": {
          "width": 2000,
          "height": 3000
        }
      }
    },
    {
      "id": "patterns_030",
      "category": "patterns",
      "title": "Patterns Wallpaper 030",
      "tags": [
        "patterns"
      ],
      "urls": {
        "raw": "https://media.githubusercontent.com/media/ddh4r4m/wallpaper-collection/main/collection/wallpapers/patterns/030.jpg",
        "thumb": "https://media.githubusercontent.com/media/ddh4r4m/wallpaper-collection/main/collection/thumbnails/patterns/030.jpg"
      },
      "metadata": {
        "added_at": "2025-07-28T22:35:04.212506",
        "file_size": 273360,
        "dimensions": {
          "width": 1024,
          "height": 2048
        }
      }
    }
  ]
}