{
  "meta": {
    "version": "1.0",
    "generated_at": "2025-07-28T23:12:02.393375",
    "category": "patterns",
    "page": 3,
    "per_page": 15,
    "total_pages": 6,
    "total_count": 81,
    "count_on_page": 15,
    "has_next": true,
    "has_prev": true,
    "next_page_url": "/api/v1/patterns/pages/4.json",
    "prev_page_url": "/api/v1/patterns/pages/2.json"
  },
  "data": [
    {
      "id": "patterns_031",
      "category": "patterns",
      "title": "Patterns Wallpaper 031",
      "tags": [
        "patterns"
      ],
      "urls": {
        "raw": "https://media.githubusercontent.com/media/ddh4r4m/wallpaper-collection/main/collection/wallpapers/patterns/031.jpg",
        "thumb": "https://media.githubusercontent.com/media/ddh4r4m/wallpaper-collection/main/collection/thumbnails/patterns/031.jpg"
      },
      "metadata": {
        "added_at": "2025-07-28T22:35:06.118025",
        "file_size": 295745,
        "dimensions": {
          "width": 1080,
          "height": 1920
        }
      }
    },
    {
      "id": "patterns_032",
      "category": "patterns",
      "title": "Patterns Wallpaper 032",
      "tags": [
        "patterns"
      ],
      "urls": {
        "raw": "https://media.githubusercontent.com/media/ddh4r4m/wallpaper-collection/main/collection/wallpapers/patterns/032.jpg",
        "thumb": "https://media.githubusercontent.com/media/ddh4r4m/wallpaper-collection/main/collection/thumbnails/patterns/032.jpg"
      },
      "metadata": {
        "added_at": "2025-07-28T22:35:08.318901",
        "file_size": 436643,
        "dimensions": {
          "width": 2304,
          "height": 4096
        }
      }
    },
    {
      "id": "patterns_033",
      "category": "patterns",
      "title": "Patterns Wallpaper 033",
      "tags": [
        "patterns"
      ],
      "urls": {
        "raw": "https://media.githubusercontent.com/media/ddh4r4m/wallpaper-collection/main/collection/wallpapers/patterns/033.jpg",
        "thumb": "https://media.githubusercontent.com/media/ddh4r4m/wallpaper-collection/main/collection/thumbnails/patterns/033.jpg"
      },
      "metadata": {
        "added_at": "2025-07-28T22:35:10.306642",
        "file_size": 103540,
        "dimensions": {
          "width": 1080,
          "height": 1427
        }
      }
    },
    {
      "id": "patterns_034",
      "category": "patterns",
      "title": "Patterns Wallpaper 034",
      "tags": [
        "patterns"
      ],
      "urls": {
        "raw": "https://media.githubusercontent.com/media/ddh4r4m/wallpaper-collection/main/collection/wallpapers/patterns/034.jpg",
        "thumb": "https://media.githubusercontent.com/media/ddh4r4m/wallpaper-collection/main/collection/thumbnails/patterns/034.jpg"
      },
      "metadata": {
        "added_at": "2025-07-28T22:35:12.744721",
        "file_size": 224157,
        "dimensions": {
          "width": 1080,
          "height": 1920
        }
      }
    },
    {
      "id": "patterns_035",
      "category": "patterns",
      "title": "Patterns Wallpaper 035",
      "tags": [
        "patterns"
      ],
      "urls": {
        "raw": "https://media.githubusercontent.com/media/ddh4r4m/wallpaper-collection/main/collection/wallpapers/patterns/035.jpg",
        "thumb": "https://media.githubusercontent.com/media/ddh4r4m/wallpaper-collection/main/collection/thumbnails/patterns/035.jpg"
      },
      "metadata": {
        "added_at": "2025-07-28T22:35:14.611044",
        "file_size": 234116,
        "dimensions": {
          "width": 1417,
          "height": 2523
        }
      }
    },
    {
      "id": "patterns_036",
      "category": "patterns",
      "title": "Patterns Wallpaper 036",
      "tags": [
        "patterns"
      ],
      "urls": {
        "raw": "https://media.githubusercontent.com/media/ddh4r4m/wallpaper-collection/main/collection/wallpapers/patterns/036.jpg",
        "thumb": "https://media.githubusercontent.com/media/ddh4r4m/wallpaper-collection/main/collection/thumbnails/patterns/036.jpg"
      },
      "metadata": {
        "added_at": "2025-07-28T22:35:16.632068",
        "file_size": 1145392,
        "dimensions": {
          "width": 4167,
          "height": 6251
        }
      }
    },
    {
      "id": "patterns_037",
      "category": "patterns",
      "title": "Patterns Wallpaper 037",
      "tags": [
        "patterns"
      ],
      "urls": {
        "raw": "https://media.githubusercontent.com/media/ddh4r4m/wallpaper-collection/main/collection/wallpapers/patterns/037.jpg",
        "thumb": "https://media.githubusercontent.com/media/ddh4r4m/wallpaper-collection/main/collection/thumbnails/patterns/037.jpg"
      },
      "metadata": {
        "added_at": "2025-07-28T22:35:18.798906",
        "file_size": 242754,
        "dimensions": {
          "width": 1024,
          "height": 2048
        }
      }
    },
    {
      "id": "patterns_038",
      "category": "patterns",
      "title": "Patterns Wallpaper 038",
      "tags": [
        "patterns"
      ],
      "urls": {
        "raw": "https://media.githubusercontent.com/media/ddh4r4m/wallpaper-collection/main/collection/wallpapers/patterns/038.jpg",
        "thumb": "https://media.githubusercontent.com/media/ddh4r4m/wallpaper-collection/main/collection/thumbnails/patterns/038.jpg"
      },
      "metadata": {
        "added_at": "2025-07-28T22:35:20.858701",
        "file_size": 264091,
        "dimensions": {
          "width": 1080,
          "height": 1920
        }
      }
    },
    {
      "id": "patterns_039",
      "category": "patterns",
      "title": "Patterns Wallpaper 039",
      "tags": [
        "patterns"
      ],
      "urls": {
        "raw": "https://media.githubusercontent.com/media/ddh4r4m/wallpaper-collection/main/collection/wallpapers/patterns/039.jpg",
        "thumb": "https://media.githubusercontent.com/media/ddh4r4m/wallpaper-collection/main/collection/thumbnails/patterns/039.jpg"
      },
      "metadata": {
        "added_at": "2025-07-28T22:35:23.593780",
        "file_size": 987796,
        "dimensions": {
          "width": 1632,
          "height": 2912
        }
      }
    },
    {
      "id": "patterns_040",
      "category": "patterns",
      "title": "Patterns Wallpaper 040",
      "tags": [
        "patterns"
      ],
      "urls": {
        "raw": "https://media.githubusercontent.com/media/ddh4r4m/wallpaper-collection/main/collection/wallpapers/patterns/040.jpg",
        "thumb": "https://media.githubusercontent.com/media/ddh4r4m/wallpaper-collection/main/collection/thumbnails/patterns/040.jpg"
      },
      "metadata": {
        "added_at": "2025-07-28T22:36:29.940482",
        "file_size": 306916,
        "dimensions": {
          "width": 816,
          "height": 1451
        }
      }
    },
    {
      "id": "patterns_041",
      "category": "patterns",
      "title": "Patterns Wallpaper 041",
      "tags": [
        "patterns"
      ],
      "urls": {
        "raw": "https://media.githubusercontent.com/media/ddh4r4m/wallpaper-collection/main/collection/wallpapers/patterns/041.jpg",
        "thumb": "https://media.githubusercontent.com/media/ddh4r4m/wallpaper-collection/main/collection/thumbnails/patterns/041.jpg"
      },
      "metadata": {
        "added_at": "2025-07-28T22:36:32.471822",
        "file_size": 254033,
        "dimensions": {
          "width": 885,
          "height": 1350
        }
      }
    },
    {
      "id": "patterns_042",
      "category": "patterns",
      "title": "Patterns Wallpaper 042",
      "tags": [
        "patterns"
      ],
      "urls": {
        "raw": "https://media.githubusercontent.com/media/ddh4r4m/wallpaper-collection/main/collection/wallpapers/patterns/042.jpg",
        "thumb": "https://media.githubusercontent.com/media/ddh4r4m/wallpaper-collection/main/collection/thumbnails/patterns/042.jpg"
      },
      "metadata": {
        "added_at": "2025-07-28T22:36:34.585740",
        "file_size": 366904,
        "dimensions": {
          "width": 1080,
          "height": 1920
        }
      }
    },
    {
      "id": "patterns_043",
      "category": "patterns",
      "title": "Patterns Wallpaper 043",
      "tags": [
        "patterns"
      ],
      "urls": {
        "raw": "https://media.githubusercontent.com/media/ddh4r4m/wallpaper-collection/main/collection/wallpapers/patterns/043.jpg",
        "thumb": "https://media.githubusercontent.com/media/ddh4r4m/wallpaper-collection/main/collection/thumbnails/patterns/043.jpg"
      },
      "metadata": {
        "added_at": "2025-07-28T22:36:36.289174",
        "file_size": 410019,
        "dimensions": {
          "width": 2411,
          "height": 4381
        }
      }
    },
    {
      "id": "patterns_044",
      "category": "patterns",
      "title": "Patterns Wallpaper 044",
      "tags": [
        "patterns"
      ],
      "urls": {
        "raw": "https://media.githubusercontent.com/media/ddh4r4m/wallpaper-collection/main/collection/wallpapers/patterns/044.jpg",
        "thumb": "https://media.githubusercontent.com/media/ddh4r4m/wallpaper-collection/main/collection/thumbnails/patterns/044.jpg"
      },
      "metadata": {
        "added_at": "2025-07-28T22:36:38.537859",
        "file_size": 149926,
        "dimensions": {
          "width": 800,
          "height": 1200
        }
      }
    },
    {
      "id": "patterns_045",
      "category": "patterns",
      "title": "Patterns Wallpaper 045",
      "tags": [
        "patterns"
      ],
      "urls": {
        "raw": "https://media.githubusercontent.com/media/ddh4r4m/wallpaper-collection/main/collection/wallpapers/patterns/045.jpg",
        "thumb": "https://media.githubusercontent.com/media/ddh4r4m/wallpaper-collection/main/collection/thumbnails/patterns/045.jpg"
      },
      "metadata": {
        "added_at": "2025-07-28T22:36:40.112122",
        "file_size": 496215,
        "dimensions": {
          "width": 994,
          "height": 1767
        }
      }
    }
  ]
}