{
  "meta": {
    "version": "1.0",
    "generated_at": "2025-07-28T22:48:38.208699",
    "category": "patterns",
    "page": 4,
    "per_page": 15,
    "total_pages": 6,
    "total_count": 81,
    "count_on_page": 15,
    "has_next": true,
    "has_prev": true,
    "next_page_url": "/api/v1/patterns/pages/5.json",
    "prev_page_url": "/api/v1/patterns/pages/3.json"
  },
  "data": [
    {
      "id": "patterns_046",
      "category": "patterns",
      "title": "Patterns Wallpaper 046",
      "tags": [
        "patterns"
      ],
      "urls": {
        "raw": "https://media.githubusercontent.com/media/ddh4r4m/wallpaper-collection/main/collection/wallpapers/patterns/046.jpg",
        "thumb": "https://media.githubusercontent.com/media/ddh4r4m/wallpaper-collection/main/collection/thumbnails/patterns/046.jpg"
      },
      "metadata": {
        "added_at": "2025-07-28T22:36:41.723780",
        "file_size": 561411,
        "dimensions": {
          "width": 1080,
          "height": 1920
        }
      }
    },
    {
      "id": "patterns_047",
      "category": "patterns",
      "title": "Patterns Wallpaper 047",
      "tags": [
        "patterns"
      ],
      "urls": {
        "raw": "https://media.githubusercontent.com/media/ddh4r4m/wallpaper-collection/main/collection/wallpapers/patterns/047.jpg",
        "thumb": "https://media.githubusercontent.com/media/ddh4r4m/wallpaper-collection/main/collection/thumbnails/patterns/047.jpg"
      },
      "metadata": {
        "added_at": "2025-07-28T22:36:43.361249",
        "file_size": 895422,
        "dimensions": {
          "width": 2048,
          "height": 4096
        }
      }
    },
    {
      "id": "patterns_048",
      "category": "patterns",
      "title": "Patterns Wallpaper 048",
      "tags": [
        "patterns"
      ],
      "urls": {
        "raw": "https://media.githubusercontent.com/media/ddh4r4m/wallpaper-collection/main/collection/wallpapers/patterns/048.jpg",
        "thumb": "https://media.githubusercontent.com/media/ddh4r4m/wallpaper-collection/main/collection/thumbnails/patterns/048.jpg"
      },
      "metadata": {
        "added_at": "2025-07-28T22:36:45.030929",
        "file_size": 1350845,
        "dimensions": {
          "width": 2296,
          "height": 4096
        }
      }
    },
    {
      "id": "patterns_049",
      "category": "patterns",
      "title": "Patterns Wallpaper 049",
      "tags": [
        "patterns"
      ],
      "urls": {
        "raw": "https://media.githubusercontent.com/media/ddh4r4m/wallpaper-collection/main/collection/wallpapers/patterns/049.jpg",
        "thumb": "https://media.githubusercontent.com/media/ddh4r4m/wallpaper-collection/main/collection/thumbnails/patterns/049.jpg"
      },
      "metadata": {
        "added_at": "2025-07-28T22:36:47.019938",
        "file_size": 258010,
        "dimensions": {
          "width": 816,
          "height": 1451
        }
      }
    },
    {
      "id": "patterns_050",
      "category": "patterns",
      "title": "Patterns Wallpaper 050",
      "tags": [
        "patterns"
      ],
      "urls": {
        "raw": "https://media.githubusercontent.com/media/ddh4r4m/wallpaper-collection/main/collection/wallpapers/patterns/050.jpg",
        "thumb": "https://media.githubusercontent.com/media/ddh4r4m/wallpaper-collection/main/collection/thumbnails/patterns/050.jpg"
      },
      "metadata": {
        "added_at": "2025-07-28T22:36:48.599300",
        "file_size": 294329,
        "dimensions": {
          "width": 816,
          "height": 1455
        }
      }
    },
    {
      "id": "patterns_051",
      "category": "patterns",
      "title": "Patterns Wallpaper 051",
      "tags": [
        "patterns"
      ],
      "urls": {
        "raw": "https://media.githubusercontent.com/media/ddh4r4m/wallpaper-collection/main/collection/wallpapers/patterns/051.jpg",
        "thumb": "https://media.githubusercontent.com/media/ddh4r4m/wallpaper-collection/main/collection/thumbnails/patterns/051.jpg"
      },
      "metadata": {
        "added_at": "2025-07-28T22:36:50.881756",
        "file_size": 509766,
        "dimensions": {
          "width": 960,
          "height": 1878
        }
      }
    },
    {
      "id": "patterns_052",
      "category": "patterns",
      "title": "Patterns Wallpaper 052",
      "tags": [
        "patterns"
      ],
      "urls": {
        "raw": "https://media.githubusercontent.com/media/ddh4r4m/wallpaper-collection/main/collection/wallpapers/patterns/052.jpg",
        "thumb": "https://media.githubusercontent.com/media/ddh4r4m/wallpaper-collection/main/collection/thumbnails/patterns/052.jpg"
      },
      "metadata": {
        "added_at": "2025-07-28T22:36:52.472935",
        "file_size": 328428,
        "dimensions": {
          "width": 1079,
          "height": 2025
        }
      }
    },
    {
      "id": "patterns_053",
      "category": "patterns",
      "title": "Patterns Wallpaper 053",
      "tags": [
        "patterns"
      ],
      "urls": {
        "raw": "https://media.githubusercontent.com/media/ddh4r4m/wallpaper-collection/main/collection/wallpapers/patterns/053.jpg",
        "thumb": "https://media.githubusercontent.com/media/ddh4r4m/wallpaper-collection/main/collection/thumbnails/patterns/053.jpg"
      },
      "metadata": {
        "added_at": "2025-07-28T22:36:54.059991",
        "file_size": 726028,
        "dimensions": {
          "width": 1620,
          "height": 2880
        }
      }
    },
    {
      "id": "patterns_054",
      "category": "patterns",
      "title": "Patterns Wallpaper 054",
      "tags": [
        "patterns"
      ],
      "urls": {
        "raw": "https://media.githubusercontent.com/media/ddh4r4m/wallpaper-collection/main/collection/wallpapers/patterns/054.jpg",
        "thumb": "https://media.githubusercontent.com/media/ddh4r4m/wallpaper-collection/main/collection/thumbnails/patterns/054.jpg"
      },
      "metadata": {
        "added_at": "2025-07-28T22:36:56.189194",
        "file_size": 384728,
        "dimensions": {
          "width": 1080,
          "height": 1920
        }
      }
    },
    {
      "id": "patterns_055",
      "category": "patterns",
      "title": "Patterns Wallpaper 055",
      "tags": [
        "patterns"
      ],
      "urls": {
        "raw": "https://media.githubusercontent.com/media/ddh4r4m/wallpaper-collection/main/collection/wallpapers/patterns/055.jpg",
        "thumb": "https://media.githubusercontent.com/media/ddh4r4m/wallpaper-collection/main/collection/thumbnails/patterns/055.jpg"
      },
      "metadata": {
        "added_at": "2025-07-28T22:36:59.602285",
        "file_size": 425760,
        "dimensions": {
          "width": 1080,
          "height": 1920
        }
      }
    },
    {
      "id": "patterns_056",
      "category": "patterns",
      "title": "Patterns Wallpaper 056",
      "tags": [
        "patterns"
      ],
      "urls": {
        "raw": "https://media.githubusercontent.com/media/ddh4r4m/wallpaper-collection/main/collection/wallpapers/patterns/056.jpg",
        "thumb": "https://media.githubusercontent.com/media/ddh4r4m/wallpaper-collection/main/collection/thumbnails/patterns/056.jpg"
      },
      "metadata": {
        "added_at": "2025-07-28T22:37:01.627204",
        "file_size": 342875,
        "dimensions": {
          "width": 1200,
          "height": 2133
        }
      }
    },
    {
      "id": "patterns_057",
      "category": "patterns",
      "title": "Patterns Wallpaper 057",
      "tags": [
        "patterns"
      ],
      "urls": {
        "raw": "https://media.githubusercontent.com/media/ddh4r4m/wallpaper-collection/main/collection/wallpapers/patterns/057.jpg",
        "thumb": "https://media.githubusercontent.com/media/ddh4r4m/wallpaper-collection/main/collection/thumbnails/patterns/057.jpg"
      },
      "metadata": {
        "added_at": "2025-07-28T22:37:03.984991",
        "file_size": 410142,
        "dimensions": {
          "width": 1080,
          "height": 1920
        }
      }
    },
    {
      "id": "patterns_058",
      "category": "patterns",
      "title": "Patterns Wallpaper 058",
      "tags": [
        "patterns"
      ],
      "urls": {
        "raw": "https://media.githubusercontent.com/media/ddh4r4m/wallpaper-collection/main/collection/wallpapers/patterns/058.jpg",
        "thumb": "https://media.githubusercontent.com/media/ddh4r4m/wallpaper-collection/main/collection/thumbnails/patterns/058.jpg"
      },
      "metadata": {
        "added_at": "2025-07-28T22:37:06.293052",
        "file_size": 448595,
        "dimensions": {
          "width": 1080,
          "height": 1364
        }
      }
    },
    {
      "id": "patterns_059",
      "category": "patterns",
      "title": "Patterns Wallpaper 059",
      "tags": [
        "patterns"
      ],
      "urls": {
        "raw": "https://media.githubusercontent.com/media/ddh4r4m/wallpaper-collection/main/collection/wallpapers/patterns/059.jpg",
        "thumb": "https://media.githubusercontent.com/media/ddh4r4m/wallpaper-collection/main/collection/thumbnails/patterns/059.jpg"
      },
      "metadata": {
        "added_at": "2025-07-28T22:37:07.884458",
        "file_size": 248357,
        "dimensions": {
          "width": 873,
          "height": 1583
        }
      }
    },
    {
      "id": "patterns_060",
      "category": "patterns",
      "title": "Patterns Wallpaper 060",
      "tags": [
        "patterns"
      ],
      "urls": {
        "raw": "https://media.githubusercontent.com/media/ddh4r4m/wallpaper-collection/main/collection/wallpapers/patterns/060.jpg",
        "thumb": "https://media.githubusercontent.com/media/ddh4r4m/wallpaper-collection/main/collection/thumbnails/patterns/060.jpg"
      },
      "metadata": {
        "added_at": "2025-07-28T22:37:09.731524",
        "file_size": 129620,
        "dimensions": {
          "width": 816,
          "height": 1440
        }
      }
    }
  ]
}