{
  "meta": {
    "version": "1.0",
    "generated_at": "2025-07-28T22:48:38.208699",
    "category": "patterns",
    "page": 5,
    "per_page": 15,
    "total_pages": 6,
    "total_count": 81,
    "count_on_page": 15,
    "has_next": true,
    "has_prev": true,
    "next_page_url": "/api/v1/patterns/pages/6.json",
    "prev_page_url": "/api/v1/patterns/pages/4.json"
  },
  "data": [
    {
      "id": "patterns_061",
      "category": "patterns",
      "title": "Patterns Wallpaper 061",
      "tags": [
        "patterns"
      ],
      "urls": {
        "raw": "https://media.githubusercontent.com/media/ddh4r4m/wallpaper-collection/main/collection/wallpapers/patterns/061.jpg",
        "thumb": "https://media.githubusercontent.com/media/ddh4r4m/wallpaper-collection/main/collection/thumbnails/patterns/061.jpg"
      },
      "metadata": {
        "added_at": "2025-07-28T22:37:12.286176",
        "file_size": 252082,
        "dimensions": {
          "width": 960,
          "height": 1280
        }
      }
    },
    {
      "id": "patterns_062",
      "category": "patterns",
      "title": "Patterns Wallpaper 062",
      "tags": [
        "patterns"
      ],
      "urls": {
        "raw": "https://media.githubusercontent.com/media/ddh4r4m/wallpaper-collection/main/collection/wallpapers/patterns/062.jpg",
        "thumb": "https://media.githubusercontent.com/media/ddh4r4m/wallpaper-collection/main/collection/thumbnails/patterns/062.jpg"
      },
      "metadata": {
        "added_at": "2025-07-28T22:37:14.252881",
        "file_size": 327881,
        "dimensions": {
          "width": 816,
          "height": 1451
        }
      }
    },
    {
      "id": "patterns_063",
      "category": "patterns",
      "title": "Patterns Wallpaper 063",
      "tags": [
        "patterns"
      ],
      "urls": {
        "raw": "https://media.githubusercontent.com/media/ddh4r4m/wallpaper-collection/main/collection/wallpapers/patterns/063.jpg",
        "thumb": "https://media.githubusercontent.com/media/ddh4r4m/wallpaper-collection/main/collection/thumbnails/patterns/063.jpg"
      },
      "metadata": {
        "added_at": "2025-07-28T22:37:16.562459",
        "file_size": 222088,
        "dimensions": {
          "width": 1080,
          "height": 1920
        }
      }
    },
    {
      "id": "patterns_064",
      "category": "patterns",
      "title": "Patterns Wallpaper 064",
      "tags": [
        "patterns"
      ],
      "urls": {
        "raw": "https://media.githubusercontent.com/media/ddh4r4m/wallpaper-collection/main/collection/wallpapers/patterns/064.jpg",
        "thumb": "https://media.githubusercontent.com/media/ddh4r4m/wallpaper-collection/main/collection/thumbnails/patterns/064.jpg"
      },
      "metadata": {
        "added_at": "2025-07-28T22:37:18.177345",
        "file_size": 455388,
        "dimensions": {
          "width": 1080,
          "height": 1883
        }
      }
    },
    {
      "id": "patterns_065",
      "category": "patterns",
      "title": "Patterns Wallpaper 065",
      "tags": [
        "patterns"
      ],
      "urls": {
        "raw": "https://media.githubusercontent.com/media/ddh4r4m/wallpaper-collection/main/collection/wallpapers/patterns/065.jpg",
        "thumb": "https://media.githubusercontent.com/media/ddh4r4m/wallpaper-collection/main/collection/thumbnails/patterns/065.jpg"
      },
      "metadata": {
        "added_at": "2025-07-28T22:37:20.138197",
        "file_size": 236615,
        "dimensions": {
          "width": 1080,
          "height": 1920
        }
      }
    },
    {
      "id": "patterns_066",
      "category": "patterns",
      "title": "Patterns Wallpaper 066",
      "tags": [
        "patterns"
      ],
      "urls": {
        "raw": "https://media.githubusercontent.com/media/ddh4r4m/wallpaper-collection/main/collection/wallpapers/patterns/066.jpg",
        "thumb": "https://media.githubusercontent.com/media/ddh4r4m/wallpaper-collection/main/collection/thumbnails/patterns/066.jpg"
      },
      "metadata": {
        "added_at": "2025-07-28T22:37:22.502427",
        "file_size": 383346,
        "dimensions": {
          "width": 1080,
          "height": 1920
        }
      }
    },
    {
      "id": "patterns_067",
      "category": "patterns",
      "title": "Patterns Wallpaper 067",
      "tags": [
        "patterns"
      ],
      "urls": {
        "raw": "https://media.githubusercontent.com/media/ddh4r4m/wallpaper-collection/main/collection/wallpapers/patterns/067.jpg",
        "thumb": "https://media.githubusercontent.com/media/ddh4r4m/wallpaper-collection/main/collection/thumbnails/patterns/067.jpg"
      },
      "metadata": {
        "added_at": "2025-07-28T22:37:24.579689",
        "file_size": 356048,
        "dimensions": {
          "width": 1080,
          "height": 1920
        }
      }
    },
    {
      "id": "patterns_068",
      "category": "patterns",
      "title": "Patterns Wallpaper 068",
      "tags": [
        "patterns"
      ],
      "urls": {
        "raw": "https://media.githubusercontent.com/media/ddh4r4m/wallpaper-collection/main/collection/wallpapers/patterns/068.jpg",
        "thumb": "https://media.githubusercontent.com/media/ddh4r4m/wallpaper-collection/main/collection/thumbnails/patterns/068.jpg"
      },
      "metadata": {
        "added_at": "2025-07-28T22:37:31.817944",
        "file_size": 375352,
        "dimensions": {
          "width": 1080,
          "height": 1920
        }
      }
    },
    {
      "id": "patterns_069",
      "category": "patterns",
      "title": "Patterns Wallpaper 069",
      "tags": [
        "patterns"
      ],
      "urls": {
        "raw": "https://media.githubusercontent.com/media/ddh4r4m/wallpaper-collection/main/collection/wallpapers/patterns/069.jpg",
        "thumb": "https://media.githubusercontent.com/media/ddh4r4m/wallpaper-collection/main/collection/thumbnails/patterns/069.jpg"
      },
      "metadata": {
        "added_at": "2025-07-28T22:37:34.960097",
        "file_size": 945771,
        "dimensions": {
          "width": 1536,
          "height": 3072
        }
      }
    },
    {
      "id": "patterns_070",
      "category": "patterns",
      "title": "Patterns Wallpaper 070",
      "tags": [
        "patterns"
      ],
      "urls": {
        "raw": "https://media.githubusercontent.com/media/ddh4r4m/wallpaper-collection/main/collection/wallpapers/patterns/070.jpg",
        "thumb": "https://media.githubusercontent.com/media/ddh4r4m/wallpaper-collection/main/collection/thumbnails/patterns/070.jpg"
      },
      "metadata": {
        "added_at": "2025-07-28T22:37:37.323127",
        "file_size": 320801,
        "dimensions": {
          "width": 896,
          "height": 1344
        }
      }
    },
    {
      "id": "patterns_071",
      "category": "patterns",
      "title": "Patterns Wallpaper 071",
      "tags": [
        "patterns"
      ],
      "urls": {
        "raw": "https://media.githubusercontent.com/media/ddh4r4m/wallpaper-collection/main/collection/wallpapers/patterns/071.jpg",
        "thumb": "https://media.githubusercontent.com/media/ddh4r4m/wallpaper-collection/main/collection/thumbnails/patterns/071.jpg"
      },
      "metadata": {
        "added_at": "2025-07-28T22:37:39.333295",
        "file_size": 395499,
        "dimensions": {
          "width": 1080,
          "height": 1920
        }
      }
    },
    {
      "id": "patterns_072",
      "category": "patterns",
      "title": "Patterns Wallpaper 072",
      "tags": [
        "patterns"
      ],
      "urls": {
        "raw": "https://media.githubusercontent.com/media/ddh4r4m/wallpaper-collection/main/collection/wallpapers/patterns/072.jpg",
        "thumb": "https://media.githubusercontent.com/media/ddh4r4m/wallpaper-collection/main/collection/thumbnails/patterns/072.jpg"
      },
      "metadata": {
        "added_at": "2025-07-28T22:37:42.148246",
        "file_size": 199852,
        "dimensions": {
          "width": 816,
          "height": 1440
        }
      }
    },
    {
      "id": "patterns_073",
      "category": "patterns",
      "title": "Patterns Wallpaper 073",
      "tags": [
        "patterns"
      ],
      "urls": {
        "raw": "https://media.githubusercontent.com/media/ddh4r4m/wallpaper-collection/main/collection/wallpapers/patterns/073.jpg",
        "thumb": "https://media.githubusercontent.com/media/ddh4r4m/wallpaper-collection/main/collection/thumbnails/patterns/073.jpg"
      },
      "metadata": {
        "added_at": "2025-07-28T22:37:44.223001",
        "file_size": 374870,
        "dimensions": {
          "width": 896,
          "height": 1344
        }
      }
    },
    {
      "id": "patterns_074",
      "category": "patterns",
      "title": "Patterns Wallpaper 074",
      "tags": [
        "patterns"
      ],
      "urls": {
        "raw": "https://media.githubusercontent.com/media/ddh4r4m/wallpaper-collection/main/collection/wallpapers/patterns/074.jpg",
        "thumb": "https://media.githubusercontent.com/media/ddh4r4m/wallpaper-collection/main/collection/thumbnails/patterns/074.jpg"
      },
      "metadata": {
        "added_at": "2025-07-28T22:37:46.656557",
        "file_size": 134759,
        "dimensions": {
          "width": 800,
          "height": 1200
        }
      }
    },
    {
      "id": "patterns_075",
      "category": "patterns",
      "title": "Patterns Wallpaper 075",
      "tags": [
        "patterns"
      ],
      "urls": {
        "raw": "https://media.githubusercontent.com/media/ddh4r4m/wallpaper-collection/main/collection/wallpapers/patterns/075.jpg",
        "thumb": "https://media.githubusercontent.com/media/ddh4r4m/wallpaper-collection/main/collection/thumbnails/patterns/075.jpg"
      },
      "metadata": {
        "added_at": "2025-07-28T22:37:48.476826",
        "file_size": 329960,
        "dimensions": {
          "width": 1080,
          "height": 1920
        }
      }
    }
  ]
}