{
  "meta": {
    "version": "1.0",
    "generated_at": "2025-07-28T23:12:02.393375",
    "category": "gaming",
    "page": 1,
    "per_page": 15,
    "total_pages": 6,
    "total_count": 84,
    "count_on_page": 15,
    "has_next": true,
    "has_prev": false,
    "next_page_url": "/api/v1/gaming/pages/2.json",
    "prev_page_url": null
  },
  "data": [
    {
      "id": "gaming_001",
      "category": "gaming",
      "title": "Gaming Wallpaper 001",
      "tags": [
        "gaming",
        "wallpaper",
        "hd",
        "mobile"
      ],
      "urls": {
        "raw": "https://media.githubusercontent.com/media/ddh4r4m/wallpaper-collection/main/collection/wallpapers/gaming/001.jpg",
        "thumb": "https://media.githubusercontent.com/media/ddh4r4m/wallpaper-collection/main/collection/thumbnails/gaming/001.jpg"
      },
      "metadata": {
        "dimensions": {
          "width": 1080,
          "height": 1920
        },
        "file_size": 367817,
        "format": "JPEG",
        "added_at": "2025-07-17T00:03:40.484613",
        "hash": "aa8b9e6ea5950f327b74fd0803083e7d",
        "source": "migrated"
      }
    },
    {
      "id": "gaming_002",
      "category": "gaming",
      "title": "Gaming Wallpaper 002",
      "tags": [
        "gaming",
        "wallpaper",
        "hd",
        "mobile"
      ],
      "urls": {
        "raw": "https://media.githubusercontent.com/media/ddh4r4m/wallpaper-collection/main/collection/wallpapers/gaming/002.jpg",
        "thumb": "https://media.githubusercontent.com/media/ddh4r4m/wallpaper-collection/main/collection/thumbnails/gaming/002.jpg"
      },
      "metadata": {
        "dimensions": {
          "width": 1080,
          "height": 1920
        },
        "file_size": 295008,
        "format": "JPEG",
        "added_at": "2025-07-17T00:03:40.729302",
        "hash": "a038d153b3124eebba41e8ac626b4ede",
        "source": "migrated"
      }
    },
    {
      "id": "gaming_003",
      "category": "gaming",
      "title": "Gaming Wallpaper 003",
      "tags": [
        "gaming",
        "wallpaper",
        "hd",
        "mobile"
      ],
      "urls": {
        "raw": "https://media.githubusercontent.com/media/ddh4r4m/wallpaper-collection/main/collection/wallpapers/gaming/003.jpg",
        "thumb": "https://media.githubusercontent.com/media/ddh4r4m/wallpaper-collection/main/collection/thumbnails/gaming/003.jpg"
      },
      "metadata": {
        "dimensions": {
          "width": 1080,
          "height": 1920
        },
        "file_size": 216972,
        "format": "JPEG",
        "added_at": "2025-07-17T00:03:41.012928",
        "hash": "1cb38b2a1cd52ab3ac1c679c624696b9",
        "source": "migrated"
      }
    },
    {
      "id": "gaming_004",
      "category": "gaming",
      "title": "Gaming Wallpaper 004",
      "tags": [
        "gaming",
        "wallpaper",
        "hd",
        "mobile"
      ],
      "urls": {
        "raw": "https://media.githubusercontent.com/media/ddh4r4m/wallpaper-collection/main/collection/wallpapers/gaming/004.jpg",
        "thumb": "https://media.githubusercontent.com/media/ddh4r4m/wallpaper-collection/main/collection/thumbnails/gaming/004.jpg"
      },
      "metadata": {
        "dimensions": {
          "width": 1080,
          "height": 1920
        },
        "file_size": 257938,
        "format": "JPEG",
        "added_at": "2025-07-17T00:03:41.167756",
        "hash": "8bcc15e227cd4bc293a834d97240bfd8",
        "source": "migrated"
      }
    },
    {
      "id": "gaming_005",
      "category": "gaming",
      "title": "Gaming Wallpaper 005",
      "tags": [
        "gaming",
        "wallpaper",
        "hd",
        "mobile"
      ],
      "urls": {
        "raw": "https://media.githubusercontent.com/media/ddh4r4m/wallpaper-collection/main/collection/wallpapers/gaming/005.jpg",
        "thumb": "https://media.githubusercontent.com/media/ddh4r4m/wallpaper-collection/main/collection/thumbnails/gaming/005.jpg"
      },
      "metadata": {
        "dimensions": {
          "width": 1080,
          "height": 1920
        },
        "file_size": 323079,
        "format": "JPEG",
        "added_at": "2025-07-17T00:03:41.443412",
        "hash": "3c104c307968ca996a44dcb8953c90f0",
        "source": "migrated"
      }
    },
    {
      "id": "gaming_006",
      "category": "gaming",
      "title": "Gaming Wallpaper 006",
      "tags": [
        "gaming",
        "wallpaper",
        "hd",
        "mobile"
      ],
      "urls": {
        "raw": "https://media.githubusercontent.com/media/ddh4r4m/wallpaper-collection/main/collection/wallpapers/gaming/006.jpg",
        "thumb": "https://media.githubusercontent.com/media/ddh4r4m/wallpaper-collection/main/collection/thumbnails/gaming/006.jpg"
      },
      "metadata": {
        "dimensions": {
          "width": 1080,
          "height": 1920
        },
        "file_size": 240977,
        "format": "JPEG",
        "added_at": "2025-07-17T00:03:41.710744",
        "hash": "4d4cea3d4dc64dfde289c437a82743a5",
        "source": "migrated"
      }
    },
    {
      "id": "gaming_007",
      "category": "gaming",
      "title": "Gaming Wallpaper 007",
      "tags": [
        "gaming",
        "wallpaper",
        "hd",
        "mobile"
      ],
      "urls": {
        "raw": "https://media.githubusercontent.com/media/ddh4r4m/wallpaper-collection/main/collection/wallpapers/gaming/007.jpg",
        "thumb": "https://media.githubusercontent.com/media/ddh4r4m/wallpaper-collection/main/collection/thumbnails/gaming/007.jpg"
      },
      "metadata": {
        "dimensions": {
          "width": 1080,
          "height": 1920
        },
        "file_size": 461050,
        "format": "JPEG",
        "added_at": "2025-07-17T00:03:41.881355",
        "hash": "04dce92faad5b3f4827ee8a50a1f5f58",
        "source": "migrated"
      }
    },
    {
      "id": "gaming_008",
      "category": "gaming",
      "title": "Gaming Wallpaper 008",
      "tags": [
        "gaming",
        "wallpaper",
        "hd",
        "mobile"
      ],
      "urls": {
        "raw": "https://media.githubusercontent.com/media/ddh4r4m/wallpaper-collection/main/collection/wallpapers/gaming/008.jpg",
        "thumb": "https://media.githubusercontent.com/media/ddh4r4m/wallpaper-collection/main/collection/thumbnails/gaming/008.jpg"
      },
      "metadata": {
        "dimensions": {
          "width": 1080,
          "height": 1920
        },
        "file_size": 161930,
        "format": "JPEG",
        "added_at": "2025-07-17T00:03:42.121135",
        "hash": "ae46cc89fc8400507c02ce08e049ff4e",
        "source": "migrated"
      }
    },
    {
      "id": "gaming_009",
      "category": "gaming",
      "title": "Gaming Wallpaper 009",
      "tags": [
        "gaming",
        "wallpaper",
        "hd",
        "mobile"
      ],
      "urls": {
        "raw": "https://media.githubusercontent.com/media/ddh4r4m/wallpaper-collection/main/collection/wallpapers/gaming/009.jpg",
        "thumb": "https://media.githubusercontent.com/media/ddh4r4m/wallpaper-collection/main/collection/thumbnails/gaming/009.jpg"
      },
      "metadata": {
        "dimensions": {
          "width": 1080,
          "height": 1920
        },
        "file_size": 245937,
        "format": "JPEG",
        "added_at": "2025-07-17T00:03:42.294088",
        "hash": "5e682b258f14abaa6f9e3e9ccf3752cb",
        "source": "migrated"
      }
    },
    {
      "id": "gaming_010",
      "category": "gaming",
      "title": "Gaming Wallpaper 010",
      "tags": [
        "gaming",
        "wallpaper",
        "hd",
        "mobile"
      ],
      "urls": {
        "raw": "https://media.githubusercontent.com/media/ddh4r4m/wallpaper-collection/main/collection/wallpapers/gaming/010.jpg",
        "thumb": "https://media.githubusercontent.com/media/ddh4r4m/wallpaper-collection/main/collection/thumbnails/gaming/010.jpg"
      },
      "metadata": {
        "dimensions": {
          "width": 1080,
          "height": 1920
        },
        "file_size": 87132,
        "format": "JPEG",
        "added_at": "2025-07-17T00:03:42.540767",
        "hash": "6e9671fe758be87a7e38b61ae9ca3000",
        "source": "migrated"
      }
    },
    {
      "id": "gaming_011",
      "category": "gaming",
      "title": "Gaming Wallpaper 011",
      "tags": [
        "gaming",
        "wallpaper",
        "hd",
        "mobile"
      ],
      "urls": {
        "raw": "https://media.githubusercontent.com/media/ddh4r4m/wallpaper-collection/main/collection/wallpapers/gaming/011.jpg",
        "thumb": "https://media.githubusercontent.com/media/ddh4r4m/wallpaper-collection/main/collection/thumbnails/gaming/011.jpg"
      },
      "metadata": {
        "dimensions": {
          "width": 1080,
          "height": 1920
        },
        "file_size": 33613,
        "format": "JPEG",
        "added_at": "2025-07-17T00:03:42.756167",
        "hash": "0959f93a810d06ee9c4fc2625d6db66a",
        "source": "migrated"
      }
    },
    {
      "id": "gaming_012",
      "category": "gaming",
      "title": "Gaming Wallpaper 012",
      "tags": [
        "gaming",
        "wallpaper",
        "hd",
        "mobile"
      ],
      "urls": {
        "raw": "https://media.githubusercontent.com/media/ddh4r4m/wallpaper-collection/main/collection/wallpapers/gaming/012.jpg",
        "thumb": "https://media.githubusercontent.com/media/ddh4r4m/wallpaper-collection/main/collection/thumbnails/gaming/012.jpg"
      },
      "metadata": {
        "dimensions": {
          "width": 1080,
          "height": 1920
        },
        "file_size": 325880,
        "format": "JPEG",
        "added_at": "2025-07-17T00:03:42.950330",
        "hash": "01d0822a0dac052569c6bda8e5e3b381",
        "source": "migrated"
      }
    },
    {
      "id": "gaming_013",
      "category": "gaming",
      "title": "Gaming Wallpaper 013",
      "tags": [
        "gaming",
        "wallpaper",
        "hd",
        "mobile"
      ],
      "urls": {
        "raw": "https://media.githubusercontent.com/media/ddh4r4m/wallpaper-collection/main/collection/wallpapers/gaming/013.jpg",
        "thumb": "https://media.githubusercontent.com/media/ddh4r4m/wallpaper-collection/main/collection/thumbnails/gaming/013.jpg"
      },
      "metadata": {
        "dimensions": {
          "width": 1080,
          "height": 1920
        },
        "file_size": 194464,
        "format": "JPEG",
        "added_at": "2025-07-17T00:03:43.106317",
        "hash": "57bd0c63eca4b44b4c84a3ef183c5098",
        "source": "migrated"
      }
    },
    {
      "id": "gaming_014",
      "category": "gaming",
      "title": "Gaming Wallpaper 014",
      "tags": [
        "gaming",
        "wallpaper",
        "hd",
        "mobile"
      ],
      "urls": {
        "raw": "https://media.githubusercontent.com/media/ddh4r4m/wallpaper-collection/main/collection/wallpapers/gaming/014.jpg",
        "thumb": "https://media.githubusercontent.com/media/ddh4r4m/wallpaper-collection/main/collection/thumbnails/gaming/014.jpg"
      },
      "metadata": {
        "dimensions": {
          "width": 1080,
          "height": 1920
        },
        "file_size": 354034,
        "format": "JPEG",
        "added_at": "2025-07-17T00:03:43.286464",
        "hash": "873acee421e27de02ef0b39a2b670de6",
        "source": "migrated"
      }
    },
    {
      "id": "gaming_015",
      "category": "gaming",
      "title": "Gaming Wallpaper 015",
      "tags": [
        "gaming",
        "wallpaper",
        "hd",
        "mobile"
      ],
      "urls": {
        "raw": "https://media.githubusercontent.com/media/ddh4r4m/wallpaper-collection/main/collection/wallpapers/gaming/015.jpg",
        "thumb": "https://media.githubusercontent.com/media/ddh4r4m/wallpaper-collection/main/collection/thumbnails/gaming/015.jpg"
      },
      "metadata": {
        "dimensions": {
          "width": 1080,
          "height": 1920
        },
        "file_size": 207182,
        "format": "JPEG",
        "added_at": "2025-07-17T00:03:43.520803",
        "hash": "fca41431f5a7753eee7300f50b06a9be",
        "source": "migrated"
      }
    }
  ]
}