{
  "meta": {
    "version": "1.0",
    "generated_at": "2025-07-28T22:38:03.579947",
    "category": "gaming",
    "page": 2,
    "per_page": 15,
    "total_pages": 6,
    "total_count": 84,
    "count_on_page": 15,
    "has_next": true,
    "has_prev": true,
    "next_page_url": "/api/v1/gaming/pages/3.json",
    "prev_page_url": "/api/v1/gaming/pages/1.json"
  },
  "data": [
    {
      "id": "gaming_016",
      "category": "gaming",
      "title": "Gaming Wallpaper 016",
      "tags": [
        "gaming",
        "wallpaper",
        "hd",
        "mobile"
      ],
      "urls": {
        "raw": "https://media.githubusercontent.com/media/ddh4r4m/wallpaper-collection/main/collection/wallpapers/gaming/016.jpg",
        "thumb": "https://media.githubusercontent.com/media/ddh4r4m/wallpaper-collection/main/collection/thumbnails/gaming/016.jpg"
      },
      "metadata": {
        "dimensions": {
          "width": 1080,
          "height": 1920
        },
        "file_size": 113139,
        "format": "JPEG",
        "added_at": "2025-07-17T00:03:43.763520",
        "hash": "c4977bd6dca9623983fb92eef77401ae",
        "source": "migrated"
      }
    },
    {
      "id": "gaming_017",
      "category": "gaming",
      "title": "Gaming Wallpaper 017",
      "tags": [
        "gaming",
        "wallpaper",
        "hd",
        "mobile"
      ],
      "urls": {
        "raw": "https://media.githubusercontent.com/media/ddh4r4m/wallpaper-collection/main/collection/wallpapers/gaming/017.jpg",
        "thumb": "https://media.githubusercontent.com/media/ddh4r4m/wallpaper-collection/main/collection/thumbnails/gaming/017.jpg"
      },
      "metadata": {
        "dimensions": {
          "width": 1080,
          "height": 1920
        },
        "file_size": 370417,
        "format": "JPEG",
        "added_at": "2025-07-17T00:03:43.949212",
        "hash": "99326e68160be84f3632927f310e1764",
        "source": "migrated"
      }
    },
    {
      "id": "gaming_018",
      "category": "gaming",
      "title": "Gaming Wallpaper 018",
      "tags": [
        "gaming",
        "wallpaper",
        "hd",
        "mobile"
      ],
      "urls": {
        "raw": "https://media.githubusercontent.com/media/ddh4r4m/wallpaper-collection/main/collection/wallpapers/gaming/018.jpg",
        "thumb": "https://media.githubusercontent.com/media/ddh4r4m/wallpaper-collection/main/collection/thumbnails/gaming/018.jpg"
      },
      "metadata": {
        "dimensions": {
          "width": 1080,
          "height": 1920
        },
        "file_size": 137619,
        "format": "JPEG",
        "added_at": "2025-07-17T00:03:44.201497",
        "hash": "0b0968e47c35b94dd5b0f05f0d020775",
        "source": "migrated"
      }
    },
    {
      "id": "gaming_019",
      "category": "gaming",
      "title": "Gaming Wallpaper 019",
      "tags": [
        "gaming",
        "wallpaper",
        "hd",
        "mobile"
      ],
      "urls": {
        "raw": "https://media.githubusercontent.com/media/ddh4r4m/wallpaper-collection/main/collection/wallpapers/gaming/019.jpg",
        "thumb": "https://media.githubusercontent.com/media/ddh4r4m/wallpaper-collection/main/collection/thumbnails/gaming/019.jpg"
      },
      "metadata": {
        "dimensions": {
          "width": 1080,
          "height": 1920
        },
        "file_size": 258735,
        "format": "JPEG",
        "added_at": "2025-07-17T00:03:44.459977",
        "hash": "0f762d4463f9ba80b814a9105f5e6ce0",
        "source": "migrated"
      }
    },
    {
      "id": "gaming_020",
      "category": "gaming",
      "title": "Gaming Wallpaper 020",
      "tags": [
        "gaming",
        "wallpaper",
        "hd",
        "mobile"
      ],
      "urls": {
        "raw": "https://media.githubusercontent.com/media/ddh4r4m/wallpaper-collection/main/collection/wallpapers/gaming/020.jpg",
        "thumb": "https://media.githubusercontent.com/media/ddh4r4m/wallpaper-collection/main/collection/thumbnails/gaming/020.jpg"
      },
      "metadata": {
        "dimensions": {
          "width": 1080,
          "height": 1920
        },
        "file_size": 130805,
        "format": "JPEG",
        "added_at": "2025-07-17T00:03:44.620711",
        "hash": "96a5a0f3a2c8ae8addf6887b9ad9f82b",
        "source": "migrated"
      }
    },
    {
      "id": "gaming_021",
      "category": "gaming",
      "title": "Gaming Wallpaper 021",
      "tags": [
        "gaming",
        "wallpaper",
        "hd",
        "mobile"
      ],
      "urls": {
        "raw": "https://media.githubusercontent.com/media/ddh4r4m/wallpaper-collection/main/collection/wallpapers/gaming/021.jpg",
        "thumb": "https://media.githubusercontent.com/media/ddh4r4m/wallpaper-collection/main/collection/thumbnails/gaming/021.jpg"
      },
      "metadata": {
        "dimensions": {
          "width": 1080,
          "height": 1920
        },
        "file_size": 443858,
        "format": "JPEG",
        "added_at": "2025-07-17T00:03:44.710510",
        "hash": "8a80a8e8fc6539b823eb578d2846c938",
        "source": "migrated"
      }
    },
    {
      "id": "gaming_022",
      "category": "gaming",
      "title": "Gaming Wallpaper 022",
      "tags": [
        "gaming",
        "wallpaper",
        "hd",
        "mobile"
      ],
      "urls": {
        "raw": "https://media.githubusercontent.com/media/ddh4r4m/wallpaper-collection/main/collection/wallpapers/gaming/022.jpg",
        "thumb": "https://media.githubusercontent.com/media/ddh4r4m/wallpaper-collection/main/collection/thumbnails/gaming/022.jpg"
      },
      "metadata": {
        "dimensions": {
          "width": 1080,
          "height": 1920
        },
        "file_size": 64501,
        "format": "JPEG",
        "added_at": "2025-07-17T00:03:44.881888",
        "hash": "b91eb5aa9f2805dd53802609beca6cb5",
        "source": "migrated"
      }
    },
    {
      "id": "gaming_023",
      "category": "gaming",
      "title": "Gaming Wallpaper 023",
      "tags": [
        "gaming",
        "wallpaper",
        "hd",
        "mobile"
      ],
      "urls": {
        "raw": "https://media.githubusercontent.com/media/ddh4r4m/wallpaper-collection/main/collection/wallpapers/gaming/023.jpg",
        "thumb": "https://media.githubusercontent.com/media/ddh4r4m/wallpaper-collection/main/collection/thumbnails/gaming/023.jpg"
      },
      "metadata": {
        "dimensions": {
          "width": 1080,
          "height": 1920
        },
        "file_size": 416162,
        "format": "JPEG",
        "added_at": "2025-07-17T00:03:45.250168",
        "hash": "92cd33f4bd1013c5cdea11e295c69550",
        "source": "migrated"
      }
    },
    {
      "id": "gaming_024",
      "category": "gaming",
      "title": "Gaming Wallpaper 024",
      "tags": [
        "gaming",
        "wallpaper",
        "hd",
        "mobile"
      ],
      "urls": {
        "raw": "https://media.githubusercontent.com/media/ddh4r4m/wallpaper-collection/main/collection/wallpapers/gaming/024.jpg",
        "thumb": "https://media.githubusercontent.com/media/ddh4r4m/wallpaper-collection/main/collection/thumbnails/gaming/024.jpg"
      },
      "metadata": {
        "dimensions": {
          "width": 1080,
          "height": 1920
        },
        "file_size": 302359,
        "format": "JPEG",
        "added_at": "2025-07-17T00:03:45.383937",
        "hash": "40169d125f55d8bc81c01c802ceb90a1",
        "source": "migrated"
      }
    },
    {
      "id": "gaming_025",
      "category": "gaming",
      "title": "Gaming Wallpaper 025",
      "tags": [
        "gaming",
        "wallpaper",
        "hd",
        "mobile"
      ],
      "urls": {
        "raw": "https://media.githubusercontent.com/media/ddh4r4m/wallpaper-collection/main/collection/wallpapers/gaming/025.jpg",
        "thumb": "https://media.githubusercontent.com/media/ddh4r4m/wallpaper-collection/main/collection/thumbnails/gaming/025.jpg"
      },
      "metadata": {
        "dimensions": {
          "width": 1080,
          "height": 1920
        },
        "file_size": 227495,
        "format": "JPEG",
        "added_at": "2025-07-17T00:03:46.117233",
        "hash": "9484d2a36b022af9153a8ca78fc77939",
        "source": "migrated"
      }
    },
    {
      "id": "gaming_026",
      "category": "gaming",
      "title": "Gaming Wallpaper 026",
      "tags": [
        "gaming",
        "wallpaper",
        "hd",
        "mobile"
      ],
      "urls": {
        "raw": "https://media.githubusercontent.com/media/ddh4r4m/wallpaper-collection/main/collection/wallpapers/gaming/026.jpg",
        "thumb": "https://media.githubusercontent.com/media/ddh4r4m/wallpaper-collection/main/collection/thumbnails/gaming/026.jpg"
      },
      "metadata": {
        "dimensions": {
          "width": 1080,
          "height": 1920
        },
        "file_size": 170051,
        "format": "JPEG",
        "added_at": "2025-07-17T00:03:46.284403",
        "hash": "9418024592d58840b4c409c67ce53195",
        "source": "migrated"
      }
    },
    {
      "id": "gaming_027",
      "category": "gaming",
      "title": "Gaming Wallpaper 027",
      "tags": [
        "gaming",
        "wallpaper",
        "hd",
        "mobile"
      ],
      "urls": {
        "raw": "https://media.githubusercontent.com/media/ddh4r4m/wallpaper-collection/main/collection/wallpapers/gaming/027.jpg",
        "thumb": "https://media.githubusercontent.com/media/ddh4r4m/wallpaper-collection/main/collection/thumbnails/gaming/027.jpg"
      },
      "metadata": {
        "dimensions": {
          "width": 1080,
          "height": 1920
        },
        "file_size": 198722,
        "format": "JPEG",
        "added_at": "2025-07-17T00:03:46.423370",
        "hash": "b6665fc2e1492c9740ddd8c0c50542a9",
        "source": "migrated"
      }
    },
    {
      "id": "gaming_028",
      "category": "gaming",
      "title": "Gaming Wallpaper 028",
      "tags": [
        "gaming",
        "wallpaper",
        "hd",
        "mobile"
      ],
      "urls": {
        "raw": "https://media.githubusercontent.com/media/ddh4r4m/wallpaper-collection/main/collection/wallpapers/gaming/028.jpg",
        "thumb": "https://media.githubusercontent.com/media/ddh4r4m/wallpaper-collection/main/collection/thumbnails/gaming/028.jpg"
      },
      "metadata": {
        "dimensions": {
          "width": 1080,
          "height": 1920
        },
        "file_size": 358802,
        "format": "JPEG",
        "added_at": "2025-07-17T00:03:46.631344",
        "hash": "99136cde76328de419047cba562ceda2",
        "source": "migrated"
      }
    },
    {
      "id": "gaming_029",
      "category": "gaming",
      "title": "Gaming Wallpaper 029",
      "tags": [
        "gaming",
        "wallpaper",
        "hd",
        "mobile"
      ],
      "urls": {
        "raw": "https://media.githubusercontent.com/media/ddh4r4m/wallpaper-collection/main/collection/wallpapers/gaming/029.jpg",
        "thumb": "https://media.githubusercontent.com/media/ddh4r4m/wallpaper-collection/main/collection/thumbnails/gaming/029.jpg"
      },
      "metadata": {
        "dimensions": {
          "width": 1080,
          "height": 1920
        },
        "file_size": 254575,
        "format": "JPEG",
        "added_at": "2025-07-17T00:03:46.814888",
        "hash": "f4dd4e02066a2a13b8dd522656d3543b",
        "source": "migrated"
      }
    },
    {
      "id": "gaming_030",
      "category": "gaming",
      "title": "Gaming Wallpaper 030",
      "tags": [
        "gaming",
        "wallpaper",
        "hd",
        "mobile"
      ],
      "urls": {
        "raw": "https://media.githubusercontent.com/media/ddh4r4m/wallpaper-collection/main/collection/wallpapers/gaming/030.jpg",
        "thumb": "https://media.githubusercontent.com/media/ddh4r4m/wallpaper-collection/main/collection/thumbnails/gaming/030.jpg"
      },
      "metadata": {
        "dimensions": {
          "width": 1080,
          "height": 1920
        },
        "file_size": 97693,
        "format": "JPEG",
        "added_at": "2025-07-17T00:03:46.963224",
        "hash": "61ea1896f43e4467f39116a4305a2b54",
        "source": "migrated"
      }
    }
  ]
}