{
  "meta": {
    "version": "1.0",
    "generated_at": "2025-07-19T12:26:57.111378",
    "category": "gaming",
    "page": 4,
    "per_page": 15,
    "total_pages": 6,
    "total_count": 84,
    "count_on_page": 15,
    "has_next": true,
    "has_prev": true,
    "next_page_url": "/api/v1/gaming/pages/5.json",
    "prev_page_url": "/api/v1/gaming/pages/3.json"
  },
  "data": [
    {
      "id": "gaming_046",
      "category": "gaming",
      "title": "Gaming Wallpaper 046",
      "tags": [
        "gaming",
        "wallpaper",
        "hd",
        "mobile"
      ],
      "urls": {
        "raw": "https://media.githubusercontent.com/media/ddh4r4m/wallpaper-collection/main/collection/wallpapers/gaming/046.jpg",
        "thumb": "https://media.githubusercontent.com/media/ddh4r4m/wallpaper-collection/main/collection/thumbnails/gaming/046.jpg"
      },
      "metadata": {
        "dimensions": {
          "width": 1080,
          "height": 1920
        },
        "file_size": 308849,
        "format": "JPEG",
        "added_at": "2025-07-17T00:03:52.285804",
        "hash": "13fe042b9eba624a301bb2ecf67070ab",
        "source": "migrated"
      }
    },
    {
      "id": "gaming_047",
      "category": "gaming",
      "title": "Gaming Wallpaper 047",
      "tags": [
        "gaming",
        "wallpaper",
        "hd",
        "mobile"
      ],
      "urls": {
        "raw": "https://media.githubusercontent.com/media/ddh4r4m/wallpaper-collection/main/collection/wallpapers/gaming/047.jpg",
        "thumb": "https://media.githubusercontent.com/media/ddh4r4m/wallpaper-collection/main/collection/thumbnails/gaming/047.jpg"
      },
      "metadata": {
        "dimensions": {
          "width": 1080,
          "height": 1920
        },
        "file_size": 172236,
        "format": "JPEG",
        "added_at": "2025-07-17T00:03:52.475921",
        "hash": "d16b2fe2c1bec004129cea1e89cfd6d1",
        "source": "migrated"
      }
    },
    {
      "id": "gaming_048",
      "category": "gaming",
      "title": "Gaming Wallpaper 048",
      "tags": [
        "gaming",
        "wallpaper",
        "hd",
        "mobile"
      ],
      "urls": {
        "raw": "https://media.githubusercontent.com/media/ddh4r4m/wallpaper-collection/main/collection/wallpapers/gaming/048.jpg",
        "thumb": "https://media.githubusercontent.com/media/ddh4r4m/wallpaper-collection/main/collection/thumbnails/gaming/048.jpg"
      },
      "metadata": {
        "dimensions": {
          "width": 1080,
          "height": 1920
        },
        "file_size": 172608,
        "format": "JPEG",
        "added_at": "2025-07-17T00:03:52.670683",
        "hash": "f85104c2765ffb9949914dde7a62b99d",
        "source": "migrated"
      }
    },
    {
      "id": "gaming_049",
      "category": "gaming",
      "title": "Gaming Wallpaper 049",
      "tags": [
        "gaming",
        "wallpaper",
        "hd",
        "mobile"
      ],
      "urls": {
        "raw": "https://media.githubusercontent.com/media/ddh4r4m/wallpaper-collection/main/collection/wallpapers/gaming/049.jpg",
        "thumb": "https://media.githubusercontent.com/media/ddh4r4m/wallpaper-collection/main/collection/thumbnails/gaming/049.jpg"
      },
      "metadata": {
        "dimensions": {
          "width": 1080,
          "height": 1920
        },
        "file_size": 313529,
        "format": "JPEG",
        "added_at": "2025-07-17T00:03:52.909519",
        "hash": "9a7cd009d9f6a39195dba8e3a8042f8e",
        "source": "migrated"
      }
    },
    {
      "id": "gaming_050",
      "category": "gaming",
      "title": "Gaming Wallpaper 050",
      "tags": [
        "gaming",
        "wallpaper",
        "hd",
        "mobile"
      ],
      "urls": {
        "raw": "https://media.githubusercontent.com/media/ddh4r4m/wallpaper-collection/main/collection/wallpapers/gaming/050.jpg",
        "thumb": "https://media.githubusercontent.com/media/ddh4r4m/wallpaper-collection/main/collection/thumbnails/gaming/050.jpg"
      },
      "metadata": {
        "dimensions": {
          "width": 1080,
          "height": 1920
        },
        "file_size": 228613,
        "format": "JPEG",
        "added_at": "2025-07-17T00:03:53.198472",
        "hash": "f515ccfa30d9f83b5d5de31d5f0764d6",
        "source": "migrated"
      }
    },
    {
      "id": "gaming_051",
      "category": "gaming",
      "title": "Gaming Wallpaper 051",
      "tags": [
        "gaming",
        "wallpaper",
        "hd",
        "mobile"
      ],
      "urls": {
        "raw": "https://media.githubusercontent.com/media/ddh4r4m/wallpaper-collection/main/collection/wallpapers/gaming/051.jpg",
        "thumb": "https://media.githubusercontent.com/media/ddh4r4m/wallpaper-collection/main/collection/thumbnails/gaming/051.jpg"
      },
      "metadata": {
        "dimensions": {
          "width": 1080,
          "height": 1920
        },
        "file_size": 224973,
        "format": "JPEG",
        "added_at": "2025-07-17T00:03:53.394390",
        "hash": "e1d53859b8de3097414df71c662f0513",
        "source": "migrated"
      }
    },
    {
      "id": "gaming_052",
      "category": "gaming",
      "title": "Gaming Wallpaper 052",
      "tags": [
        "gaming",
        "wallpaper",
        "hd",
        "mobile"
      ],
      "urls": {
        "raw": "https://media.githubusercontent.com/media/ddh4r4m/wallpaper-collection/main/collection/wallpapers/gaming/052.jpg",
        "thumb": "https://media.githubusercontent.com/media/ddh4r4m/wallpaper-collection/main/collection/thumbnails/gaming/052.jpg"
      },
      "metadata": {
        "dimensions": {
          "width": 1080,
          "height": 1920
        },
        "file_size": 103605,
        "format": "JPEG",
        "added_at": "2025-07-17T00:03:53.625812",
        "hash": "a92776c21a628a79aa0edad245a948ee",
        "source": "migrated"
      }
    },
    {
      "id": "gaming_053",
      "category": "gaming",
      "title": "Gaming Wallpaper 053",
      "tags": [
        "gaming",
        "wallpaper",
        "hd",
        "mobile"
      ],
      "urls": {
        "raw": "https://media.githubusercontent.com/media/ddh4r4m/wallpaper-collection/main/collection/wallpapers/gaming/053.jpg",
        "thumb": "https://media.githubusercontent.com/media/ddh4r4m/wallpaper-collection/main/collection/thumbnails/gaming/053.jpg"
      },
      "metadata": {
        "dimensions": {
          "width": 1080,
          "height": 1920
        },
        "file_size": 180848,
        "format": "JPEG",
        "added_at": "2025-07-17T00:03:53.807228",
        "hash": "a5f44679aec995055bd126da420b8c5d",
        "source": "migrated"
      }
    },
    {
      "id": "gaming_054",
      "category": "gaming",
      "title": "Gaming Wallpaper 054",
      "tags": [
        "gaming",
        "wallpaper",
        "hd",
        "mobile"
      ],
      "urls": {
        "raw": "https://media.githubusercontent.com/media/ddh4r4m/wallpaper-collection/main/collection/wallpapers/gaming/054.jpg",
        "thumb": "https://media.githubusercontent.com/media/ddh4r4m/wallpaper-collection/main/collection/thumbnails/gaming/054.jpg"
      },
      "metadata": {
        "dimensions": {
          "width": 1080,
          "height": 1920
        },
        "file_size": 83910,
        "format": "JPEG",
        "added_at": "2025-07-17T00:03:53.984754",
        "hash": "e6971be5e37f4a2da5bab1dfb4340b3b",
        "source": "migrated"
      }
    },
    {
      "id": "gaming_055",
      "category": "gaming",
      "title": "Gaming Wallpaper 055",
      "tags": [
        "gaming",
        "wallpaper",
        "hd",
        "mobile"
      ],
      "urls": {
        "raw": "https://media.githubusercontent.com/media/ddh4r4m/wallpaper-collection/main/collection/wallpapers/gaming/055.jpg",
        "thumb": "https://media.githubusercontent.com/media/ddh4r4m/wallpaper-collection/main/collection/thumbnails/gaming/055.jpg"
      },
      "metadata": {
        "dimensions": {
          "width": 1080,
          "height": 1920
        },
        "file_size": 315881,
        "format": "JPEG",
        "added_at": "2025-07-17T00:03:54.187744",
        "hash": "a68fca8de1852cb9a11813df40176c96",
        "source": "migrated"
      }
    },
    {
      "id": "gaming_056",
      "category": "gaming",
      "title": "Gaming Wallpaper 056",
      "tags": [
        "gaming",
        "wallpaper",
        "hd",
        "mobile"
      ],
      "urls": {
        "raw": "https://media.githubusercontent.com/media/ddh4r4m/wallpaper-collection/main/collection/wallpapers/gaming/056.jpg",
        "thumb": "https://media.githubusercontent.com/media/ddh4r4m/wallpaper-collection/main/collection/thumbnails/gaming/056.jpg"
      },
      "metadata": {
        "dimensions": {
          "width": 1080,
          "height": 1920
        },
        "file_size": 238654,
        "format": "JPEG",
        "added_at": "2025-07-17T00:03:54.419942",
        "hash": "ce6bb9f2d283442143998ff93978fe34",
        "source": "migrated"
      }
    },
    {
      "id": "gaming_057",
      "category": "gaming",
      "title": "Gaming Wallpaper 057",
      "tags": [
        "gaming",
        "wallpaper",
        "hd",
        "mobile"
      ],
      "urls": {
        "raw": "https://media.githubusercontent.com/media/ddh4r4m/wallpaper-collection/main/collection/wallpapers/gaming/057.jpg",
        "thumb": "https://media.githubusercontent.com/media/ddh4r4m/wallpaper-collection/main/collection/thumbnails/gaming/057.jpg"
      },
      "metadata": {
        "dimensions": {
          "width": 1080,
          "height": 1920
        },
        "file_size": 411479,
        "format": "JPEG",
        "added_at": "2025-07-17T00:03:54.609783",
        "hash": "c6b227495198b34d852872b6e7038515",
        "source": "migrated"
      }
    },
    {
      "id": "gaming_058",
      "category": "gaming",
      "title": "Gaming Wallpaper 058",
      "tags": [
        "gaming",
        "wallpaper",
        "hd",
        "mobile"
      ],
      "urls": {
        "raw": "https://media.githubusercontent.com/media/ddh4r4m/wallpaper-collection/main/collection/wallpapers/gaming/058.jpg",
        "thumb": "https://media.githubusercontent.com/media/ddh4r4m/wallpaper-collection/main/collection/thumbnails/gaming/058.jpg"
      },
      "metadata": {
        "dimensions": {
          "width": 1080,
          "height": 1920
        },
        "file_size": 163245,
        "format": "JPEG",
        "added_at": "2025-07-17T00:03:55.074942",
        "hash": "fb425ea9f9ea2f4f76e7e59adda49a19",
        "source": "migrated"
      }
    },
    {
      "id": "gaming_059",
      "category": "gaming",
      "title": "Gaming Wallpaper 059",
      "tags": [
        "gaming",
        "wallpaper",
        "hd",
        "mobile"
      ],
      "urls": {
        "raw": "https://media.githubusercontent.com/media/ddh4r4m/wallpaper-collection/main/collection/wallpapers/gaming/059.jpg",
        "thumb": "https://media.githubusercontent.com/media/ddh4r4m/wallpaper-collection/main/collection/thumbnails/gaming/059.jpg"
      },
      "metadata": {
        "dimensions": {
          "width": 1080,
          "height": 1920
        },
        "file_size": 221578,
        "format": "JPEG",
        "added_at": "2025-07-17T00:03:55.504433",
        "hash": "b066a64a4f8943dd8f4cdf8681b4636f",
        "source": "migrated"
      }
    },
    {
      "id": "gaming_060",
      "category": "gaming",
      "title": "Gaming Wallpaper 060",
      "tags": [
        "gaming",
        "wallpaper",
        "hd",
        "mobile"
      ],
      "urls": {
        "raw": "https://media.githubusercontent.com/media/ddh4r4m/wallpaper-collection/main/collection/wallpapers/gaming/060.jpg",
        "thumb": "https://media.githubusercontent.com/media/ddh4r4m/wallpaper-collection/main/collection/thumbnails/gaming/060.jpg"
      },
      "metadata": {
        "dimensions": {
          "width": 1080,
          "height": 1920
        },
        "file_size": 492415,
        "format": "JPEG",
        "added_at": "2025-07-17T00:03:55.950235",
        "hash": "f14598a18f830a8d3b289f3757fcd96e",
        "source": "migrated"
      }
    }
  ]
}