{
  "meta": {
    "version": "1.0",
    "generated_at": "2025-07-17T00:06:19.072196",
    "category": "gaming",
    "page": 6,
    "per_page": 15,
    "total_pages": 6,
    "total_count": 76,
    "count_on_page": 1,
    "has_next": false,
    "has_prev": true,
    "next_page_url": null,
    "prev_page_url": "/api/v1/gaming/pages/5.json"
  },
  "data": [
    {
      "id": "gaming_076",
      "category": "gaming",
      "title": "Gaming Wallpaper 076",
      "tags": [
        "gaming",
        "wallpaper",
        "hd",
        "mobile"
      ],
      "urls": {
        "raw": "https://raw.githubusercontent.com/ddh4r4m/wallpaper-collection/main/collection/wallpapers/gaming/076.jpg",
        "thumb": "https://raw.githubusercontent.com/ddh4r4m/wallpaper-collection/main/collection/thumbnails/gaming/076.jpg"
      },
      "metadata": {
        "dimensions": {
          "width": 1080,
          "height": 1920
        },
        "file_size": 617679,
        "format": "JPEG",
        "added_at": "2025-07-17T00:04:00.225084",
        "hash": "d3be692e87b6405ea040b1028df7c680",
        "source": "migrated"
      }
    }
  ]
}