{
  "meta": {
    "version": "1.0",
    "generated_at": "2025-07-28T23:12:02.393375",
    "category": "cyberpunk",
    "page": 1,
    "per_page": 15,
    "total_pages": 6,
    "total_count": 88,
    "count_on_page": 15,
    "has_next": true,
    "has_prev": false,
    "next_page_url": "/api/v1/cyberpunk/pages/2.json",
    "prev_page_url": null
  },
  "data": [
    {
      "id": "cyberpunk_001",
      "category": "cyberpunk",
      "title": "Cyberpunk Wallpaper 001",
      "tags": [
        "cyberpunk",
        "wallpaper",
        "hd",
        "mobile"
      ],
      "urls": {
        "raw": "https://media.githubusercontent.com/media/ddh4r4m/wallpaper-collection/main/collection/wallpapers/cyberpunk/001.jpg",
        "thumb": "https://media.githubusercontent.com/media/ddh4r4m/wallpaper-collection/main/collection/thumbnails/cyberpunk/001.jpg"
      },
      "metadata": {
        "dimensions": {
          "width": 1080,
          "height": 1920
        },
        "file_size": 203969,
        "format": "JPEG",
        "added_at": "2025-07-17T00:03:13.123584",
        "hash": "49a9ff9537576d4351b377827c1368db",
        "source": "migrated"
      }
    },
    {
      "id": "cyberpunk_002",
      "category": "cyberpunk",
      "title": "Cyberpunk Wallpaper 002",
      "tags": [
        "cyberpunk",
        "wallpaper",
        "hd",
        "mobile"
      ],
      "urls": {
        "raw": "https://media.githubusercontent.com/media/ddh4r4m/wallpaper-collection/main/collection/wallpapers/cyberpunk/002.jpg",
        "thumb": "https://media.githubusercontent.com/media/ddh4r4m/wallpaper-collection/main/collection/thumbnails/cyberpunk/002.jpg"
      },
      "metadata": {
        "dimensions": {
          "width": 1080,
          "height": 1920
        },
        "file_size": 209069,
        "format": "JPEG",
        "added_at": "2025-07-17T00:03:13.425153",
        "hash": "6a060363e2cf6738fa5144b6e7ebc869",
        "source": "migrated"
      }
    },
    {
      "id": "cyberpunk_003",
      "category": "cyberpunk",
      "title": "Cyberpunk Wallpaper 003",
      "tags": [
        "cyberpunk",
        "wallpaper",
        "hd",
        "mobile"
      ],
      "urls": {
        "raw": "https://media.githubusercontent.com/media/ddh4r4m/wallpaper-collection/main/collection/wallpapers/cyberpunk/003.jpg",
        "thumb": "https://media.githubusercontent.com/media/ddh4r4m/wallpaper-collection/main/collection/thumbnails/cyberpunk/003.jpg"
      },
      "metadata": {
        "dimensions": {
          "width": 1080,
          "height": 1920
        },
        "file_size": 203034,
        "format": "JPEG",
        "added_at": "2025-07-17T00:03:13.592443",
        "hash": "ac23a01f18f13b7944df1fb3b5195f0c",
        "source": "migrated"
      }
    },
    {
      "id": "cyberpunk_004",
      "category": "cyberpunk",
      "title": "Cyberpunk Wallpaper 004",
      "tags": [
        "cyberpunk",
        "wallpaper",
        "hd",
        "mobile"
      ],
      "urls": {
        "raw": "https://media.githubusercontent.com/media/ddh4r4m/wallpaper-collection/main/collection/wallpapers/cyberpunk/004.jpg",
        "thumb": "https://media.githubusercontent.com/media/ddh4r4m/wallpaper-collection/main/collection/thumbnails/cyberpunk/004.jpg"
      },
      "metadata": {
        "dimensions": {
          "width": 1080,
          "height": 1920
        },
        "file_size": 221252,
        "format": "JPEG",
        "added_at": "2025-07-17T00:03:13.864670",
        "hash": "adb9a3b82316ea16ee4b49844b527b94",
        "source": "migrated"
      }
    },
    {
      "id": "cyberpunk_005",
      "category": "cyberpunk",
      "title": "Cyberpunk Wallpaper 005",
      "tags": [
        "cyberpunk",
        "wallpaper",
        "hd",
        "mobile"
      ],
      "urls": {
        "raw": "https://media.githubusercontent.com/media/ddh4r4m/wallpaper-collection/main/collection/wallpapers/cyberpunk/005.jpg",
        "thumb": "https://media.githubusercontent.com/media/ddh4r4m/wallpaper-collection/main/collection/thumbnails/cyberpunk/005.jpg"
      },
      "metadata": {
        "dimensions": {
          "width": 1080,
          "height": 1920
        },
        "file_size": 472775,
        "format": "JPEG",
        "added_at": "2025-07-17T00:03:14.010874",
        "hash": "6a0e3cfef5adc5d99c1aa907f7e20928",
        "source": "migrated"
      }
    },
    {
      "id": "cyberpunk_006",
      "category": "cyberpunk",
      "title": "Cyberpunk Wallpaper 006",
      "tags": [
        "cyberpunk",
        "wallpaper",
        "hd",
        "mobile"
      ],
      "urls": {
        "raw": "https://media.githubusercontent.com/media/ddh4r4m/wallpaper-collection/main/collection/wallpapers/cyberpunk/006.jpg",
        "thumb": "https://media.githubusercontent.com/media/ddh4r4m/wallpaper-collection/main/collection/thumbnails/cyberpunk/006.jpg"
      },
      "metadata": {
        "dimensions": {
          "width": 1080,
          "height": 1920
        },
        "file_size": 652713,
        "format": "JPEG",
        "added_at": "2025-07-17T00:03:14.575958",
        "hash": "e4cec1902a49b8c9bb996546cf52d731",
        "source": "migrated"
      }
    },
    {
      "id": "cyberpunk_007",
      "category": "cyberpunk",
      "title": "Cyberpunk Wallpaper 007",
      "tags": [
        "cyberpunk",
        "wallpaper",
        "hd",
        "mobile"
      ],
      "urls": {
        "raw": "https://media.githubusercontent.com/media/ddh4r4m/wallpaper-collection/main/collection/wallpapers/cyberpunk/007.jpg",
        "thumb": "https://media.githubusercontent.com/media/ddh4r4m/wallpaper-collection/main/collection/thumbnails/cyberpunk/007.jpg"
      },
      "metadata": {
        "dimensions": {
          "width": 1080,
          "height": 1920
        },
        "file_size": 162860,
        "format": "JPEG",
        "added_at": "2025-07-17T00:03:14.705651",
        "hash": "51b33d6b402014ce8888742dfb70ddb5",
        "source": "migrated"
      }
    },
    {
      "id": "cyberpunk_008",
      "category": "cyberpunk",
      "title": "Cyberpunk Wallpaper 008",
      "tags": [
        "cyberpunk",
        "wallpaper",
        "hd",
        "mobile"
      ],
      "urls": {
        "raw": "https://media.githubusercontent.com/media/ddh4r4m/wallpaper-collection/main/collection/wallpapers/cyberpunk/008.jpg",
        "thumb": "https://media.githubusercontent.com/media/ddh4r4m/wallpaper-collection/main/collection/thumbnails/cyberpunk/008.jpg"
      },
      "metadata": {
        "dimensions": {
          "width": 1080,
          "height": 1920
        },
        "file_size": 392002,
        "format": "JPEG",
        "added_at": "2025-07-17T00:03:15.068390",
        "hash": "1a2542d575094a9a87a121508676b6bc",
        "source": "migrated"
      }
    },
    {
      "id": "cyberpunk_009",
      "category": "cyberpunk",
      "title": "Cyberpunk Wallpaper 009",
      "tags": [
        "cyberpunk",
        "wallpaper",
        "hd",
        "mobile"
      ],
      "urls": {
        "raw": "https://media.githubusercontent.com/media/ddh4r4m/wallpaper-collection/main/collection/wallpapers/cyberpunk/009.jpg",
        "thumb": "https://media.githubusercontent.com/media/ddh4r4m/wallpaper-collection/main/collection/thumbnails/cyberpunk/009.jpg"
      },
      "metadata": {
        "dimensions": {
          "width": 1080,
          "height": 1920
        },
        "file_size": 285772,
        "format": "JPEG",
        "added_at": "2025-07-17T00:03:15.409900",
        "hash": "b5ca9f698f51b5febcfcc1da2a7f6126",
        "source": "migrated"
      }
    },
    {
      "id": "cyberpunk_010",
      "category": "cyberpunk",
      "title": "Cyberpunk Wallpaper 010",
      "tags": [
        "cyberpunk",
        "wallpaper",
        "hd",
        "mobile"
      ],
      "urls": {
        "raw": "https://media.githubusercontent.com/media/ddh4r4m/wallpaper-collection/main/collection/wallpapers/cyberpunk/010.jpg",
        "thumb": "https://media.githubusercontent.com/media/ddh4r4m/wallpaper-collection/main/collection/thumbnails/cyberpunk/010.jpg"
      },
      "metadata": {
        "dimensions": {
          "width": 1080,
          "height": 1920
        },
        "file_size": 226005,
        "format": "JPEG",
        "added_at": "2025-07-17T00:03:15.711259",
        "hash": "5a708832aac114806a588b9708202e28",
        "source": "migrated"
      }
    },
    {
      "id": "cyberpunk_011",
      "category": "cyberpunk",
      "title": "Cyberpunk Wallpaper 011",
      "tags": [
        "cyberpunk",
        "wallpaper",
        "hd",
        "mobile"
      ],
      "urls": {
        "raw": "https://media.githubusercontent.com/media/ddh4r4m/wallpaper-collection/main/collection/wallpapers/cyberpunk/011.jpg",
        "thumb": "https://media.githubusercontent.com/media/ddh4r4m/wallpaper-collection/main/collection/thumbnails/cyberpunk/011.jpg"
      },
      "metadata": {
        "dimensions": {
          "width": 1080,
          "height": 1920
        },
        "file_size": 302312,
        "format": "JPEG",
        "added_at": "2025-07-17T00:03:15.892641",
        "hash": "d7d4e6bd10584b9ab1f500b37075622e",
        "source": "migrated"
      }
    },
    {
      "id": "cyberpunk_012",
      "category": "cyberpunk",
      "title": "Cyberpunk Wallpaper 012",
      "tags": [
        "cyberpunk",
        "wallpaper",
        "hd",
        "mobile"
      ],
      "urls": {
        "raw": "https://media.githubusercontent.com/media/ddh4r4m/wallpaper-collection/main/collection/wallpapers/cyberpunk/012.jpg",
        "thumb": "https://media.githubusercontent.com/media/ddh4r4m/wallpaper-collection/main/collection/thumbnails/cyberpunk/012.jpg"
      },
      "metadata": {
        "dimensions": {
          "width": 1080,
          "height": 1920
        },
        "file_size": 71009,
        "format": "JPEG",
        "added_at": "2025-07-17T00:03:16.513612",
        "hash": "101fe0e445b28883176b013042d5c2e8",
        "source": "migrated"
      }
    },
    {
      "id": "cyberpunk_013",
      "category": "cyberpunk",
      "title": "Cyberpunk Wallpaper 013",
      "tags": [
        "cyberpunk",
        "wallpaper",
        "hd",
        "mobile"
      ],
      "urls": {
        "raw": "https://media.githubusercontent.com/media/ddh4r4m/wallpaper-collection/main/collection/wallpapers/cyberpunk/013.jpg",
        "thumb": "https://media.githubusercontent.com/media/ddh4r4m/wallpaper-collection/main/collection/thumbnails/cyberpunk/013.jpg"
      },
      "metadata": {
        "dimensions": {
          "width": 1080,
          "height": 1920
        },
        "file_size": 44356,
        "format": "JPEG",
        "added_at": "2025-07-17T00:03:16.654990",
        "hash": "884a2486a171c20fd7960cd2527fdc3d",
        "source": "migrated"
      }
    },
    {
      "id": "cyberpunk_014",
      "category": "cyberpunk",
      "title": "Cyberpunk Wallpaper 014",
      "tags": [
        "cyberpunk",
        "wallpaper",
        "hd",
        "mobile"
      ],
      "urls": {
        "raw": "https://media.githubusercontent.com/media/ddh4r4m/wallpaper-collection/main/collection/wallpapers/cyberpunk/014.jpg",
        "thumb": "https://media.githubusercontent.com/media/ddh4r4m/wallpaper-collection/main/collection/thumbnails/cyberpunk/014.jpg"
      },
      "metadata": {
        "dimensions": {
          "width": 1080,
          "height": 1920
        },
        "file_size": 238239,
        "format": "JPEG",
        "added_at": "2025-07-17T00:03:16.799524",
        "hash": "683bbc57e58eba24418cccca5894aaaf",
        "source": "migrated"
      }
    },
    {
      "id": "cyberpunk_015",
      "category": "cyberpunk",
      "title": "Cyberpunk Wallpaper 015",
      "tags": [
        "cyberpunk",
        "wallpaper",
        "hd",
        "mobile"
      ],
      "urls": {
        "raw": "https://media.githubusercontent.com/media/ddh4r4m/wallpaper-collection/main/collection/wallpapers/cyberpunk/015.jpg",
        "thumb": "https://media.githubusercontent.com/media/ddh4r4m/wallpaper-collection/main/collection/thumbnails/cyberpunk/015.jpg"
      },
      "metadata": {
        "dimensions": {
          "width": 1080,
          "height": 1920
        },
        "file_size": 164882,
        "format": "JPEG",
        "added_at": "2025-07-17T00:03:17.035388",
        "hash": "fbfccfc3d0443bd37f9e6943196cfe66",
        "source": "migrated"
      }
    }
  ]
}