{
  "meta": {
    "version": "1.0",
    "generated_at": "2025-07-17T21:14:17.488868",
    "category": "cyberpunk",
    "page": 3,
    "per_page": 15,
    "total_pages": 3,
    "total_count": 41,
    "count_on_page": 11,
    "has_next": false,
    "has_prev": true,
    "next_page_url": null,
    "prev_page_url": "/api/v1/cyberpunk/pages/2.json"
  },
  "data": [
    {
      "id": "cyberpunk_031",
      "category": "cyberpunk",
      "title": "Cyberpunk Wallpaper 031",
      "tags": [
        "cyberpunk",
        "wallpaper",
        "hd",
        "mobile"
      ],
      "urls": {
        "raw": "https://media.githubusercontent.com/media/ddh4r4m/wallpaper-collection/main/collection/wallpapers/cyberpunk/031.jpg",
        "thumb": "https://media.githubusercontent.com/media/ddh4r4m/wallpaper-collection/main/collection/thumbnails/cyberpunk/031.jpg"
      },
      "metadata": {
        "dimensions": {
          "width": 1080,
          "height": 1920
        },
        "file_size": 150672,
        "format": "JPEG",
        "added_at": "2025-07-17T00:03:21.538702",
        "hash": "1f57b15e788af7d6a787d6bab4b2846d",
        "source": "migrated"
      }
    },
    {
      "id": "cyberpunk_032",
      "category": "cyberpunk",
      "title": "Cyberpunk Wallpaper 032",
      "tags": [
        "cyberpunk",
        "wallpaper",
        "hd",
        "mobile"
      ],
      "urls": {
        "raw": "https://media.githubusercontent.com/media/ddh4r4m/wallpaper-collection/main/collection/wallpapers/cyberpunk/032.jpg",
        "thumb": "https://media.githubusercontent.com/media/ddh4r4m/wallpaper-collection/main/collection/thumbnails/cyberpunk/032.jpg"
      },
      "metadata": {
        "dimensions": {
          "width": 1080,
          "height": 1920
        },
        "file_size": 131457,
        "format": "JPEG",
        "added_at": "2025-07-17T00:03:21.668942",
        "hash": "4cd7540faa827d19fdb78d407c1032a4",
        "source": "migrated"
      }
    },
    {
      "id": "cyberpunk_033",
      "category": "cyberpunk",
      "title": "Cyberpunk Wallpaper 033",
      "tags": [
        "cyberpunk",
        "wallpaper",
        "hd",
        "mobile"
      ],
      "urls": {
        "raw": "https://media.githubusercontent.com/media/ddh4r4m/wallpaper-collection/main/collection/wallpapers/cyberpunk/033.jpg",
        "thumb": "https://media.githubusercontent.com/media/ddh4r4m/wallpaper-collection/main/collection/thumbnails/cyberpunk/033.jpg"
      },
      "metadata": {
        "dimensions": {
          "width": 1080,
          "height": 1920
        },
        "file_size": 41109,
        "format": "JPEG",
        "added_at": "2025-07-17T00:03:22.258089",
        "hash": "1d9404d7d1123180762c0faaea84a566",
        "source": "migrated"
      }
    },
    {
      "id": "cyberpunk_034",
      "category": "cyberpunk",
      "title": "Cyberpunk Wallpaper 034",
      "tags": [
        "cyberpunk",
        "wallpaper",
        "hd",
        "mobile"
      ],
      "urls": {
        "raw": "https://media.githubusercontent.com/media/ddh4r4m/wallpaper-collection/main/collection/wallpapers/cyberpunk/034.jpg",
        "thumb": "https://media.githubusercontent.com/media/ddh4r4m/wallpaper-collection/main/collection/thumbnails/cyberpunk/034.jpg"
      },
      "metadata": {
        "dimensions": {
          "width": 1080,
          "height": 1920
        },
        "file_size": 373795,
        "format": "JPEG",
        "added_at": "2025-07-17T00:03:22.527825",
        "hash": "7583baec3e719842a9132c03ffd52ed9",
        "source": "migrated"
      }
    },
    {
      "id": "cyberpunk_035",
      "category": "cyberpunk",
      "title": "Cyberpunk Wallpaper 035",
      "tags": [
        "cyberpunk",
        "wallpaper",
        "hd",
        "mobile"
      ],
      "urls": {
        "raw": "https://media.githubusercontent.com/media/ddh4r4m/wallpaper-collection/main/collection/wallpapers/cyberpunk/035.jpg",
        "thumb": "https://media.githubusercontent.com/media/ddh4r4m/wallpaper-collection/main/collection/thumbnails/cyberpunk/035.jpg"
      },
      "metadata": {
        "dimensions": {
          "width": 1080,
          "height": 1920
        },
        "file_size": 385734,
        "format": "JPEG",
        "added_at": "2025-07-17T00:03:22.782053",
        "hash": "9653965c040bc0a7db543beb48f9f569",
        "source": "migrated"
      }
    },
    {
      "id": "cyberpunk_036",
      "category": "cyberpunk",
      "title": "Cyberpunk Wallpaper 036",
      "tags": [
        "cyberpunk",
        "wallpaper",
        "hd",
        "mobile"
      ],
      "urls": {
        "raw": "https://media.githubusercontent.com/media/ddh4r4m/wallpaper-collection/main/collection/wallpapers/cyberpunk/036.jpg",
        "thumb": "https://media.githubusercontent.com/media/ddh4r4m/wallpaper-collection/main/collection/thumbnails/cyberpunk/036.jpg"
      },
      "metadata": {
        "dimensions": {
          "width": 1080,
          "height": 1920
        },
        "file_size": 158209,
        "format": "JPEG",
        "added_at": "2025-07-17T00:03:23.109439",
        "hash": "b5c2a547b607721b61a23ce9d48f2f33",
        "source": "migrated"
      }
    },
    {
      "id": "cyberpunk_037",
      "category": "cyberpunk",
      "title": "Cyberpunk Wallpaper 037",
      "tags": [
        "cyberpunk",
        "wallpaper",
        "hd",
        "mobile"
      ],
      "urls": {
        "raw": "https://media.githubusercontent.com/media/ddh4r4m/wallpaper-collection/main/collection/wallpapers/cyberpunk/037.jpg",
        "thumb": "https://media.githubusercontent.com/media/ddh4r4m/wallpaper-collection/main/collection/thumbnails/cyberpunk/037.jpg"
      },
      "metadata": {
        "dimensions": {
          "width": 1080,
          "height": 1920
        },
        "file_size": 324441,
        "format": "JPEG",
        "added_at": "2025-07-17T00:03:23.363668",
        "hash": "384a60245f5476312628f0ae2d277172",
        "source": "migrated"
      }
    },
    {
      "id": "cyberpunk_038",
      "category": "cyberpunk",
      "title": "Cyberpunk Wallpaper 038",
      "tags": [
        "cyberpunk",
        "wallpaper",
        "hd",
        "mobile"
      ],
      "urls": {
        "raw": "https://media.githubusercontent.com/media/ddh4r4m/wallpaper-collection/main/collection/wallpapers/cyberpunk/038.jpg",
        "thumb": "https://media.githubusercontent.com/media/ddh4r4m/wallpaper-collection/main/collection/thumbnails/cyberpunk/038.jpg"
      },
      "metadata": {
        "dimensions": {
          "width": 1080,
          "height": 1920
        },
        "file_size": 253392,
        "format": "JPEG",
        "added_at": "2025-07-17T00:03:23.526947",
        "hash": "5d8de134a84090ece90e2b45c2a9fd22",
        "source": "migrated"
      }
    },
    {
      "id": "cyberpunk_039",
      "category": "cyberpunk",
      "title": "Cyberpunk Wallpaper 039",
      "tags": [
        "cyberpunk",
        "wallpaper",
        "hd",
        "mobile"
      ],
      "urls": {
        "raw": "https://media.githubusercontent.com/media/ddh4r4m/wallpaper-collection/main/collection/wallpapers/cyberpunk/039.jpg",
        "thumb": "https://media.githubusercontent.com/media/ddh4r4m/wallpaper-collection/main/collection/thumbnails/cyberpunk/039.jpg"
      },
      "metadata": {
        "dimensions": {
          "width": 1080,
          "height": 1920
        },
        "file_size": 89923,
        "format": "JPEG",
        "added_at": "2025-07-17T00:03:23.800055",
        "hash": "6108a1bf10ab40eb51fa9775f28130a1",
        "source": "migrated"
      }
    },
    {
      "id": "cyberpunk_040",
      "category": "cyberpunk",
      "title": "Cyberpunk Wallpaper 040",
      "tags": [
        "cyberpunk",
        "wallpaper",
        "hd",
        "mobile"
      ],
      "urls": {
        "raw": "https://media.githubusercontent.com/media/ddh4r4m/wallpaper-collection/main/collection/wallpapers/cyberpunk/040.jpg",
        "thumb": "https://media.githubusercontent.com/media/ddh4r4m/wallpaper-collection/main/collection/thumbnails/cyberpunk/040.jpg"
      },
      "metadata": {
        "dimensions": {
          "width": 1080,
          "height": 1920
        },
        "file_size": 321657,
        "format": "JPEG",
        "added_at": "2025-07-17T00:03:24.001980",
        "hash": "97bcfa4f3055d8f56ac387bde21f8744",
        "source": "migrated"
      }
    },
    {
      "id": "cyberpunk_041",
      "category": "cyberpunk",
      "title": "Cyberpunk Wallpaper 041",
      "tags": [
        "cyberpunk",
        "wallpaper",
        "hd",
        "mobile"
      ],
      "urls": {
        "raw": "https://media.githubusercontent.com/media/ddh4r4m/wallpaper-collection/main/collection/wallpapers/cyberpunk/041.jpg",
        "thumb": "https://media.githubusercontent.com/media/ddh4r4m/wallpaper-collection/main/collection/thumbnails/cyberpunk/041.jpg"
      },
      "metadata": {
        "dimensions": {
          "width": 1080,
          "height": 1920
        },
        "file_size": 289682,
        "format": "JPEG",
        "added_at": "2025-07-17T00:03:24.328288",
        "hash": "eab6e0a52adee421d5567195b4650fe0",
        "source": "migrated"
      }
    }
  ]
}