{
  "meta": {
    "version": "1.0",
    "generated_at": "2025-07-28T23:12:02.393375",
    "category": "cyberpunk",
    "page": 4,
    "per_page": 15,
    "total_pages": 6,
    "total_count": 88,
    "count_on_page": 15,
    "has_next": true,
    "has_prev": true,
    "next_page_url": "/api/v1/cyberpunk/pages/5.json",
    "prev_page_url": "/api/v1/cyberpunk/pages/3.json"
  },
  "data": [
    {
      "id": "cyberpunk_046",
      "category": "cyberpunk",
      "title": "Cyberpunk Wallpaper",
      "tags": [
        "cyberpunk",
        "unsplash",
        "hd",
        "mobile"
      ],
      "metadata": {
        "dimensions": {
          "width": 1080,
          "height": 1170
        },
        "file_size": 229971,
        "format": "JPEG",
        "added_at": "2025-07-17T22:12:45.621145",
        "hash": "605878f35afefbb67c2000be1d9b1be0",
        "photographer": "Unknown"
      },
      "urls": {
        "raw": "https://media.githubusercontent.com/media/ddh4r4m/wallpaper-collection/main/collection/wallpapers/cyberpunk/046.jpg",
        "thumb": "https://media.githubusercontent.com/media/ddh4r4m/wallpaper-collection/main/collection/thumbnails/cyberpunk/046.jpg"
      }
    },
    {
      "id": "cyberpunk_047",
      "category": "cyberpunk",
      "title": "Cyberpunk Wallpaper",
      "tags": [
        "cyberpunk",
        "unsplash",
        "hd",
        "mobile"
      ],
      "metadata": {
        "dimensions": {
          "width": 1080,
          "height": 1619
        },
        "file_size": 212377,
        "format": "JPEG",
        "added_at": "2025-07-17T22:31:00.829170",
        "hash": "922476d084cacb2b5848f0af3334d89a",
        "photographer": "Unknown"
      },
      "urls": {
        "raw": "https://media.githubusercontent.com/media/ddh4r4m/wallpaper-collection/main/collection/wallpapers/cyberpunk/047.jpg",
        "thumb": "https://media.githubusercontent.com/media/ddh4r4m/wallpaper-collection/main/collection/thumbnails/cyberpunk/047.jpg"
      }
    },
    {
      "id": "cyberpunk_048",
      "category": "cyberpunk",
      "title": "Cyberpunk Wallpaper",
      "tags": [
        "cyberpunk",
        "unsplash",
        "hd",
        "mobile"
      ],
      "metadata": {
        "dimensions": {
          "width": 1080,
          "height": 720
        },
        "file_size": 106676,
        "format": "JPEG",
        "added_at": "2025-07-17T22:31:03.111043",
        "hash": "db85abc4ae0adf7286cf9a98fa9414e2",
        "photographer": "Unknown"
      },
      "urls": {
        "raw": "https://media.githubusercontent.com/media/ddh4r4m/wallpaper-collection/main/collection/wallpapers/cyberpunk/048.jpg",
        "thumb": "https://media.githubusercontent.com/media/ddh4r4m/wallpaper-collection/main/collection/thumbnails/cyberpunk/048.jpg"
      }
    },
    {
      "id": "cyberpunk_049",
      "category": "cyberpunk",
      "title": "Cyberpunk Wallpaper",
      "tags": [
        "cyberpunk",
        "unsplash",
        "hd",
        "mobile"
      ],
      "metadata": {
        "dimensions": {
          "width": 1080,
          "height": 656
        },
        "file_size": 140865,
        "format": "JPEG",
        "added_at": "2025-07-17T22:31:06.531468",
        "hash": "3f46ed84235201977eb2515992191c42",
        "photographer": "Unknown"
      },
      "urls": {
        "raw": "https://media.githubusercontent.com/media/ddh4r4m/wallpaper-collection/main/collection/wallpapers/cyberpunk/049.jpg",
        "thumb": "https://media.githubusercontent.com/media/ddh4r4m/wallpaper-collection/main/collection/thumbnails/cyberpunk/049.jpg"
      }
    },
    {
      "id": "cyberpunk_050",
      "category": "cyberpunk",
      "title": "Cyberpunk Wallpaper",
      "tags": [
        "cyberpunk",
        "unsplash",
        "hd",
        "mobile"
      ],
      "metadata": {
        "dimensions": {
          "width": 1080,
          "height": 1620
        },
        "file_size": 144004,
        "format": "JPEG",
        "added_at": "2025-07-17T22:31:08.886851",
        "hash": "ebcc70f7d986bd5051e610f49e0269b7",
        "photographer": "Unknown"
      },
      "urls": {
        "raw": "https://media.githubusercontent.com/media/ddh4r4m/wallpaper-collection/main/collection/wallpapers/cyberpunk/050.jpg",
        "thumb": "https://media.githubusercontent.com/media/ddh4r4m/wallpaper-collection/main/collection/thumbnails/cyberpunk/050.jpg"
      }
    },
    {
      "id": "cyberpunk_051",
      "category": "cyberpunk",
      "title": "Cyberpunk Wallpaper",
      "tags": [
        "cyberpunk",
        "unsplash",
        "hd",
        "mobile"
      ],
      "metadata": {
        "dimensions": {
          "width": 1080,
          "height": 1170
        },
        "file_size": 229971,
        "format": "JPEG",
        "added_at": "2025-07-17T22:31:12.513302",
        "hash": "605878f35afefbb67c2000be1d9b1be0",
        "photographer": "Unknown"
      },
      "urls": {
        "raw": "https://media.githubusercontent.com/media/ddh4r4m/wallpaper-collection/main/collection/wallpapers/cyberpunk/051.jpg",
        "thumb": "https://media.githubusercontent.com/media/ddh4r4m/wallpaper-collection/main/collection/thumbnails/cyberpunk/051.jpg"
      }
    },
    {
      "id": "cyberpunk_052",
      "category": "cyberpunk",
      "title": "Cyberpunk Wallpaper",
      "tags": [
        "cyberpunk",
        "unsplash",
        "hd",
        "mobile"
      ],
      "metadata": {
        "dimensions": {
          "width": 1080,
          "height": 720
        },
        "file_size": 106676,
        "format": "JPEG",
        "added_at": "2025-07-17T22:31:13.739598",
        "hash": "db85abc4ae0adf7286cf9a98fa9414e2",
        "photographer": "Unknown"
      },
      "urls": {
        "raw": "https://media.githubusercontent.com/media/ddh4r4m/wallpaper-collection/main/collection/wallpapers/cyberpunk/052.jpg",
        "thumb": "https://media.githubusercontent.com/media/ddh4r4m/wallpaper-collection/main/collection/thumbnails/cyberpunk/052.jpg"
      }
    },
    {
      "id": "cyberpunk_053",
      "category": "cyberpunk",
      "title": "Cyberpunk Wallpaper",
      "tags": [
        "cyberpunk",
        "unsplash",
        "hd",
        "mobile"
      ],
      "metadata": {
        "dimensions": {
          "width": 1080,
          "height": 720
        },
        "file_size": 175309,
        "format": "JPEG",
        "added_at": "2025-07-17T22:31:16.450252",
        "hash": "27fcc94aecda74925e3fc76bb5143954",
        "photographer": "Unknown"
      },
      "urls": {
        "raw": "https://media.githubusercontent.com/media/ddh4r4m/wallpaper-collection/main/collection/wallpapers/cyberpunk/053.jpg",
        "thumb": "https://media.githubusercontent.com/media/ddh4r4m/wallpaper-collection/main/collection/thumbnails/cyberpunk/053.jpg"
      }
    },
    {
      "id": "cyberpunk_054",
      "category": "cyberpunk",
      "title": "Cyberpunk Wallpaper",
      "tags": [
        "cyberpunk",
        "unsplash",
        "hd",
        "mobile"
      ],
      "metadata": {
        "dimensions": {
          "width": 1080,
          "height": 675
        },
        "file_size": 112651,
        "format": "JPEG",
        "added_at": "2025-07-17T22:31:18.945811",
        "hash": "f7296e7ba4e60ecddb4628b0dda23ef2",
        "photographer": "Unknown"
      },
      "urls": {
        "raw": "https://media.githubusercontent.com/media/ddh4r4m/wallpaper-collection/main/collection/wallpapers/cyberpunk/054.jpg",
        "thumb": "https://media.githubusercontent.com/media/ddh4r4m/wallpaper-collection/main/collection/thumbnails/cyberpunk/054.jpg"
      }
    },
    {
      "id": "cyberpunk_055",
      "category": "cyberpunk",
      "title": "Cyberpunk Wallpaper",
      "tags": [
        "cyberpunk",
        "unsplash",
        "hd",
        "mobile"
      ],
      "metadata": {
        "dimensions": {
          "width": 1080,
          "height": 721
        },
        "file_size": 209909,
        "format": "JPEG",
        "added_at": "2025-07-17T22:31:22.618883",
        "hash": "f93672b959469d8ad05d7a830a592716",
        "photographer": "Unknown"
      },
      "urls": {
        "raw": "https://media.githubusercontent.com/media/ddh4r4m/wallpaper-collection/main/collection/wallpapers/cyberpunk/055.jpg",
        "thumb": "https://media.githubusercontent.com/media/ddh4r4m/wallpaper-collection/main/collection/thumbnails/cyberpunk/055.jpg"
      }
    },
    {
      "id": "cyberpunk_056",
      "category": "cyberpunk",
      "title": "Cyberpunk Wallpaper",
      "tags": [
        "cyberpunk",
        "unsplash",
        "hd",
        "mobile"
      ],
      "metadata": {
        "dimensions": {
          "width": 1080,
          "height": 810
        },
        "file_size": 68297,
        "format": "JPEG",
        "added_at": "2025-07-17T22:31:24.942787",
        "hash": "754a0ab013f873b68262917713966f72",
        "photographer": "Unknown"
      },
      "urls": {
        "raw": "https://media.githubusercontent.com/media/ddh4r4m/wallpaper-collection/main/collection/wallpapers/cyberpunk/056.jpg",
        "thumb": "https://media.githubusercontent.com/media/ddh4r4m/wallpaper-collection/main/collection/thumbnails/cyberpunk/056.jpg"
      }
    },
    {
      "id": "cyberpunk_057",
      "category": "cyberpunk",
      "title": "Sonny Brisko Cyber Office by D - Reddit AI",
      "tags": [
        "cyberpunk",
        "ai-generated",
        "hd",
        "mobile",
        "community"
      ],
      "metadata": {
        "dimensions": {
          "width": 1080,
          "height": 608
        },
        "file_size": 132347,
        "format": "JPEG",
        "added_at": "2025-07-18T00:25:24.527308",
        "hash": "8338f1df51e8948d19057ea5d40c3831",
        "ai_source": "reddit",
        "ai_generated": true,
        "community_score": 29
      },
      "urls": {
        "raw": "https://media.githubusercontent.com/media/ddh4r4m/wallpaper-collection/main/collection/wallpapers/cyberpunk/057.jpg",
        "thumb": "https://media.githubusercontent.com/media/ddh4r4m/wallpaper-collection/main/collection/thumbnails/cyberpunk/057.jpg"
      }
    },
    {
      "id": "cyberpunk_058",
      "category": "cyberpunk",
      "title": "Drones indicating exit after a - Reddit AI",
      "tags": [
        "cyberpunk",
        "ai-generated",
        "hd",
        "mobile",
        "community"
      ],
      "metadata": {
        "dimensions": {
          "width": 1080,
          "height": 1440
        },
        "file_size": 151591,
        "format": "JPEG",
        "added_at": "2025-07-18T00:25:25.668550",
        "hash": "476cfd2f0221375c4c6035dd8f314764",
        "ai_source": "reddit",
        "ai_generated": true,
        "community_score": 6733
      },
      "urls": {
        "raw": "https://media.githubusercontent.com/media/ddh4r4m/wallpaper-collection/main/collection/wallpapers/cyberpunk/058.jpg",
        "thumb": "https://media.githubusercontent.com/media/ddh4r4m/wallpaper-collection/main/collection/thumbnails/cyberpunk/058.jpg"
      }
    },
    {
      "id": "cyberpunk_059",
      "category": "cyberpunk",
      "title": "Yet another bedroom from my sk - Reddit AI",
      "tags": [
        "cyberpunk",
        "ai-generated",
        "hd",
        "mobile",
        "community"
      ],
      "metadata": {
        "dimensions": {
          "width": 1080,
          "height": 840
        },
        "file_size": 292913,
        "format": "JPEG",
        "added_at": "2025-07-18T00:25:26.927574",
        "hash": "938fc079d9343e1a77b7d81a57fdeb10",
        "ai_source": "reddit",
        "ai_generated": true,
        "community_score": 127
      },
      "urls": {
        "raw": "https://media.githubusercontent.com/media/ddh4r4m/wallpaper-collection/main/collection/wallpapers/cyberpunk/059.jpg",
        "thumb": "https://media.githubusercontent.com/media/ddh4r4m/wallpaper-collection/main/collection/thumbnails/cyberpunk/059.jpg"
      }
    },
    {
      "id": "cyberpunk_060",
      "category": "cyberpunk",
      "title": "It looks like it's going to be - Reddit AI",
      "tags": [
        "cyberpunk",
        "ai-generated",
        "hd",
        "mobile",
        "community"
      ],
      "metadata": {
        "dimensions": {
          "width": 1080,
          "height": 1440
        },
        "file_size": 422863,
        "format": "JPEG",
        "added_at": "2025-07-18T00:25:28.073905",
        "hash": "aee7c57f179115fe8e07855dd7a222c1",
        "ai_source": "reddit",
        "ai_generated": true,
        "community_score": 54
      },
      "urls": {
        "raw": "https://media.githubusercontent.com/media/ddh4r4m/wallpaper-collection/main/collection/wallpapers/cyberpunk/060.jpg",
        "thumb": "https://media.githubusercontent.com/media/ddh4r4m/wallpaper-collection/main/collection/thumbnails/cyberpunk/060.jpg"
      }
    }
  ]
}