{
  "meta": {
    "version": "1.0",
    "generated_at": "2025-07-28T22:48:38.208699",
    "category": "cyberpunk",
    "page": 5,
    "per_page": 15,
    "total_pages": 6,
    "total_count": 88,
    "count_on_page": 15,
    "has_next": true,
    "has_prev": true,
    "next_page_url": "/api/v1/cyberpunk/pages/6.json",
    "prev_page_url": "/api/v1/cyberpunk/pages/4.json"
  },
  "data": [
    {
      "id": "cyberpunk_061",
      "category": "cyberpunk",
      "title": "M3gan 2.0 is genuinely one of  - Reddit AI",
      "tags": [
        "cyberpunk",
        "ai-generated",
        "hd",
        "mobile",
        "community"
      ],
      "metadata": {
        "dimensions": {
          "width": 1055,
          "height": 641
        },
        "file_size": 94304,
        "format": "JPEG",
        "added_at": "2025-07-18T00:25:29.160295",
        "hash": "a559d3a69a72f56f150f307a5b13dc33",
        "ai_source": "reddit",
        "ai_generated": true,
        "community_score": 211
      },
      "urls": {
        "raw": "https://media.githubusercontent.com/media/ddh4r4m/wallpaper-collection/main/collection/wallpapers/cyberpunk/061.jpg",
        "thumb": "https://media.githubusercontent.com/media/ddh4r4m/wallpaper-collection/main/collection/thumbnails/cyberpunk/061.jpg"
      }
    },
    {
      "id": "cyberpunk_062",
      "category": "cyberpunk",
      "title": "LAPD recruitment ads on Reddit - Reddit AI",
      "tags": [
        "cyberpunk",
        "ai-generated",
        "hd",
        "mobile",
        "community"
      ],
      "metadata": {
        "dimensions": {
          "width": 1080,
          "height": 1821
        },
        "file_size": 242814,
        "format": "JPEG",
        "added_at": "2025-07-19T11:44:44.015612",
        "hash": "9ea47b765b234f5da1b7897d650d2386",
        "ai_source": "reddit",
        "ai_generated": true,
        "community_score": 75
      },
      "urls": {
        "raw": "https://media.githubusercontent.com/media/ddh4r4m/wallpaper-collection/main/collection/wallpapers/cyberpunk/062.jpg",
        "thumb": "https://media.githubusercontent.com/media/ddh4r4m/wallpaper-collection/main/collection/thumbnails/cyberpunk/062.jpg"
      }
    },
    {
      "id": "cyberpunk_063",
      "category": "cyberpunk",
      "title": "They have a point - Reddit AI",
      "tags": [
        "cyberpunk",
        "ai-generated",
        "hd",
        "mobile",
        "community"
      ],
      "metadata": {
        "dimensions": {
          "width": 1080,
          "height": 765
        },
        "file_size": 96094,
        "format": "JPEG",
        "added_at": "2025-07-19T11:44:45.151394",
        "hash": "81cd17bfac047d5915343c915d0b5b5b",
        "ai_source": "reddit",
        "ai_generated": true,
        "community_score": 795
      },
      "urls": {
        "raw": "https://media.githubusercontent.com/media/ddh4r4m/wallpaper-collection/main/collection/wallpapers/cyberpunk/063.jpg",
        "thumb": "https://media.githubusercontent.com/media/ddh4r4m/wallpaper-collection/main/collection/thumbnails/cyberpunk/063.jpg"
      }
    },
    {
      "id": "cyberpunk_064",
      "category": "cyberpunk",
      "title": "Bad news for Rez, good news fo - Reddit AI",
      "tags": [
        "cyberpunk",
        "ai-generated",
        "hd",
        "mobile",
        "community"
      ],
      "metadata": {
        "dimensions": {
          "width": 1080,
          "height": 1311
        },
        "file_size": 133972,
        "format": "JPEG",
        "added_at": "2025-07-19T11:44:46.249553",
        "hash": "be7b955dcec1e8071775a0f097b990c2",
        "ai_source": "reddit",
        "ai_generated": true,
        "community_score": 35
      },
      "urls": {
        "raw": "https://media.githubusercontent.com/media/ddh4r4m/wallpaper-collection/main/collection/wallpapers/cyberpunk/064.jpg",
        "thumb": "https://media.githubusercontent.com/media/ddh4r4m/wallpaper-collection/main/collection/thumbnails/cyberpunk/064.jpg"
      }
    },
    {
      "id": "cyberpunk_065",
      "category": "cyberpunk",
      "title": "Chinatown - Reddit AI",
      "tags": [
        "cyberpunk",
        "ai-generated",
        "hd",
        "mobile",
        "community"
      ],
      "metadata": {
        "dimensions": {
          "width": 1080,
          "height": 1527
        },
        "file_size": 295149,
        "format": "JPEG",
        "added_at": "2025-07-19T11:44:47.505551",
        "hash": "91a6575abd9f061a6bde3c4401c377db",
        "ai_source": "reddit",
        "ai_generated": true,
        "community_score": 274
      },
      "urls": {
        "raw": "https://media.githubusercontent.com/media/ddh4r4m/wallpaper-collection/main/collection/wallpapers/cyberpunk/065.jpg",
        "thumb": "https://media.githubusercontent.com/media/ddh4r4m/wallpaper-collection/main/collection/thumbnails/cyberpunk/065.jpg"
      }
    },
    {
      "id": "cyberpunk_066",
      "category": "cyberpunk",
      "title": "Sonny Brisko Cyber Office by D - Reddit AI",
      "tags": [
        "cyberpunk",
        "ai-generated",
        "hd",
        "mobile",
        "community"
      ],
      "metadata": {
        "dimensions": {
          "width": 1080,
          "height": 608
        },
        "file_size": 132347,
        "format": "JPEG",
        "added_at": "2025-07-19T11:44:48.608075",
        "hash": "8338f1df51e8948d19057ea5d40c3831",
        "ai_source": "reddit",
        "ai_generated": true,
        "community_score": 67
      },
      "urls": {
        "raw": "https://media.githubusercontent.com/media/ddh4r4m/wallpaper-collection/main/collection/wallpapers/cyberpunk/066.jpg",
        "thumb": "https://media.githubusercontent.com/media/ddh4r4m/wallpaper-collection/main/collection/thumbnails/cyberpunk/066.jpg"
      }
    },
    {
      "id": "cyberpunk_067",
      "category": "cyberpunk",
      "title": "Drones indicating exit after a - Reddit AI",
      "tags": [
        "cyberpunk",
        "ai-generated",
        "hd",
        "mobile",
        "community"
      ],
      "metadata": {
        "dimensions": {
          "width": 1080,
          "height": 1440
        },
        "file_size": 151591,
        "format": "JPEG",
        "added_at": "2025-07-19T11:44:49.723009",
        "hash": "476cfd2f0221375c4c6035dd8f314764",
        "ai_source": "reddit",
        "ai_generated": true,
        "community_score": 7453
      },
      "urls": {
        "raw": "https://media.githubusercontent.com/media/ddh4r4m/wallpaper-collection/main/collection/wallpapers/cyberpunk/067.jpg",
        "thumb": "https://media.githubusercontent.com/media/ddh4r4m/wallpaper-collection/main/collection/thumbnails/cyberpunk/067.jpg"
      }
    },
    {
      "id": "cyberpunk_068",
      "category": "cyberpunk",
      "title": "Yet another bedroom from my sk - Reddit AI",
      "tags": [
        "cyberpunk",
        "ai-generated",
        "hd",
        "mobile",
        "community"
      ],
      "metadata": {
        "dimensions": {
          "width": 1080,
          "height": 840
        },
        "file_size": 292913,
        "format": "JPEG",
        "added_at": "2025-07-19T11:44:50.969511",
        "hash": "938fc079d9343e1a77b7d81a57fdeb10",
        "ai_source": "reddit",
        "ai_generated": true,
        "community_score": 162
      },
      "urls": {
        "raw": "https://media.githubusercontent.com/media/ddh4r4m/wallpaper-collection/main/collection/wallpapers/cyberpunk/068.jpg",
        "thumb": "https://media.githubusercontent.com/media/ddh4r4m/wallpaper-collection/main/collection/thumbnails/cyberpunk/068.jpg"
      }
    },
    {
      "id": "cyberpunk_069",
      "category": "cyberpunk",
      "title": "It looks like it's going to be - Reddit AI",
      "tags": [
        "cyberpunk",
        "ai-generated",
        "hd",
        "mobile",
        "community"
      ],
      "metadata": {
        "dimensions": {
          "width": 1080,
          "height": 1440
        },
        "file_size": 422863,
        "format": "JPEG",
        "added_at": "2025-07-19T11:44:52.106931",
        "hash": "aee7c57f179115fe8e07855dd7a222c1",
        "ai_source": "reddit",
        "ai_generated": true,
        "community_score": 62
      },
      "urls": {
        "raw": "https://media.githubusercontent.com/media/ddh4r4m/wallpaper-collection/main/collection/wallpapers/cyberpunk/069.jpg",
        "thumb": "https://media.githubusercontent.com/media/ddh4r4m/wallpaper-collection/main/collection/thumbnails/cyberpunk/069.jpg"
      }
    },
    {
      "id": "cyberpunk_070",
      "category": "cyberpunk",
      "title": "InScene: Flux Kontext LoRA for - Reddit AI",
      "tags": [
        "cyberpunk",
        "ai-generated",
        "hd",
        "mobile",
        "community"
      ],
      "metadata": {
        "dimensions": {
          "width": 1080,
          "height": 1237
        },
        "file_size": 184489,
        "format": "JPEG",
        "added_at": "2025-07-19T11:44:54.585811",
        "hash": "fb0e599908bad4c59fae0ae91d0bd868",
        "ai_source": "reddit",
        "ai_generated": true,
        "community_score": 327
      },
      "urls": {
        "raw": "https://media.githubusercontent.com/media/ddh4r4m/wallpaper-collection/main/collection/wallpapers/cyberpunk/070.jpg",
        "thumb": "https://media.githubusercontent.com/media/ddh4r4m/wallpaper-collection/main/collection/thumbnails/cyberpunk/070.jpg"
      }
    },
    {
      "id": "cyberpunk_071",
      "category": "cyberpunk",
      "title": "LAPD recruitment ads on Reddit - Reddit AI",
      "tags": [
        "cyberpunk",
        "ai-generated",
        "hd",
        "mobile",
        "community"
      ],
      "metadata": {
        "dimensions": {
          "width": 1080,
          "height": 1821
        },
        "file_size": 242814,
        "format": "JPEG",
        "added_at": "2025-07-19T11:49:03.917692",
        "hash": "9ea47b765b234f5da1b7897d650d2386",
        "ai_source": "reddit",
        "ai_generated": true,
        "community_score": 74
      },
      "urls": {
        "raw": "https://media.githubusercontent.com/media/ddh4r4m/wallpaper-collection/main/collection/wallpapers/cyberpunk/071.jpg",
        "thumb": "https://media.githubusercontent.com/media/ddh4r4m/wallpaper-collection/main/collection/thumbnails/cyberpunk/071.jpg"
      }
    },
    {
      "id": "cyberpunk_072",
      "category": "cyberpunk",
      "title": "They have a point - Reddit AI",
      "tags": [
        "cyberpunk",
        "ai-generated",
        "hd",
        "mobile",
        "community"
      ],
      "metadata": {
        "dimensions": {
          "width": 1080,
          "height": 765
        },
        "file_size": 96094,
        "format": "JPEG",
        "added_at": "2025-07-19T11:49:05.049762",
        "hash": "81cd17bfac047d5915343c915d0b5b5b",
        "ai_source": "reddit",
        "ai_generated": true,
        "community_score": 790
      },
      "urls": {
        "raw": "https://media.githubusercontent.com/media/ddh4r4m/wallpaper-collection/main/collection/wallpapers/cyberpunk/072.jpg",
        "thumb": "https://media.githubusercontent.com/media/ddh4r4m/wallpaper-collection/main/collection/thumbnails/cyberpunk/072.jpg"
      }
    },
    {
      "id": "cyberpunk_073",
      "category": "cyberpunk",
      "title": "Bad news for Rez, good news fo - Reddit AI",
      "tags": [
        "cyberpunk",
        "ai-generated",
        "hd",
        "mobile",
        "community"
      ],
      "metadata": {
        "dimensions": {
          "width": 1080,
          "height": 1311
        },
        "file_size": 133972,
        "format": "JPEG",
        "added_at": "2025-07-19T11:49:06.134110",
        "hash": "be7b955dcec1e8071775a0f097b990c2",
        "ai_source": "reddit",
        "ai_generated": true,
        "community_score": 36
      },
      "urls": {
        "raw": "https://media.githubusercontent.com/media/ddh4r4m/wallpaper-collection/main/collection/wallpapers/cyberpunk/073.jpg",
        "thumb": "https://media.githubusercontent.com/media/ddh4r4m/wallpaper-collection/main/collection/thumbnails/cyberpunk/073.jpg"
      }
    },
    {
      "id": "cyberpunk_074",
      "category": "cyberpunk",
      "title": "Chinatown - Reddit AI",
      "tags": [
        "cyberpunk",
        "ai-generated",
        "hd",
        "mobile",
        "community"
      ],
      "metadata": {
        "dimensions": {
          "width": 1080,
          "height": 1527
        },
        "file_size": 295149,
        "format": "JPEG",
        "added_at": "2025-07-19T11:49:07.392469",
        "hash": "91a6575abd9f061a6bde3c4401c377db",
        "ai_source": "reddit",
        "ai_generated": true,
        "community_score": 276
      },
      "urls": {
        "raw": "https://media.githubusercontent.com/media/ddh4r4m/wallpaper-collection/main/collection/wallpapers/cyberpunk/074.jpg",
        "thumb": "https://media.githubusercontent.com/media/ddh4r4m/wallpaper-collection/main/collection/thumbnails/cyberpunk/074.jpg"
      }
    },
    {
      "id": "cyberpunk_075",
      "category": "cyberpunk",
      "title": "Sonny Brisko Cyber Office by D - Reddit AI",
      "tags": [
        "cyberpunk",
        "ai-generated",
        "hd",
        "mobile",
        "community"
      ],
      "metadata": {
        "dimensions": {
          "width": 1080,
          "height": 608
        },
        "file_size": 132347,
        "format": "JPEG",
        "added_at": "2025-07-19T11:49:08.507416",
        "hash": "8338f1df51e8948d19057ea5d40c3831",
        "ai_source": "reddit",
        "ai_generated": true,
        "community_score": 68
      },
      "urls": {
        "raw": "https://media.githubusercontent.com/media/ddh4r4m/wallpaper-collection/main/collection/wallpapers/cyberpunk/075.jpg",
        "thumb": "https://media.githubusercontent.com/media/ddh4r4m/wallpaper-collection/main/collection/thumbnails/cyberpunk/075.jpg"
      }
    }
  ]
}