{
  "meta": {
    "version": "1.0",
    "generated_at": "2025-07-19T12:26:57.111378",
    "category": "cyberpunk",
    "page": 6,
    "per_page": 15,
    "total_pages": 6,
    "total_count": 88,
    "count_on_page": 13,
    "has_next": false,
    "has_prev": true,
    "next_page_url": null,
    "prev_page_url": "/api/v1/cyberpunk/pages/5.json"
  },
  "data": [
    {
      "id": "cyberpunk_076",
      "category": "cyberpunk",
      "title": "Drones indicating exit after a - Reddit AI",
      "tags": [
        "cyberpunk",
        "ai-generated",
        "hd",
        "mobile",
        "community"
      ],
      "metadata": {
        "dimensions": {
          "width": 1080,
          "height": 1440
        },
        "file_size": 151591,
        "format": "JPEG",
        "added_at": "2025-07-19T11:49:09.607261",
        "hash": "476cfd2f0221375c4c6035dd8f314764",
        "ai_source": "reddit",
        "ai_generated": true,
        "community_score": 7451
      },
      "urls": {
        "raw": "https://media.githubusercontent.com/media/ddh4r4m/wallpaper-collection/main/collection/wallpapers/cyberpunk/076.jpg",
        "thumb": "https://media.githubusercontent.com/media/ddh4r4m/wallpaper-collection/main/collection/thumbnails/cyberpunk/076.jpg"
      }
    },
    {
      "id": "cyberpunk_077",
      "category": "cyberpunk",
      "title": "Yet another bedroom from my sk - Reddit AI",
      "tags": [
        "cyberpunk",
        "ai-generated",
        "hd",
        "mobile",
        "community"
      ],
      "metadata": {
        "dimensions": {
          "width": 1080,
          "height": 840
        },
        "file_size": 292913,
        "format": "JPEG",
        "added_at": "2025-07-19T11:49:10.907709",
        "hash": "938fc079d9343e1a77b7d81a57fdeb10",
        "ai_source": "reddit",
        "ai_generated": true,
        "community_score": 166
      },
      "urls": {
        "raw": "https://media.githubusercontent.com/media/ddh4r4m/wallpaper-collection/main/collection/wallpapers/cyberpunk/077.jpg",
        "thumb": "https://media.githubusercontent.com/media/ddh4r4m/wallpaper-collection/main/collection/thumbnails/cyberpunk/077.jpg"
      }
    },
    {
      "id": "cyberpunk_078",
      "category": "cyberpunk",
      "title": "It looks like it's going to be - Reddit AI",
      "tags": [
        "cyberpunk",
        "ai-generated",
        "hd",
        "mobile",
        "community"
      ],
      "metadata": {
        "dimensions": {
          "width": 1080,
          "height": 1440
        },
        "file_size": 422863,
        "format": "JPEG",
        "added_at": "2025-07-19T11:49:12.057014",
        "hash": "aee7c57f179115fe8e07855dd7a222c1",
        "ai_source": "reddit",
        "ai_generated": true,
        "community_score": 66
      },
      "urls": {
        "raw": "https://media.githubusercontent.com/media/ddh4r4m/wallpaper-collection/main/collection/wallpapers/cyberpunk/078.jpg",
        "thumb": "https://media.githubusercontent.com/media/ddh4r4m/wallpaper-collection/main/collection/thumbnails/cyberpunk/078.jpg"
      }
    },
    {
      "id": "cyberpunk_079",
      "category": "cyberpunk",
      "title": "InScene: Flux Kontext LoRA for - Reddit AI",
      "tags": [
        "cyberpunk",
        "ai-generated",
        "hd",
        "mobile",
        "community"
      ],
      "metadata": {
        "dimensions": {
          "width": 1080,
          "height": 1237
        },
        "file_size": 184489,
        "format": "JPEG",
        "added_at": "2025-07-19T11:49:14.609442",
        "hash": "fb0e599908bad4c59fae0ae91d0bd868",
        "ai_source": "reddit",
        "ai_generated": true,
        "community_score": 329
      },
      "urls": {
        "raw": "https://media.githubusercontent.com/media/ddh4r4m/wallpaper-collection/main/collection/wallpapers/cyberpunk/079.jpg",
        "thumb": "https://media.githubusercontent.com/media/ddh4r4m/wallpaper-collection/main/collection/thumbnails/cyberpunk/079.jpg"
      }
    },
    {
      "id": "cyberpunk_080",
      "category": "cyberpunk",
      "title": "masterpiece, best_quality, absurdres, ul - Civitai AI",
      "tags": [
        "cyberpunk",
        "ai-generated",
        "civitai",
        "stable-diffusion",
        "hd",
        "mobile",
        "community-rated"
      ],
      "metadata": {
        "dimensions": {
          "width": 1080,
          "height": 1584
        },
        "file_size": 415255,
        "format": "JPEG",
        "added_at": "2025-07-19T11:59:06.321668",
        "hash": "8852d4160ae94b17f50cb8040c6f51d4",
        "ai_source": "civitai",
        "ai_generated": true,
        "source_platform": "civitai.com",
        "ai_prompt": "masterpiece, best_quality, absurdres, ultra-detailed, intricate_details, sharp_focus, painterly, traditional media, hdr, vibrant_colors, ink_wash, cinematic_lighting, epic_composition, landscape, scen",
        "civitai_stats": {
          "cryCount": 323,
          "laughCount": 544,
          "likeCount": 4247,
          "dislikeCount": 0,
          "heartCount": 1568,
          "commentCount": 2
        }
      },
      "urls": {
        "raw": "https://media.githubusercontent.com/media/ddh4r4m/wallpaper-collection/main/collection/wallpapers/cyberpunk/080.jpg",
        "thumb": "https://media.githubusercontent.com/media/ddh4r4m/wallpaper-collection/main/collection/thumbnails/cyberpunk/080.jpg"
      }
    },
    {
      "id": "cyberpunk_081",
      "category": "cyberpunk",
      "title": "Dramatic,Dynamic,Cinematic,Sharp details - Civitai AI",
      "tags": [
        "cyberpunk",
        "ai-generated",
        "civitai",
        "stable-diffusion",
        "hd",
        "mobile",
        "community-rated"
      ],
      "metadata": {
        "dimensions": {
          "width": 1080,
          "height": 1566
        },
        "file_size": 291750,
        "format": "JPEG",
        "added_at": "2025-07-19T11:59:07.488883",
        "hash": "ae80388112eaac11a7b5e633e50bca53",
        "ai_source": "civitai",
        "ai_generated": true,
        "source_platform": "civitai.com",
        "ai_prompt": "Dramatic,Dynamic,Cinematic,Sharp details\nInsane quality. Insane resolution. Insane details. Masterpiece. 32k resolution.\nA grand, majestic fantasy city carved into a mountainside with intricate archit",
        "civitai_stats": {
          "cryCount": 196,
          "laughCount": 391,
          "likeCount": 3217,
          "dislikeCount": 0,
          "heartCount": 962,
          "commentCount": 1
        }
      },
      "urls": {
        "raw": "https://media.githubusercontent.com/media/ddh4r4m/wallpaper-collection/main/collection/wallpapers/cyberpunk/081.jpg",
        "thumb": "https://media.githubusercontent.com/media/ddh4r4m/wallpaper-collection/main/collection/thumbnails/cyberpunk/081.jpg"
      }
    },
    {
      "id": "cyberpunk_082",
      "category": "cyberpunk",
      "title": "Cyberpunk AI Art - Civitai",
      "tags": [
        "cyberpunk",
        "ai-generated",
        "civitai",
        "stable-diffusion",
        "hd",
        "mobile",
        "community-rated"
      ],
      "metadata": {
        "dimensions": {
          "width": 1076,
          "height": 1920
        },
        "file_size": 676069,
        "format": "JPEG",
        "added_at": "2025-07-19T11:59:09.908967",
        "hash": "ffaa6d1ff2d380a9c8e89ad3c06ef17b",
        "ai_source": "civitai",
        "ai_generated": true,
        "source_platform": "civitai.com",
        "civitai_stats": {
          "cryCount": 85,
          "laughCount": 141,
          "likeCount": 1573,
          "dislikeCount": 0,
          "heartCount": 466,
          "commentCount": 3
        }
      },
      "urls": {
        "raw": "https://media.githubusercontent.com/media/ddh4r4m/wallpaper-collection/main/collection/wallpapers/cyberpunk/082.jpg",
        "thumb": "https://media.githubusercontent.com/media/ddh4r4m/wallpaper-collection/main/collection/thumbnails/cyberpunk/082.jpg"
      }
    },
    {
      "id": "cyberpunk_083",
      "category": "cyberpunk",
      "title": "masterpiece, best quality, highres, absu - Civitai AI",
      "tags": [
        "cyberpunk",
        "ai-generated",
        "civitai",
        "stable-diffusion",
        "hd",
        "mobile",
        "garagemixnoob-v10eps",
        "community-rated"
      ],
      "metadata": {
        "dimensions": {
          "width": 1080,
          "height": 1578
        },
        "file_size": 330221,
        "format": "JPEG",
        "added_at": "2025-07-19T11:59:14.082907",
        "hash": "657c1e718e385c14d0cef6476a35d813",
        "ai_source": "civitai",
        "ai_generated": true,
        "source_platform": "civitai.com",
        "ai_prompt": "masterpiece, best quality, highres, absurdres, very awa, 1girl, solo, cat tail, short hair, white hair, curly hair, hair between eyes, animal ears, demon slayer uniform, white haori, long sleeves, bla",
        "ai_model": "garageMixNoob_v10EPS",
        "civitai_stats": {
          "cryCount": 28,
          "laughCount": 50,
          "likeCount": 748,
          "dislikeCount": 0,
          "heartCount": 223,
          "commentCount": 0
        }
      },
      "urls": {
        "raw": "https://media.githubusercontent.com/media/ddh4r4m/wallpaper-collection/main/collection/wallpapers/cyberpunk/083.jpg",
        "thumb": "https://media.githubusercontent.com/media/ddh4r4m/wallpaper-collection/main/collection/thumbnails/cyberpunk/083.jpg"
      }
    },
    {
      "id": "cyberpunk_084",
      "category": "cyberpunk",
      "title": "Cyberpunk AI Art - Civitai",
      "tags": [
        "cyberpunk",
        "ai-generated",
        "civitai",
        "stable-diffusion",
        "hd",
        "mobile",
        "community-rated"
      ],
      "metadata": {
        "dimensions": {
          "width": 1080,
          "height": 1080
        },
        "file_size": 310330,
        "format": "JPEG",
        "added_at": "2025-07-19T11:59:17.387494",
        "hash": "7097139bbdb02b2fcf4c2efa0dd314bd",
        "ai_source": "civitai",
        "ai_generated": true,
        "source_platform": "civitai.com",
        "civitai_stats": {
          "cryCount": 23,
          "laughCount": 61,
          "likeCount": 625,
          "dislikeCount": 0,
          "heartCount": 163,
          "commentCount": 1
        }
      },
      "urls": {
        "raw": "https://media.githubusercontent.com/media/ddh4r4m/wallpaper-collection/main/collection/wallpapers/cyberpunk/084.jpg",
        "thumb": "https://media.githubusercontent.com/media/ddh4r4m/wallpaper-collection/main/collection/thumbnails/cyberpunk/084.jpg"
      }
    },
    {
      "id": "cyberpunk_085",
      "category": "cyberpunk",
      "title": "ethereal fantasy concept art of  anime a - Civitai AI",
      "tags": [
        "cyberpunk",
        "ai-generated",
        "civitai",
        "stable-diffusion",
        "hd",
        "mobile",
        "zhongshi-xl-v4-best",
        "community-rated"
      ],
      "metadata": {
        "dimensions": {
          "width": 960,
          "height": 1200
        },
        "file_size": 221047,
        "format": "JPEG",
        "added_at": "2025-07-19T11:59:19.237676",
        "hash": "134e65f001cc9c3c1f004eb5636a1ce1",
        "ai_source": "civitai",
        "ai_generated": true,
        "source_platform": "civitai.com",
        "ai_prompt": "ethereal fantasy concept art of  anime artwork lazypos ,best quality, masterpiece, extremely detailed,professional  art,professional painting,an extremely delicate and beautiful,dynamic,great lighting",
        "ai_model": "ZhongShi XL v4 BEST",
        "civitai_stats": {
          "cryCount": 19,
          "laughCount": 49,
          "likeCount": 605,
          "dislikeCount": 0,
          "heartCount": 126,
          "commentCount": 0
        }
      },
      "urls": {
        "raw": "https://media.githubusercontent.com/media/ddh4r4m/wallpaper-collection/main/collection/wallpapers/cyberpunk/085.jpg",
        "thumb": "https://media.githubusercontent.com/media/ddh4r4m/wallpaper-collection/main/collection/thumbnails/cyberpunk/085.jpg"
      }
    },
    {
      "id": "cyberpunk_086",
      "category": "cyberpunk",
      "title": "ethereal fantasy concept art of  anime a - Civitai AI",
      "tags": [
        "cyberpunk",
        "ai-generated",
        "civitai",
        "stable-diffusion",
        "hd",
        "mobile",
        "zhongshi-xl-v4-best",
        "community-rated"
      ],
      "metadata": {
        "dimensions": {
          "width": 960,
          "height": 1200
        },
        "file_size": 228837,
        "format": "JPEG",
        "added_at": "2025-07-19T11:59:20.925923",
        "hash": "5c8e1d092796abaebde67f6465b9f467",
        "ai_source": "civitai",
        "ai_generated": true,
        "source_platform": "civitai.com",
        "ai_prompt": "ethereal fantasy concept art of  anime artwork lazypos ,best quality, masterpiece, extremely detailed,professional  art,professional painting,an extremely delicate and beautiful,dynamic,great lighting",
        "ai_model": "ZhongShi XL v4 BEST",
        "civitai_stats": {
          "cryCount": 10,
          "laughCount": 37,
          "likeCount": 589,
          "dislikeCount": 0,
          "heartCount": 109,
          "commentCount": 1
        }
      },
      "urls": {
        "raw": "https://media.githubusercontent.com/media/ddh4r4m/wallpaper-collection/main/collection/wallpapers/cyberpunk/086.jpg",
        "thumb": "https://media.githubusercontent.com/media/ddh4r4m/wallpaper-collection/main/collection/thumbnails/cyberpunk/086.jpg"
      }
    },
    {
      "id": "cyberpunk_087",
      "category": "cyberpunk",
      "title": "Cyberpunk AI Art - Civitai",
      "tags": [
        "cyberpunk",
        "ai-generated",
        "civitai",
        "stable-diffusion",
        "hd",
        "mobile",
        "community-rated"
      ],
      "metadata": {
        "dimensions": {
          "width": 1080,
          "height": 1080
        },
        "file_size": 281478,
        "format": "JPEG",
        "added_at": "2025-07-19T11:59:22.481152",
        "hash": "b6f91e98d920edd7ac208a506169f298",
        "ai_source": "civitai",
        "ai_generated": true,
        "source_platform": "civitai.com",
        "civitai_stats": {
          "cryCount": 14,
          "laughCount": 43,
          "likeCount": 448,
          "dislikeCount": 0,
          "heartCount": 107,
          "commentCount": 0
        }
      },
      "urls": {
        "raw": "https://media.githubusercontent.com/media/ddh4r4m/wallpaper-collection/main/collection/wallpapers/cyberpunk/087.jpg",
        "thumb": "https://media.githubusercontent.com/media/ddh4r4m/wallpaper-collection/main/collection/thumbnails/cyberpunk/087.jpg"
      }
    },
    {
      "id": "cyberpunk_088",
      "category": "cyberpunk",
      "title": "ethereal fantasy concept art of  anime a - Civitai AI",
      "tags": [
        "cyberpunk",
        "ai-generated",
        "civitai",
        "stable-diffusion",
        "hd",
        "mobile",
        "zhongshi-xl-v4-best",
        "community-rated"
      ],
      "metadata": {
        "dimensions": {
          "width": 960,
          "height": 1200
        },
        "file_size": 239004,
        "format": "JPEG",
        "added_at": "2025-07-19T11:59:23.879349",
        "hash": "568543b45e51e334a82778100125ac9e",
        "ai_source": "civitai",
        "ai_generated": true,
        "source_platform": "civitai.com",
        "ai_prompt": "ethereal fantasy concept art of  anime artwork lazypos ,best quality, masterpiece, extremely detailed,professional  art,professional painting,an extremely delicate and beautiful,dynamic,great lighting",
        "ai_model": "ZhongShi XL v4 BEST",
        "civitai_stats": {
          "cryCount": 16,
          "laughCount": 29,
          "likeCount": 448,
          "dislikeCount": 0,
          "heartCount": 102,
          "commentCount": 0
        }
      },
      "urls": {
        "raw": "https://media.githubusercontent.com/media/ddh4r4m/wallpaper-collection/main/collection/wallpapers/cyberpunk/088.jpg",
        "thumb": "https://media.githubusercontent.com/media/ddh4r4m/wallpaper-collection/main/collection/thumbnails/cyberpunk/088.jpg"
      }
    }
  ]
}