{
  "meta": {
    "version": "1.0",
    "generated_at": "2025-07-28T21:27:34.814586",
    "category": "abstract",
    "page": 1,
    "per_page": 15,
    "total_pages": 18,
    "total_count": 257,
    "count_on_page": 15,
    "has_next": true,
    "has_prev": false,
    "next_page_url": "/api/v1/abstract/pages/2.json",
    "prev_page_url": null
  },
  "data": [
    {
      "id": "abstract_001",
      "category": "abstract",
      "title": "Abstract Wallpaper 001",
      "tags": [
        "abstract"
      ],
      "urls": {
        "raw": "https://media.githubusercontent.com/media/ddh4r4m/wallpaper-collection/main/collection/wallpapers/abstract/001.jpg",
        "thumb": "https://media.githubusercontent.com/media/ddh4r4m/wallpaper-collection/main/collection/thumbnails/abstract/001.jpg"
      },
      "metadata": {
        "added_at": "2025-07-17T00:41:05.433594",
        "file_size": 13480,
        "dimensions": {
          "width": 1080,
          "height": 1920
        }
      }
    },
    {
      "id": "abstract_002",
      "category": "abstract",
      "title": "Test Abstract Wallpaper",
      "tags": [
        "test",
        "abstract",
        "blue"
      ],
      "metadata": {
        "dimensions": {
          "width": 1080,
          "height": 1920
        },
        "file_size": 13480,
        "format": "JPEG",
        "added_at": "2025-07-16T20:58:21.539833",
        "hash": "6c0f395c4b9bdd34b02e659cdacafde7"
      },
      "urls": {
        "raw": "https://media.githubusercontent.com/media/ddh4r4m/wallpaper-collection/main/collection/wallpapers/abstract/002.jpg",
        "thumb": "https://media.githubusercontent.com/media/ddh4r4m/wallpaper-collection/main/collection/thumbnails/abstract/002.jpg"
      }
    },
    {
      "id": "abstract_003",
      "category": "abstract",
      "title": "Abstract Wallpaper 003",
      "tags": [
        "abstract",
        "wallpaper",
        "hd",
        "mobile"
      ],
      "urls": {
        "raw": "https://media.githubusercontent.com/media/ddh4r4m/wallpaper-collection/main/collection/wallpapers/abstract/003.jpg",
        "thumb": "https://media.githubusercontent.com/media/ddh4r4m/wallpaper-collection/main/collection/thumbnails/abstract/003.jpg"
      },
      "metadata": {
        "dimensions": {
          "width": 1080,
          "height": 1920
        },
        "file_size": 587324,
        "format": "JPEG",
        "added_at": "2025-07-17T00:02:12.450632",
        "hash": "e1dbfe385e170c39396d0534d2b10737",
        "source": "migrated"
      }
    },
    {
      "id": "abstract_004",
      "category": "abstract",
      "title": "Abstract Wallpaper 004",
      "tags": [
        "abstract",
        "wallpaper",
        "hd",
        "mobile"
      ],
      "urls": {
        "raw": "https://media.githubusercontent.com/media/ddh4r4m/wallpaper-collection/main/collection/wallpapers/abstract/004.jpg",
        "thumb": "https://media.githubusercontent.com/media/ddh4r4m/wallpaper-collection/main/collection/thumbnails/abstract/004.jpg"
      },
      "metadata": {
        "dimensions": {
          "width": 1080,
          "height": 1920
        },
        "file_size": 414159,
        "format": "JPEG",
        "added_at": "2025-07-17T00:02:12.516875",
        "hash": "527fc5665c3b146e69a53edee6b16e07",
        "source": "migrated"
      }
    },
    {
      "id": "abstract_005",
      "category": "abstract",
      "title": "Abstract Wallpaper 005",
      "tags": [
        "abstract",
        "wallpaper",
        "hd",
        "mobile"
      ],
      "urls": {
        "raw": "https://media.githubusercontent.com/media/ddh4r4m/wallpaper-collection/main/collection/wallpapers/abstract/005.jpg",
        "thumb": "https://media.githubusercontent.com/media/ddh4r4m/wallpaper-collection/main/collection/thumbnails/abstract/005.jpg"
      },
      "metadata": {
        "dimensions": {
          "width": 1080,
          "height": 1920
        },
        "file_size": 454153,
        "format": "JPEG",
        "added_at": "2025-07-17T00:02:12.585094",
        "hash": "6819215b6e2d97cd49d8c4066f32b7f3",
        "source": "migrated"
      }
    },
    {
      "id": "abstract_006",
      "category": "abstract",
      "title": "Abstract Wallpaper 006",
      "tags": [
        "abstract",
        "wallpaper",
        "hd",
        "mobile"
      ],
      "urls": {
        "raw": "https://media.githubusercontent.com/media/ddh4r4m/wallpaper-collection/main/collection/wallpapers/abstract/006.jpg",
        "thumb": "https://media.githubusercontent.com/media/ddh4r4m/wallpaper-collection/main/collection/thumbnails/abstract/006.jpg"
      },
      "metadata": {
        "dimensions": {
          "width": 1080,
          "height": 1920
        },
        "file_size": 419249,
        "format": "JPEG",
        "added_at": "2025-07-17T00:02:12.650965",
        "hash": "85ec7fdf64922b88ef69c84f9ca6c901",
        "source": "migrated"
      }
    },
    {
      "id": "abstract_007",
      "category": "abstract",
      "title": "Abstract Wallpaper 007",
      "tags": [
        "abstract",
        "wallpaper",
        "hd",
        "mobile"
      ],
      "urls": {
        "raw": "https://media.githubusercontent.com/media/ddh4r4m/wallpaper-collection/main/collection/wallpapers/abstract/007.jpg",
        "thumb": "https://media.githubusercontent.com/media/ddh4r4m/wallpaper-collection/main/collection/thumbnails/abstract/007.jpg"
      },
      "metadata": {
        "dimensions": {
          "width": 1080,
          "height": 1920
        },
        "file_size": 396187,
        "format": "JPEG",
        "added_at": "2025-07-17T00:02:12.717305",
        "hash": "96d7384ed531062eaff25add038df536",
        "source": "migrated"
      }
    },
    {
      "id": "abstract_008",
      "category": "abstract",
      "title": "Abstract Wallpaper 008",
      "tags": [
        "abstract",
        "wallpaper",
        "hd",
        "mobile"
      ],
      "urls": {
        "raw": "https://media.githubusercontent.com/media/ddh4r4m/wallpaper-collection/main/collection/wallpapers/abstract/008.jpg",
        "thumb": "https://media.githubusercontent.com/media/ddh4r4m/wallpaper-collection/main/collection/thumbnails/abstract/008.jpg"
      },
      "metadata": {
        "dimensions": {
          "width": 1080,
          "height": 1920
        },
        "file_size": 506485,
        "format": "JPEG",
        "added_at": "2025-07-17T00:02:12.786607",
        "hash": "b5054d2af5aee5f00fabfbd443c62fd5",
        "source": "migrated"
      }
    },
    {
      "id": "abstract_009",
      "category": "abstract",
      "title": "Abstract Wallpaper 009",
      "tags": [
        "abstract",
        "wallpaper",
        "hd",
        "mobile"
      ],
      "urls": {
        "raw": "https://media.githubusercontent.com/media/ddh4r4m/wallpaper-collection/main/collection/wallpapers/abstract/009.jpg",
        "thumb": "https://media.githubusercontent.com/media/ddh4r4m/wallpaper-collection/main/collection/thumbnails/abstract/009.jpg"
      },
      "metadata": {
        "dimensions": {
          "width": 1080,
          "height": 1920
        },
        "file_size": 415224,
        "format": "JPEG",
        "added_at": "2025-07-17T00:02:12.850155",
        "hash": "a21686a0f46844fa78830d2dece1820d",
        "source": "migrated"
      }
    },
    {
      "id": "abstract_010",
      "category": "abstract",
      "title": "Abstract Wallpaper 010",
      "tags": [
        "abstract",
        "wallpaper",
        "hd",
        "mobile"
      ],
      "urls": {
        "raw": "https://media.githubusercontent.com/media/ddh4r4m/wallpaper-collection/main/collection/wallpapers/abstract/010.jpg",
        "thumb": "https://media.githubusercontent.com/media/ddh4r4m/wallpaper-collection/main/collection/thumbnails/abstract/010.jpg"
      },
      "metadata": {
        "dimensions": {
          "width": 1080,
          "height": 1920
        },
        "file_size": 442989,
        "format": "JPEG",
        "added_at": "2025-07-17T00:02:12.916337",
        "hash": "a80c5b3a7c59ad21abeb89371091e7a4",
        "source": "migrated"
      }
    },
    {
      "id": "abstract_011",
      "category": "abstract",
      "title": "Abstract Wallpaper 011",
      "tags": [
        "abstract",
        "wallpaper",
        "hd",
        "mobile"
      ],
      "urls": {
        "raw": "https://media.githubusercontent.com/media/ddh4r4m/wallpaper-collection/main/collection/wallpapers/abstract/011.jpg",
        "thumb": "https://media.githubusercontent.com/media/ddh4r4m/wallpaper-collection/main/collection/thumbnails/abstract/011.jpg"
      },
      "metadata": {
        "dimensions": {
          "width": 1080,
          "height": 1920
        },
        "file_size": 344235,
        "format": "JPEG",
        "added_at": "2025-07-17T00:02:12.980278",
        "hash": "5010048f54049fffcf82d8d43596b221",
        "source": "migrated"
      }
    },
    {
      "id": "abstract_012",
      "category": "abstract",
      "title": "Abstract Wallpaper 012",
      "tags": [
        "abstract",
        "wallpaper",
        "hd",
        "mobile"
      ],
      "urls": {
        "raw": "https://media.githubusercontent.com/media/ddh4r4m/wallpaper-collection/main/collection/wallpapers/abstract/012.jpg",
        "thumb": "https://media.githubusercontent.com/media/ddh4r4m/wallpaper-collection/main/collection/thumbnails/abstract/012.jpg"
      },
      "metadata": {
        "dimensions": {
          "width": 1080,
          "height": 1920
        },
        "file_size": 473772,
        "format": "JPEG",
        "added_at": "2025-07-17T00:02:13.050990",
        "hash": "d21dee3e2d8de348241787b1a64d5ed2",
        "source": "migrated"
      }
    },
    {
      "id": "abstract_013",
      "category": "abstract",
      "title": "Abstract Wallpaper 013",
      "tags": [
        "abstract",
        "wallpaper",
        "hd",
        "mobile"
      ],
      "urls": {
        "raw": "https://media.githubusercontent.com/media/ddh4r4m/wallpaper-collection/main/collection/wallpapers/abstract/013.jpg",
        "thumb": "https://media.githubusercontent.com/media/ddh4r4m/wallpaper-collection/main/collection/thumbnails/abstract/013.jpg"
      },
      "metadata": {
        "dimensions": {
          "width": 1080,
          "height": 1920
        },
        "file_size": 450330,
        "format": "JPEG",
        "added_at": "2025-07-17T00:02:13.118407",
        "hash": "29d5bf1cf2f6b2d6496669e8ee9cfb6a",
        "source": "migrated"
      }
    },
    {
      "id": "abstract_014",
      "category": "abstract",
      "title": "Abstract Wallpaper 014",
      "tags": [
        "abstract",
        "wallpaper",
        "hd",
        "mobile"
      ],
      "urls": {
        "raw": "https://media.githubusercontent.com/media/ddh4r4m/wallpaper-collection/main/collection/wallpapers/abstract/014.jpg",
        "thumb": "https://media.githubusercontent.com/media/ddh4r4m/wallpaper-collection/main/collection/thumbnails/abstract/014.jpg"
      },
      "metadata": {
        "dimensions": {
          "width": 1080,
          "height": 1920
        },
        "file_size": 551464,
        "format": "JPEG",
        "added_at": "2025-07-17T00:02:13.191023",
        "hash": "5644d5e3c0f3c337242797aa68517e00",
        "source": "migrated"
      }
    },
    {
      "id": "abstract_015",
      "category": "abstract",
      "title": "Abstract Wallpaper 015",
      "tags": [
        "abstract",
        "wallpaper",
        "hd",
        "mobile"
      ],
      "urls": {
        "raw": "https://media.githubusercontent.com/media/ddh4r4m/wallpaper-collection/main/collection/wallpapers/abstract/015.jpg",
        "thumb": "https://media.githubusercontent.com/media/ddh4r4m/wallpaper-collection/main/collection/thumbnails/abstract/015.jpg"
      },
      "metadata": {
        "dimensions": {
          "width": 1080,
          "height": 1920
        },
        "file_size": 513104,
        "format": "JPEG",
        "added_at": "2025-07-17T00:02:13.269158",
        "hash": "676100d2c8bd6a50720b6680160343a3",
        "source": "migrated"
      }
    }
  ]
}