{
  "meta": {
    "version": "1.0",
    "generated_at": "2025-07-28T22:38:03.579947",
    "category": "abstract",
    "page": 10,
    "per_page": 15,
    "total_pages": 18,
    "total_count": 257,
    "count_on_page": 15,
    "has_next": true,
    "has_prev": true,
    "next_page_url": "/api/v1/abstract/pages/11.json",
    "prev_page_url": "/api/v1/abstract/pages/9.json"
  },
  "data": [
    {
      "id": "abstract_136",
      "category": "abstract",
      "title": "Abstract Wallpaper 136",
      "tags": [
        "abstract",
        "wallpaper",
        "hd",
        "mobile"
      ],
      "urls": {
        "raw": "https://media.githubusercontent.com/media/ddh4r4m/wallpaper-collection/main/collection/wallpapers/abstract/136.jpg",
        "thumb": "https://media.githubusercontent.com/media/ddh4r4m/wallpaper-collection/main/collection/thumbnails/abstract/136.jpg"
      },
      "metadata": {
        "dimensions": {
          "width": 1080,
          "height": 1920
        },
        "file_size": 194905,
        "format": "JPEG",
        "added_at": "2025-07-17T00:02:21.471677",
        "hash": "76ed1beddbe33b899e56a35c02cf6f38",
        "source": "migrated"
      }
    },
    {
      "id": "abstract_137",
      "category": "abstract",
      "title": "Abstract Wallpaper 137",
      "tags": [
        "abstract",
        "wallpaper",
        "hd",
        "mobile"
      ],
      "urls": {
        "raw": "https://media.githubusercontent.com/media/ddh4r4m/wallpaper-collection/main/collection/wallpapers/abstract/137.jpg",
        "thumb": "https://media.githubusercontent.com/media/ddh4r4m/wallpaper-collection/main/collection/thumbnails/abstract/137.jpg"
      },
      "metadata": {
        "dimensions": {
          "width": 1080,
          "height": 1920
        },
        "file_size": 514672,
        "format": "JPEG",
        "added_at": "2025-07-17T00:02:21.540922",
        "hash": "dcbc30d3ae053c1be8df3db5049dec41",
        "source": "migrated"
      }
    },
    {
      "id": "abstract_138",
      "category": "abstract",
      "title": "Abstract Wallpaper 138",
      "tags": [
        "abstract",
        "wallpaper",
        "hd",
        "mobile"
      ],
      "urls": {
        "raw": "https://media.githubusercontent.com/media/ddh4r4m/wallpaper-collection/main/collection/wallpapers/abstract/138.jpg",
        "thumb": "https://media.githubusercontent.com/media/ddh4r4m/wallpaper-collection/main/collection/thumbnails/abstract/138.jpg"
      },
      "metadata": {
        "dimensions": {
          "width": 1080,
          "height": 1920
        },
        "file_size": 319498,
        "format": "JPEG",
        "added_at": "2025-07-17T00:02:21.601361",
        "hash": "1564ad0a657364f4f57aab6685f47b9a",
        "source": "migrated"
      }
    },
    {
      "id": "abstract_139",
      "category": "abstract",
      "title": "Abstract Wallpaper 139",
      "tags": [
        "abstract",
        "wallpaper",
        "hd",
        "mobile"
      ],
      "urls": {
        "raw": "https://media.githubusercontent.com/media/ddh4r4m/wallpaper-collection/main/collection/wallpapers/abstract/139.jpg",
        "thumb": "https://media.githubusercontent.com/media/ddh4r4m/wallpaper-collection/main/collection/thumbnails/abstract/139.jpg"
      },
      "metadata": {
        "dimensions": {
          "width": 1080,
          "height": 1920
        },
        "file_size": 235462,
        "format": "JPEG",
        "added_at": "2025-07-17T00:02:21.654623",
        "hash": "21cda66b28423ed2e94e68d7b82a7850",
        "source": "migrated"
      }
    },
    {
      "id": "abstract_140",
      "category": "abstract",
      "title": "Abstract Wallpaper 140",
      "tags": [
        "abstract",
        "wallpaper",
        "hd",
        "mobile"
      ],
      "urls": {
        "raw": "https://media.githubusercontent.com/media/ddh4r4m/wallpaper-collection/main/collection/wallpapers/abstract/140.jpg",
        "thumb": "https://media.githubusercontent.com/media/ddh4r4m/wallpaper-collection/main/collection/thumbnails/abstract/140.jpg"
      },
      "metadata": {
        "dimensions": {
          "width": 1080,
          "height": 1920
        },
        "file_size": 600960,
        "format": "JPEG",
        "added_at": "2025-07-17T00:02:21.728846",
        "hash": "e59626b783ebf889706fd39feb56c5f8",
        "source": "migrated"
      }
    },
    {
      "id": "abstract_141",
      "category": "abstract",
      "title": "Abstract Wallpaper 141",
      "tags": [
        "abstract",
        "wallpaper",
        "hd",
        "mobile"
      ],
      "urls": {
        "raw": "https://media.githubusercontent.com/media/ddh4r4m/wallpaper-collection/main/collection/wallpapers/abstract/141.jpg",
        "thumb": "https://media.githubusercontent.com/media/ddh4r4m/wallpaper-collection/main/collection/thumbnails/abstract/141.jpg"
      },
      "metadata": {
        "dimensions": {
          "width": 1080,
          "height": 1920
        },
        "file_size": 643517,
        "format": "JPEG",
        "added_at": "2025-07-17T00:02:21.803079",
        "hash": "0154fb0f59e7d3ffaf19f603aa189bea",
        "source": "migrated"
      }
    },
    {
      "id": "abstract_142",
      "category": "abstract",
      "title": "Abstract Wallpaper 142",
      "tags": [
        "abstract",
        "wallpaper",
        "hd",
        "mobile"
      ],
      "urls": {
        "raw": "https://media.githubusercontent.com/media/ddh4r4m/wallpaper-collection/main/collection/wallpapers/abstract/142.jpg",
        "thumb": "https://media.githubusercontent.com/media/ddh4r4m/wallpaper-collection/main/collection/thumbnails/abstract/142.jpg"
      },
      "metadata": {
        "dimensions": {
          "width": 1080,
          "height": 1920
        },
        "file_size": 364065,
        "format": "JPEG",
        "added_at": "2025-07-17T00:02:21.865115",
        "hash": "7fd6959c21116eaaa93f43d59d20effb",
        "source": "migrated"
      }
    },
    {
      "id": "abstract_143",
      "category": "abstract",
      "title": "Abstract Wallpaper 143",
      "tags": [
        "abstract",
        "wallpaper",
        "hd",
        "mobile"
      ],
      "urls": {
        "raw": "https://media.githubusercontent.com/media/ddh4r4m/wallpaper-collection/main/collection/wallpapers/abstract/143.jpg",
        "thumb": "https://media.githubusercontent.com/media/ddh4r4m/wallpaper-collection/main/collection/thumbnails/abstract/143.jpg"
      },
      "metadata": {
        "dimensions": {
          "width": 1080,
          "height": 1920
        },
        "file_size": 157432,
        "format": "JPEG",
        "added_at": "2025-07-17T00:02:21.916150",
        "hash": "1b6b8d8ae97b73da309754c5715900df",
        "source": "migrated"
      }
    },
    {
      "id": "abstract_144",
      "category": "abstract",
      "title": "Abstract Wallpaper 144",
      "tags": [
        "abstract",
        "wallpaper",
        "hd",
        "mobile"
      ],
      "urls": {
        "raw": "https://media.githubusercontent.com/media/ddh4r4m/wallpaper-collection/main/collection/wallpapers/abstract/144.jpg",
        "thumb": "https://media.githubusercontent.com/media/ddh4r4m/wallpaper-collection/main/collection/thumbnails/abstract/144.jpg"
      },
      "metadata": {
        "dimensions": {
          "width": 1080,
          "height": 1920
        },
        "file_size": 541931,
        "format": "JPEG",
        "added_at": "2025-07-17T00:02:21.988530",
        "hash": "2250150eb3e2b1fc910fbbd83c7b644c",
        "source": "migrated"
      }
    },
    {
      "id": "abstract_145",
      "category": "abstract",
      "title": "Abstract Wallpaper 145",
      "tags": [
        "abstract",
        "wallpaper",
        "hd",
        "mobile"
      ],
      "urls": {
        "raw": "https://media.githubusercontent.com/media/ddh4r4m/wallpaper-collection/main/collection/wallpapers/abstract/145.jpg",
        "thumb": "https://media.githubusercontent.com/media/ddh4r4m/wallpaper-collection/main/collection/thumbnails/abstract/145.jpg"
      },
      "metadata": {
        "dimensions": {
          "width": 1080,
          "height": 1920
        },
        "file_size": 562101,
        "format": "JPEG",
        "added_at": "2025-07-17T00:02:22.060001",
        "hash": "41b6d89a5534f42328b2d1f1fbe3baea",
        "source": "migrated"
      }
    },
    {
      "id": "abstract_146",
      "category": "abstract",
      "title": "Abstract Wallpaper 146",
      "tags": [
        "abstract",
        "wallpaper",
        "hd",
        "mobile"
      ],
      "urls": {
        "raw": "https://media.githubusercontent.com/media/ddh4r4m/wallpaper-collection/main/collection/wallpapers/abstract/146.jpg",
        "thumb": "https://media.githubusercontent.com/media/ddh4r4m/wallpaper-collection/main/collection/thumbnails/abstract/146.jpg"
      },
      "metadata": {
        "dimensions": {
          "width": 1080,
          "height": 1920
        },
        "file_size": 402342,
        "format": "JPEG",
        "added_at": "2025-07-17T00:02:22.124583",
        "hash": "147a0c3041c07decffab0a15434fbf0e",
        "source": "migrated"
      }
    },
    {
      "id": "abstract_147",
      "category": "abstract",
      "title": "Abstract Wallpaper 147",
      "tags": [
        "abstract",
        "wallpaper",
        "hd",
        "mobile"
      ],
      "urls": {
        "raw": "https://media.githubusercontent.com/media/ddh4r4m/wallpaper-collection/main/collection/wallpapers/abstract/147.jpg",
        "thumb": "https://media.githubusercontent.com/media/ddh4r4m/wallpaper-collection/main/collection/thumbnails/abstract/147.jpg"
      },
      "metadata": {
        "dimensions": {
          "width": 1080,
          "height": 1920
        },
        "file_size": 313307,
        "format": "JPEG",
        "added_at": "2025-07-17T00:02:22.184344",
        "hash": "1ade62b74c9def1ff5ba9d3206f249e0",
        "source": "migrated"
      }
    },
    {
      "id": "abstract_148",
      "category": "abstract",
      "title": "Abstract Wallpaper 148",
      "tags": [
        "abstract",
        "wallpaper",
        "hd",
        "mobile"
      ],
      "urls": {
        "raw": "https://media.githubusercontent.com/media/ddh4r4m/wallpaper-collection/main/collection/wallpapers/abstract/148.jpg",
        "thumb": "https://media.githubusercontent.com/media/ddh4r4m/wallpaper-collection/main/collection/thumbnails/abstract/148.jpg"
      },
      "metadata": {
        "dimensions": {
          "width": 1080,
          "height": 1920
        },
        "file_size": 720429,
        "format": "JPEG",
        "added_at": "2025-07-17T00:02:22.267333",
        "hash": "93f922e0a0a6d37185257c61760e22bd",
        "source": "migrated"
      }
    },
    {
      "id": "abstract_149",
      "category": "abstract",
      "title": "Abstract Wallpaper 149",
      "tags": [
        "abstract",
        "wallpaper",
        "hd",
        "mobile"
      ],
      "urls": {
        "raw": "https://media.githubusercontent.com/media/ddh4r4m/wallpaper-collection/main/collection/wallpapers/abstract/149.jpg",
        "thumb": "https://media.githubusercontent.com/media/ddh4r4m/wallpaper-collection/main/collection/thumbnails/abstract/149.jpg"
      },
      "metadata": {
        "dimensions": {
          "width": 1080,
          "height": 1920
        },
        "file_size": 752526,
        "format": "JPEG",
        "added_at": "2025-07-17T00:02:22.346818",
        "hash": "0838eafb2f2cd17213a7745d8983aa68",
        "source": "migrated"
      }
    },
    {
      "id": "abstract_150",
      "category": "abstract",
      "title": "Abstract Wallpaper 150",
      "tags": [
        "abstract",
        "wallpaper",
        "hd",
        "mobile"
      ],
      "urls": {
        "raw": "https://media.githubusercontent.com/media/ddh4r4m/wallpaper-collection/main/collection/wallpapers/abstract/150.jpg",
        "thumb": "https://media.githubusercontent.com/media/ddh4r4m/wallpaper-collection/main/collection/thumbnails/abstract/150.jpg"
      },
      "metadata": {
        "dimensions": {
          "width": 1080,
          "height": 1920
        },
        "file_size": 342510,
        "format": "JPEG",
        "added_at": "2025-07-17T00:02:22.409359",
        "hash": "9c2c0109e41ea84190159dc500d97d0d",
        "source": "migrated"
      }
    }
  ]
}