{
  "meta": {
    "version": "1.0",
    "generated_at": "2025-07-17T00:06:19.072196",
    "category": "abstract",
    "page": 11,
    "per_page": 15,
    "total_pages": 15,
    "total_count": 219,
    "count_on_page": 15,
    "has_next": true,
    "has_prev": true,
    "next_page_url": "/api/v1/abstract/pages/12.json",
    "prev_page_url": "/api/v1/abstract/pages/10.json"
  },
  "data": [
    {
      "id": "abstract_151",
      "category": "abstract",
      "title": "Abstract Wallpaper 151",
      "tags": [
        "abstract",
        "wallpaper",
        "hd",
        "mobile"
      ],
      "urls": {
        "raw": "https://raw.githubusercontent.com/ddh4r4m/wallpaper-collection/main/collection/wallpapers/abstract/151.jpg",
        "thumb": "https://raw.githubusercontent.com/ddh4r4m/wallpaper-collection/main/collection/thumbnails/abstract/151.jpg"
      },
      "metadata": {
        "dimensions": {
          "width": 1080,
          "height": 1920
        },
        "file_size": 531214,
        "format": "JPEG",
        "added_at": "2025-07-17T00:02:22.481081",
        "hash": "10040659edd6c1d23f81aa6ea8e33137",
        "source": "migrated"
      }
    },
    {
      "id": "abstract_152",
      "category": "abstract",
      "title": "Abstract Wallpaper 152",
      "tags": [
        "abstract",
        "wallpaper",
        "hd",
        "mobile"
      ],
      "urls": {
        "raw": "https://raw.githubusercontent.com/ddh4r4m/wallpaper-collection/main/collection/wallpapers/abstract/152.jpg",
        "thumb": "https://raw.githubusercontent.com/ddh4r4m/wallpaper-collection/main/collection/thumbnails/abstract/152.jpg"
      },
      "metadata": {
        "dimensions": {
          "width": 1080,
          "height": 1920
        },
        "file_size": 338513,
        "format": "JPEG",
        "added_at": "2025-07-17T00:02:22.542800",
        "hash": "73a311f150c7c90bafdf9de927b40a9b",
        "source": "migrated"
      }
    },
    {
      "id": "abstract_153",
      "category": "abstract",
      "title": "Abstract Wallpaper 153",
      "tags": [
        "abstract",
        "wallpaper",
        "hd",
        "mobile"
      ],
      "urls": {
        "raw": "https://raw.githubusercontent.com/ddh4r4m/wallpaper-collection/main/collection/wallpapers/abstract/153.jpg",
        "thumb": "https://raw.githubusercontent.com/ddh4r4m/wallpaper-collection/main/collection/thumbnails/abstract/153.jpg"
      },
      "metadata": {
        "dimensions": {
          "width": 1080,
          "height": 1920
        },
        "file_size": 445027,
        "format": "JPEG",
        "added_at": "2025-07-17T00:02:22.609101",
        "hash": "5ae2b0ca65cf81472724d6ae99ae4663",
        "source": "migrated"
      }
    },
    {
      "id": "abstract_154",
      "category": "abstract",
      "title": "Abstract Wallpaper 154",
      "tags": [
        "abstract",
        "wallpaper",
        "hd",
        "mobile"
      ],
      "urls": {
        "raw": "https://raw.githubusercontent.com/ddh4r4m/wallpaper-collection/main/collection/wallpapers/abstract/154.jpg",
        "thumb": "https://raw.githubusercontent.com/ddh4r4m/wallpaper-collection/main/collection/thumbnails/abstract/154.jpg"
      },
      "metadata": {
        "dimensions": {
          "width": 1080,
          "height": 1920
        },
        "file_size": 136271,
        "format": "JPEG",
        "added_at": "2025-07-17T00:02:22.658502",
        "hash": "5ada16c8694a5477653bfd46c684e800",
        "source": "migrated"
      }
    },
    {
      "id": "abstract_155",
      "category": "abstract",
      "title": "Abstract Wallpaper 155",
      "tags": [
        "abstract",
        "wallpaper",
        "hd",
        "mobile"
      ],
      "urls": {
        "raw": "https://raw.githubusercontent.com/ddh4r4m/wallpaper-collection/main/collection/wallpapers/abstract/155.jpg",
        "thumb": "https://raw.githubusercontent.com/ddh4r4m/wallpaper-collection/main/collection/thumbnails/abstract/155.jpg"
      },
      "metadata": {
        "dimensions": {
          "width": 1080,
          "height": 1920
        },
        "file_size": 788034,
        "format": "JPEG",
        "added_at": "2025-07-17T00:02:22.742979",
        "hash": "09ea8bcd4a0c68b30baeb900ec7aae43",
        "source": "migrated"
      }
    },
    {
      "id": "abstract_156",
      "category": "abstract",
      "title": "Abstract Wallpaper 156",
      "tags": [
        "abstract",
        "wallpaper",
        "hd",
        "mobile"
      ],
      "urls": {
        "raw": "https://raw.githubusercontent.com/ddh4r4m/wallpaper-collection/main/collection/wallpapers/abstract/156.jpg",
        "thumb": "https://raw.githubusercontent.com/ddh4r4m/wallpaper-collection/main/collection/thumbnails/abstract/156.jpg"
      },
      "metadata": {
        "dimensions": {
          "width": 1080,
          "height": 1920
        },
        "file_size": 571248,
        "format": "JPEG",
        "added_at": "2025-07-17T00:02:22.814456",
        "hash": "802c1b57bd84aed35db6787960889616",
        "source": "migrated"
      }
    },
    {
      "id": "abstract_157",
      "category": "abstract",
      "title": "Abstract Wallpaper 157",
      "tags": [
        "abstract",
        "wallpaper",
        "hd",
        "mobile"
      ],
      "urls": {
        "raw": "https://raw.githubusercontent.com/ddh4r4m/wallpaper-collection/main/collection/wallpapers/abstract/157.jpg",
        "thumb": "https://raw.githubusercontent.com/ddh4r4m/wallpaper-collection/main/collection/thumbnails/abstract/157.jpg"
      },
      "metadata": {
        "dimensions": {
          "width": 1080,
          "height": 1920
        },
        "file_size": 381973,
        "format": "JPEG",
        "added_at": "2025-07-17T00:02:22.877759",
        "hash": "9cd013c7aac82654ba5da98eec1d1c85",
        "source": "migrated"
      }
    },
    {
      "id": "abstract_158",
      "category": "abstract",
      "title": "Abstract Wallpaper 158",
      "tags": [
        "abstract",
        "wallpaper",
        "hd",
        "mobile"
      ],
      "urls": {
        "raw": "https://raw.githubusercontent.com/ddh4r4m/wallpaper-collection/main/collection/wallpapers/abstract/158.jpg",
        "thumb": "https://raw.githubusercontent.com/ddh4r4m/wallpaper-collection/main/collection/thumbnails/abstract/158.jpg"
      },
      "metadata": {
        "dimensions": {
          "width": 1080,
          "height": 1920
        },
        "file_size": 496765,
        "format": "JPEG",
        "added_at": "2025-07-17T00:02:22.947766",
        "hash": "c9d4946060b034fc0de07fb57d656c6b",
        "source": "migrated"
      }
    },
    {
      "id": "abstract_159",
      "category": "abstract",
      "title": "Abstract Wallpaper 159",
      "tags": [
        "abstract",
        "wallpaper",
        "hd",
        "mobile"
      ],
      "urls": {
        "raw": "https://raw.githubusercontent.com/ddh4r4m/wallpaper-collection/main/collection/wallpapers/abstract/159.jpg",
        "thumb": "https://raw.githubusercontent.com/ddh4r4m/wallpaper-collection/main/collection/thumbnails/abstract/159.jpg"
      },
      "metadata": {
        "dimensions": {
          "width": 1080,
          "height": 1920
        },
        "file_size": 738036,
        "format": "JPEG",
        "added_at": "2025-07-17T00:02:23.030184",
        "hash": "a461d64d38eefc5a72edf34ae0ecd169",
        "source": "migrated"
      }
    },
    {
      "id": "abstract_160",
      "category": "abstract",
      "title": "Abstract Wallpaper 160",
      "tags": [
        "abstract",
        "wallpaper",
        "hd",
        "mobile"
      ],
      "urls": {
        "raw": "https://raw.githubusercontent.com/ddh4r4m/wallpaper-collection/main/collection/wallpapers/abstract/160.jpg",
        "thumb": "https://raw.githubusercontent.com/ddh4r4m/wallpaper-collection/main/collection/thumbnails/abstract/160.jpg"
      },
      "metadata": {
        "dimensions": {
          "width": 1080,
          "height": 1920
        },
        "file_size": 696508,
        "format": "JPEG",
        "added_at": "2025-07-17T00:02:23.107479",
        "hash": "184a2351f9f822ea09554659251f865c",
        "source": "migrated"
      }
    },
    {
      "id": "abstract_161",
      "category": "abstract",
      "title": "Abstract Wallpaper 161",
      "tags": [
        "abstract",
        "wallpaper",
        "hd",
        "mobile"
      ],
      "urls": {
        "raw": "https://raw.githubusercontent.com/ddh4r4m/wallpaper-collection/main/collection/wallpapers/abstract/161.jpg",
        "thumb": "https://raw.githubusercontent.com/ddh4r4m/wallpaper-collection/main/collection/thumbnails/abstract/161.jpg"
      },
      "metadata": {
        "dimensions": {
          "width": 1080,
          "height": 1920
        },
        "file_size": 453387,
        "format": "JPEG",
        "added_at": "2025-07-17T00:02:23.175116",
        "hash": "67057b0e7fc27ff48dc1fcf06a44497f",
        "source": "migrated"
      }
    },
    {
      "id": "abstract_162",
      "category": "abstract",
      "title": "Abstract Wallpaper 162",
      "tags": [
        "abstract",
        "wallpaper",
        "hd",
        "mobile"
      ],
      "urls": {
        "raw": "https://raw.githubusercontent.com/ddh4r4m/wallpaper-collection/main/collection/wallpapers/abstract/162.jpg",
        "thumb": "https://raw.githubusercontent.com/ddh4r4m/wallpaper-collection/main/collection/thumbnails/abstract/162.jpg"
      },
      "metadata": {
        "dimensions": {
          "width": 1080,
          "height": 1920
        },
        "file_size": 487620,
        "format": "JPEG",
        "added_at": "2025-07-17T00:02:23.244387",
        "hash": "5c88b9dbef43a4a5427d0f43f09fd48e",
        "source": "migrated"
      }
    },
    {
      "id": "abstract_163",
      "category": "abstract",
      "title": "Abstract Wallpaper 163",
      "tags": [
        "abstract",
        "wallpaper",
        "hd",
        "mobile"
      ],
      "urls": {
        "raw": "https://raw.githubusercontent.com/ddh4r4m/wallpaper-collection/main/collection/wallpapers/abstract/163.jpg",
        "thumb": "https://raw.githubusercontent.com/ddh4r4m/wallpaper-collection/main/collection/thumbnails/abstract/163.jpg"
      },
      "metadata": {
        "dimensions": {
          "width": 1080,
          "height": 1920
        },
        "file_size": 283116,
        "format": "JPEG",
        "added_at": "2025-07-17T00:02:23.299745",
        "hash": "9829ba53764ccf6f48dff07a57ff2e47",
        "source": "migrated"
      }
    },
    {
      "id": "abstract_164",
      "category": "abstract",
      "title": "Abstract Wallpaper 164",
      "tags": [
        "abstract",
        "wallpaper",
        "hd",
        "mobile"
      ],
      "urls": {
        "raw": "https://raw.githubusercontent.com/ddh4r4m/wallpaper-collection/main/collection/wallpapers/abstract/164.jpg",
        "thumb": "https://raw.githubusercontent.com/ddh4r4m/wallpaper-collection/main/collection/thumbnails/abstract/164.jpg"
      },
      "metadata": {
        "dimensions": {
          "width": 1080,
          "height": 1920
        },
        "file_size": 706986,
        "format": "JPEG",
        "added_at": "2025-07-17T00:02:23.378554",
        "hash": "265137495cb10cdfb9002f4616dadcc1",
        "source": "migrated"
      }
    },
    {
      "id": "abstract_165",
      "category": "abstract",
      "title": "Abstract Wallpaper 165",
      "tags": [
        "abstract",
        "wallpaper",
        "hd",
        "mobile"
      ],
      "urls": {
        "raw": "https://raw.githubusercontent.com/ddh4r4m/wallpaper-collection/main/collection/wallpapers/abstract/165.jpg",
        "thumb": "https://raw.githubusercontent.com/ddh4r4m/wallpaper-collection/main/collection/thumbnails/abstract/165.jpg"
      },
      "metadata": {
        "dimensions": {
          "width": 1080,
          "height": 1920
        },
        "file_size": 448694,
        "format": "JPEG",
        "added_at": "2025-07-17T00:02:23.445796",
        "hash": "ddd0e6fb52e5f95e6ddceaaea5895221",
        "source": "migrated"
      }
    }
  ]
}