{
  "meta": {
    "version": "1.0",
    "generated_at": "2025-07-28T21:27:34.814586",
    "category": "abstract",
    "page": 12,
    "per_page": 15,
    "total_pages": 18,
    "total_count": 257,
    "count_on_page": 15,
    "has_next": true,
    "has_prev": true,
    "next_page_url": "/api/v1/abstract/pages/13.json",
    "prev_page_url": "/api/v1/abstract/pages/11.json"
  },
  "data": [
    {
      "id": "abstract_166",
      "category": "abstract",
      "title": "Abstract Wallpaper 166",
      "tags": [
        "abstract",
        "wallpaper",
        "hd",
        "mobile"
      ],
      "urls": {
        "raw": "https://media.githubusercontent.com/media/ddh4r4m/wallpaper-collection/main/collection/wallpapers/abstract/166.jpg",
        "thumb": "https://media.githubusercontent.com/media/ddh4r4m/wallpaper-collection/main/collection/thumbnails/abstract/166.jpg"
      },
      "metadata": {
        "dimensions": {
          "width": 1080,
          "height": 1920
        },
        "file_size": 565538,
        "format": "JPEG",
        "added_at": "2025-07-17T00:02:23.519033",
        "hash": "835afa27cc77e62363d3ba94bcf50814",
        "source": "migrated"
      }
    },
    {
      "id": "abstract_167",
      "category": "abstract",
      "title": "Abstract Wallpaper 167",
      "tags": [
        "abstract",
        "wallpaper",
        "hd",
        "mobile"
      ],
      "urls": {
        "raw": "https://media.githubusercontent.com/media/ddh4r4m/wallpaper-collection/main/collection/wallpapers/abstract/167.jpg",
        "thumb": "https://media.githubusercontent.com/media/ddh4r4m/wallpaper-collection/main/collection/thumbnails/abstract/167.jpg"
      },
      "metadata": {
        "dimensions": {
          "width": 1080,
          "height": 1920
        },
        "file_size": 495452,
        "format": "JPEG",
        "added_at": "2025-07-17T00:02:23.591422",
        "hash": "fbd50b2ccd2063bc75866ad17e6c25e0",
        "source": "migrated"
      }
    },
    {
      "id": "abstract_168",
      "category": "abstract",
      "title": "Abstract Wallpaper 168",
      "tags": [
        "abstract",
        "wallpaper",
        "hd",
        "mobile"
      ],
      "urls": {
        "raw": "https://media.githubusercontent.com/media/ddh4r4m/wallpaper-collection/main/collection/wallpapers/abstract/168.jpg",
        "thumb": "https://media.githubusercontent.com/media/ddh4r4m/wallpaper-collection/main/collection/thumbnails/abstract/168.jpg"
      },
      "metadata": {
        "dimensions": {
          "width": 1080,
          "height": 1920
        },
        "file_size": 474301,
        "format": "JPEG",
        "added_at": "2025-07-17T00:02:23.662594",
        "hash": "7e1666c29f2a2218a731adcad846f7bb",
        "source": "migrated"
      }
    },
    {
      "id": "abstract_169",
      "category": "abstract",
      "title": "Abstract Wallpaper 169",
      "tags": [
        "abstract",
        "wallpaper",
        "hd",
        "mobile"
      ],
      "urls": {
        "raw": "https://media.githubusercontent.com/media/ddh4r4m/wallpaper-collection/main/collection/wallpapers/abstract/169.jpg",
        "thumb": "https://media.githubusercontent.com/media/ddh4r4m/wallpaper-collection/main/collection/thumbnails/abstract/169.jpg"
      },
      "metadata": {
        "dimensions": {
          "width": 1080,
          "height": 1920
        },
        "file_size": 535842,
        "format": "JPEG",
        "added_at": "2025-07-17T00:02:23.736509",
        "hash": "8422ec533c4d5e0bddc290df2bd18f26",
        "source": "migrated"
      }
    },
    {
      "id": "abstract_170",
      "category": "abstract",
      "title": "Abstract Wallpaper 170",
      "tags": [
        "abstract",
        "wallpaper",
        "hd",
        "mobile"
      ],
      "urls": {
        "raw": "https://media.githubusercontent.com/media/ddh4r4m/wallpaper-collection/main/collection/wallpapers/abstract/170.jpg",
        "thumb": "https://media.githubusercontent.com/media/ddh4r4m/wallpaper-collection/main/collection/thumbnails/abstract/170.jpg"
      },
      "metadata": {
        "dimensions": {
          "width": 1080,
          "height": 1920
        },
        "file_size": 800974,
        "format": "JPEG",
        "added_at": "2025-07-17T00:02:23.820243",
        "hash": "ffa1ebc471b13beaa532749937895438",
        "source": "migrated"
      }
    },
    {
      "id": "abstract_171",
      "category": "abstract",
      "title": "Abstract Wallpaper 171",
      "tags": [
        "abstract",
        "wallpaper",
        "hd",
        "mobile"
      ],
      "urls": {
        "raw": "https://media.githubusercontent.com/media/ddh4r4m/wallpaper-collection/main/collection/wallpapers/abstract/171.jpg",
        "thumb": "https://media.githubusercontent.com/media/ddh4r4m/wallpaper-collection/main/collection/thumbnails/abstract/171.jpg"
      },
      "metadata": {
        "dimensions": {
          "width": 1080,
          "height": 1920
        },
        "file_size": 694194,
        "format": "JPEG",
        "added_at": "2025-07-17T00:02:23.899131",
        "hash": "e7c252d1aeae75accb0e35c603c82c63",
        "source": "migrated"
      }
    },
    {
      "id": "abstract_172",
      "category": "abstract",
      "title": "Abstract Wallpaper 172",
      "tags": [
        "abstract",
        "wallpaper",
        "hd",
        "mobile"
      ],
      "urls": {
        "raw": "https://media.githubusercontent.com/media/ddh4r4m/wallpaper-collection/main/collection/wallpapers/abstract/172.jpg",
        "thumb": "https://media.githubusercontent.com/media/ddh4r4m/wallpaper-collection/main/collection/thumbnails/abstract/172.jpg"
      },
      "metadata": {
        "dimensions": {
          "width": 1080,
          "height": 1920
        },
        "file_size": 876252,
        "format": "JPEG",
        "added_at": "2025-07-17T00:02:23.988214",
        "hash": "0eda2a2edc6165539c02d700b1ad4362",
        "source": "migrated"
      }
    },
    {
      "id": "abstract_173",
      "category": "abstract",
      "title": "Abstract Wallpaper 173",
      "tags": [
        "abstract",
        "wallpaper",
        "hd",
        "mobile"
      ],
      "urls": {
        "raw": "https://media.githubusercontent.com/media/ddh4r4m/wallpaper-collection/main/collection/wallpapers/abstract/173.jpg",
        "thumb": "https://media.githubusercontent.com/media/ddh4r4m/wallpaper-collection/main/collection/thumbnails/abstract/173.jpg"
      },
      "metadata": {
        "dimensions": {
          "width": 1080,
          "height": 1920
        },
        "file_size": 480002,
        "format": "JPEG",
        "added_at": "2025-07-17T00:02:24.057285",
        "hash": "189e616bef370ebb003bd6510e95cfba",
        "source": "migrated"
      }
    },
    {
      "id": "abstract_174",
      "category": "abstract",
      "title": "Abstract Wallpaper 174",
      "tags": [
        "abstract",
        "wallpaper",
        "hd",
        "mobile"
      ],
      "urls": {
        "raw": "https://media.githubusercontent.com/media/ddh4r4m/wallpaper-collection/main/collection/wallpapers/abstract/174.jpg",
        "thumb": "https://media.githubusercontent.com/media/ddh4r4m/wallpaper-collection/main/collection/thumbnails/abstract/174.jpg"
      },
      "metadata": {
        "dimensions": {
          "width": 1080,
          "height": 1920
        },
        "file_size": 394282,
        "format": "JPEG",
        "added_at": "2025-07-17T00:02:24.121614",
        "hash": "8f54dddd4fe10415012556148431d5e8",
        "source": "migrated"
      }
    },
    {
      "id": "abstract_175",
      "category": "abstract",
      "title": "Abstract Wallpaper 175",
      "tags": [
        "abstract",
        "wallpaper",
        "hd",
        "mobile"
      ],
      "urls": {
        "raw": "https://media.githubusercontent.com/media/ddh4r4m/wallpaper-collection/main/collection/wallpapers/abstract/175.jpg",
        "thumb": "https://media.githubusercontent.com/media/ddh4r4m/wallpaper-collection/main/collection/thumbnails/abstract/175.jpg"
      },
      "metadata": {
        "dimensions": {
          "width": 1080,
          "height": 1920
        },
        "file_size": 314978,
        "format": "JPEG",
        "added_at": "2025-07-17T00:02:24.181678",
        "hash": "94c790bd213b3a944adeb2f14977e518",
        "source": "migrated"
      }
    },
    {
      "id": "abstract_176",
      "category": "abstract",
      "title": "Abstract Wallpaper 176",
      "tags": [
        "abstract",
        "wallpaper",
        "hd",
        "mobile"
      ],
      "urls": {
        "raw": "https://media.githubusercontent.com/media/ddh4r4m/wallpaper-collection/main/collection/wallpapers/abstract/176.jpg",
        "thumb": "https://media.githubusercontent.com/media/ddh4r4m/wallpaper-collection/main/collection/thumbnails/abstract/176.jpg"
      },
      "metadata": {
        "dimensions": {
          "width": 1080,
          "height": 1920
        },
        "file_size": 396813,
        "format": "JPEG",
        "added_at": "2025-07-17T00:02:24.245303",
        "hash": "6d996e9431db9f992ea1d62b53147674",
        "source": "migrated"
      }
    },
    {
      "id": "abstract_177",
      "category": "abstract",
      "title": "Abstract Wallpaper 177",
      "tags": [
        "abstract",
        "wallpaper",
        "hd",
        "mobile"
      ],
      "urls": {
        "raw": "https://media.githubusercontent.com/media/ddh4r4m/wallpaper-collection/main/collection/wallpapers/abstract/177.jpg",
        "thumb": "https://media.githubusercontent.com/media/ddh4r4m/wallpaper-collection/main/collection/thumbnails/abstract/177.jpg"
      },
      "metadata": {
        "dimensions": {
          "width": 1080,
          "height": 1920
        },
        "file_size": 521961,
        "format": "JPEG",
        "added_at": "2025-07-17T00:02:24.314835",
        "hash": "1595c52cae2a443439630c639e52d363",
        "source": "migrated"
      }
    },
    {
      "id": "abstract_178",
      "category": "abstract",
      "title": "Abstract Wallpaper 178",
      "tags": [
        "abstract",
        "wallpaper",
        "hd",
        "mobile"
      ],
      "urls": {
        "raw": "https://media.githubusercontent.com/media/ddh4r4m/wallpaper-collection/main/collection/wallpapers/abstract/178.jpg",
        "thumb": "https://media.githubusercontent.com/media/ddh4r4m/wallpaper-collection/main/collection/thumbnails/abstract/178.jpg"
      },
      "metadata": {
        "dimensions": {
          "width": 1080,
          "height": 1920
        },
        "file_size": 446151,
        "format": "JPEG",
        "added_at": "2025-07-17T00:02:24.380955",
        "hash": "99bba9353e132f4d9e43926bbde58fe3",
        "source": "migrated"
      }
    },
    {
      "id": "abstract_179",
      "category": "abstract",
      "title": "Abstract Wallpaper 179",
      "tags": [
        "abstract",
        "wallpaper",
        "hd",
        "mobile"
      ],
      "urls": {
        "raw": "https://media.githubusercontent.com/media/ddh4r4m/wallpaper-collection/main/collection/wallpapers/abstract/179.jpg",
        "thumb": "https://media.githubusercontent.com/media/ddh4r4m/wallpaper-collection/main/collection/thumbnails/abstract/179.jpg"
      },
      "metadata": {
        "dimensions": {
          "width": 1080,
          "height": 1920
        },
        "file_size": 586520,
        "format": "JPEG",
        "added_at": "2025-07-17T00:02:24.456689",
        "hash": "f1b264c7f64f7b2a453bdec9852c2113",
        "source": "migrated"
      }
    },
    {
      "id": "abstract_180",
      "category": "abstract",
      "title": "Abstract Wallpaper 180",
      "tags": [
        "abstract",
        "wallpaper",
        "hd",
        "mobile"
      ],
      "urls": {
        "raw": "https://media.githubusercontent.com/media/ddh4r4m/wallpaper-collection/main/collection/wallpapers/abstract/180.jpg",
        "thumb": "https://media.githubusercontent.com/media/ddh4r4m/wallpaper-collection/main/collection/thumbnails/abstract/180.jpg"
      },
      "metadata": {
        "dimensions": {
          "width": 1080,
          "height": 1920
        },
        "file_size": 542465,
        "format": "JPEG",
        "added_at": "2025-07-17T00:02:24.528581",
        "hash": "e1cdea46605c9b1d3c40bf21bf266f58",
        "source": "migrated"
      }
    }
  ]
}