{
  "meta": {
    "version": "1.0",
    "generated_at": "2025-07-28T23:12:02.393375",
    "category": "abstract",
    "page": 13,
    "per_page": 15,
    "total_pages": 18,
    "total_count": 257,
    "count_on_page": 15,
    "has_next": true,
    "has_prev": true,
    "next_page_url": "/api/v1/abstract/pages/14.json",
    "prev_page_url": "/api/v1/abstract/pages/12.json"
  },
  "data": [
    {
      "id": "abstract_181",
      "category": "abstract",
      "title": "Abstract Wallpaper 181",
      "tags": [
        "abstract",
        "wallpaper",
        "hd",
        "mobile"
      ],
      "urls": {
        "raw": "https://media.githubusercontent.com/media/ddh4r4m/wallpaper-collection/main/collection/wallpapers/abstract/181.jpg",
        "thumb": "https://media.githubusercontent.com/media/ddh4r4m/wallpaper-collection/main/collection/thumbnails/abstract/181.jpg"
      },
      "metadata": {
        "dimensions": {
          "width": 1080,
          "height": 1920
        },
        "file_size": 406856,
        "format": "JPEG",
        "added_at": "2025-07-17T00:02:24.595966",
        "hash": "05fbeb3ed970f9fb3d0f4988beb402c6",
        "source": "migrated"
      }
    },
    {
      "id": "abstract_182",
      "category": "abstract",
      "title": "Abstract Wallpaper 182",
      "tags": [
        "abstract",
        "wallpaper",
        "hd",
        "mobile"
      ],
      "urls": {
        "raw": "https://media.githubusercontent.com/media/ddh4r4m/wallpaper-collection/main/collection/wallpapers/abstract/182.jpg",
        "thumb": "https://media.githubusercontent.com/media/ddh4r4m/wallpaper-collection/main/collection/thumbnails/abstract/182.jpg"
      },
      "metadata": {
        "dimensions": {
          "width": 1080,
          "height": 1920
        },
        "file_size": 483514,
        "format": "JPEG",
        "added_at": "2025-07-17T00:02:24.662068",
        "hash": "1a6bb1f6f544463a289597b9aa111096",
        "source": "migrated"
      }
    },
    {
      "id": "abstract_183",
      "category": "abstract",
      "title": "Abstract Wallpaper 183",
      "tags": [
        "abstract",
        "wallpaper",
        "hd",
        "mobile"
      ],
      "urls": {
        "raw": "https://media.githubusercontent.com/media/ddh4r4m/wallpaper-collection/main/collection/wallpapers/abstract/183.jpg",
        "thumb": "https://media.githubusercontent.com/media/ddh4r4m/wallpaper-collection/main/collection/thumbnails/abstract/183.jpg"
      },
      "metadata": {
        "dimensions": {
          "width": 1080,
          "height": 1920
        },
        "file_size": 654502,
        "format": "JPEG",
        "added_at": "2025-07-17T00:02:24.739807",
        "hash": "8bbad9666ae839e06f4ade93f0bac7ec",
        "source": "migrated"
      }
    },
    {
      "id": "abstract_184",
      "category": "abstract",
      "title": "Abstract Wallpaper 184",
      "tags": [
        "abstract",
        "wallpaper",
        "hd",
        "mobile"
      ],
      "urls": {
        "raw": "https://media.githubusercontent.com/media/ddh4r4m/wallpaper-collection/main/collection/wallpapers/abstract/184.jpg",
        "thumb": "https://media.githubusercontent.com/media/ddh4r4m/wallpaper-collection/main/collection/thumbnails/abstract/184.jpg"
      },
      "metadata": {
        "dimensions": {
          "width": 1080,
          "height": 1920
        },
        "file_size": 393199,
        "format": "JPEG",
        "added_at": "2025-07-17T00:02:24.802341",
        "hash": "ade61d5e3a46f18a84d9754c4cab56ec",
        "source": "migrated"
      }
    },
    {
      "id": "abstract_185",
      "category": "abstract",
      "title": "Abstract Wallpaper 185",
      "tags": [
        "abstract",
        "wallpaper",
        "hd",
        "mobile"
      ],
      "urls": {
        "raw": "https://media.githubusercontent.com/media/ddh4r4m/wallpaper-collection/main/collection/wallpapers/abstract/185.jpg",
        "thumb": "https://media.githubusercontent.com/media/ddh4r4m/wallpaper-collection/main/collection/thumbnails/abstract/185.jpg"
      },
      "metadata": {
        "dimensions": {
          "width": 1080,
          "height": 1920
        },
        "file_size": 520018,
        "format": "JPEG",
        "added_at": "2025-07-17T00:02:24.870772",
        "hash": "1d6db63117274123a03b134d9782c93f",
        "source": "migrated"
      }
    },
    {
      "id": "abstract_186",
      "category": "abstract",
      "title": "Abstract Wallpaper 186",
      "tags": [
        "abstract",
        "wallpaper",
        "hd",
        "mobile"
      ],
      "urls": {
        "raw": "https://media.githubusercontent.com/media/ddh4r4m/wallpaper-collection/main/collection/wallpapers/abstract/186.jpg",
        "thumb": "https://media.githubusercontent.com/media/ddh4r4m/wallpaper-collection/main/collection/thumbnails/abstract/186.jpg"
      },
      "metadata": {
        "dimensions": {
          "width": 1080,
          "height": 1920
        },
        "file_size": 734832,
        "format": "JPEG",
        "added_at": "2025-07-17T00:02:24.950573",
        "hash": "3d35896d082666e6d66c8cd52ae14ff5",
        "source": "migrated"
      }
    },
    {
      "id": "abstract_187",
      "category": "abstract",
      "title": "Abstract Wallpaper 187",
      "tags": [
        "abstract",
        "wallpaper",
        "hd",
        "mobile"
      ],
      "urls": {
        "raw": "https://media.githubusercontent.com/media/ddh4r4m/wallpaper-collection/main/collection/wallpapers/abstract/187.jpg",
        "thumb": "https://media.githubusercontent.com/media/ddh4r4m/wallpaper-collection/main/collection/thumbnails/abstract/187.jpg"
      },
      "metadata": {
        "dimensions": {
          "width": 1080,
          "height": 1920
        },
        "file_size": 135312,
        "format": "JPEG",
        "added_at": "2025-07-17T00:02:24.996748",
        "hash": "116dce61e7203377f0b151ad9386c12b",
        "source": "migrated"
      }
    },
    {
      "id": "abstract_188",
      "category": "abstract",
      "title": "Abstract Wallpaper 188",
      "tags": [
        "abstract",
        "wallpaper",
        "hd",
        "mobile"
      ],
      "urls": {
        "raw": "https://media.githubusercontent.com/media/ddh4r4m/wallpaper-collection/main/collection/wallpapers/abstract/188.jpg",
        "thumb": "https://media.githubusercontent.com/media/ddh4r4m/wallpaper-collection/main/collection/thumbnails/abstract/188.jpg"
      },
      "metadata": {
        "dimensions": {
          "width": 1080,
          "height": 1920
        },
        "file_size": 479496,
        "format": "JPEG",
        "added_at": "2025-07-17T00:02:25.065161",
        "hash": "617ecf2c3d13b24f8f1e376868943e7c",
        "source": "migrated"
      }
    },
    {
      "id": "abstract_189",
      "category": "abstract",
      "title": "Abstract Wallpaper 189",
      "tags": [
        "abstract",
        "wallpaper",
        "hd",
        "mobile"
      ],
      "urls": {
        "raw": "https://media.githubusercontent.com/media/ddh4r4m/wallpaper-collection/main/collection/wallpapers/abstract/189.jpg",
        "thumb": "https://media.githubusercontent.com/media/ddh4r4m/wallpaper-collection/main/collection/thumbnails/abstract/189.jpg"
      },
      "metadata": {
        "dimensions": {
          "width": 1080,
          "height": 1920
        },
        "file_size": 370564,
        "format": "JPEG",
        "added_at": "2025-07-17T00:02:25.128888",
        "hash": "5594c115261f08aa4d07d5c47cfea043",
        "source": "migrated"
      }
    },
    {
      "id": "abstract_190",
      "category": "abstract",
      "title": "Abstract Wallpaper 190",
      "tags": [
        "abstract",
        "wallpaper",
        "hd",
        "mobile"
      ],
      "urls": {
        "raw": "https://media.githubusercontent.com/media/ddh4r4m/wallpaper-collection/main/collection/wallpapers/abstract/190.jpg",
        "thumb": "https://media.githubusercontent.com/media/ddh4r4m/wallpaper-collection/main/collection/thumbnails/abstract/190.jpg"
      },
      "metadata": {
        "dimensions": {
          "width": 1080,
          "height": 1920
        },
        "file_size": 808151,
        "format": "JPEG",
        "added_at": "2025-07-17T00:02:25.215008",
        "hash": "7fb3bbcd77c7ab92bed44c11d2f9fd19",
        "source": "migrated"
      }
    },
    {
      "id": "abstract_191",
      "category": "abstract",
      "title": "Abstract Wallpaper 191",
      "tags": [
        "abstract",
        "wallpaper",
        "hd",
        "mobile"
      ],
      "urls": {
        "raw": "https://media.githubusercontent.com/media/ddh4r4m/wallpaper-collection/main/collection/wallpapers/abstract/191.jpg",
        "thumb": "https://media.githubusercontent.com/media/ddh4r4m/wallpaper-collection/main/collection/thumbnails/abstract/191.jpg"
      },
      "metadata": {
        "dimensions": {
          "width": 1080,
          "height": 1920
        },
        "file_size": 223044,
        "format": "JPEG",
        "added_at": "2025-07-17T00:02:25.271320",
        "hash": "ddcdac0892b2e5a6916507cd8e83828b",
        "source": "migrated"
      }
    },
    {
      "id": "abstract_192",
      "category": "abstract",
      "title": "Abstract Wallpaper 192",
      "tags": [
        "abstract",
        "wallpaper",
        "hd",
        "mobile"
      ],
      "urls": {
        "raw": "https://media.githubusercontent.com/media/ddh4r4m/wallpaper-collection/main/collection/wallpapers/abstract/192.jpg",
        "thumb": "https://media.githubusercontent.com/media/ddh4r4m/wallpaper-collection/main/collection/thumbnails/abstract/192.jpg"
      },
      "metadata": {
        "dimensions": {
          "width": 1080,
          "height": 1920
        },
        "file_size": 629251,
        "format": "JPEG",
        "added_at": "2025-07-17T00:02:25.351556",
        "hash": "5b7677c6ec7134d8a2db923037c491dc",
        "source": "migrated"
      }
    },
    {
      "id": "abstract_193",
      "category": "abstract",
      "title": "Abstract Wallpaper 193",
      "tags": [
        "abstract",
        "wallpaper",
        "hd",
        "mobile"
      ],
      "urls": {
        "raw": "https://media.githubusercontent.com/media/ddh4r4m/wallpaper-collection/main/collection/wallpapers/abstract/193.jpg",
        "thumb": "https://media.githubusercontent.com/media/ddh4r4m/wallpaper-collection/main/collection/thumbnails/abstract/193.jpg"
      },
      "metadata": {
        "dimensions": {
          "width": 1080,
          "height": 1920
        },
        "file_size": 399294,
        "format": "JPEG",
        "added_at": "2025-07-17T00:02:25.416144",
        "hash": "e552d5021638bb0784b73dae4a2ce7a9",
        "source": "migrated"
      }
    },
    {
      "id": "abstract_194",
      "category": "abstract",
      "title": "Abstract Wallpaper 194",
      "tags": [
        "abstract",
        "wallpaper",
        "hd",
        "mobile"
      ],
      "urls": {
        "raw": "https://media.githubusercontent.com/media/ddh4r4m/wallpaper-collection/main/collection/wallpapers/abstract/194.jpg",
        "thumb": "https://media.githubusercontent.com/media/ddh4r4m/wallpaper-collection/main/collection/thumbnails/abstract/194.jpg"
      },
      "metadata": {
        "dimensions": {
          "width": 1080,
          "height": 1920
        },
        "file_size": 451128,
        "format": "JPEG",
        "added_at": "2025-07-17T00:02:25.481056",
        "hash": "2b6e140da2f5fa58f3eb57368829db4c",
        "source": "migrated"
      }
    },
    {
      "id": "abstract_195",
      "category": "abstract",
      "title": "Abstract Wallpaper 195",
      "tags": [
        "abstract",
        "wallpaper",
        "hd",
        "mobile"
      ],
      "urls": {
        "raw": "https://media.githubusercontent.com/media/ddh4r4m/wallpaper-collection/main/collection/wallpapers/abstract/195.jpg",
        "thumb": "https://media.githubusercontent.com/media/ddh4r4m/wallpaper-collection/main/collection/thumbnails/abstract/195.jpg"
      },
      "metadata": {
        "dimensions": {
          "width": 1080,
          "height": 1920
        },
        "file_size": 466486,
        "format": "JPEG",
        "added_at": "2025-07-17T00:02:25.548139",
        "hash": "db61834f0ef73310547230c1fedc4a32",
        "source": "migrated"
      }
    }
  ]
}