{
  "meta": {
    "version": "1.0",
    "generated_at": "2025-07-28T21:27:34.814586",
    "category": "abstract",
    "page": 14,
    "per_page": 15,
    "total_pages": 18,
    "total_count": 257,
    "count_on_page": 15,
    "has_next": true,
    "has_prev": true,
    "next_page_url": "/api/v1/abstract/pages/15.json",
    "prev_page_url": "/api/v1/abstract/pages/13.json"
  },
  "data": [
    {
      "id": "abstract_196",
      "category": "abstract",
      "title": "Abstract Wallpaper 196",
      "tags": [
        "abstract",
        "wallpaper",
        "hd",
        "mobile"
      ],
      "urls": {
        "raw": "https://media.githubusercontent.com/media/ddh4r4m/wallpaper-collection/main/collection/wallpapers/abstract/196.jpg",
        "thumb": "https://media.githubusercontent.com/media/ddh4r4m/wallpaper-collection/main/collection/thumbnails/abstract/196.jpg"
      },
      "metadata": {
        "dimensions": {
          "width": 1080,
          "height": 1920
        },
        "file_size": 670063,
        "format": "JPEG",
        "added_at": "2025-07-17T00:02:25.626227",
        "hash": "1e1a4bd33be91be079337a8c427ac163",
        "source": "migrated"
      }
    },
    {
      "id": "abstract_197",
      "category": "abstract",
      "title": "Abstract Wallpaper 197",
      "tags": [
        "abstract",
        "wallpaper",
        "hd",
        "mobile"
      ],
      "urls": {
        "raw": "https://media.githubusercontent.com/media/ddh4r4m/wallpaper-collection/main/collection/wallpapers/abstract/197.jpg",
        "thumb": "https://media.githubusercontent.com/media/ddh4r4m/wallpaper-collection/main/collection/thumbnails/abstract/197.jpg"
      },
      "metadata": {
        "dimensions": {
          "width": 1080,
          "height": 1920
        },
        "file_size": 369202,
        "format": "JPEG",
        "added_at": "2025-07-17T00:02:25.689136",
        "hash": "6012f3cf3dfe26516ae03f3e9226990d",
        "source": "migrated"
      }
    },
    {
      "id": "abstract_198",
      "category": "abstract",
      "title": "Abstract Wallpaper 198",
      "tags": [
        "abstract",
        "wallpaper",
        "hd",
        "mobile"
      ],
      "urls": {
        "raw": "https://media.githubusercontent.com/media/ddh4r4m/wallpaper-collection/main/collection/wallpapers/abstract/198.jpg",
        "thumb": "https://media.githubusercontent.com/media/ddh4r4m/wallpaper-collection/main/collection/thumbnails/abstract/198.jpg"
      },
      "metadata": {
        "dimensions": {
          "width": 1080,
          "height": 1920
        },
        "file_size": 158340,
        "format": "JPEG",
        "added_at": "2025-07-17T00:02:25.741038",
        "hash": "24cc68bc28bcfa0b6c6b86d9ba109e62",
        "source": "migrated"
      }
    },
    {
      "id": "abstract_199",
      "category": "abstract",
      "title": "Abstract Wallpaper 199",
      "tags": [
        "abstract",
        "wallpaper",
        "hd",
        "mobile"
      ],
      "urls": {
        "raw": "https://media.githubusercontent.com/media/ddh4r4m/wallpaper-collection/main/collection/wallpapers/abstract/199.jpg",
        "thumb": "https://media.githubusercontent.com/media/ddh4r4m/wallpaper-collection/main/collection/thumbnails/abstract/199.jpg"
      },
      "metadata": {
        "dimensions": {
          "width": 1080,
          "height": 1920
        },
        "file_size": 601272,
        "format": "JPEG",
        "added_at": "2025-07-17T00:02:25.817426",
        "hash": "e4ad65dca997cd3fdfbe453895966a9f",
        "source": "migrated"
      }
    },
    {
      "id": "abstract_200",
      "category": "abstract",
      "title": "Abstract Wallpaper 200",
      "tags": [
        "abstract",
        "wallpaper",
        "hd",
        "mobile"
      ],
      "urls": {
        "raw": "https://media.githubusercontent.com/media/ddh4r4m/wallpaper-collection/main/collection/wallpapers/abstract/200.jpg",
        "thumb": "https://media.githubusercontent.com/media/ddh4r4m/wallpaper-collection/main/collection/thumbnails/abstract/200.jpg"
      },
      "metadata": {
        "dimensions": {
          "width": 1080,
          "height": 1920
        },
        "file_size": 435980,
        "format": "JPEG",
        "added_at": "2025-07-17T00:02:25.883951",
        "hash": "b67b1e28c0740361327ba3904d00b7ab",
        "source": "migrated"
      }
    },
    {
      "id": "abstract_201",
      "category": "abstract",
      "title": "Abstract Wallpaper 201",
      "tags": [
        "abstract",
        "wallpaper",
        "hd",
        "mobile"
      ],
      "urls": {
        "raw": "https://media.githubusercontent.com/media/ddh4r4m/wallpaper-collection/main/collection/wallpapers/abstract/201.jpg",
        "thumb": "https://media.githubusercontent.com/media/ddh4r4m/wallpaper-collection/main/collection/thumbnails/abstract/201.jpg"
      },
      "metadata": {
        "dimensions": {
          "width": 1080,
          "height": 1920
        },
        "file_size": 650864,
        "format": "JPEG",
        "added_at": "2025-07-17T00:02:25.962624",
        "hash": "2fa6e62896778382f16351fdaa58e8d3",
        "source": "migrated"
      }
    },
    {
      "id": "abstract_202",
      "category": "abstract",
      "title": "Abstract Wallpaper 202",
      "tags": [
        "abstract",
        "wallpaper",
        "hd",
        "mobile"
      ],
      "urls": {
        "raw": "https://media.githubusercontent.com/media/ddh4r4m/wallpaper-collection/main/collection/wallpapers/abstract/202.jpg",
        "thumb": "https://media.githubusercontent.com/media/ddh4r4m/wallpaper-collection/main/collection/thumbnails/abstract/202.jpg"
      },
      "metadata": {
        "dimensions": {
          "width": 1080,
          "height": 1920
        },
        "file_size": 475403,
        "format": "JPEG",
        "added_at": "2025-07-17T00:02:26.029239",
        "hash": "ccbb6be0c05af557eea3535d883238f1",
        "source": "migrated"
      }
    },
    {
      "id": "abstract_203",
      "category": "abstract",
      "title": "Abstract Wallpaper 203",
      "tags": [
        "abstract",
        "wallpaper",
        "hd",
        "mobile"
      ],
      "urls": {
        "raw": "https://media.githubusercontent.com/media/ddh4r4m/wallpaper-collection/main/collection/wallpapers/abstract/203.jpg",
        "thumb": "https://media.githubusercontent.com/media/ddh4r4m/wallpaper-collection/main/collection/thumbnails/abstract/203.jpg"
      },
      "metadata": {
        "dimensions": {
          "width": 1080,
          "height": 1920
        },
        "file_size": 398178,
        "format": "JPEG",
        "added_at": "2025-07-17T00:02:26.094668",
        "hash": "8d3020d3c312a5109a54f87fb44fe339",
        "source": "migrated"
      }
    },
    {
      "id": "abstract_204",
      "category": "abstract",
      "title": "Abstract Wallpaper 204",
      "tags": [
        "abstract",
        "wallpaper",
        "hd",
        "mobile"
      ],
      "urls": {
        "raw": "https://media.githubusercontent.com/media/ddh4r4m/wallpaper-collection/main/collection/wallpapers/abstract/204.jpg",
        "thumb": "https://media.githubusercontent.com/media/ddh4r4m/wallpaper-collection/main/collection/thumbnails/abstract/204.jpg"
      },
      "metadata": {
        "dimensions": {
          "width": 1080,
          "height": 1920
        },
        "file_size": 507805,
        "format": "JPEG",
        "added_at": "2025-07-17T00:02:26.165085",
        "hash": "f73b3758c7a1fba67042ff1e4bbdfa00",
        "source": "migrated"
      }
    },
    {
      "id": "abstract_205",
      "category": "abstract",
      "title": "Abstract Wallpaper 205",
      "tags": [
        "abstract",
        "wallpaper",
        "hd",
        "mobile"
      ],
      "urls": {
        "raw": "https://media.githubusercontent.com/media/ddh4r4m/wallpaper-collection/main/collection/wallpapers/abstract/205.jpg",
        "thumb": "https://media.githubusercontent.com/media/ddh4r4m/wallpaper-collection/main/collection/thumbnails/abstract/205.jpg"
      },
      "metadata": {
        "dimensions": {
          "width": 1080,
          "height": 1920
        },
        "file_size": 572342,
        "format": "JPEG",
        "added_at": "2025-07-17T00:02:26.235990",
        "hash": "46f75b0cf59ac7670c4bed63e1178df0",
        "source": "migrated"
      }
    },
    {
      "id": "abstract_206",
      "category": "abstract",
      "title": "Abstract Wallpaper 206",
      "tags": [
        "abstract",
        "wallpaper",
        "hd",
        "mobile"
      ],
      "urls": {
        "raw": "https://media.githubusercontent.com/media/ddh4r4m/wallpaper-collection/main/collection/wallpapers/abstract/206.jpg",
        "thumb": "https://media.githubusercontent.com/media/ddh4r4m/wallpaper-collection/main/collection/thumbnails/abstract/206.jpg"
      },
      "metadata": {
        "dimensions": {
          "width": 1080,
          "height": 1920
        },
        "file_size": 618112,
        "format": "JPEG",
        "added_at": "2025-07-17T00:02:26.313343",
        "hash": "243e4f40674938c6394a32ed4509991d",
        "source": "migrated"
      }
    },
    {
      "id": "abstract_207",
      "category": "abstract",
      "title": "Abstract Wallpaper 207",
      "tags": [
        "abstract",
        "wallpaper",
        "hd",
        "mobile"
      ],
      "urls": {
        "raw": "https://media.githubusercontent.com/media/ddh4r4m/wallpaper-collection/main/collection/wallpapers/abstract/207.jpg",
        "thumb": "https://media.githubusercontent.com/media/ddh4r4m/wallpaper-collection/main/collection/thumbnails/abstract/207.jpg"
      },
      "metadata": {
        "dimensions": {
          "width": 1080,
          "height": 1920
        },
        "file_size": 514167,
        "format": "JPEG",
        "added_at": "2025-07-17T00:02:26.383668",
        "hash": "44bc4108b9c763b683b3a34224703a00",
        "source": "migrated"
      }
    },
    {
      "id": "abstract_208",
      "category": "abstract",
      "title": "Abstract Wallpaper 208",
      "tags": [
        "abstract",
        "wallpaper",
        "hd",
        "mobile"
      ],
      "urls": {
        "raw": "https://media.githubusercontent.com/media/ddh4r4m/wallpaper-collection/main/collection/wallpapers/abstract/208.jpg",
        "thumb": "https://media.githubusercontent.com/media/ddh4r4m/wallpaper-collection/main/collection/thumbnails/abstract/208.jpg"
      },
      "metadata": {
        "dimensions": {
          "width": 1080,
          "height": 1920
        },
        "file_size": 511532,
        "format": "JPEG",
        "added_at": "2025-07-17T00:02:26.452326",
        "hash": "b073a7f5663b8dc139171a00a8e3650f",
        "source": "migrated"
      }
    },
    {
      "id": "abstract_209",
      "category": "abstract",
      "title": "Abstract Wallpaper 209",
      "tags": [
        "abstract",
        "wallpaper",
        "hd",
        "mobile"
      ],
      "urls": {
        "raw": "https://media.githubusercontent.com/media/ddh4r4m/wallpaper-collection/main/collection/wallpapers/abstract/209.jpg",
        "thumb": "https://media.githubusercontent.com/media/ddh4r4m/wallpaper-collection/main/collection/thumbnails/abstract/209.jpg"
      },
      "metadata": {
        "dimensions": {
          "width": 1080,
          "height": 1920
        },
        "file_size": 481421,
        "format": "JPEG",
        "added_at": "2025-07-17T00:02:26.524326",
        "hash": "e089ba25eee2f196a2abef54606df8f3",
        "source": "migrated"
      }
    },
    {
      "id": "abstract_210",
      "category": "abstract",
      "title": "Abstract Wallpaper 210",
      "tags": [
        "abstract",
        "wallpaper",
        "hd",
        "mobile"
      ],
      "urls": {
        "raw": "https://media.githubusercontent.com/media/ddh4r4m/wallpaper-collection/main/collection/wallpapers/abstract/210.jpg",
        "thumb": "https://media.githubusercontent.com/media/ddh4r4m/wallpaper-collection/main/collection/thumbnails/abstract/210.jpg"
      },
      "metadata": {
        "dimensions": {
          "width": 1080,
          "height": 1920
        },
        "file_size": 447755,
        "format": "JPEG",
        "added_at": "2025-07-17T00:02:26.591383",
        "hash": "6b0c6e865d8b993c6b5054e45a62a21b",
        "source": "migrated"
      }
    }
  ]
}