{
  "meta": {
    "version": "1.0",
    "generated_at": "2025-07-17T21:14:17.488868",
    "category": "abstract",
    "page": 15,
    "per_page": 15,
    "total_pages": 15,
    "total_count": 219,
    "count_on_page": 9,
    "has_next": false,
    "has_prev": true,
    "next_page_url": null,
    "prev_page_url": "/api/v1/abstract/pages/14.json"
  },
  "data": [
    {
      "id": "abstract_211",
      "category": "abstract",
      "title": "Abstract Wallpaper 211",
      "tags": [
        "abstract",
        "wallpaper",
        "hd",
        "mobile"
      ],
      "urls": {
        "raw": "https://media.githubusercontent.com/media/ddh4r4m/wallpaper-collection/main/collection/wallpapers/abstract/211.jpg",
        "thumb": "https://media.githubusercontent.com/media/ddh4r4m/wallpaper-collection/main/collection/thumbnails/abstract/211.jpg"
      },
      "metadata": {
        "dimensions": {
          "width": 1080,
          "height": 1920
        },
        "file_size": 599493,
        "format": "JPEG",
        "added_at": "2025-07-17T00:02:26.666789",
        "hash": "424d1f434c0db93a25b32de210a90330",
        "source": "migrated"
      }
    },
    {
      "id": "abstract_212",
      "category": "abstract",
      "title": "Abstract Wallpaper 212",
      "tags": [
        "abstract",
        "wallpaper",
        "hd",
        "mobile"
      ],
      "urls": {
        "raw": "https://media.githubusercontent.com/media/ddh4r4m/wallpaper-collection/main/collection/wallpapers/abstract/212.jpg",
        "thumb": "https://media.githubusercontent.com/media/ddh4r4m/wallpaper-collection/main/collection/thumbnails/abstract/212.jpg"
      },
      "metadata": {
        "dimensions": {
          "width": 1080,
          "height": 1920
        },
        "file_size": 553358,
        "format": "JPEG",
        "added_at": "2025-07-17T00:02:26.738775",
        "hash": "6ee6a065eb0c2468c87b6b5e24ab7f4c",
        "source": "migrated"
      }
    },
    {
      "id": "abstract_213",
      "category": "abstract",
      "title": "Abstract Wallpaper 213",
      "tags": [
        "abstract",
        "wallpaper",
        "hd",
        "mobile"
      ],
      "urls": {
        "raw": "https://media.githubusercontent.com/media/ddh4r4m/wallpaper-collection/main/collection/wallpapers/abstract/213.jpg",
        "thumb": "https://media.githubusercontent.com/media/ddh4r4m/wallpaper-collection/main/collection/thumbnails/abstract/213.jpg"
      },
      "metadata": {
        "dimensions": {
          "width": 1080,
          "height": 1920
        },
        "file_size": 486943,
        "format": "JPEG",
        "added_at": "2025-07-17T00:02:26.807019",
        "hash": "4e7918c2fc87d206fc8478e6625d7647",
        "source": "migrated"
      }
    },
    {
      "id": "abstract_214",
      "category": "abstract",
      "title": "Abstract Wallpaper 214",
      "tags": [
        "abstract",
        "wallpaper",
        "hd",
        "mobile"
      ],
      "urls": {
        "raw": "https://media.githubusercontent.com/media/ddh4r4m/wallpaper-collection/main/collection/wallpapers/abstract/214.jpg",
        "thumb": "https://media.githubusercontent.com/media/ddh4r4m/wallpaper-collection/main/collection/thumbnails/abstract/214.jpg"
      },
      "metadata": {
        "dimensions": {
          "width": 1080,
          "height": 1920
        },
        "file_size": 445243,
        "format": "JPEG",
        "added_at": "2025-07-17T00:02:26.875823",
        "hash": "36823f4bc156d8c4925fd8ce7594831a",
        "source": "migrated"
      }
    },
    {
      "id": "abstract_215",
      "category": "abstract",
      "title": "Abstract Wallpaper 215",
      "tags": [
        "abstract",
        "wallpaper",
        "hd",
        "mobile"
      ],
      "urls": {
        "raw": "https://media.githubusercontent.com/media/ddh4r4m/wallpaper-collection/main/collection/wallpapers/abstract/215.jpg",
        "thumb": "https://media.githubusercontent.com/media/ddh4r4m/wallpaper-collection/main/collection/thumbnails/abstract/215.jpg"
      },
      "metadata": {
        "dimensions": {
          "width": 1080,
          "height": 1920
        },
        "file_size": 363573,
        "format": "JPEG",
        "added_at": "2025-07-17T00:02:26.939017",
        "hash": "298bc9fca9a8157e1a323c6257d42b8d",
        "source": "migrated"
      }
    },
    {
      "id": "abstract_216",
      "category": "abstract",
      "title": "Abstract Wallpaper 216",
      "tags": [
        "abstract",
        "wallpaper",
        "hd",
        "mobile"
      ],
      "urls": {
        "raw": "https://media.githubusercontent.com/media/ddh4r4m/wallpaper-collection/main/collection/wallpapers/abstract/216.jpg",
        "thumb": "https://media.githubusercontent.com/media/ddh4r4m/wallpaper-collection/main/collection/thumbnails/abstract/216.jpg"
      },
      "metadata": {
        "dimensions": {
          "width": 1080,
          "height": 1920
        },
        "file_size": 510523,
        "format": "JPEG",
        "added_at": "2025-07-17T00:02:27.009092",
        "hash": "7aeb9524a1a939ccd7b8b0b96ce6e01b",
        "source": "migrated"
      }
    },
    {
      "id": "abstract_217",
      "category": "abstract",
      "title": "Abstract Wallpaper 217",
      "tags": [
        "abstract",
        "wallpaper",
        "hd",
        "mobile"
      ],
      "urls": {
        "raw": "https://media.githubusercontent.com/media/ddh4r4m/wallpaper-collection/main/collection/wallpapers/abstract/217.jpg",
        "thumb": "https://media.githubusercontent.com/media/ddh4r4m/wallpaper-collection/main/collection/thumbnails/abstract/217.jpg"
      },
      "metadata": {
        "dimensions": {
          "width": 1080,
          "height": 1920
        },
        "file_size": 384953,
        "format": "JPEG",
        "added_at": "2025-07-17T00:02:27.071831",
        "hash": "1f7aa578b3d92c0f8d072451d6887068",
        "source": "migrated"
      }
    },
    {
      "id": "abstract_218",
      "category": "abstract",
      "title": "Abstract Wallpaper 218",
      "tags": [
        "abstract",
        "wallpaper",
        "hd",
        "mobile"
      ],
      "urls": {
        "raw": "https://media.githubusercontent.com/media/ddh4r4m/wallpaper-collection/main/collection/wallpapers/abstract/218.jpg",
        "thumb": "https://media.githubusercontent.com/media/ddh4r4m/wallpaper-collection/main/collection/thumbnails/abstract/218.jpg"
      },
      "metadata": {
        "dimensions": {
          "width": 1080,
          "height": 1920
        },
        "file_size": 362976,
        "format": "JPEG",
        "added_at": "2025-07-17T00:02:27.133443",
        "hash": "2d2c8503173455edc847c6c35a3f1e87",
        "source": "migrated"
      }
    },
    {
      "id": "abstract_219",
      "category": "abstract",
      "title": "Abstract Wallpaper 219",
      "tags": [
        "abstract",
        "wallpaper",
        "hd",
        "mobile"
      ],
      "urls": {
        "raw": "https://media.githubusercontent.com/media/ddh4r4m/wallpaper-collection/main/collection/wallpapers/abstract/219.jpg",
        "thumb": "https://media.githubusercontent.com/media/ddh4r4m/wallpaper-collection/main/collection/thumbnails/abstract/219.jpg"
      },
      "metadata": {
        "dimensions": {
          "width": 1080,
          "height": 1920
        },
        "file_size": 286726,
        "format": "JPEG",
        "added_at": "2025-07-17T00:02:27.191705",
        "hash": "d1eb789f75deb11bce211d400b058963",
        "source": "migrated"
      }
    }
  ]
}