{
  "meta": {
    "version": "1.0",
    "generated_at": "2025-07-28T21:27:34.814586",
    "category": "abstract",
    "page": 2,
    "per_page": 15,
    "total_pages": 18,
    "total_count": 257,
    "count_on_page": 15,
    "has_next": true,
    "has_prev": true,
    "next_page_url": "/api/v1/abstract/pages/3.json",
    "prev_page_url": "/api/v1/abstract/pages/1.json"
  },
  "data": [
    {
      "id": "abstract_016",
      "category": "abstract",
      "title": "Abstract Wallpaper 016",
      "tags": [
        "abstract",
        "wallpaper",
        "hd",
        "mobile"
      ],
      "urls": {
        "raw": "https://media.githubusercontent.com/media/ddh4r4m/wallpaper-collection/main/collection/wallpapers/abstract/016.jpg",
        "thumb": "https://media.githubusercontent.com/media/ddh4r4m/wallpaper-collection/main/collection/thumbnails/abstract/016.jpg"
      },
      "metadata": {
        "dimensions": {
          "width": 1080,
          "height": 1920
        },
        "file_size": 407503,
        "format": "JPEG",
        "added_at": "2025-07-17T00:02:13.338415",
        "hash": "600d4f560c5f75c2457c751cc46b77c8",
        "source": "migrated"
      }
    },
    {
      "id": "abstract_017",
      "category": "abstract",
      "title": "Abstract Wallpaper 017",
      "tags": [
        "abstract",
        "wallpaper",
        "hd",
        "mobile"
      ],
      "urls": {
        "raw": "https://media.githubusercontent.com/media/ddh4r4m/wallpaper-collection/main/collection/wallpapers/abstract/017.jpg",
        "thumb": "https://media.githubusercontent.com/media/ddh4r4m/wallpaper-collection/main/collection/thumbnails/abstract/017.jpg"
      },
      "metadata": {
        "dimensions": {
          "width": 1080,
          "height": 1920
        },
        "file_size": 338467,
        "format": "JPEG",
        "added_at": "2025-07-17T00:02:13.401470",
        "hash": "1684cef780ab959eebcdd4be7bfbae29",
        "source": "migrated"
      }
    },
    {
      "id": "abstract_018",
      "category": "abstract",
      "title": "Abstract Wallpaper 018",
      "tags": [
        "abstract",
        "wallpaper",
        "hd",
        "mobile"
      ],
      "urls": {
        "raw": "https://media.githubusercontent.com/media/ddh4r4m/wallpaper-collection/main/collection/wallpapers/abstract/018.jpg",
        "thumb": "https://media.githubusercontent.com/media/ddh4r4m/wallpaper-collection/main/collection/thumbnails/abstract/018.jpg"
      },
      "metadata": {
        "dimensions": {
          "width": 1080,
          "height": 1920
        },
        "file_size": 566535,
        "format": "JPEG",
        "added_at": "2025-07-17T00:02:13.476881",
        "hash": "610a307c3896023a8e95383680ac3981",
        "source": "migrated"
      }
    },
    {
      "id": "abstract_019",
      "category": "abstract",
      "title": "Abstract Wallpaper 019",
      "tags": [
        "abstract",
        "wallpaper",
        "hd",
        "mobile"
      ],
      "urls": {
        "raw": "https://media.githubusercontent.com/media/ddh4r4m/wallpaper-collection/main/collection/wallpapers/abstract/019.jpg",
        "thumb": "https://media.githubusercontent.com/media/ddh4r4m/wallpaper-collection/main/collection/thumbnails/abstract/019.jpg"
      },
      "metadata": {
        "dimensions": {
          "width": 1080,
          "height": 1920
        },
        "file_size": 423975,
        "format": "JPEG",
        "added_at": "2025-07-17T00:02:13.542094",
        "hash": "e2c1916c5d38967601ea3b64d703999e",
        "source": "migrated"
      }
    },
    {
      "id": "abstract_020",
      "category": "abstract",
      "title": "Abstract Wallpaper 020",
      "tags": [
        "abstract",
        "wallpaper",
        "hd",
        "mobile"
      ],
      "urls": {
        "raw": "https://media.githubusercontent.com/media/ddh4r4m/wallpaper-collection/main/collection/wallpapers/abstract/020.jpg",
        "thumb": "https://media.githubusercontent.com/media/ddh4r4m/wallpaper-collection/main/collection/thumbnails/abstract/020.jpg"
      },
      "metadata": {
        "dimensions": {
          "width": 1080,
          "height": 1920
        },
        "file_size": 395868,
        "format": "JPEG",
        "added_at": "2025-07-17T00:02:13.605043",
        "hash": "6f26dbd72a338fa7aa0b7e1b6f42e4cc",
        "source": "migrated"
      }
    },
    {
      "id": "abstract_021",
      "category": "abstract",
      "title": "Abstract Wallpaper 021",
      "tags": [
        "abstract",
        "wallpaper",
        "hd",
        "mobile"
      ],
      "urls": {
        "raw": "https://media.githubusercontent.com/media/ddh4r4m/wallpaper-collection/main/collection/wallpapers/abstract/021.jpg",
        "thumb": "https://media.githubusercontent.com/media/ddh4r4m/wallpaper-collection/main/collection/thumbnails/abstract/021.jpg"
      },
      "metadata": {
        "dimensions": {
          "width": 1080,
          "height": 1920
        },
        "file_size": 666515,
        "format": "JPEG",
        "added_at": "2025-07-17T00:02:13.680867",
        "hash": "78836362e09e8108c93ce4e653ac5051",
        "source": "migrated"
      }
    },
    {
      "id": "abstract_022",
      "category": "abstract",
      "title": "Abstract Wallpaper 022",
      "tags": [
        "abstract",
        "wallpaper",
        "hd",
        "mobile"
      ],
      "urls": {
        "raw": "https://media.githubusercontent.com/media/ddh4r4m/wallpaper-collection/main/collection/wallpapers/abstract/022.jpg",
        "thumb": "https://media.githubusercontent.com/media/ddh4r4m/wallpaper-collection/main/collection/thumbnails/abstract/022.jpg"
      },
      "metadata": {
        "dimensions": {
          "width": 1080,
          "height": 1920
        },
        "file_size": 390983,
        "format": "JPEG",
        "added_at": "2025-07-17T00:02:13.746411",
        "hash": "4f34dae0da0c21eaf262170de55da2e6",
        "source": "migrated"
      }
    },
    {
      "id": "abstract_023",
      "category": "abstract",
      "title": "Abstract Wallpaper 023",
      "tags": [
        "abstract",
        "wallpaper",
        "hd",
        "mobile"
      ],
      "urls": {
        "raw": "https://media.githubusercontent.com/media/ddh4r4m/wallpaper-collection/main/collection/wallpapers/abstract/023.jpg",
        "thumb": "https://media.githubusercontent.com/media/ddh4r4m/wallpaper-collection/main/collection/thumbnails/abstract/023.jpg"
      },
      "metadata": {
        "dimensions": {
          "width": 1080,
          "height": 1920
        },
        "file_size": 552907,
        "format": "JPEG",
        "added_at": "2025-07-17T00:02:13.817681",
        "hash": "47977f5a78f7ff53e5c12afdb1b9e7ef",
        "source": "migrated"
      }
    },
    {
      "id": "abstract_024",
      "category": "abstract",
      "title": "Abstract Wallpaper 024",
      "tags": [
        "abstract",
        "wallpaper",
        "hd",
        "mobile"
      ],
      "urls": {
        "raw": "https://media.githubusercontent.com/media/ddh4r4m/wallpaper-collection/main/collection/wallpapers/abstract/024.jpg",
        "thumb": "https://media.githubusercontent.com/media/ddh4r4m/wallpaper-collection/main/collection/thumbnails/abstract/024.jpg"
      },
      "metadata": {
        "dimensions": {
          "width": 1080,
          "height": 1920
        },
        "file_size": 524613,
        "format": "JPEG",
        "added_at": "2025-07-17T00:02:13.888752",
        "hash": "92708b7e78ce56f8cd6db579a26f9a20",
        "source": "migrated"
      }
    },
    {
      "id": "abstract_025",
      "category": "abstract",
      "title": "Abstract Wallpaper 025",
      "tags": [
        "abstract",
        "wallpaper",
        "hd",
        "mobile"
      ],
      "urls": {
        "raw": "https://media.githubusercontent.com/media/ddh4r4m/wallpaper-collection/main/collection/wallpapers/abstract/025.jpg",
        "thumb": "https://media.githubusercontent.com/media/ddh4r4m/wallpaper-collection/main/collection/thumbnails/abstract/025.jpg"
      },
      "metadata": {
        "dimensions": {
          "width": 1080,
          "height": 1920
        },
        "file_size": 685128,
        "format": "JPEG",
        "added_at": "2025-07-17T00:02:13.968409",
        "hash": "6d727461a473ba37fcbe897e129422cc",
        "source": "migrated"
      }
    },
    {
      "id": "abstract_026",
      "category": "abstract",
      "title": "Abstract Wallpaper 026",
      "tags": [
        "abstract",
        "wallpaper",
        "hd",
        "mobile"
      ],
      "urls": {
        "raw": "https://media.githubusercontent.com/media/ddh4r4m/wallpaper-collection/main/collection/wallpapers/abstract/026.jpg",
        "thumb": "https://media.githubusercontent.com/media/ddh4r4m/wallpaper-collection/main/collection/thumbnails/abstract/026.jpg"
      },
      "metadata": {
        "dimensions": {
          "width": 1080,
          "height": 1920
        },
        "file_size": 271372,
        "format": "JPEG",
        "added_at": "2025-07-17T00:02:14.024762",
        "hash": "2de9c65898617da97bab0adb2cc8bc6a",
        "source": "migrated"
      }
    },
    {
      "id": "abstract_027",
      "category": "abstract",
      "title": "Abstract Wallpaper 027",
      "tags": [
        "abstract",
        "wallpaper",
        "hd",
        "mobile"
      ],
      "urls": {
        "raw": "https://media.githubusercontent.com/media/ddh4r4m/wallpaper-collection/main/collection/wallpapers/abstract/027.jpg",
        "thumb": "https://media.githubusercontent.com/media/ddh4r4m/wallpaper-collection/main/collection/thumbnails/abstract/027.jpg"
      },
      "metadata": {
        "dimensions": {
          "width": 1080,
          "height": 1920
        },
        "file_size": 336807,
        "format": "JPEG",
        "added_at": "2025-07-17T00:02:14.087598",
        "hash": "07d9bdcef5280fa16f51af169ec96de8",
        "source": "migrated"
      }
    },
    {
      "id": "abstract_028",
      "category": "abstract",
      "title": "Abstract Wallpaper 028",
      "tags": [
        "abstract",
        "wallpaper",
        "hd",
        "mobile"
      ],
      "urls": {
        "raw": "https://media.githubusercontent.com/media/ddh4r4m/wallpaper-collection/main/collection/wallpapers/abstract/028.jpg",
        "thumb": "https://media.githubusercontent.com/media/ddh4r4m/wallpaper-collection/main/collection/thumbnails/abstract/028.jpg"
      },
      "metadata": {
        "dimensions": {
          "width": 1080,
          "height": 1920
        },
        "file_size": 403588,
        "format": "JPEG",
        "added_at": "2025-07-17T00:02:14.151176",
        "hash": "518cd1f7535f0a72824232e8f7dcc71b",
        "source": "migrated"
      }
    },
    {
      "id": "abstract_029",
      "category": "abstract",
      "title": "Abstract Wallpaper 029",
      "tags": [
        "abstract",
        "wallpaper",
        "hd",
        "mobile"
      ],
      "urls": {
        "raw": "https://media.githubusercontent.com/media/ddh4r4m/wallpaper-collection/main/collection/wallpapers/abstract/029.jpg",
        "thumb": "https://media.githubusercontent.com/media/ddh4r4m/wallpaper-collection/main/collection/thumbnails/abstract/029.jpg"
      },
      "metadata": {
        "dimensions": {
          "width": 1080,
          "height": 1920
        },
        "file_size": 497387,
        "format": "JPEG",
        "added_at": "2025-07-17T00:02:14.221244",
        "hash": "65046c13c957212898d648de3acd07b1",
        "source": "migrated"
      }
    },
    {
      "id": "abstract_030",
      "category": "abstract",
      "title": "Abstract Wallpaper 030",
      "tags": [
        "abstract",
        "wallpaper",
        "hd",
        "mobile"
      ],
      "urls": {
        "raw": "https://media.githubusercontent.com/media/ddh4r4m/wallpaper-collection/main/collection/wallpapers/abstract/030.jpg",
        "thumb": "https://media.githubusercontent.com/media/ddh4r4m/wallpaper-collection/main/collection/thumbnails/abstract/030.jpg"
      },
      "metadata": {
        "dimensions": {
          "width": 1080,
          "height": 1920
        },
        "file_size": 475507,
        "format": "JPEG",
        "added_at": "2025-07-17T00:02:14.288932",
        "hash": "a0c0f2f4f32a0072a482a4055b45c44d",
        "source": "migrated"
      }
    }
  ]
}