{
  "meta": {
    "version": "1.0",
    "generated_at": "2025-07-19T12:26:57.111378",
    "category": "abstract",
    "page": 3,
    "per_page": 15,
    "total_pages": 18,
    "total_count": 257,
    "count_on_page": 15,
    "has_next": true,
    "has_prev": true,
    "next_page_url": "/api/v1/abstract/pages/4.json",
    "prev_page_url": "/api/v1/abstract/pages/2.json"
  },
  "data": [
    {
      "id": "abstract_031",
      "category": "abstract",
      "title": "Abstract Wallpaper 031",
      "tags": [
        "abstract",
        "wallpaper",
        "hd",
        "mobile"
      ],
      "urls": {
        "raw": "https://media.githubusercontent.com/media/ddh4r4m/wallpaper-collection/main/collection/wallpapers/abstract/031.jpg",
        "thumb": "https://media.githubusercontent.com/media/ddh4r4m/wallpaper-collection/main/collection/thumbnails/abstract/031.jpg"
      },
      "metadata": {
        "dimensions": {
          "width": 1080,
          "height": 1920
        },
        "file_size": 615054,
        "format": "JPEG",
        "added_at": "2025-07-17T00:02:14.362222",
        "hash": "2b2f20d187e203db17ee0b477ec0e3ca",
        "source": "migrated"
      }
    },
    {
      "id": "abstract_032",
      "category": "abstract",
      "title": "Abstract Wallpaper 032",
      "tags": [
        "abstract",
        "wallpaper",
        "hd",
        "mobile"
      ],
      "urls": {
        "raw": "https://media.githubusercontent.com/media/ddh4r4m/wallpaper-collection/main/collection/wallpapers/abstract/032.jpg",
        "thumb": "https://media.githubusercontent.com/media/ddh4r4m/wallpaper-collection/main/collection/thumbnails/abstract/032.jpg"
      },
      "metadata": {
        "dimensions": {
          "width": 1080,
          "height": 1920
        },
        "file_size": 373349,
        "format": "JPEG",
        "added_at": "2025-07-17T00:02:14.424948",
        "hash": "f76a1c67a3f5fe581ad769da033d4966",
        "source": "migrated"
      }
    },
    {
      "id": "abstract_033",
      "category": "abstract",
      "title": "Abstract Wallpaper 033",
      "tags": [
        "abstract",
        "wallpaper",
        "hd",
        "mobile"
      ],
      "urls": {
        "raw": "https://media.githubusercontent.com/media/ddh4r4m/wallpaper-collection/main/collection/wallpapers/abstract/033.jpg",
        "thumb": "https://media.githubusercontent.com/media/ddh4r4m/wallpaper-collection/main/collection/thumbnails/abstract/033.jpg"
      },
      "metadata": {
        "dimensions": {
          "width": 1080,
          "height": 1920
        },
        "file_size": 146999,
        "format": "JPEG",
        "added_at": "2025-07-17T00:02:14.475556",
        "hash": "e1e0d2a3b2973552731d6b55364c3422",
        "source": "migrated"
      }
    },
    {
      "id": "abstract_034",
      "category": "abstract",
      "title": "Abstract Wallpaper 034",
      "tags": [
        "abstract",
        "wallpaper",
        "hd",
        "mobile"
      ],
      "urls": {
        "raw": "https://media.githubusercontent.com/media/ddh4r4m/wallpaper-collection/main/collection/wallpapers/abstract/034.jpg",
        "thumb": "https://media.githubusercontent.com/media/ddh4r4m/wallpaper-collection/main/collection/thumbnails/abstract/034.jpg"
      },
      "metadata": {
        "dimensions": {
          "width": 1080,
          "height": 1920
        },
        "file_size": 268840,
        "format": "JPEG",
        "added_at": "2025-07-17T00:02:14.535632",
        "hash": "b8866e593da338d8bd98afafbe9fee51",
        "source": "migrated"
      }
    },
    {
      "id": "abstract_035",
      "category": "abstract",
      "title": "Abstract Wallpaper 035",
      "tags": [
        "abstract",
        "wallpaper",
        "hd",
        "mobile"
      ],
      "urls": {
        "raw": "https://media.githubusercontent.com/media/ddh4r4m/wallpaper-collection/main/collection/wallpapers/abstract/035.jpg",
        "thumb": "https://media.githubusercontent.com/media/ddh4r4m/wallpaper-collection/main/collection/thumbnails/abstract/035.jpg"
      },
      "metadata": {
        "dimensions": {
          "width": 1080,
          "height": 1920
        },
        "file_size": 352435,
        "format": "JPEG",
        "added_at": "2025-07-17T00:02:14.598859",
        "hash": "b0bb5be7308ff76f5634318a7577deec",
        "source": "migrated"
      }
    },
    {
      "id": "abstract_036",
      "category": "abstract",
      "title": "Abstract Wallpaper 036",
      "tags": [
        "abstract",
        "wallpaper",
        "hd",
        "mobile"
      ],
      "urls": {
        "raw": "https://media.githubusercontent.com/media/ddh4r4m/wallpaper-collection/main/collection/wallpapers/abstract/036.jpg",
        "thumb": "https://media.githubusercontent.com/media/ddh4r4m/wallpaper-collection/main/collection/thumbnails/abstract/036.jpg"
      },
      "metadata": {
        "dimensions": {
          "width": 1080,
          "height": 1920
        },
        "file_size": 443160,
        "format": "JPEG",
        "added_at": "2025-07-17T00:02:14.665137",
        "hash": "c902ee6cf43425ba9d7cbbd578ebe54f",
        "source": "migrated"
      }
    },
    {
      "id": "abstract_037",
      "category": "abstract",
      "title": "Abstract Wallpaper 037",
      "tags": [
        "abstract",
        "wallpaper",
        "hd",
        "mobile"
      ],
      "urls": {
        "raw": "https://media.githubusercontent.com/media/ddh4r4m/wallpaper-collection/main/collection/wallpapers/abstract/037.jpg",
        "thumb": "https://media.githubusercontent.com/media/ddh4r4m/wallpaper-collection/main/collection/thumbnails/abstract/037.jpg"
      },
      "metadata": {
        "dimensions": {
          "width": 1080,
          "height": 1920
        },
        "file_size": 563772,
        "format": "JPEG",
        "added_at": "2025-07-17T00:02:14.737134",
        "hash": "972b7d236778a38104edc8440cb4920c",
        "source": "migrated"
      }
    },
    {
      "id": "abstract_038",
      "category": "abstract",
      "title": "Abstract Wallpaper 038",
      "tags": [
        "abstract",
        "wallpaper",
        "hd",
        "mobile"
      ],
      "urls": {
        "raw": "https://media.githubusercontent.com/media/ddh4r4m/wallpaper-collection/main/collection/wallpapers/abstract/038.jpg",
        "thumb": "https://media.githubusercontent.com/media/ddh4r4m/wallpaper-collection/main/collection/thumbnails/abstract/038.jpg"
      },
      "metadata": {
        "dimensions": {
          "width": 1080,
          "height": 1920
        },
        "file_size": 380816,
        "format": "JPEG",
        "added_at": "2025-07-17T00:02:14.799694",
        "hash": "280f4bc774880b16392cbf8a0dfbe289",
        "source": "migrated"
      }
    },
    {
      "id": "abstract_039",
      "category": "abstract",
      "title": "Abstract Wallpaper 039",
      "tags": [
        "abstract",
        "wallpaper",
        "hd",
        "mobile"
      ],
      "urls": {
        "raw": "https://media.githubusercontent.com/media/ddh4r4m/wallpaper-collection/main/collection/wallpapers/abstract/039.jpg",
        "thumb": "https://media.githubusercontent.com/media/ddh4r4m/wallpaper-collection/main/collection/thumbnails/abstract/039.jpg"
      },
      "metadata": {
        "dimensions": {
          "width": 1080,
          "height": 1920
        },
        "file_size": 770585,
        "format": "JPEG",
        "added_at": "2025-07-17T00:02:14.882945",
        "hash": "57c602c6a8f8d952d07b397b16fa5f92",
        "source": "migrated"
      }
    },
    {
      "id": "abstract_040",
      "category": "abstract",
      "title": "Abstract Wallpaper 040",
      "tags": [
        "abstract",
        "wallpaper",
        "hd",
        "mobile"
      ],
      "urls": {
        "raw": "https://media.githubusercontent.com/media/ddh4r4m/wallpaper-collection/main/collection/wallpapers/abstract/040.jpg",
        "thumb": "https://media.githubusercontent.com/media/ddh4r4m/wallpaper-collection/main/collection/thumbnails/abstract/040.jpg"
      },
      "metadata": {
        "dimensions": {
          "width": 1080,
          "height": 1920
        },
        "file_size": 419627,
        "format": "JPEG",
        "added_at": "2025-07-17T00:02:14.948250",
        "hash": "32403dc70b653e47d6b0d86ff1da3852",
        "source": "migrated"
      }
    },
    {
      "id": "abstract_041",
      "category": "abstract",
      "title": "Abstract Wallpaper 041",
      "tags": [
        "abstract",
        "wallpaper",
        "hd",
        "mobile"
      ],
      "urls": {
        "raw": "https://media.githubusercontent.com/media/ddh4r4m/wallpaper-collection/main/collection/wallpapers/abstract/041.jpg",
        "thumb": "https://media.githubusercontent.com/media/ddh4r4m/wallpaper-collection/main/collection/thumbnails/abstract/041.jpg"
      },
      "metadata": {
        "dimensions": {
          "width": 1080,
          "height": 1920
        },
        "file_size": 546062,
        "format": "JPEG",
        "added_at": "2025-07-17T00:02:15.019027",
        "hash": "3d89067c9843655d7fa23dbc392d8eeb",
        "source": "migrated"
      }
    },
    {
      "id": "abstract_042",
      "category": "abstract",
      "title": "Abstract Wallpaper 042",
      "tags": [
        "abstract",
        "wallpaper",
        "hd",
        "mobile"
      ],
      "urls": {
        "raw": "https://media.githubusercontent.com/media/ddh4r4m/wallpaper-collection/main/collection/wallpapers/abstract/042.jpg",
        "thumb": "https://media.githubusercontent.com/media/ddh4r4m/wallpaper-collection/main/collection/thumbnails/abstract/042.jpg"
      },
      "metadata": {
        "dimensions": {
          "width": 1080,
          "height": 1920
        },
        "file_size": 353612,
        "format": "JPEG",
        "added_at": "2025-07-17T00:02:15.079619",
        "hash": "6a46120118eaaca9421aa60c8bcb2c06",
        "source": "migrated"
      }
    },
    {
      "id": "abstract_043",
      "category": "abstract",
      "title": "Abstract Wallpaper 043",
      "tags": [
        "abstract",
        "wallpaper",
        "hd",
        "mobile"
      ],
      "urls": {
        "raw": "https://media.githubusercontent.com/media/ddh4r4m/wallpaper-collection/main/collection/wallpapers/abstract/043.jpg",
        "thumb": "https://media.githubusercontent.com/media/ddh4r4m/wallpaper-collection/main/collection/thumbnails/abstract/043.jpg"
      },
      "metadata": {
        "dimensions": {
          "width": 1080,
          "height": 1920
        },
        "file_size": 84125,
        "format": "JPEG",
        "added_at": "2025-07-17T00:02:15.125049",
        "hash": "b7bb0ba5a628d6c71014b565db8baa2d",
        "source": "migrated"
      }
    },
    {
      "id": "abstract_044",
      "category": "abstract",
      "title": "Abstract Wallpaper 044",
      "tags": [
        "abstract",
        "wallpaper",
        "hd",
        "mobile"
      ],
      "urls": {
        "raw": "https://media.githubusercontent.com/media/ddh4r4m/wallpaper-collection/main/collection/wallpapers/abstract/044.jpg",
        "thumb": "https://media.githubusercontent.com/media/ddh4r4m/wallpaper-collection/main/collection/thumbnails/abstract/044.jpg"
      },
      "metadata": {
        "dimensions": {
          "width": 1080,
          "height": 1920
        },
        "file_size": 459003,
        "format": "JPEG",
        "added_at": "2025-07-17T00:02:15.196032",
        "hash": "9f71a8afb529bdddef322a219a1645b3",
        "source": "migrated"
      }
    },
    {
      "id": "abstract_045",
      "category": "abstract",
      "title": "Abstract Wallpaper 045",
      "tags": [
        "abstract",
        "wallpaper",
        "hd",
        "mobile"
      ],
      "urls": {
        "raw": "https://media.githubusercontent.com/media/ddh4r4m/wallpaper-collection/main/collection/wallpapers/abstract/045.jpg",
        "thumb": "https://media.githubusercontent.com/media/ddh4r4m/wallpaper-collection/main/collection/thumbnails/abstract/045.jpg"
      },
      "metadata": {
        "dimensions": {
          "width": 1080,
          "height": 1920
        },
        "file_size": 382339,
        "format": "JPEG",
        "added_at": "2025-07-17T00:02:15.261080",
        "hash": "bdbe86f9f4a05802525ed2ac23194b08",
        "source": "migrated"
      }
    }
  ]
}