{
  "meta": {
    "version": "1.0",
    "generated_at": "2025-07-28T23:12:02.393375",
    "category": "abstract",
    "page": 4,
    "per_page": 15,
    "total_pages": 18,
    "total_count": 257,
    "count_on_page": 15,
    "has_next": true,
    "has_prev": true,
    "next_page_url": "/api/v1/abstract/pages/5.json",
    "prev_page_url": "/api/v1/abstract/pages/3.json"
  },
  "data": [
    {
      "id": "abstract_046",
      "category": "abstract",
      "title": "Abstract Wallpaper 046",
      "tags": [
        "abstract",
        "wallpaper",
        "hd",
        "mobile"
      ],
      "urls": {
        "raw": "https://media.githubusercontent.com/media/ddh4r4m/wallpaper-collection/main/collection/wallpapers/abstract/046.jpg",
        "thumb": "https://media.githubusercontent.com/media/ddh4r4m/wallpaper-collection/main/collection/thumbnails/abstract/046.jpg"
      },
      "metadata": {
        "dimensions": {
          "width": 1080,
          "height": 1920
        },
        "file_size": 317532,
        "format": "JPEG",
        "added_at": "2025-07-17T00:02:15.321105",
        "hash": "8f6700f1f7dba976de1787ca488dfcdd",
        "source": "migrated"
      }
    },
    {
      "id": "abstract_047",
      "category": "abstract",
      "title": "Abstract Wallpaper 047",
      "tags": [
        "abstract",
        "wallpaper",
        "hd",
        "mobile"
      ],
      "urls": {
        "raw": "https://media.githubusercontent.com/media/ddh4r4m/wallpaper-collection/main/collection/wallpapers/abstract/047.jpg",
        "thumb": "https://media.githubusercontent.com/media/ddh4r4m/wallpaper-collection/main/collection/thumbnails/abstract/047.jpg"
      },
      "metadata": {
        "dimensions": {
          "width": 1080,
          "height": 1920
        },
        "file_size": 843822,
        "format": "JPEG",
        "added_at": "2025-07-17T00:02:15.406936",
        "hash": "3648006656d5eeeda4f4dc66fcf7af84",
        "source": "migrated"
      }
    },
    {
      "id": "abstract_048",
      "category": "abstract",
      "title": "Abstract Wallpaper 048",
      "tags": [
        "abstract",
        "wallpaper",
        "hd",
        "mobile"
      ],
      "urls": {
        "raw": "https://media.githubusercontent.com/media/ddh4r4m/wallpaper-collection/main/collection/wallpapers/abstract/048.jpg",
        "thumb": "https://media.githubusercontent.com/media/ddh4r4m/wallpaper-collection/main/collection/thumbnails/abstract/048.jpg"
      },
      "metadata": {
        "dimensions": {
          "width": 1080,
          "height": 1920
        },
        "file_size": 631250,
        "format": "JPEG",
        "added_at": "2025-07-17T00:02:15.481396",
        "hash": "0f70d7a3fe7f7e0babf1ffaeba0babd0",
        "source": "migrated"
      }
    },
    {
      "id": "abstract_049",
      "category": "abstract",
      "title": "Abstract Wallpaper 049",
      "tags": [
        "abstract",
        "wallpaper",
        "hd",
        "mobile"
      ],
      "urls": {
        "raw": "https://media.githubusercontent.com/media/ddh4r4m/wallpaper-collection/main/collection/wallpapers/abstract/049.jpg",
        "thumb": "https://media.githubusercontent.com/media/ddh4r4m/wallpaper-collection/main/collection/thumbnails/abstract/049.jpg"
      },
      "metadata": {
        "dimensions": {
          "width": 1080,
          "height": 1920
        },
        "file_size": 417640,
        "format": "JPEG",
        "added_at": "2025-07-17T00:02:15.545241",
        "hash": "b6b9e33abffff2fe5fdb01d1379ed6e9",
        "source": "migrated"
      }
    },
    {
      "id": "abstract_050",
      "category": "abstract",
      "title": "Abstract Wallpaper 050",
      "tags": [
        "abstract",
        "wallpaper",
        "hd",
        "mobile"
      ],
      "urls": {
        "raw": "https://media.githubusercontent.com/media/ddh4r4m/wallpaper-collection/main/collection/wallpapers/abstract/050.jpg",
        "thumb": "https://media.githubusercontent.com/media/ddh4r4m/wallpaper-collection/main/collection/thumbnails/abstract/050.jpg"
      },
      "metadata": {
        "dimensions": {
          "width": 1080,
          "height": 1920
        },
        "file_size": 503724,
        "format": "JPEG",
        "added_at": "2025-07-17T00:02:15.615530",
        "hash": "75bf9d22c655d5f61c112973ba274f2c",
        "source": "migrated"
      }
    },
    {
      "id": "abstract_051",
      "category": "abstract",
      "title": "Abstract Wallpaper 051",
      "tags": [
        "abstract",
        "wallpaper",
        "hd",
        "mobile"
      ],
      "urls": {
        "raw": "https://media.githubusercontent.com/media/ddh4r4m/wallpaper-collection/main/collection/wallpapers/abstract/051.jpg",
        "thumb": "https://media.githubusercontent.com/media/ddh4r4m/wallpaper-collection/main/collection/thumbnails/abstract/051.jpg"
      },
      "metadata": {
        "dimensions": {
          "width": 1080,
          "height": 1920
        },
        "file_size": 612333,
        "format": "JPEG",
        "added_at": "2025-07-17T00:02:15.693603",
        "hash": "a13523675f94ed9493c5197a412d4740",
        "source": "migrated"
      }
    },
    {
      "id": "abstract_052",
      "category": "abstract",
      "title": "Abstract Wallpaper 052",
      "tags": [
        "abstract",
        "wallpaper",
        "hd",
        "mobile"
      ],
      "urls": {
        "raw": "https://media.githubusercontent.com/media/ddh4r4m/wallpaper-collection/main/collection/wallpapers/abstract/052.jpg",
        "thumb": "https://media.githubusercontent.com/media/ddh4r4m/wallpaper-collection/main/collection/thumbnails/abstract/052.jpg"
      },
      "metadata": {
        "dimensions": {
          "width": 1080,
          "height": 1920
        },
        "file_size": 557432,
        "format": "JPEG",
        "added_at": "2025-07-17T00:02:15.769255",
        "hash": "7439f82ef6bbe00143ab02fd16f076c7",
        "source": "migrated"
      }
    },
    {
      "id": "abstract_053",
      "category": "abstract",
      "title": "Abstract Wallpaper 053",
      "tags": [
        "abstract",
        "wallpaper",
        "hd",
        "mobile"
      ],
      "urls": {
        "raw": "https://media.githubusercontent.com/media/ddh4r4m/wallpaper-collection/main/collection/wallpapers/abstract/053.jpg",
        "thumb": "https://media.githubusercontent.com/media/ddh4r4m/wallpaper-collection/main/collection/thumbnails/abstract/053.jpg"
      },
      "metadata": {
        "dimensions": {
          "width": 1080,
          "height": 1920
        },
        "file_size": 540864,
        "format": "JPEG",
        "added_at": "2025-07-17T00:02:15.841461",
        "hash": "c1d503802192bb485d78765a57865a33",
        "source": "migrated"
      }
    },
    {
      "id": "abstract_054",
      "category": "abstract",
      "title": "Abstract Wallpaper 054",
      "tags": [
        "abstract",
        "wallpaper",
        "hd",
        "mobile"
      ],
      "urls": {
        "raw": "https://media.githubusercontent.com/media/ddh4r4m/wallpaper-collection/main/collection/wallpapers/abstract/054.jpg",
        "thumb": "https://media.githubusercontent.com/media/ddh4r4m/wallpaper-collection/main/collection/thumbnails/abstract/054.jpg"
      },
      "metadata": {
        "dimensions": {
          "width": 1080,
          "height": 1920
        },
        "file_size": 490249,
        "format": "JPEG",
        "added_at": "2025-07-17T00:02:15.913548",
        "hash": "6ddd1efafcb2f6cf26571bf26fa8b172",
        "source": "migrated"
      }
    },
    {
      "id": "abstract_055",
      "category": "abstract",
      "title": "Abstract Wallpaper 055",
      "tags": [
        "abstract",
        "wallpaper",
        "hd",
        "mobile"
      ],
      "urls": {
        "raw": "https://media.githubusercontent.com/media/ddh4r4m/wallpaper-collection/main/collection/wallpapers/abstract/055.jpg",
        "thumb": "https://media.githubusercontent.com/media/ddh4r4m/wallpaper-collection/main/collection/thumbnails/abstract/055.jpg"
      },
      "metadata": {
        "dimensions": {
          "width": 1080,
          "height": 1920
        },
        "file_size": 132141,
        "format": "JPEG",
        "added_at": "2025-07-17T00:02:15.961543",
        "hash": "0bfb920729479b506a361b245a65f8e6",
        "source": "migrated"
      }
    },
    {
      "id": "abstract_056",
      "category": "abstract",
      "title": "Abstract Wallpaper 056",
      "tags": [
        "abstract",
        "wallpaper",
        "hd",
        "mobile"
      ],
      "urls": {
        "raw": "https://media.githubusercontent.com/media/ddh4r4m/wallpaper-collection/main/collection/wallpapers/abstract/056.jpg",
        "thumb": "https://media.githubusercontent.com/media/ddh4r4m/wallpaper-collection/main/collection/thumbnails/abstract/056.jpg"
      },
      "metadata": {
        "dimensions": {
          "width": 1080,
          "height": 1920
        },
        "file_size": 387764,
        "format": "JPEG",
        "added_at": "2025-07-17T00:02:16.028203",
        "hash": "c5b5e17753ca6c85e880158c70d58be5",
        "source": "migrated"
      }
    },
    {
      "id": "abstract_057",
      "category": "abstract",
      "title": "Abstract Wallpaper 057",
      "tags": [
        "abstract",
        "wallpaper",
        "hd",
        "mobile"
      ],
      "urls": {
        "raw": "https://media.githubusercontent.com/media/ddh4r4m/wallpaper-collection/main/collection/wallpapers/abstract/057.jpg",
        "thumb": "https://media.githubusercontent.com/media/ddh4r4m/wallpaper-collection/main/collection/thumbnails/abstract/057.jpg"
      },
      "metadata": {
        "dimensions": {
          "width": 1080,
          "height": 1920
        },
        "file_size": 446483,
        "format": "JPEG",
        "added_at": "2025-07-17T00:02:16.095373",
        "hash": "39cb0900f1ab61ef12ae8223eb09813c",
        "source": "migrated"
      }
    },
    {
      "id": "abstract_058",
      "category": "abstract",
      "title": "Abstract Wallpaper 058",
      "tags": [
        "abstract",
        "wallpaper",
        "hd",
        "mobile"
      ],
      "urls": {
        "raw": "https://media.githubusercontent.com/media/ddh4r4m/wallpaper-collection/main/collection/wallpapers/abstract/058.jpg",
        "thumb": "https://media.githubusercontent.com/media/ddh4r4m/wallpaper-collection/main/collection/thumbnails/abstract/058.jpg"
      },
      "metadata": {
        "dimensions": {
          "width": 1080,
          "height": 1920
        },
        "file_size": 521788,
        "format": "JPEG",
        "added_at": "2025-07-17T00:02:16.168592",
        "hash": "225b1727ee8923e7d2f104bb2292185d",
        "source": "migrated"
      }
    },
    {
      "id": "abstract_059",
      "category": "abstract",
      "title": "Abstract Wallpaper 059",
      "tags": [
        "abstract",
        "wallpaper",
        "hd",
        "mobile"
      ],
      "urls": {
        "raw": "https://media.githubusercontent.com/media/ddh4r4m/wallpaper-collection/main/collection/wallpapers/abstract/059.jpg",
        "thumb": "https://media.githubusercontent.com/media/ddh4r4m/wallpaper-collection/main/collection/thumbnails/abstract/059.jpg"
      },
      "metadata": {
        "dimensions": {
          "width": 1080,
          "height": 1920
        },
        "file_size": 397693,
        "format": "JPEG",
        "added_at": "2025-07-17T00:02:16.232329",
        "hash": "388e38b28b98c0cc98169fbef133bb93",
        "source": "migrated"
      }
    },
    {
      "id": "abstract_060",
      "category": "abstract",
      "title": "Abstract Wallpaper 060",
      "tags": [
        "abstract",
        "wallpaper",
        "hd",
        "mobile"
      ],
      "urls": {
        "raw": "https://media.githubusercontent.com/media/ddh4r4m/wallpaper-collection/main/collection/wallpapers/abstract/060.jpg",
        "thumb": "https://media.githubusercontent.com/media/ddh4r4m/wallpaper-collection/main/collection/thumbnails/abstract/060.jpg"
      },
      "metadata": {
        "dimensions": {
          "width": 1080,
          "height": 1920
        },
        "file_size": 457228,
        "format": "JPEG",
        "added_at": "2025-07-17T00:02:16.299179",
        "hash": "99c9816dbbd3a616c0da00e1255d5abb",
        "source": "migrated"
      }
    }
  ]
}