{
  "meta": {
    "version": "1.0",
    "generated_at": "2025-07-28T23:12:02.393375",
    "category": "abstract",
    "page": 5,
    "per_page": 15,
    "total_pages": 18,
    "total_count": 257,
    "count_on_page": 15,
    "has_next": true,
    "has_prev": true,
    "next_page_url": "/api/v1/abstract/pages/6.json",
    "prev_page_url": "/api/v1/abstract/pages/4.json"
  },
  "data": [
    {
      "id": "abstract_061",
      "category": "abstract",
      "title": "Abstract Wallpaper 061",
      "tags": [
        "abstract",
        "wallpaper",
        "hd",
        "mobile"
      ],
      "urls": {
        "raw": "https://media.githubusercontent.com/media/ddh4r4m/wallpaper-collection/main/collection/wallpapers/abstract/061.jpg",
        "thumb": "https://media.githubusercontent.com/media/ddh4r4m/wallpaper-collection/main/collection/thumbnails/abstract/061.jpg"
      },
      "metadata": {
        "dimensions": {
          "width": 1080,
          "height": 1920
        },
        "file_size": 504030,
        "format": "JPEG",
        "added_at": "2025-07-17T00:02:16.369761",
        "hash": "b47ed285b33fb371d81f209413406ab5",
        "source": "migrated"
      }
    },
    {
      "id": "abstract_062",
      "category": "abstract",
      "title": "Abstract Wallpaper 062",
      "tags": [
        "abstract",
        "wallpaper",
        "hd",
        "mobile"
      ],
      "urls": {
        "raw": "https://media.githubusercontent.com/media/ddh4r4m/wallpaper-collection/main/collection/wallpapers/abstract/062.jpg",
        "thumb": "https://media.githubusercontent.com/media/ddh4r4m/wallpaper-collection/main/collection/thumbnails/abstract/062.jpg"
      },
      "metadata": {
        "dimensions": {
          "width": 1080,
          "height": 1920
        },
        "file_size": 565227,
        "format": "JPEG",
        "added_at": "2025-07-17T00:02:16.444185",
        "hash": "3308d340f2ac169a760d753fc6621943",
        "source": "migrated"
      }
    },
    {
      "id": "abstract_063",
      "category": "abstract",
      "title": "Abstract Wallpaper 063",
      "tags": [
        "abstract",
        "wallpaper",
        "hd",
        "mobile"
      ],
      "urls": {
        "raw": "https://media.githubusercontent.com/media/ddh4r4m/wallpaper-collection/main/collection/wallpapers/abstract/063.jpg",
        "thumb": "https://media.githubusercontent.com/media/ddh4r4m/wallpaper-collection/main/collection/thumbnails/abstract/063.jpg"
      },
      "metadata": {
        "dimensions": {
          "width": 1080,
          "height": 1920
        },
        "file_size": 395491,
        "format": "JPEG",
        "added_at": "2025-07-17T00:02:16.507843",
        "hash": "44203ecd5469d8cb9c0d54e91d308d45",
        "source": "migrated"
      }
    },
    {
      "id": "abstract_064",
      "category": "abstract",
      "title": "Abstract Wallpaper 064",
      "tags": [
        "abstract",
        "wallpaper",
        "hd",
        "mobile"
      ],
      "urls": {
        "raw": "https://media.githubusercontent.com/media/ddh4r4m/wallpaper-collection/main/collection/wallpapers/abstract/064.jpg",
        "thumb": "https://media.githubusercontent.com/media/ddh4r4m/wallpaper-collection/main/collection/thumbnails/abstract/064.jpg"
      },
      "metadata": {
        "dimensions": {
          "width": 1080,
          "height": 1920
        },
        "file_size": 492471,
        "format": "JPEG",
        "added_at": "2025-07-17T00:02:16.577285",
        "hash": "703786ef38ec72459c3868d09fe818f0",
        "source": "migrated"
      }
    },
    {
      "id": "abstract_065",
      "category": "abstract",
      "title": "Abstract Wallpaper 065",
      "tags": [
        "abstract",
        "wallpaper",
        "hd",
        "mobile"
      ],
      "urls": {
        "raw": "https://media.githubusercontent.com/media/ddh4r4m/wallpaper-collection/main/collection/wallpapers/abstract/065.jpg",
        "thumb": "https://media.githubusercontent.com/media/ddh4r4m/wallpaper-collection/main/collection/thumbnails/abstract/065.jpg"
      },
      "metadata": {
        "dimensions": {
          "width": 1080,
          "height": 1920
        },
        "file_size": 568456,
        "format": "JPEG",
        "added_at": "2025-07-17T00:02:16.654342",
        "hash": "c1f07e3d5f1b6176e7c1edf777b8bd4c",
        "source": "migrated"
      }
    },
    {
      "id": "abstract_066",
      "category": "abstract",
      "title": "Abstract Wallpaper 066",
      "tags": [
        "abstract",
        "wallpaper",
        "hd",
        "mobile"
      ],
      "urls": {
        "raw": "https://media.githubusercontent.com/media/ddh4r4m/wallpaper-collection/main/collection/wallpapers/abstract/066.jpg",
        "thumb": "https://media.githubusercontent.com/media/ddh4r4m/wallpaper-collection/main/collection/thumbnails/abstract/066.jpg"
      },
      "metadata": {
        "dimensions": {
          "width": 1080,
          "height": 1920
        },
        "file_size": 507686,
        "format": "JPEG",
        "added_at": "2025-07-17T00:02:16.729385",
        "hash": "5decb8b7685750c8d21d3e1b32dfeac1",
        "source": "migrated"
      }
    },
    {
      "id": "abstract_067",
      "category": "abstract",
      "title": "Abstract Wallpaper 067",
      "tags": [
        "abstract",
        "wallpaper",
        "hd",
        "mobile"
      ],
      "urls": {
        "raw": "https://media.githubusercontent.com/media/ddh4r4m/wallpaper-collection/main/collection/wallpapers/abstract/067.jpg",
        "thumb": "https://media.githubusercontent.com/media/ddh4r4m/wallpaper-collection/main/collection/thumbnails/abstract/067.jpg"
      },
      "metadata": {
        "dimensions": {
          "width": 1080,
          "height": 1920
        },
        "file_size": 588244,
        "format": "JPEG",
        "added_at": "2025-07-17T00:02:16.800648",
        "hash": "ed49acd0acfe739299b91d5ca7614a39",
        "source": "migrated"
      }
    },
    {
      "id": "abstract_068",
      "category": "abstract",
      "title": "Abstract Wallpaper 068",
      "tags": [
        "abstract",
        "wallpaper",
        "hd",
        "mobile"
      ],
      "urls": {
        "raw": "https://media.githubusercontent.com/media/ddh4r4m/wallpaper-collection/main/collection/wallpapers/abstract/068.jpg",
        "thumb": "https://media.githubusercontent.com/media/ddh4r4m/wallpaper-collection/main/collection/thumbnails/abstract/068.jpg"
      },
      "metadata": {
        "dimensions": {
          "width": 1080,
          "height": 1920
        },
        "file_size": 95604,
        "format": "JPEG",
        "added_at": "2025-07-17T00:02:16.847339",
        "hash": "aa8b9bd11b154204fa5f92e0ee2912f7",
        "source": "migrated"
      }
    },
    {
      "id": "abstract_069",
      "category": "abstract",
      "title": "Abstract Wallpaper 069",
      "tags": [
        "abstract",
        "wallpaper",
        "hd",
        "mobile"
      ],
      "urls": {
        "raw": "https://media.githubusercontent.com/media/ddh4r4m/wallpaper-collection/main/collection/wallpapers/abstract/069.jpg",
        "thumb": "https://media.githubusercontent.com/media/ddh4r4m/wallpaper-collection/main/collection/thumbnails/abstract/069.jpg"
      },
      "metadata": {
        "dimensions": {
          "width": 1080,
          "height": 1920
        },
        "file_size": 500143,
        "format": "JPEG",
        "added_at": "2025-07-17T00:02:16.917426",
        "hash": "a2f7b7eb97a91b1e26e9b65d89958bd4",
        "source": "migrated"
      }
    },
    {
      "id": "abstract_070",
      "category": "abstract",
      "title": "Abstract Wallpaper 070",
      "tags": [
        "abstract",
        "wallpaper",
        "hd",
        "mobile"
      ],
      "urls": {
        "raw": "https://media.githubusercontent.com/media/ddh4r4m/wallpaper-collection/main/collection/wallpapers/abstract/070.jpg",
        "thumb": "https://media.githubusercontent.com/media/ddh4r4m/wallpaper-collection/main/collection/thumbnails/abstract/070.jpg"
      },
      "metadata": {
        "dimensions": {
          "width": 1080,
          "height": 1920
        },
        "file_size": 890648,
        "format": "JPEG",
        "added_at": "2025-07-17T00:02:17.006444",
        "hash": "a51bde76ce0ceb99dfd4ccfbc5cdd56a",
        "source": "migrated"
      }
    },
    {
      "id": "abstract_071",
      "category": "abstract",
      "title": "Abstract Wallpaper 071",
      "tags": [
        "abstract",
        "wallpaper",
        "hd",
        "mobile"
      ],
      "urls": {
        "raw": "https://media.githubusercontent.com/media/ddh4r4m/wallpaper-collection/main/collection/wallpapers/abstract/071.jpg",
        "thumb": "https://media.githubusercontent.com/media/ddh4r4m/wallpaper-collection/main/collection/thumbnails/abstract/071.jpg"
      },
      "metadata": {
        "dimensions": {
          "width": 1080,
          "height": 1920
        },
        "file_size": 223014,
        "format": "JPEG",
        "added_at": "2025-07-17T00:02:17.061403",
        "hash": "f552d5d6a93524da2b46ea3d5465e88e",
        "source": "migrated"
      }
    },
    {
      "id": "abstract_072",
      "category": "abstract",
      "title": "Abstract Wallpaper 072",
      "tags": [
        "abstract",
        "wallpaper",
        "hd",
        "mobile"
      ],
      "urls": {
        "raw": "https://media.githubusercontent.com/media/ddh4r4m/wallpaper-collection/main/collection/wallpapers/abstract/072.jpg",
        "thumb": "https://media.githubusercontent.com/media/ddh4r4m/wallpaper-collection/main/collection/thumbnails/abstract/072.jpg"
      },
      "metadata": {
        "dimensions": {
          "width": 1080,
          "height": 1920
        },
        "file_size": 359768,
        "format": "JPEG",
        "added_at": "2025-07-17T00:02:17.123035",
        "hash": "db4b3345ca1a56655d9a5f38379619f7",
        "source": "migrated"
      }
    },
    {
      "id": "abstract_073",
      "category": "abstract",
      "title": "Abstract Wallpaper 073",
      "tags": [
        "abstract",
        "wallpaper",
        "hd",
        "mobile"
      ],
      "urls": {
        "raw": "https://media.githubusercontent.com/media/ddh4r4m/wallpaper-collection/main/collection/wallpapers/abstract/073.jpg",
        "thumb": "https://media.githubusercontent.com/media/ddh4r4m/wallpaper-collection/main/collection/thumbnails/abstract/073.jpg"
      },
      "metadata": {
        "dimensions": {
          "width": 1080,
          "height": 1920
        },
        "file_size": 477193,
        "format": "JPEG",
        "added_at": "2025-07-17T00:02:17.192423",
        "hash": "0b7ded18842c8661a5675bf956787a70",
        "source": "migrated"
      }
    },
    {
      "id": "abstract_074",
      "category": "abstract",
      "title": "Abstract Wallpaper 074",
      "tags": [
        "abstract",
        "wallpaper",
        "hd",
        "mobile"
      ],
      "urls": {
        "raw": "https://media.githubusercontent.com/media/ddh4r4m/wallpaper-collection/main/collection/wallpapers/abstract/074.jpg",
        "thumb": "https://media.githubusercontent.com/media/ddh4r4m/wallpaper-collection/main/collection/thumbnails/abstract/074.jpg"
      },
      "metadata": {
        "dimensions": {
          "width": 1080,
          "height": 1920
        },
        "file_size": 181322,
        "format": "JPEG",
        "added_at": "2025-07-17T00:02:17.241623",
        "hash": "cb6b8e6bec0dd08f612797a9be4b6983",
        "source": "migrated"
      }
    },
    {
      "id": "abstract_075",
      "category": "abstract",
      "title": "Abstract Wallpaper 075",
      "tags": [
        "abstract",
        "wallpaper",
        "hd",
        "mobile"
      ],
      "urls": {
        "raw": "https://media.githubusercontent.com/media/ddh4r4m/wallpaper-collection/main/collection/wallpapers/abstract/075.jpg",
        "thumb": "https://media.githubusercontent.com/media/ddh4r4m/wallpaper-collection/main/collection/thumbnails/abstract/075.jpg"
      },
      "metadata": {
        "dimensions": {
          "width": 1080,
          "height": 1920
        },
        "file_size": 430151,
        "format": "JPEG",
        "added_at": "2025-07-17T00:02:17.310116",
        "hash": "cec951aa51bdb58f54d03cf7b90d7ac5",
        "source": "migrated"
      }
    }
  ]
}