{
  "meta": {
    "version": "1.0",
    "generated_at": "2025-07-19T12:26:57.111378",
    "category": "abstract",
    "page": 6,
    "per_page": 15,
    "total_pages": 18,
    "total_count": 257,
    "count_on_page": 15,
    "has_next": true,
    "has_prev": true,
    "next_page_url": "/api/v1/abstract/pages/7.json",
    "prev_page_url": "/api/v1/abstract/pages/5.json"
  },
  "data": [
    {
      "id": "abstract_076",
      "category": "abstract",
      "title": "Abstract Wallpaper 076",
      "tags": [
        "abstract",
        "wallpaper",
        "hd",
        "mobile"
      ],
      "urls": {
        "raw": "https://media.githubusercontent.com/media/ddh4r4m/wallpaper-collection/main/collection/wallpapers/abstract/076.jpg",
        "thumb": "https://media.githubusercontent.com/media/ddh4r4m/wallpaper-collection/main/collection/thumbnails/abstract/076.jpg"
      },
      "metadata": {
        "dimensions": {
          "width": 1080,
          "height": 1920
        },
        "file_size": 718348,
        "format": "JPEG",
        "added_at": "2025-07-17T00:02:17.391459",
        "hash": "e1de4d57dc4e5a3157f66e1fca8f37de",
        "source": "migrated"
      }
    },
    {
      "id": "abstract_077",
      "category": "abstract",
      "title": "Abstract Wallpaper 077",
      "tags": [
        "abstract",
        "wallpaper",
        "hd",
        "mobile"
      ],
      "urls": {
        "raw": "https://media.githubusercontent.com/media/ddh4r4m/wallpaper-collection/main/collection/wallpapers/abstract/077.jpg",
        "thumb": "https://media.githubusercontent.com/media/ddh4r4m/wallpaper-collection/main/collection/thumbnails/abstract/077.jpg"
      },
      "metadata": {
        "dimensions": {
          "width": 1080,
          "height": 1920
        },
        "file_size": 381340,
        "format": "JPEG",
        "added_at": "2025-07-17T00:02:17.455412",
        "hash": "57db09ece2543ec63ae51bc9be749051",
        "source": "migrated"
      }
    },
    {
      "id": "abstract_078",
      "category": "abstract",
      "title": "Abstract Wallpaper 078",
      "tags": [
        "abstract",
        "wallpaper",
        "hd",
        "mobile"
      ],
      "urls": {
        "raw": "https://media.githubusercontent.com/media/ddh4r4m/wallpaper-collection/main/collection/wallpapers/abstract/078.jpg",
        "thumb": "https://media.githubusercontent.com/media/ddh4r4m/wallpaper-collection/main/collection/thumbnails/abstract/078.jpg"
      },
      "metadata": {
        "dimensions": {
          "width": 1080,
          "height": 1920
        },
        "file_size": 141194,
        "format": "JPEG",
        "added_at": "2025-07-17T00:02:17.507515",
        "hash": "e28710a94618ae846a0830fbd1c96034",
        "source": "migrated"
      }
    },
    {
      "id": "abstract_079",
      "category": "abstract",
      "title": "Abstract Wallpaper 079",
      "tags": [
        "abstract",
        "wallpaper",
        "hd",
        "mobile"
      ],
      "urls": {
        "raw": "https://media.githubusercontent.com/media/ddh4r4m/wallpaper-collection/main/collection/wallpapers/abstract/079.jpg",
        "thumb": "https://media.githubusercontent.com/media/ddh4r4m/wallpaper-collection/main/collection/thumbnails/abstract/079.jpg"
      },
      "metadata": {
        "dimensions": {
          "width": 1080,
          "height": 1920
        },
        "file_size": 106907,
        "format": "JPEG",
        "added_at": "2025-07-17T00:02:17.555562",
        "hash": "7a558163632946c03805dfe86ca05074",
        "source": "migrated"
      }
    },
    {
      "id": "abstract_080",
      "category": "abstract",
      "title": "Abstract Wallpaper 080",
      "tags": [
        "abstract",
        "wallpaper",
        "hd",
        "mobile"
      ],
      "urls": {
        "raw": "https://media.githubusercontent.com/media/ddh4r4m/wallpaper-collection/main/collection/wallpapers/abstract/080.jpg",
        "thumb": "https://media.githubusercontent.com/media/ddh4r4m/wallpaper-collection/main/collection/thumbnails/abstract/080.jpg"
      },
      "metadata": {
        "dimensions": {
          "width": 1080,
          "height": 1920
        },
        "file_size": 338467,
        "format": "JPEG",
        "added_at": "2025-07-17T00:02:17.616571",
        "hash": "1684cef780ab959eebcdd4be7bfbae29",
        "source": "migrated"
      }
    },
    {
      "id": "abstract_081",
      "category": "abstract",
      "title": "Abstract Wallpaper 081",
      "tags": [
        "abstract",
        "wallpaper",
        "hd",
        "mobile"
      ],
      "urls": {
        "raw": "https://media.githubusercontent.com/media/ddh4r4m/wallpaper-collection/main/collection/wallpapers/abstract/081.jpg",
        "thumb": "https://media.githubusercontent.com/media/ddh4r4m/wallpaper-collection/main/collection/thumbnails/abstract/081.jpg"
      },
      "metadata": {
        "dimensions": {
          "width": 1080,
          "height": 1920
        },
        "file_size": 313728,
        "format": "JPEG",
        "added_at": "2025-07-17T00:02:17.675310",
        "hash": "fd4a21d75df8797a6ae5674d7f0b6e69",
        "source": "migrated"
      }
    },
    {
      "id": "abstract_082",
      "category": "abstract",
      "title": "Abstract Wallpaper 082",
      "tags": [
        "abstract",
        "wallpaper",
        "hd",
        "mobile"
      ],
      "urls": {
        "raw": "https://media.githubusercontent.com/media/ddh4r4m/wallpaper-collection/main/collection/wallpapers/abstract/082.jpg",
        "thumb": "https://media.githubusercontent.com/media/ddh4r4m/wallpaper-collection/main/collection/thumbnails/abstract/082.jpg"
      },
      "metadata": {
        "dimensions": {
          "width": 1080,
          "height": 1920
        },
        "file_size": 722093,
        "format": "JPEG",
        "added_at": "2025-07-17T00:02:17.756009",
        "hash": "d68f17126935d6230838ed20cd845f25",
        "source": "migrated"
      }
    },
    {
      "id": "abstract_083",
      "category": "abstract",
      "title": "Abstract Wallpaper 083",
      "tags": [
        "abstract",
        "wallpaper",
        "hd",
        "mobile"
      ],
      "urls": {
        "raw": "https://media.githubusercontent.com/media/ddh4r4m/wallpaper-collection/main/collection/wallpapers/abstract/083.jpg",
        "thumb": "https://media.githubusercontent.com/media/ddh4r4m/wallpaper-collection/main/collection/thumbnails/abstract/083.jpg"
      },
      "metadata": {
        "dimensions": {
          "width": 1080,
          "height": 1920
        },
        "file_size": 476161,
        "format": "JPEG",
        "added_at": "2025-07-17T00:02:17.823984",
        "hash": "03c4e8a6c9a8b9e60cd8e95c1818c112",
        "source": "migrated"
      }
    },
    {
      "id": "abstract_084",
      "category": "abstract",
      "title": "Abstract Wallpaper 084",
      "tags": [
        "abstract",
        "wallpaper",
        "hd",
        "mobile"
      ],
      "urls": {
        "raw": "https://media.githubusercontent.com/media/ddh4r4m/wallpaper-collection/main/collection/wallpapers/abstract/084.jpg",
        "thumb": "https://media.githubusercontent.com/media/ddh4r4m/wallpaper-collection/main/collection/thumbnails/abstract/084.jpg"
      },
      "metadata": {
        "dimensions": {
          "width": 1080,
          "height": 1920
        },
        "file_size": 412730,
        "format": "JPEG",
        "added_at": "2025-07-17T00:02:17.888836",
        "hash": "1dcbbe1ea1f3f8ad8bbbc04efb0d5b2f",
        "source": "migrated"
      }
    },
    {
      "id": "abstract_085",
      "category": "abstract",
      "title": "Abstract Wallpaper 085",
      "tags": [
        "abstract",
        "wallpaper",
        "hd",
        "mobile"
      ],
      "urls": {
        "raw": "https://media.githubusercontent.com/media/ddh4r4m/wallpaper-collection/main/collection/wallpapers/abstract/085.jpg",
        "thumb": "https://media.githubusercontent.com/media/ddh4r4m/wallpaper-collection/main/collection/thumbnails/abstract/085.jpg"
      },
      "metadata": {
        "dimensions": {
          "width": 1080,
          "height": 1920
        },
        "file_size": 555342,
        "format": "JPEG",
        "added_at": "2025-07-17T00:02:17.962153",
        "hash": "46f23f4d68b37b1546485d71690321ff",
        "source": "migrated"
      }
    },
    {
      "id": "abstract_086",
      "category": "abstract",
      "title": "Abstract Wallpaper 086",
      "tags": [
        "abstract",
        "wallpaper",
        "hd",
        "mobile"
      ],
      "urls": {
        "raw": "https://media.githubusercontent.com/media/ddh4r4m/wallpaper-collection/main/collection/wallpapers/abstract/086.jpg",
        "thumb": "https://media.githubusercontent.com/media/ddh4r4m/wallpaper-collection/main/collection/thumbnails/abstract/086.jpg"
      },
      "metadata": {
        "dimensions": {
          "width": 1080,
          "height": 1920
        },
        "file_size": 820399,
        "format": "JPEG",
        "added_at": "2025-07-17T00:02:18.047838",
        "hash": "afa6ace0e17a8f302386c84d6ec70d71",
        "source": "migrated"
      }
    },
    {
      "id": "abstract_087",
      "category": "abstract",
      "title": "Abstract Wallpaper 087",
      "tags": [
        "abstract",
        "wallpaper",
        "hd",
        "mobile"
      ],
      "urls": {
        "raw": "https://media.githubusercontent.com/media/ddh4r4m/wallpaper-collection/main/collection/wallpapers/abstract/087.jpg",
        "thumb": "https://media.githubusercontent.com/media/ddh4r4m/wallpaper-collection/main/collection/thumbnails/abstract/087.jpg"
      },
      "metadata": {
        "dimensions": {
          "width": 1080,
          "height": 1920
        },
        "file_size": 667967,
        "format": "JPEG",
        "added_at": "2025-07-17T00:02:18.124876",
        "hash": "f0b73c7eac98058d2afd5d686ce3ad2f",
        "source": "migrated"
      }
    },
    {
      "id": "abstract_088",
      "category": "abstract",
      "title": "Abstract Wallpaper 088",
      "tags": [
        "abstract",
        "wallpaper",
        "hd",
        "mobile"
      ],
      "urls": {
        "raw": "https://media.githubusercontent.com/media/ddh4r4m/wallpaper-collection/main/collection/wallpapers/abstract/088.jpg",
        "thumb": "https://media.githubusercontent.com/media/ddh4r4m/wallpaper-collection/main/collection/thumbnails/abstract/088.jpg"
      },
      "metadata": {
        "dimensions": {
          "width": 1080,
          "height": 1920
        },
        "file_size": 514422,
        "format": "JPEG",
        "added_at": "2025-07-17T00:02:18.194133",
        "hash": "8f9111d1afec22a3898f77ecf2c86458",
        "source": "migrated"
      }
    },
    {
      "id": "abstract_089",
      "category": "abstract",
      "title": "Abstract Wallpaper 089",
      "tags": [
        "abstract",
        "wallpaper",
        "hd",
        "mobile"
      ],
      "urls": {
        "raw": "https://media.githubusercontent.com/media/ddh4r4m/wallpaper-collection/main/collection/wallpapers/abstract/089.jpg",
        "thumb": "https://media.githubusercontent.com/media/ddh4r4m/wallpaper-collection/main/collection/thumbnails/abstract/089.jpg"
      },
      "metadata": {
        "dimensions": {
          "width": 1080,
          "height": 1920
        },
        "file_size": 402813,
        "format": "JPEG",
        "added_at": "2025-07-17T00:02:18.256560",
        "hash": "1f64df5fe78a6a05f05bf3ef55c3facd",
        "source": "migrated"
      }
    },
    {
      "id": "abstract_090",
      "category": "abstract",
      "title": "Abstract Wallpaper 090",
      "tags": [
        "abstract",
        "wallpaper",
        "hd",
        "mobile"
      ],
      "urls": {
        "raw": "https://media.githubusercontent.com/media/ddh4r4m/wallpaper-collection/main/collection/wallpapers/abstract/090.jpg",
        "thumb": "https://media.githubusercontent.com/media/ddh4r4m/wallpaper-collection/main/collection/thumbnails/abstract/090.jpg"
      },
      "metadata": {
        "dimensions": {
          "width": 1080,
          "height": 1920
        },
        "file_size": 474661,
        "format": "JPEG",
        "added_at": "2025-07-17T00:02:18.324946",
        "hash": "7eaed3918541e7a6043d5b34fc6efabd",
        "source": "migrated"
      }
    }
  ]
}