{
  "meta": {
    "version": "1.0",
    "generated_at": "2025-07-19T12:26:57.111378",
    "category": "abstract",
    "page": 7,
    "per_page": 15,
    "total_pages": 18,
    "total_count": 257,
    "count_on_page": 15,
    "has_next": true,
    "has_prev": true,
    "next_page_url": "/api/v1/abstract/pages/8.json",
    "prev_page_url": "/api/v1/abstract/pages/6.json"
  },
  "data": [
    {
      "id": "abstract_091",
      "category": "abstract",
      "title": "Abstract Wallpaper 091",
      "tags": [
        "abstract",
        "wallpaper",
        "hd",
        "mobile"
      ],
      "urls": {
        "raw": "https://media.githubusercontent.com/media/ddh4r4m/wallpaper-collection/main/collection/wallpapers/abstract/091.jpg",
        "thumb": "https://media.githubusercontent.com/media/ddh4r4m/wallpaper-collection/main/collection/thumbnails/abstract/091.jpg"
      },
      "metadata": {
        "dimensions": {
          "width": 1080,
          "height": 1920
        },
        "file_size": 479410,
        "format": "JPEG",
        "added_at": "2025-07-17T00:02:18.395705",
        "hash": "bc37bcdc0e4172a33815ada94f0d5ea9",
        "source": "migrated"
      }
    },
    {
      "id": "abstract_092",
      "category": "abstract",
      "title": "Abstract Wallpaper 092",
      "tags": [
        "abstract",
        "wallpaper",
        "hd",
        "mobile"
      ],
      "urls": {
        "raw": "https://media.githubusercontent.com/media/ddh4r4m/wallpaper-collection/main/collection/wallpapers/abstract/092.jpg",
        "thumb": "https://media.githubusercontent.com/media/ddh4r4m/wallpaper-collection/main/collection/thumbnails/abstract/092.jpg"
      },
      "metadata": {
        "dimensions": {
          "width": 1080,
          "height": 1920
        },
        "file_size": 341364,
        "format": "JPEG",
        "added_at": "2025-07-17T00:02:18.456671",
        "hash": "f927ba84a0a1c98aff8e9b0162686536",
        "source": "migrated"
      }
    },
    {
      "id": "abstract_093",
      "category": "abstract",
      "title": "Abstract Wallpaper 093",
      "tags": [
        "abstract",
        "wallpaper",
        "hd",
        "mobile"
      ],
      "urls": {
        "raw": "https://media.githubusercontent.com/media/ddh4r4m/wallpaper-collection/main/collection/wallpapers/abstract/093.jpg",
        "thumb": "https://media.githubusercontent.com/media/ddh4r4m/wallpaper-collection/main/collection/thumbnails/abstract/093.jpg"
      },
      "metadata": {
        "dimensions": {
          "width": 1080,
          "height": 1920
        },
        "file_size": 660814,
        "format": "JPEG",
        "added_at": "2025-07-17T00:02:18.536310",
        "hash": "41683e9ea1aeddc9967b4aaa959fc42a",
        "source": "migrated"
      }
    },
    {
      "id": "abstract_094",
      "category": "abstract",
      "title": "Abstract Wallpaper 094",
      "tags": [
        "abstract",
        "wallpaper",
        "hd",
        "mobile"
      ],
      "urls": {
        "raw": "https://media.githubusercontent.com/media/ddh4r4m/wallpaper-collection/main/collection/wallpapers/abstract/094.jpg",
        "thumb": "https://media.githubusercontent.com/media/ddh4r4m/wallpaper-collection/main/collection/thumbnails/abstract/094.jpg"
      },
      "metadata": {
        "dimensions": {
          "width": 1080,
          "height": 1920
        },
        "file_size": 611713,
        "format": "JPEG",
        "added_at": "2025-07-17T00:02:18.614678",
        "hash": "a8a8f889f0df701a802356541e46ca07",
        "source": "migrated"
      }
    },
    {
      "id": "abstract_095",
      "category": "abstract",
      "title": "Abstract Wallpaper 095",
      "tags": [
        "abstract",
        "wallpaper",
        "hd",
        "mobile"
      ],
      "urls": {
        "raw": "https://media.githubusercontent.com/media/ddh4r4m/wallpaper-collection/main/collection/wallpapers/abstract/095.jpg",
        "thumb": "https://media.githubusercontent.com/media/ddh4r4m/wallpaper-collection/main/collection/thumbnails/abstract/095.jpg"
      },
      "metadata": {
        "dimensions": {
          "width": 1080,
          "height": 1920
        },
        "file_size": 306228,
        "format": "JPEG",
        "added_at": "2025-07-17T00:02:18.676123",
        "hash": "177e095e793e8d4fa0eab6167cd0c133",
        "source": "migrated"
      }
    },
    {
      "id": "abstract_096",
      "category": "abstract",
      "title": "Abstract Wallpaper 096",
      "tags": [
        "abstract",
        "wallpaper",
        "hd",
        "mobile"
      ],
      "urls": {
        "raw": "https://media.githubusercontent.com/media/ddh4r4m/wallpaper-collection/main/collection/wallpapers/abstract/096.jpg",
        "thumb": "https://media.githubusercontent.com/media/ddh4r4m/wallpaper-collection/main/collection/thumbnails/abstract/096.jpg"
      },
      "metadata": {
        "dimensions": {
          "width": 1080,
          "height": 1920
        },
        "file_size": 401803,
        "format": "JPEG",
        "added_at": "2025-07-17T00:02:18.742077",
        "hash": "e11fa1ad48e1f0a357af78f77144870c",
        "source": "migrated"
      }
    },
    {
      "id": "abstract_097",
      "category": "abstract",
      "title": "Abstract Wallpaper 097",
      "tags": [
        "abstract",
        "wallpaper",
        "hd",
        "mobile"
      ],
      "urls": {
        "raw": "https://media.githubusercontent.com/media/ddh4r4m/wallpaper-collection/main/collection/wallpapers/abstract/097.jpg",
        "thumb": "https://media.githubusercontent.com/media/ddh4r4m/wallpaper-collection/main/collection/thumbnails/abstract/097.jpg"
      },
      "metadata": {
        "dimensions": {
          "width": 1080,
          "height": 1920
        },
        "file_size": 940282,
        "format": "JPEG",
        "added_at": "2025-07-17T00:02:18.832474",
        "hash": "84ff7312a81a9cc7aadc3b66ad58aa0f",
        "source": "migrated"
      }
    },
    {
      "id": "abstract_098",
      "category": "abstract",
      "title": "Abstract Wallpaper 098",
      "tags": [
        "abstract",
        "wallpaper",
        "hd",
        "mobile"
      ],
      "urls": {
        "raw": "https://media.githubusercontent.com/media/ddh4r4m/wallpaper-collection/main/collection/wallpapers/abstract/098.jpg",
        "thumb": "https://media.githubusercontent.com/media/ddh4r4m/wallpaper-collection/main/collection/thumbnails/abstract/098.jpg"
      },
      "metadata": {
        "dimensions": {
          "width": 1080,
          "height": 1920
        },
        "file_size": 142809,
        "format": "JPEG",
        "added_at": "2025-07-17T00:02:18.919764",
        "hash": "abf3e6dd40e401c45b9dba886974d9be",
        "source": "migrated"
      }
    },
    {
      "id": "abstract_099",
      "category": "abstract",
      "title": "Abstract Wallpaper 099",
      "tags": [
        "abstract",
        "wallpaper",
        "hd",
        "mobile"
      ],
      "urls": {
        "raw": "https://media.githubusercontent.com/media/ddh4r4m/wallpaper-collection/main/collection/wallpapers/abstract/099.jpg",
        "thumb": "https://media.githubusercontent.com/media/ddh4r4m/wallpaper-collection/main/collection/thumbnails/abstract/099.jpg"
      },
      "metadata": {
        "dimensions": {
          "width": 1080,
          "height": 1920
        },
        "file_size": 580407,
        "format": "JPEG",
        "added_at": "2025-07-17T00:02:18.993721",
        "hash": "e575d20b8d823a2c782b5c4e5db0d7d4",
        "source": "migrated"
      }
    },
    {
      "id": "abstract_100",
      "category": "abstract",
      "title": "Abstract Wallpaper 100",
      "tags": [
        "abstract",
        "wallpaper",
        "hd",
        "mobile"
      ],
      "urls": {
        "raw": "https://media.githubusercontent.com/media/ddh4r4m/wallpaper-collection/main/collection/wallpapers/abstract/100.jpg",
        "thumb": "https://media.githubusercontent.com/media/ddh4r4m/wallpaper-collection/main/collection/thumbnails/abstract/100.jpg"
      },
      "metadata": {
        "dimensions": {
          "width": 1080,
          "height": 1920
        },
        "file_size": 306043,
        "format": "JPEG",
        "added_at": "2025-07-17T00:02:19.054800",
        "hash": "99f5e6daca124be50e8326d2ec1cbeb9",
        "source": "migrated"
      }
    },
    {
      "id": "abstract_101",
      "category": "abstract",
      "title": "Abstract Wallpaper 101",
      "tags": [
        "abstract",
        "wallpaper",
        "hd",
        "mobile"
      ],
      "urls": {
        "raw": "https://media.githubusercontent.com/media/ddh4r4m/wallpaper-collection/main/collection/wallpapers/abstract/101.jpg",
        "thumb": "https://media.githubusercontent.com/media/ddh4r4m/wallpaper-collection/main/collection/thumbnails/abstract/101.jpg"
      },
      "metadata": {
        "dimensions": {
          "width": 1080,
          "height": 1920
        },
        "file_size": 397792,
        "format": "JPEG",
        "added_at": "2025-07-17T00:02:19.119729",
        "hash": "ab9c0a4d9e9f3fe8563b04e53f48e667",
        "source": "migrated"
      }
    },
    {
      "id": "abstract_102",
      "category": "abstract",
      "title": "Abstract Wallpaper 102",
      "tags": [
        "abstract",
        "wallpaper",
        "hd",
        "mobile"
      ],
      "urls": {
        "raw": "https://media.githubusercontent.com/media/ddh4r4m/wallpaper-collection/main/collection/wallpapers/abstract/102.jpg",
        "thumb": "https://media.githubusercontent.com/media/ddh4r4m/wallpaper-collection/main/collection/thumbnails/abstract/102.jpg"
      },
      "metadata": {
        "dimensions": {
          "width": 1080,
          "height": 1920
        },
        "file_size": 336460,
        "format": "JPEG",
        "added_at": "2025-07-17T00:02:19.180207",
        "hash": "fd5772cf8ecc0c8dcfff8eace41f1b5a",
        "source": "migrated"
      }
    },
    {
      "id": "abstract_103",
      "category": "abstract",
      "title": "Abstract Wallpaper 103",
      "tags": [
        "abstract",
        "wallpaper",
        "hd",
        "mobile"
      ],
      "urls": {
        "raw": "https://media.githubusercontent.com/media/ddh4r4m/wallpaper-collection/main/collection/wallpapers/abstract/103.jpg",
        "thumb": "https://media.githubusercontent.com/media/ddh4r4m/wallpaper-collection/main/collection/thumbnails/abstract/103.jpg"
      },
      "metadata": {
        "dimensions": {
          "width": 1080,
          "height": 1920
        },
        "file_size": 708477,
        "format": "JPEG",
        "added_at": "2025-07-17T00:02:19.262191",
        "hash": "b8d0f236529aded5186d14366e296074",
        "source": "migrated"
      }
    },
    {
      "id": "abstract_104",
      "category": "abstract",
      "title": "Abstract Wallpaper 104",
      "tags": [
        "abstract",
        "wallpaper",
        "hd",
        "mobile"
      ],
      "urls": {
        "raw": "https://media.githubusercontent.com/media/ddh4r4m/wallpaper-collection/main/collection/wallpapers/abstract/104.jpg",
        "thumb": "https://media.githubusercontent.com/media/ddh4r4m/wallpaper-collection/main/collection/thumbnails/abstract/104.jpg"
      },
      "metadata": {
        "dimensions": {
          "width": 1080,
          "height": 1920
        },
        "file_size": 150516,
        "format": "JPEG",
        "added_at": "2025-07-17T00:02:19.311710",
        "hash": "30073ec12ac336ac7f1a04f73682509c",
        "source": "migrated"
      }
    },
    {
      "id": "abstract_105",
      "category": "abstract",
      "title": "Abstract Wallpaper 105",
      "tags": [
        "abstract",
        "wallpaper",
        "hd",
        "mobile"
      ],
      "urls": {
        "raw": "https://media.githubusercontent.com/media/ddh4r4m/wallpaper-collection/main/collection/wallpapers/abstract/105.jpg",
        "thumb": "https://media.githubusercontent.com/media/ddh4r4m/wallpaper-collection/main/collection/thumbnails/abstract/105.jpg"
      },
      "metadata": {
        "dimensions": {
          "width": 1080,
          "height": 1920
        },
        "file_size": 123627,
        "format": "JPEG",
        "added_at": "2025-07-17T00:02:19.391562",
        "hash": "6211ef87f0786218cc6548d50a8c266f",
        "source": "migrated"
      }
    }
  ]
}