{
  "meta": {
    "version": "1.0",
    "generated_at": "2025-07-28T23:12:02.393375",
    "category": "abstract",
    "page": 8,
    "per_page": 15,
    "total_pages": 18,
    "total_count": 257,
    "count_on_page": 15,
    "has_next": true,
    "has_prev": true,
    "next_page_url": "/api/v1/abstract/pages/9.json",
    "prev_page_url": "/api/v1/abstract/pages/7.json"
  },
  "data": [
    {
      "id": "abstract_106",
      "category": "abstract",
      "title": "Abstract Wallpaper 106",
      "tags": [
        "abstract",
        "wallpaper",
        "hd",
        "mobile"
      ],
      "urls": {
        "raw": "https://media.githubusercontent.com/media/ddh4r4m/wallpaper-collection/main/collection/wallpapers/abstract/106.jpg",
        "thumb": "https://media.githubusercontent.com/media/ddh4r4m/wallpaper-collection/main/collection/thumbnails/abstract/106.jpg"
      },
      "metadata": {
        "dimensions": {
          "width": 1080,
          "height": 1920
        },
        "file_size": 381999,
        "format": "JPEG",
        "added_at": "2025-07-17T00:02:19.461260",
        "hash": "b506ffe2b84f27b82452399c60c7fed8",
        "source": "migrated"
      }
    },
    {
      "id": "abstract_107",
      "category": "abstract",
      "title": "Abstract Wallpaper 107",
      "tags": [
        "abstract",
        "wallpaper",
        "hd",
        "mobile"
      ],
      "urls": {
        "raw": "https://media.githubusercontent.com/media/ddh4r4m/wallpaper-collection/main/collection/wallpapers/abstract/107.jpg",
        "thumb": "https://media.githubusercontent.com/media/ddh4r4m/wallpaper-collection/main/collection/thumbnails/abstract/107.jpg"
      },
      "metadata": {
        "dimensions": {
          "width": 1080,
          "height": 1920
        },
        "file_size": 550616,
        "format": "JPEG",
        "added_at": "2025-07-17T00:02:19.533824",
        "hash": "25e73dddb9c46b096cc812c81400ecc9",
        "source": "migrated"
      }
    },
    {
      "id": "abstract_108",
      "category": "abstract",
      "title": "Abstract Wallpaper 108",
      "tags": [
        "abstract",
        "wallpaper",
        "hd",
        "mobile"
      ],
      "urls": {
        "raw": "https://media.githubusercontent.com/media/ddh4r4m/wallpaper-collection/main/collection/wallpapers/abstract/108.jpg",
        "thumb": "https://media.githubusercontent.com/media/ddh4r4m/wallpaper-collection/main/collection/thumbnails/abstract/108.jpg"
      },
      "metadata": {
        "dimensions": {
          "width": 1080,
          "height": 1920
        },
        "file_size": 498373,
        "format": "JPEG",
        "added_at": "2025-07-17T00:02:19.603179",
        "hash": "b1c84bd3f1784bbf1a9559b1070008a2",
        "source": "migrated"
      }
    },
    {
      "id": "abstract_109",
      "category": "abstract",
      "title": "Abstract Wallpaper 109",
      "tags": [
        "abstract",
        "wallpaper",
        "hd",
        "mobile"
      ],
      "urls": {
        "raw": "https://media.githubusercontent.com/media/ddh4r4m/wallpaper-collection/main/collection/wallpapers/abstract/109.jpg",
        "thumb": "https://media.githubusercontent.com/media/ddh4r4m/wallpaper-collection/main/collection/thumbnails/abstract/109.jpg"
      },
      "metadata": {
        "dimensions": {
          "width": 1080,
          "height": 1920
        },
        "file_size": 544917,
        "format": "JPEG",
        "added_at": "2025-07-17T00:02:19.673589",
        "hash": "93c7b86ea94b7d489f9aa7578087a0cf",
        "source": "migrated"
      }
    },
    {
      "id": "abstract_110",
      "category": "abstract",
      "title": "Abstract Wallpaper 110",
      "tags": [
        "abstract",
        "wallpaper",
        "hd",
        "mobile"
      ],
      "urls": {
        "raw": "https://media.githubusercontent.com/media/ddh4r4m/wallpaper-collection/main/collection/wallpapers/abstract/110.jpg",
        "thumb": "https://media.githubusercontent.com/media/ddh4r4m/wallpaper-collection/main/collection/thumbnails/abstract/110.jpg"
      },
      "metadata": {
        "dimensions": {
          "width": 1080,
          "height": 1920
        },
        "file_size": 205803,
        "format": "JPEG",
        "added_at": "2025-07-17T00:02:19.728481",
        "hash": "8cd345548269c7c78535736944c3566d",
        "source": "migrated"
      }
    },
    {
      "id": "abstract_111",
      "category": "abstract",
      "title": "Abstract Wallpaper 111",
      "tags": [
        "abstract",
        "wallpaper",
        "hd",
        "mobile"
      ],
      "urls": {
        "raw": "https://media.githubusercontent.com/media/ddh4r4m/wallpaper-collection/main/collection/wallpapers/abstract/111.jpg",
        "thumb": "https://media.githubusercontent.com/media/ddh4r4m/wallpaper-collection/main/collection/thumbnails/abstract/111.jpg"
      },
      "metadata": {
        "dimensions": {
          "width": 1080,
          "height": 1920
        },
        "file_size": 426264,
        "format": "JPEG",
        "added_at": "2025-07-17T00:02:19.795745",
        "hash": "6e10052246beed90565f596b24ab1274",
        "source": "migrated"
      }
    },
    {
      "id": "abstract_112",
      "category": "abstract",
      "title": "Abstract Wallpaper 112",
      "tags": [
        "abstract",
        "wallpaper",
        "hd",
        "mobile"
      ],
      "urls": {
        "raw": "https://media.githubusercontent.com/media/ddh4r4m/wallpaper-collection/main/collection/wallpapers/abstract/112.jpg",
        "thumb": "https://media.githubusercontent.com/media/ddh4r4m/wallpaper-collection/main/collection/thumbnails/abstract/112.jpg"
      },
      "metadata": {
        "dimensions": {
          "width": 1080,
          "height": 1920
        },
        "file_size": 553299,
        "format": "JPEG",
        "added_at": "2025-07-17T00:02:19.867478",
        "hash": "8aa9622534c9f3089d3aa88deba516cb",
        "source": "migrated"
      }
    },
    {
      "id": "abstract_113",
      "category": "abstract",
      "title": "Abstract Wallpaper 113",
      "tags": [
        "abstract",
        "wallpaper",
        "hd",
        "mobile"
      ],
      "urls": {
        "raw": "https://media.githubusercontent.com/media/ddh4r4m/wallpaper-collection/main/collection/wallpapers/abstract/113.jpg",
        "thumb": "https://media.githubusercontent.com/media/ddh4r4m/wallpaper-collection/main/collection/thumbnails/abstract/113.jpg"
      },
      "metadata": {
        "dimensions": {
          "width": 1080,
          "height": 1920
        },
        "file_size": 322163,
        "format": "JPEG",
        "added_at": "2025-07-17T00:02:19.929900",
        "hash": "39cc69e18eb9bb15d9bba9b663874e10",
        "source": "migrated"
      }
    },
    {
      "id": "abstract_114",
      "category": "abstract",
      "title": "Abstract Wallpaper 114",
      "tags": [
        "abstract",
        "wallpaper",
        "hd",
        "mobile"
      ],
      "urls": {
        "raw": "https://media.githubusercontent.com/media/ddh4r4m/wallpaper-collection/main/collection/wallpapers/abstract/114.jpg",
        "thumb": "https://media.githubusercontent.com/media/ddh4r4m/wallpaper-collection/main/collection/thumbnails/abstract/114.jpg"
      },
      "metadata": {
        "dimensions": {
          "width": 1080,
          "height": 1920
        },
        "file_size": 565152,
        "format": "JPEG",
        "added_at": "2025-07-17T00:02:20.003037",
        "hash": "8289d6f2443dfba381337e5ba869d040",
        "source": "migrated"
      }
    },
    {
      "id": "abstract_115",
      "category": "abstract",
      "title": "Abstract Wallpaper 115",
      "tags": [
        "abstract",
        "wallpaper",
        "hd",
        "mobile"
      ],
      "urls": {
        "raw": "https://media.githubusercontent.com/media/ddh4r4m/wallpaper-collection/main/collection/wallpapers/abstract/115.jpg",
        "thumb": "https://media.githubusercontent.com/media/ddh4r4m/wallpaper-collection/main/collection/thumbnails/abstract/115.jpg"
      },
      "metadata": {
        "dimensions": {
          "width": 1080,
          "height": 1920
        },
        "file_size": 396204,
        "format": "JPEG",
        "added_at": "2025-07-17T00:02:20.065807",
        "hash": "ba939dcf4b1b56d55a41888ef23b273c",
        "source": "migrated"
      }
    },
    {
      "id": "abstract_116",
      "category": "abstract",
      "title": "Abstract Wallpaper 116",
      "tags": [
        "abstract",
        "wallpaper",
        "hd",
        "mobile"
      ],
      "urls": {
        "raw": "https://media.githubusercontent.com/media/ddh4r4m/wallpaper-collection/main/collection/wallpapers/abstract/116.jpg",
        "thumb": "https://media.githubusercontent.com/media/ddh4r4m/wallpaper-collection/main/collection/thumbnails/abstract/116.jpg"
      },
      "metadata": {
        "dimensions": {
          "width": 1080,
          "height": 1920
        },
        "file_size": 452649,
        "format": "JPEG",
        "added_at": "2025-07-17T00:02:20.132896",
        "hash": "e035374ce1221fb1f4968dde77922ff9",
        "source": "migrated"
      }
    },
    {
      "id": "abstract_117",
      "category": "abstract",
      "title": "Abstract Wallpaper 117",
      "tags": [
        "abstract",
        "wallpaper",
        "hd",
        "mobile"
      ],
      "urls": {
        "raw": "https://media.githubusercontent.com/media/ddh4r4m/wallpaper-collection/main/collection/wallpapers/abstract/117.jpg",
        "thumb": "https://media.githubusercontent.com/media/ddh4r4m/wallpaper-collection/main/collection/thumbnails/abstract/117.jpg"
      },
      "metadata": {
        "dimensions": {
          "width": 1080,
          "height": 1920
        },
        "file_size": 540864,
        "format": "JPEG",
        "added_at": "2025-07-17T00:02:20.205918",
        "hash": "c1d503802192bb485d78765a57865a33",
        "source": "migrated"
      }
    },
    {
      "id": "abstract_118",
      "category": "abstract",
      "title": "Abstract Wallpaper 118",
      "tags": [
        "abstract",
        "wallpaper",
        "hd",
        "mobile"
      ],
      "urls": {
        "raw": "https://media.githubusercontent.com/media/ddh4r4m/wallpaper-collection/main/collection/wallpapers/abstract/118.jpg",
        "thumb": "https://media.githubusercontent.com/media/ddh4r4m/wallpaper-collection/main/collection/thumbnails/abstract/118.jpg"
      },
      "metadata": {
        "dimensions": {
          "width": 1080,
          "height": 1920
        },
        "file_size": 660397,
        "format": "JPEG",
        "added_at": "2025-07-17T00:02:20.285403",
        "hash": "d024cbcc954fa8169c464cf3bc6780bd",
        "source": "migrated"
      }
    },
    {
      "id": "abstract_119",
      "category": "abstract",
      "title": "Abstract Wallpaper 119",
      "tags": [
        "abstract",
        "wallpaper",
        "hd",
        "mobile"
      ],
      "urls": {
        "raw": "https://media.githubusercontent.com/media/ddh4r4m/wallpaper-collection/main/collection/wallpapers/abstract/119.jpg",
        "thumb": "https://media.githubusercontent.com/media/ddh4r4m/wallpaper-collection/main/collection/thumbnails/abstract/119.jpg"
      },
      "metadata": {
        "dimensions": {
          "width": 1080,
          "height": 1920
        },
        "file_size": 327393,
        "format": "JPEG",
        "added_at": "2025-07-17T00:02:20.344726",
        "hash": "b79317b1de9e1979dffc7003a6d34ef2",
        "source": "migrated"
      }
    },
    {
      "id": "abstract_120",
      "category": "abstract",
      "title": "Abstract Wallpaper 120",
      "tags": [
        "abstract",
        "wallpaper",
        "hd",
        "mobile"
      ],
      "urls": {
        "raw": "https://media.githubusercontent.com/media/ddh4r4m/wallpaper-collection/main/collection/wallpapers/abstract/120.jpg",
        "thumb": "https://media.githubusercontent.com/media/ddh4r4m/wallpaper-collection/main/collection/thumbnails/abstract/120.jpg"
      },
      "metadata": {
        "dimensions": {
          "width": 1080,
          "height": 1920
        },
        "file_size": 569581,
        "format": "JPEG",
        "added_at": "2025-07-17T00:02:20.418485",
        "hash": "7ddba62cd8851f5791978286c72ffbc6",
        "source": "migrated"
      }
    }
  ]
}