{
  "meta": {
    "version": "1.0",
    "generated_at": "2025-07-28T21:27:34.814586",
    "category": "abstract",
    "page": 9,
    "per_page": 15,
    "total_pages": 18,
    "total_count": 257,
    "count_on_page": 15,
    "has_next": true,
    "has_prev": true,
    "next_page_url": "/api/v1/abstract/pages/10.json",
    "prev_page_url": "/api/v1/abstract/pages/8.json"
  },
  "data": [
    {
      "id": "abstract_121",
      "category": "abstract",
      "title": "Abstract Wallpaper 121",
      "tags": [
        "abstract",
        "wallpaper",
        "hd",
        "mobile"
      ],
      "urls": {
        "raw": "https://media.githubusercontent.com/media/ddh4r4m/wallpaper-collection/main/collection/wallpapers/abstract/121.jpg",
        "thumb": "https://media.githubusercontent.com/media/ddh4r4m/wallpaper-collection/main/collection/thumbnails/abstract/121.jpg"
      },
      "metadata": {
        "dimensions": {
          "width": 1080,
          "height": 1920
        },
        "file_size": 492107,
        "format": "JPEG",
        "added_at": "2025-07-17T00:02:20.490456",
        "hash": "a3b415573b7770654f4c3dbeefc1f8b8",
        "source": "migrated"
      }
    },
    {
      "id": "abstract_122",
      "category": "abstract",
      "title": "Abstract Wallpaper 122",
      "tags": [
        "abstract",
        "wallpaper",
        "hd",
        "mobile"
      ],
      "urls": {
        "raw": "https://media.githubusercontent.com/media/ddh4r4m/wallpaper-collection/main/collection/wallpapers/abstract/122.jpg",
        "thumb": "https://media.githubusercontent.com/media/ddh4r4m/wallpaper-collection/main/collection/thumbnails/abstract/122.jpg"
      },
      "metadata": {
        "dimensions": {
          "width": 1080,
          "height": 1920
        },
        "file_size": 503035,
        "format": "JPEG",
        "added_at": "2025-07-17T00:02:20.559879",
        "hash": "a57dd94c8fd5033e98d4475b0e968ab3",
        "source": "migrated"
      }
    },
    {
      "id": "abstract_123",
      "category": "abstract",
      "title": "Abstract Wallpaper 123",
      "tags": [
        "abstract",
        "wallpaper",
        "hd",
        "mobile"
      ],
      "urls": {
        "raw": "https://media.githubusercontent.com/media/ddh4r4m/wallpaper-collection/main/collection/wallpapers/abstract/123.jpg",
        "thumb": "https://media.githubusercontent.com/media/ddh4r4m/wallpaper-collection/main/collection/thumbnails/abstract/123.jpg"
      },
      "metadata": {
        "dimensions": {
          "width": 1080,
          "height": 1920
        },
        "file_size": 403516,
        "format": "JPEG",
        "added_at": "2025-07-17T00:02:20.626408",
        "hash": "72d3cb89f4207b8e3237125f9941f0fa",
        "source": "migrated"
      }
    },
    {
      "id": "abstract_124",
      "category": "abstract",
      "title": "Abstract Wallpaper 124",
      "tags": [
        "abstract",
        "wallpaper",
        "hd",
        "mobile"
      ],
      "urls": {
        "raw": "https://media.githubusercontent.com/media/ddh4r4m/wallpaper-collection/main/collection/wallpapers/abstract/124.jpg",
        "thumb": "https://media.githubusercontent.com/media/ddh4r4m/wallpaper-collection/main/collection/thumbnails/abstract/124.jpg"
      },
      "metadata": {
        "dimensions": {
          "width": 1080,
          "height": 1920
        },
        "file_size": 377713,
        "format": "JPEG",
        "added_at": "2025-07-17T00:02:20.687162",
        "hash": "4b809a5659a5ac611ab35cc8b4193f21",
        "source": "migrated"
      }
    },
    {
      "id": "abstract_125",
      "category": "abstract",
      "title": "Abstract Wallpaper 125",
      "tags": [
        "abstract",
        "wallpaper",
        "hd",
        "mobile"
      ],
      "urls": {
        "raw": "https://media.githubusercontent.com/media/ddh4r4m/wallpaper-collection/main/collection/wallpapers/abstract/125.jpg",
        "thumb": "https://media.githubusercontent.com/media/ddh4r4m/wallpaper-collection/main/collection/thumbnails/abstract/125.jpg"
      },
      "metadata": {
        "dimensions": {
          "width": 1080,
          "height": 1920
        },
        "file_size": 623491,
        "format": "JPEG",
        "added_at": "2025-07-17T00:02:20.763327",
        "hash": "96a58864e9ef232639b5ffd71ddc9374",
        "source": "migrated"
      }
    },
    {
      "id": "abstract_126",
      "category": "abstract",
      "title": "Abstract Wallpaper 126",
      "tags": [
        "abstract",
        "wallpaper",
        "hd",
        "mobile"
      ],
      "urls": {
        "raw": "https://media.githubusercontent.com/media/ddh4r4m/wallpaper-collection/main/collection/wallpapers/abstract/126.jpg",
        "thumb": "https://media.githubusercontent.com/media/ddh4r4m/wallpaper-collection/main/collection/thumbnails/abstract/126.jpg"
      },
      "metadata": {
        "dimensions": {
          "width": 1080,
          "height": 1920
        },
        "file_size": 190894,
        "format": "JPEG",
        "added_at": "2025-07-17T00:02:20.816291",
        "hash": "9c0c8de785b6584b869564135df3f168",
        "source": "migrated"
      }
    },
    {
      "id": "abstract_127",
      "category": "abstract",
      "title": "Abstract Wallpaper 127",
      "tags": [
        "abstract",
        "wallpaper",
        "hd",
        "mobile"
      ],
      "urls": {
        "raw": "https://media.githubusercontent.com/media/ddh4r4m/wallpaper-collection/main/collection/wallpapers/abstract/127.jpg",
        "thumb": "https://media.githubusercontent.com/media/ddh4r4m/wallpaper-collection/main/collection/thumbnails/abstract/127.jpg"
      },
      "metadata": {
        "dimensions": {
          "width": 1080,
          "height": 1920
        },
        "file_size": 647194,
        "format": "JPEG",
        "added_at": "2025-07-17T00:02:20.892248",
        "hash": "bff4b3175c6df3629f51584595760ee3",
        "source": "migrated"
      }
    },
    {
      "id": "abstract_128",
      "category": "abstract",
      "title": "Abstract Wallpaper 128",
      "tags": [
        "abstract",
        "wallpaper",
        "hd",
        "mobile"
      ],
      "urls": {
        "raw": "https://media.githubusercontent.com/media/ddh4r4m/wallpaper-collection/main/collection/wallpapers/abstract/128.jpg",
        "thumb": "https://media.githubusercontent.com/media/ddh4r4m/wallpaper-collection/main/collection/thumbnails/abstract/128.jpg"
      },
      "metadata": {
        "dimensions": {
          "width": 1080,
          "height": 1920
        },
        "file_size": 692539,
        "format": "JPEG",
        "added_at": "2025-07-17T00:02:20.974948",
        "hash": "586b4db9a6b67728f54d696688c3b0d8",
        "source": "migrated"
      }
    },
    {
      "id": "abstract_129",
      "category": "abstract",
      "title": "Abstract Wallpaper 129",
      "tags": [
        "abstract",
        "wallpaper",
        "hd",
        "mobile"
      ],
      "urls": {
        "raw": "https://media.githubusercontent.com/media/ddh4r4m/wallpaper-collection/main/collection/wallpapers/abstract/129.jpg",
        "thumb": "https://media.githubusercontent.com/media/ddh4r4m/wallpaper-collection/main/collection/thumbnails/abstract/129.jpg"
      },
      "metadata": {
        "dimensions": {
          "width": 1080,
          "height": 1920
        },
        "file_size": 600239,
        "format": "JPEG",
        "added_at": "2025-07-17T00:02:21.048860",
        "hash": "89d8ba2c4bbdbda109cff72252fc0cb8",
        "source": "migrated"
      }
    },
    {
      "id": "abstract_130",
      "category": "abstract",
      "title": "Abstract Wallpaper 130",
      "tags": [
        "abstract",
        "wallpaper",
        "hd",
        "mobile"
      ],
      "urls": {
        "raw": "https://media.githubusercontent.com/media/ddh4r4m/wallpaper-collection/main/collection/wallpapers/abstract/130.jpg",
        "thumb": "https://media.githubusercontent.com/media/ddh4r4m/wallpaper-collection/main/collection/thumbnails/abstract/130.jpg"
      },
      "metadata": {
        "dimensions": {
          "width": 1080,
          "height": 1920
        },
        "file_size": 444932,
        "format": "JPEG",
        "added_at": "2025-07-17T00:02:21.115798",
        "hash": "ec107cd02a8971f0b4b71e1f108c10d4",
        "source": "migrated"
      }
    },
    {
      "id": "abstract_131",
      "category": "abstract",
      "title": "Abstract Wallpaper 131",
      "tags": [
        "abstract",
        "wallpaper",
        "hd",
        "mobile"
      ],
      "urls": {
        "raw": "https://media.githubusercontent.com/media/ddh4r4m/wallpaper-collection/main/collection/wallpapers/abstract/131.jpg",
        "thumb": "https://media.githubusercontent.com/media/ddh4r4m/wallpaper-collection/main/collection/thumbnails/abstract/131.jpg"
      },
      "metadata": {
        "dimensions": {
          "width": 1080,
          "height": 1920
        },
        "file_size": 505179,
        "format": "JPEG",
        "added_at": "2025-07-17T00:02:21.184951",
        "hash": "b45abdeee142bea4580f1609fccc533b",
        "source": "migrated"
      }
    },
    {
      "id": "abstract_132",
      "category": "abstract",
      "title": "Abstract Wallpaper 132",
      "tags": [
        "abstract",
        "wallpaper",
        "hd",
        "mobile"
      ],
      "urls": {
        "raw": "https://media.githubusercontent.com/media/ddh4r4m/wallpaper-collection/main/collection/wallpapers/abstract/132.jpg",
        "thumb": "https://media.githubusercontent.com/media/ddh4r4m/wallpaper-collection/main/collection/thumbnails/abstract/132.jpg"
      },
      "metadata": {
        "dimensions": {
          "width": 1080,
          "height": 1920
        },
        "file_size": 221940,
        "format": "JPEG",
        "added_at": "2025-07-17T00:02:21.238625",
        "hash": "34a0ab88000abd899f8c0e1b243bc118",
        "source": "migrated"
      }
    },
    {
      "id": "abstract_133",
      "category": "abstract",
      "title": "Abstract Wallpaper 133",
      "tags": [
        "abstract",
        "wallpaper",
        "hd",
        "mobile"
      ],
      "urls": {
        "raw": "https://media.githubusercontent.com/media/ddh4r4m/wallpaper-collection/main/collection/wallpapers/abstract/133.jpg",
        "thumb": "https://media.githubusercontent.com/media/ddh4r4m/wallpaper-collection/main/collection/thumbnails/abstract/133.jpg"
      },
      "metadata": {
        "dimensions": {
          "width": 1080,
          "height": 1920
        },
        "file_size": 378696,
        "format": "JPEG",
        "added_at": "2025-07-17T00:02:21.302023",
        "hash": "4266cd197ce12eb00294e06ab3716f4b",
        "source": "migrated"
      }
    },
    {
      "id": "abstract_134",
      "category": "abstract",
      "title": "Abstract Wallpaper 134",
      "tags": [
        "abstract",
        "wallpaper",
        "hd",
        "mobile"
      ],
      "urls": {
        "raw": "https://media.githubusercontent.com/media/ddh4r4m/wallpaper-collection/main/collection/wallpapers/abstract/134.jpg",
        "thumb": "https://media.githubusercontent.com/media/ddh4r4m/wallpaper-collection/main/collection/thumbnails/abstract/134.jpg"
      },
      "metadata": {
        "dimensions": {
          "width": 1080,
          "height": 1920
        },
        "file_size": 132748,
        "format": "JPEG",
        "added_at": "2025-07-17T00:02:21.350182",
        "hash": "f54fd9b6b4626b19f281608ff79f900d",
        "source": "migrated"
      }
    },
    {
      "id": "abstract_135",
      "category": "abstract",
      "title": "Abstract Wallpaper 135",
      "tags": [
        "abstract",
        "wallpaper",
        "hd",
        "mobile"
      ],
      "urls": {
        "raw": "https://media.githubusercontent.com/media/ddh4r4m/wallpaper-collection/main/collection/wallpapers/abstract/135.jpg",
        "thumb": "https://media.githubusercontent.com/media/ddh4r4m/wallpaper-collection/main/collection/thumbnails/abstract/135.jpg"
      },
      "metadata": {
        "dimensions": {
          "width": 1080,
          "height": 1920
        },
        "file_size": 509002,
        "format": "JPEG",
        "added_at": "2025-07-17T00:02:21.420197",
        "hash": "aad0547ddc7f7e15c1239be7d846c487",
        "source": "migrated"
      }
    }
  ]
}