{
  "meta": {
    "version": "1.0",
    "generated_at": "2025-07-17T21:14:17.488868",
    "page": 100,
    "per_page": 15,
    "total_pages": 117,
    "total_count": 1751,
    "count_on_page": 15,
    "categories": 17,
    "has_next": true,
    "has_prev": true,
    "next_page_url": "/api/v1/all/pages/101.json",
    "prev_page_url": "/api/v1/all/pages/99.json"
  },
  "data": [
    {
      "id": "neon_073",
      "category": "neon",
      "title": "Neon Wallpaper 073",
      "tags": [
        "neon",
        "wallpaper",
        "hd",
        "mobile"
      ],
      "urls": {
        "raw": "https://media.githubusercontent.com/media/ddh4r4m/wallpaper-collection/main/collection/wallpapers/neon/073.jpg",
        "thumb": "https://media.githubusercontent.com/media/ddh4r4m/wallpaper-collection/main/collection/thumbnails/neon/073.jpg"
      },
      "metadata": {
        "dimensions": {
          "width": 1080,
          "height": 1920
        },
        "file_size": 109171,
        "format": "JPEG",
        "added_at": "2025-07-17T00:04:35.479916",
        "hash": "38d634bba06621d5bceaa87726132fe8",
        "source": "migrated"
      }
    },
    {
      "id": "neon_074",
      "category": "neon",
      "title": "Neon Wallpaper 074",
      "tags": [
        "neon",
        "wallpaper",
        "hd",
        "mobile"
      ],
      "urls": {
        "raw": "https://media.githubusercontent.com/media/ddh4r4m/wallpaper-collection/main/collection/wallpapers/neon/074.jpg",
        "thumb": "https://media.githubusercontent.com/media/ddh4r4m/wallpaper-collection/main/collection/thumbnails/neon/074.jpg"
      },
      "metadata": {
        "dimensions": {
          "width": 1080,
          "height": 1920
        },
        "file_size": 191115,
        "format": "JPEG",
        "added_at": "2025-07-17T00:04:35.531613",
        "hash": "cd446ea2aeb558e418c96df80486b905",
        "source": "migrated"
      }
    },
    {
      "id": "neon_075",
      "category": "neon",
      "title": "Neon Wallpaper 075",
      "tags": [
        "neon",
        "wallpaper",
        "hd",
        "mobile"
      ],
      "urls": {
        "raw": "https://media.githubusercontent.com/media/ddh4r4m/wallpaper-collection/main/collection/wallpapers/neon/075.jpg",
        "thumb": "https://media.githubusercontent.com/media/ddh4r4m/wallpaper-collection/main/collection/thumbnails/neon/075.jpg"
      },
      "metadata": {
        "dimensions": {
          "width": 1080,
          "height": 1920
        },
        "file_size": 246669,
        "format": "JPEG",
        "added_at": "2025-07-17T00:04:35.590237",
        "hash": "4f66cc43000c44141043724956df323e",
        "source": "migrated"
      }
    },
    {
      "id": "neon_076",
      "category": "neon",
      "title": "Neon Wallpaper 076",
      "tags": [
        "neon",
        "wallpaper",
        "hd",
        "mobile"
      ],
      "urls": {
        "raw": "https://media.githubusercontent.com/media/ddh4r4m/wallpaper-collection/main/collection/wallpapers/neon/076.jpg",
        "thumb": "https://media.githubusercontent.com/media/ddh4r4m/wallpaper-collection/main/collection/thumbnails/neon/076.jpg"
      },
      "metadata": {
        "dimensions": {
          "width": 1080,
          "height": 1920
        },
        "file_size": 382270,
        "format": "JPEG",
        "added_at": "2025-07-17T00:04:35.653074",
        "hash": "bd0cd9edeaa5858072771a78832f85df",
        "source": "migrated"
      }
    },
    {
      "id": "neon_077",
      "category": "neon",
      "title": "Neon Wallpaper 077",
      "tags": [
        "neon",
        "wallpaper",
        "hd",
        "mobile"
      ],
      "urls": {
        "raw": "https://media.githubusercontent.com/media/ddh4r4m/wallpaper-collection/main/collection/wallpapers/neon/077.jpg",
        "thumb": "https://media.githubusercontent.com/media/ddh4r4m/wallpaper-collection/main/collection/thumbnails/neon/077.jpg"
      },
      "metadata": {
        "dimensions": {
          "width": 1080,
          "height": 1920
        },
        "file_size": 368695,
        "format": "JPEG",
        "added_at": "2025-07-17T00:04:35.714223",
        "hash": "64bd0dab3f6bd933ead253363c9917d6",
        "source": "migrated"
      }
    },
    {
      "id": "neon_078",
      "category": "neon",
      "title": "Neon Wallpaper 078",
      "tags": [
        "neon",
        "wallpaper",
        "hd",
        "mobile"
      ],
      "urls": {
        "raw": "https://media.githubusercontent.com/media/ddh4r4m/wallpaper-collection/main/collection/wallpapers/neon/078.jpg",
        "thumb": "https://media.githubusercontent.com/media/ddh4r4m/wallpaper-collection/main/collection/thumbnails/neon/078.jpg"
      },
      "metadata": {
        "dimensions": {
          "width": 1080,
          "height": 1920
        },
        "file_size": 282619,
        "format": "JPEG",
        "added_at": "2025-07-17T00:04:35.774632",
        "hash": "43ce71244b7b2d4a10949e53b7fbad7c",
        "source": "migrated"
      }
    },
    {
      "id": "pastel_001",
      "category": "pastel",
      "title": "Pastel Wallpaper 001",
      "tags": [
        "pastel",
        "wallpaper",
        "hd",
        "mobile"
      ],
      "urls": {
        "raw": "https://media.githubusercontent.com/media/ddh4r4m/wallpaper-collection/main/collection/wallpapers/pastel/001.jpg",
        "thumb": "https://media.githubusercontent.com/media/ddh4r4m/wallpaper-collection/main/collection/thumbnails/pastel/001.jpg"
      },
      "metadata": {
        "dimensions": {
          "width": 1080,
          "height": 1920
        },
        "file_size": 454760,
        "format": "JPEG",
        "added_at": "2025-07-17T00:04:35.842372",
        "hash": "b550b693683cfc708d2b6857966f0fb0",
        "source": "migrated"
      }
    },
    {
      "id": "pastel_002",
      "category": "pastel",
      "title": "Pastel Wallpaper 002",
      "tags": [
        "pastel",
        "wallpaper",
        "hd",
        "mobile"
      ],
      "urls": {
        "raw": "https://media.githubusercontent.com/media/ddh4r4m/wallpaper-collection/main/collection/wallpapers/pastel/002.jpg",
        "thumb": "https://media.githubusercontent.com/media/ddh4r4m/wallpaper-collection/main/collection/thumbnails/pastel/002.jpg"
      },
      "metadata": {
        "dimensions": {
          "width": 1080,
          "height": 1920
        },
        "file_size": 479226,
        "format": "JPEG",
        "added_at": "2025-07-17T00:04:35.912894",
        "hash": "baaa28df92e2438f51d1d466dec450cb",
        "source": "migrated"
      }
    },
    {
      "id": "pastel_003",
      "category": "pastel",
      "title": "Pastel Wallpaper 003",
      "tags": [
        "pastel",
        "wallpaper",
        "hd",
        "mobile"
      ],
      "urls": {
        "raw": "https://media.githubusercontent.com/media/ddh4r4m/wallpaper-collection/main/collection/wallpapers/pastel/003.jpg",
        "thumb": "https://media.githubusercontent.com/media/ddh4r4m/wallpaper-collection/main/collection/thumbnails/pastel/003.jpg"
      },
      "metadata": {
        "dimensions": {
          "width": 1080,
          "height": 1920
        },
        "file_size": 417881,
        "format": "JPEG",
        "added_at": "2025-07-17T00:04:35.975960",
        "hash": "58bc4b035425db7559990c3cd74818f2",
        "source": "migrated"
      }
    },
    {
      "id": "pastel_004",
      "category": "pastel",
      "title": "Pastel Wallpaper 004",
      "tags": [
        "pastel",
        "wallpaper",
        "hd",
        "mobile"
      ],
      "urls": {
        "raw": "https://media.githubusercontent.com/media/ddh4r4m/wallpaper-collection/main/collection/wallpapers/pastel/004.jpg",
        "thumb": "https://media.githubusercontent.com/media/ddh4r4m/wallpaper-collection/main/collection/thumbnails/pastel/004.jpg"
      },
      "metadata": {
        "dimensions": {
          "width": 1080,
          "height": 1920
        },
        "file_size": 221388,
        "format": "JPEG",
        "added_at": "2025-07-17T00:04:36.030608",
        "hash": "d54165adcbb9d2b3f2783102e81eda24",
        "source": "migrated"
      }
    },
    {
      "id": "pastel_005",
      "category": "pastel",
      "title": "Pastel Wallpaper 005",
      "tags": [
        "pastel",
        "wallpaper",
        "hd",
        "mobile"
      ],
      "urls": {
        "raw": "https://media.githubusercontent.com/media/ddh4r4m/wallpaper-collection/main/collection/wallpapers/pastel/005.jpg",
        "thumb": "https://media.githubusercontent.com/media/ddh4r4m/wallpaper-collection/main/collection/thumbnails/pastel/005.jpg"
      },
      "metadata": {
        "dimensions": {
          "width": 1080,
          "height": 1920
        },
        "file_size": 663823,
        "format": "JPEG",
        "added_at": "2025-07-17T00:04:36.109358",
        "hash": "8026de66c829ab2a324305c406cd4d9d",
        "source": "migrated"
      }
    },
    {
      "id": "pastel_006",
      "category": "pastel",
      "title": "Pastel Wallpaper 006",
      "tags": [
        "pastel",
        "wallpaper",
        "hd",
        "mobile"
      ],
      "urls": {
        "raw": "https://media.githubusercontent.com/media/ddh4r4m/wallpaper-collection/main/collection/wallpapers/pastel/006.jpg",
        "thumb": "https://media.githubusercontent.com/media/ddh4r4m/wallpaper-collection/main/collection/thumbnails/pastel/006.jpg"
      },
      "metadata": {
        "dimensions": {
          "width": 1080,
          "height": 1920
        },
        "file_size": 413712,
        "format": "JPEG",
        "added_at": "2025-07-17T00:04:36.172479",
        "hash": "3bc0b7488fe25a0c7ca6b267f67b9211",
        "source": "migrated"
      }
    },
    {
      "id": "pastel_007",
      "category": "pastel",
      "title": "Pastel Wallpaper 007",
      "tags": [
        "pastel",
        "wallpaper",
        "hd",
        "mobile"
      ],
      "urls": {
        "raw": "https://media.githubusercontent.com/media/ddh4r4m/wallpaper-collection/main/collection/wallpapers/pastel/007.jpg",
        "thumb": "https://media.githubusercontent.com/media/ddh4r4m/wallpaper-collection/main/collection/thumbnails/pastel/007.jpg"
      },
      "metadata": {
        "dimensions": {
          "width": 1080,
          "height": 1920
        },
        "file_size": 97462,
        "format": "JPEG",
        "added_at": "2025-07-17T00:04:36.219758",
        "hash": "95e23ea5a47802019f9f44d2a873e5c6",
        "source": "migrated"
      }
    },
    {
      "id": "pastel_008",
      "category": "pastel",
      "title": "Pastel Wallpaper 008",
      "tags": [
        "pastel",
        "wallpaper",
        "hd",
        "mobile"
      ],
      "urls": {
        "raw": "https://media.githubusercontent.com/media/ddh4r4m/wallpaper-collection/main/collection/wallpapers/pastel/008.jpg",
        "thumb": "https://media.githubusercontent.com/media/ddh4r4m/wallpaper-collection/main/collection/thumbnails/pastel/008.jpg"
      },
      "metadata": {
        "dimensions": {
          "width": 1080,
          "height": 1920
        },
        "file_size": 435044,
        "format": "JPEG",
        "added_at": "2025-07-17T00:04:36.286950",
        "hash": "5f2a0dca440e18e5a3bbc4ef2b0724a7",
        "source": "migrated"
      }
    },
    {
      "id": "pastel_009",
      "category": "pastel",
      "title": "Pastel Wallpaper 009",
      "tags": [
        "pastel",
        "wallpaper",
        "hd",
        "mobile"
      ],
      "urls": {
        "raw": "https://media.githubusercontent.com/media/ddh4r4m/wallpaper-collection/main/collection/wallpapers/pastel/009.jpg",
        "thumb": "https://media.githubusercontent.com/media/ddh4r4m/wallpaper-collection/main/collection/thumbnails/pastel/009.jpg"
      },
      "metadata": {
        "dimensions": {
          "width": 1080,
          "height": 1920
        },
        "file_size": 63107,
        "format": "JPEG",
        "added_at": "2025-07-17T00:04:36.331874",
        "hash": "fa63242d03d49e063868c6866ada4776",
        "source": "migrated"
      }
    }
  ]
}