{
  "meta": {
    "version": "1.0",
    "generated_at": "2025-07-28T21:27:34.814586",
    "page": 101,
    "per_page": 15,
    "total_pages": 177,
    "total_count": 2647,
    "count_on_page": 15,
    "categories": 21,
    "has_next": true,
    "has_prev": true,
    "next_page_url": "/api/v1/all/pages/102.json",
    "prev_page_url": "/api/v1/all/pages/100.json"
  },
  "data": [
    {
      "id": "gradient_033",
      "category": "gradient",
      "title": "Gradient Wallpaper 033",
      "tags": [
        "gradient"
      ],
      "urls": {
        "raw": "https://media.githubusercontent.com/media/ddh4r4m/wallpaper-collection/main/collection/wallpapers/gradient/033.jpg",
        "thumb": "https://media.githubusercontent.com/media/ddh4r4m/wallpaper-collection/main/collection/thumbnails/gradient/033.jpg"
      },
      "metadata": {
        "added_at": "2025-07-20T23:09:21.657543",
        "file_size": 179868,
        "dimensions": {
          "width": 1080,
          "height": 1920
        }
      }
    },
    {
      "id": "gradient_034",
      "category": "gradient",
      "title": "Gradient Wallpaper 034",
      "tags": [
        "gradient"
      ],
      "urls": {
        "raw": "https://media.githubusercontent.com/media/ddh4r4m/wallpaper-collection/main/collection/wallpapers/gradient/034.jpg",
        "thumb": "https://media.githubusercontent.com/media/ddh4r4m/wallpaper-collection/main/collection/thumbnails/gradient/034.jpg"
      },
      "metadata": {
        "added_at": "2025-07-20T23:09:21.859198",
        "file_size": 377159,
        "dimensions": {
          "width": 1080,
          "height": 1920
        }
      }
    },
    {
      "id": "gradient_035",
      "category": "gradient",
      "title": "Gradient Wallpaper 035",
      "tags": [
        "gradient"
      ],
      "urls": {
        "raw": "https://media.githubusercontent.com/media/ddh4r4m/wallpaper-collection/main/collection/wallpapers/gradient/035.jpg",
        "thumb": "https://media.githubusercontent.com/media/ddh4r4m/wallpaper-collection/main/collection/thumbnails/gradient/035.jpg"
      },
      "metadata": {
        "added_at": "2025-07-20T23:09:21.952120",
        "file_size": 63468,
        "dimensions": {
          "width": 1080,
          "height": 1920
        }
      }
    },
    {
      "id": "gradient_036",
      "category": "gradient",
      "title": "Gradient Wallpaper 036",
      "tags": [
        "gradient"
      ],
      "urls": {
        "raw": "https://media.githubusercontent.com/media/ddh4r4m/wallpaper-collection/main/collection/wallpapers/gradient/036.jpg",
        "thumb": "https://media.githubusercontent.com/media/ddh4r4m/wallpaper-collection/main/collection/thumbnails/gradient/036.jpg"
      },
      "metadata": {
        "added_at": "2025-07-20T23:09:22.245954",
        "file_size": 265204,
        "dimensions": {
          "width": 1080,
          "height": 1920
        }
      }
    },
    {
      "id": "gradient_037",
      "category": "gradient",
      "title": "Gradient Wallpaper 037",
      "tags": [
        "gradient"
      ],
      "urls": {
        "raw": "https://media.githubusercontent.com/media/ddh4r4m/wallpaper-collection/main/collection/wallpapers/gradient/037.jpg",
        "thumb": "https://media.githubusercontent.com/media/ddh4r4m/wallpaper-collection/main/collection/thumbnails/gradient/037.jpg"
      },
      "metadata": {
        "added_at": "2025-07-20T23:09:22.388869",
        "file_size": 705639,
        "dimensions": {
          "width": 1080,
          "height": 1920
        }
      }
    },
    {
      "id": "gradient_038",
      "category": "gradient",
      "title": "Gradient Wallpaper 038",
      "tags": [
        "gradient"
      ],
      "urls": {
        "raw": "https://media.githubusercontent.com/media/ddh4r4m/wallpaper-collection/main/collection/wallpapers/gradient/038.jpg",
        "thumb": "https://media.githubusercontent.com/media/ddh4r4m/wallpaper-collection/main/collection/thumbnails/gradient/038.jpg"
      },
      "metadata": {
        "added_at": "2025-07-20T23:09:22.476303",
        "file_size": 28986,
        "dimensions": {
          "width": 1080,
          "height": 1920
        }
      }
    },
    {
      "id": "gradient_039",
      "category": "gradient",
      "title": "Gradient Wallpaper 039",
      "tags": [
        "gradient"
      ],
      "urls": {
        "raw": "https://media.githubusercontent.com/media/ddh4r4m/wallpaper-collection/main/collection/wallpapers/gradient/039.jpg",
        "thumb": "https://media.githubusercontent.com/media/ddh4r4m/wallpaper-collection/main/collection/thumbnails/gradient/039.jpg"
      },
      "metadata": {
        "added_at": "2025-07-20T23:09:22.615627",
        "file_size": 42410,
        "dimensions": {
          "width": 1080,
          "height": 1920
        }
      }
    },
    {
      "id": "gradient_040",
      "category": "gradient",
      "title": "Gradient Wallpaper 040",
      "tags": [
        "gradient"
      ],
      "urls": {
        "raw": "https://media.githubusercontent.com/media/ddh4r4m/wallpaper-collection/main/collection/wallpapers/gradient/040.jpg",
        "thumb": "https://media.githubusercontent.com/media/ddh4r4m/wallpaper-collection/main/collection/thumbnails/gradient/040.jpg"
      },
      "metadata": {
        "added_at": "2025-07-20T23:09:22.704082",
        "file_size": 44522,
        "dimensions": {
          "width": 1080,
          "height": 1920
        }
      }
    },
    {
      "id": "gradient_041",
      "category": "gradient",
      "title": "Gradient Wallpaper 041",
      "tags": [
        "gradient"
      ],
      "urls": {
        "raw": "https://media.githubusercontent.com/media/ddh4r4m/wallpaper-collection/main/collection/wallpapers/gradient/041.jpg",
        "thumb": "https://media.githubusercontent.com/media/ddh4r4m/wallpaper-collection/main/collection/thumbnails/gradient/041.jpg"
      },
      "metadata": {
        "added_at": "2025-07-20T23:09:22.861799",
        "file_size": 304039,
        "dimensions": {
          "width": 1080,
          "height": 1920
        }
      }
    },
    {
      "id": "gradient_042",
      "category": "gradient",
      "title": "Gradient Wallpaper 042",
      "tags": [
        "gradient"
      ],
      "urls": {
        "raw": "https://media.githubusercontent.com/media/ddh4r4m/wallpaper-collection/main/collection/wallpapers/gradient/042.jpg",
        "thumb": "https://media.githubusercontent.com/media/ddh4r4m/wallpaper-collection/main/collection/thumbnails/gradient/042.jpg"
      },
      "metadata": {
        "added_at": "2025-07-20T23:09:23.082321",
        "file_size": 88245,
        "dimensions": {
          "width": 1080,
          "height": 1920
        }
      }
    },
    {
      "id": "gradient_043",
      "category": "gradient",
      "title": "Gradient Wallpaper 043",
      "tags": [
        "gradient"
      ],
      "urls": {
        "raw": "https://media.githubusercontent.com/media/ddh4r4m/wallpaper-collection/main/collection/wallpapers/gradient/043.jpg",
        "thumb": "https://media.githubusercontent.com/media/ddh4r4m/wallpaper-collection/main/collection/thumbnails/gradient/043.jpg"
      },
      "metadata": {
        "added_at": "2025-07-20T23:09:23.226181",
        "file_size": 710367,
        "dimensions": {
          "width": 1080,
          "height": 1920
        }
      }
    },
    {
      "id": "gradient_044",
      "category": "gradient",
      "title": "Gradient Wallpaper 044",
      "tags": [
        "gradient"
      ],
      "urls": {
        "raw": "https://media.githubusercontent.com/media/ddh4r4m/wallpaper-collection/main/collection/wallpapers/gradient/044.jpg",
        "thumb": "https://media.githubusercontent.com/media/ddh4r4m/wallpaper-collection/main/collection/thumbnails/gradient/044.jpg"
      },
      "metadata": {
        "added_at": "2025-07-20T23:09:23.362984",
        "file_size": 38979,
        "dimensions": {
          "width": 1080,
          "height": 1920
        }
      }
    },
    {
      "id": "gradient_045",
      "category": "gradient",
      "title": "Gradient Wallpaper 045",
      "tags": [
        "gradient"
      ],
      "urls": {
        "raw": "https://media.githubusercontent.com/media/ddh4r4m/wallpaper-collection/main/collection/wallpapers/gradient/045.jpg",
        "thumb": "https://media.githubusercontent.com/media/ddh4r4m/wallpaper-collection/main/collection/thumbnails/gradient/045.jpg"
      },
      "metadata": {
        "added_at": "2025-07-20T23:09:23.519862",
        "file_size": 280098,
        "dimensions": {
          "width": 1080,
          "height": 1920
        }
      }
    },
    {
      "id": "gradient_046",
      "category": "gradient",
      "title": "Gradient Wallpaper 046",
      "tags": [
        "gradient"
      ],
      "urls": {
        "raw": "https://media.githubusercontent.com/media/ddh4r4m/wallpaper-collection/main/collection/wallpapers/gradient/046.jpg",
        "thumb": "https://media.githubusercontent.com/media/ddh4r4m/wallpaper-collection/main/collection/thumbnails/gradient/046.jpg"
      },
      "metadata": {
        "added_at": "2025-07-20T23:09:23.651130",
        "file_size": 80584,
        "dimensions": {
          "width": 1080,
          "height": 1920
        }
      }
    },
    {
      "id": "gradient_047",
      "category": "gradient",
      "title": "Gradient Wallpaper 047",
      "tags": [
        "gradient"
      ],
      "urls": {
        "raw": "https://media.githubusercontent.com/media/ddh4r4m/wallpaper-collection/main/collection/wallpapers/gradient/047.jpg",
        "thumb": "https://media.githubusercontent.com/media/ddh4r4m/wallpaper-collection/main/collection/thumbnails/gradient/047.jpg"
      },
      "metadata": {
        "added_at": "2025-07-20T23:09:23.794941",
        "file_size": 56627,
        "dimensions": {
          "width": 1080,
          "height": 1920
        }
      }
    }
  ]
}