{
  "meta": {
    "version": "1.0",
    "generated_at": "2025-07-28T23:12:02.393375",
    "page": 105,
    "per_page": 15,
    "total_pages": 183,
    "total_count": 2743,
    "count_on_page": 15,
    "categories": 22,
    "has_next": true,
    "has_prev": true,
    "next_page_url": "/api/v1/all/pages/106.json",
    "prev_page_url": "/api/v1/all/pages/104.json"
  },
  "data": [
    {
      "id": "gradient_087",
      "category": "gradient",
      "title": "Gradient Wallpaper 087",
      "tags": [
        "gradient"
      ],
      "urls": {
        "raw": "https://media.githubusercontent.com/media/ddh4r4m/wallpaper-collection/main/collection/wallpapers/gradient/087.jpg",
        "thumb": "https://media.githubusercontent.com/media/ddh4r4m/wallpaper-collection/main/collection/thumbnails/gradient/087.jpg"
      },
      "metadata": {
        "added_at": "2025-07-20T23:12:13.096874",
        "file_size": 461600,
        "dimensions": {
          "width": 1080,
          "height": 1920
        }
      }
    },
    {
      "id": "gradient_088",
      "category": "gradient",
      "title": "Gradient Wallpaper 088",
      "tags": [
        "gradient"
      ],
      "urls": {
        "raw": "https://media.githubusercontent.com/media/ddh4r4m/wallpaper-collection/main/collection/wallpapers/gradient/088.jpg",
        "thumb": "https://media.githubusercontent.com/media/ddh4r4m/wallpaper-collection/main/collection/thumbnails/gradient/088.jpg"
      },
      "metadata": {
        "added_at": "2025-07-20T23:12:13.195874",
        "file_size": 187761,
        "dimensions": {
          "width": 1080,
          "height": 1920
        }
      }
    },
    {
      "id": "gradient_089",
      "category": "gradient",
      "title": "Gradient Wallpaper 089",
      "tags": [
        "gradient"
      ],
      "urls": {
        "raw": "https://media.githubusercontent.com/media/ddh4r4m/wallpaper-collection/main/collection/wallpapers/gradient/089.jpg",
        "thumb": "https://media.githubusercontent.com/media/ddh4r4m/wallpaper-collection/main/collection/thumbnails/gradient/089.jpg"
      },
      "metadata": {
        "added_at": "2025-07-20T23:12:13.390680",
        "file_size": 276345,
        "dimensions": {
          "width": 1080,
          "height": 1920
        }
      }
    },
    {
      "id": "gradient_090",
      "category": "gradient",
      "title": "Gradient Wallpaper 090",
      "tags": [
        "gradient"
      ],
      "urls": {
        "raw": "https://media.githubusercontent.com/media/ddh4r4m/wallpaper-collection/main/collection/wallpapers/gradient/090.jpg",
        "thumb": "https://media.githubusercontent.com/media/ddh4r4m/wallpaper-collection/main/collection/thumbnails/gradient/090.jpg"
      },
      "metadata": {
        "added_at": "2025-07-20T23:12:13.496550",
        "file_size": 188578,
        "dimensions": {
          "width": 1080,
          "height": 1920
        }
      }
    },
    {
      "id": "gradient_091",
      "category": "gradient",
      "title": "Gradient Wallpaper 091",
      "tags": [
        "gradient"
      ],
      "urls": {
        "raw": "https://media.githubusercontent.com/media/ddh4r4m/wallpaper-collection/main/collection/wallpapers/gradient/091.jpg",
        "thumb": "https://media.githubusercontent.com/media/ddh4r4m/wallpaper-collection/main/collection/thumbnails/gradient/091.jpg"
      },
      "metadata": {
        "added_at": "2025-07-20T23:12:13.617409",
        "file_size": 391845,
        "dimensions": {
          "width": 1080,
          "height": 1920
        }
      }
    },
    {
      "id": "gradient_092",
      "category": "gradient",
      "title": "Gradient Wallpaper 092",
      "tags": [
        "gradient"
      ],
      "urls": {
        "raw": "https://media.githubusercontent.com/media/ddh4r4m/wallpaper-collection/main/collection/wallpapers/gradient/092.jpg",
        "thumb": "https://media.githubusercontent.com/media/ddh4r4m/wallpaper-collection/main/collection/thumbnails/gradient/092.jpg"
      },
      "metadata": {
        "added_at": "2025-07-20T23:12:13.742074",
        "file_size": 431735,
        "dimensions": {
          "width": 1080,
          "height": 1920
        }
      }
    },
    {
      "id": "gradient_094",
      "category": "gradient",
      "title": "Gradient Wallpaper 094",
      "tags": [
        "gradient"
      ],
      "urls": {
        "raw": "https://media.githubusercontent.com/media/ddh4r4m/wallpaper-collection/main/collection/wallpapers/gradient/094.jpg",
        "thumb": "https://media.githubusercontent.com/media/ddh4r4m/wallpaper-collection/main/collection/thumbnails/gradient/094.jpg"
      },
      "metadata": {
        "added_at": "2025-07-20T23:12:14.253525",
        "file_size": 231839,
        "dimensions": {
          "width": 1080,
          "height": 1920
        }
      }
    },
    {
      "id": "gradient_095",
      "category": "gradient",
      "title": "Gradient Wallpaper 095",
      "tags": [
        "gradient"
      ],
      "urls": {
        "raw": "https://media.githubusercontent.com/media/ddh4r4m/wallpaper-collection/main/collection/wallpapers/gradient/095.jpg",
        "thumb": "https://media.githubusercontent.com/media/ddh4r4m/wallpaper-collection/main/collection/thumbnails/gradient/095.jpg"
      },
      "metadata": {
        "added_at": "2025-07-20T23:12:14.434682",
        "file_size": 167254,
        "dimensions": {
          "width": 1080,
          "height": 1920
        }
      }
    },
    {
      "id": "gradient_096",
      "category": "gradient",
      "title": "Gradient Wallpaper 096",
      "tags": [
        "gradient"
      ],
      "urls": {
        "raw": "https://media.githubusercontent.com/media/ddh4r4m/wallpaper-collection/main/collection/wallpapers/gradient/096.jpg",
        "thumb": "https://media.githubusercontent.com/media/ddh4r4m/wallpaper-collection/main/collection/thumbnails/gradient/096.jpg"
      },
      "metadata": {
        "added_at": "2025-07-20T23:12:14.537589",
        "file_size": 171965,
        "dimensions": {
          "width": 1080,
          "height": 1920
        }
      }
    },
    {
      "id": "gradient_099",
      "category": "gradient",
      "title": "Gradient Wallpaper 099",
      "tags": [
        "gradient"
      ],
      "urls": {
        "raw": "https://media.githubusercontent.com/media/ddh4r4m/wallpaper-collection/main/collection/wallpapers/gradient/099.jpg",
        "thumb": "https://media.githubusercontent.com/media/ddh4r4m/wallpaper-collection/main/collection/thumbnails/gradient/099.jpg"
      },
      "metadata": {
        "added_at": "2025-07-20T23:12:14.902915",
        "file_size": 237550,
        "dimensions": {
          "width": 1080,
          "height": 1920
        }
      }
    },
    {
      "id": "gradient_100",
      "category": "gradient",
      "title": "Gradient Wallpaper 100",
      "tags": [
        "gradient"
      ],
      "urls": {
        "raw": "https://media.githubusercontent.com/media/ddh4r4m/wallpaper-collection/main/collection/wallpapers/gradient/100.jpg",
        "thumb": "https://media.githubusercontent.com/media/ddh4r4m/wallpaper-collection/main/collection/thumbnails/gradient/100.jpg"
      },
      "metadata": {
        "added_at": "2025-07-20T23:12:15.021929",
        "file_size": 412826,
        "dimensions": {
          "width": 1080,
          "height": 1920
        }
      }
    },
    {
      "id": "gradient_102",
      "category": "gradient",
      "title": "Gradient Wallpaper 102",
      "tags": [
        "gradient"
      ],
      "urls": {
        "raw": "https://media.githubusercontent.com/media/ddh4r4m/wallpaper-collection/main/collection/wallpapers/gradient/102.jpg",
        "thumb": "https://media.githubusercontent.com/media/ddh4r4m/wallpaper-collection/main/collection/thumbnails/gradient/102.jpg"
      },
      "metadata": {
        "added_at": "2025-07-20T23:12:15.424014",
        "file_size": 406926,
        "dimensions": {
          "width": 1080,
          "height": 1920
        }
      }
    },
    {
      "id": "gradient_103",
      "category": "gradient",
      "title": "Gradient Wallpaper 103",
      "tags": [
        "gradient"
      ],
      "urls": {
        "raw": "https://media.githubusercontent.com/media/ddh4r4m/wallpaper-collection/main/collection/wallpapers/gradient/103.jpg",
        "thumb": "https://media.githubusercontent.com/media/ddh4r4m/wallpaper-collection/main/collection/thumbnails/gradient/103.jpg"
      },
      "metadata": {
        "added_at": "2025-07-20T23:12:15.661959",
        "file_size": 272117,
        "dimensions": {
          "width": 1080,
          "height": 1920
        }
      }
    },
    {
      "id": "gradient_104",
      "category": "gradient",
      "title": "Gradient Wallpaper 104",
      "tags": [
        "gradient"
      ],
      "urls": {
        "raw": "https://media.githubusercontent.com/media/ddh4r4m/wallpaper-collection/main/collection/wallpapers/gradient/104.jpg",
        "thumb": "https://media.githubusercontent.com/media/ddh4r4m/wallpaper-collection/main/collection/thumbnails/gradient/104.jpg"
      },
      "metadata": {
        "added_at": "2025-07-20T23:12:15.761025",
        "file_size": 121549,
        "dimensions": {
          "width": 1080,
          "height": 1920
        }
      }
    },
    {
      "id": "gradient_105",
      "category": "gradient",
      "title": "Gradient Wallpaper 105",
      "tags": [
        "gradient"
      ],
      "urls": {
        "raw": "https://media.githubusercontent.com/media/ddh4r4m/wallpaper-collection/main/collection/wallpapers/gradient/105.jpg",
        "thumb": "https://media.githubusercontent.com/media/ddh4r4m/wallpaper-collection/main/collection/thumbnails/gradient/105.jpg"
      },
      "metadata": {
        "added_at": "2025-07-20T23:12:15.884078",
        "file_size": 384680,
        "dimensions": {
          "width": 1080,
          "height": 1920
        }
      }
    }
  ]
}