{
  "meta": {
    "version": "1.0",
    "generated_at": "2025-07-17T21:14:17.488868",
    "page": 106,
    "per_page": 15,
    "total_pages": 117,
    "total_count": 1751,
    "count_on_page": 15,
    "categories": 17,
    "has_next": true,
    "has_prev": true,
    "next_page_url": "/api/v1/all/pages/107.json",
    "prev_page_url": "/api/v1/all/pages/105.json"
  },
  "data": [
    {
      "id": "seasonal_036",
      "category": "seasonal",
      "title": "Seasonal Wallpaper 036",
      "tags": [
        "seasonal",
        "wallpaper",
        "hd",
        "mobile"
      ],
      "urls": {
        "raw": "https://media.githubusercontent.com/media/ddh4r4m/wallpaper-collection/main/collection/wallpapers/seasonal/036.jpg",
        "thumb": "https://media.githubusercontent.com/media/ddh4r4m/wallpaper-collection/main/collection/thumbnails/seasonal/036.jpg"
      },
      "metadata": {
        "dimensions": {
          "width": 1080,
          "height": 1920
        },
        "file_size": 501125,
        "format": "JPEG",
        "added_at": "2025-07-17T00:04:40.879638",
        "hash": "c8baafe08dff4acc46b350cff60cd644",
        "source": "migrated"
      }
    },
    {
      "id": "seasonal_037",
      "category": "seasonal",
      "title": "Seasonal Wallpaper 037",
      "tags": [
        "seasonal",
        "wallpaper",
        "hd",
        "mobile"
      ],
      "urls": {
        "raw": "https://media.githubusercontent.com/media/ddh4r4m/wallpaper-collection/main/collection/wallpapers/seasonal/037.jpg",
        "thumb": "https://media.githubusercontent.com/media/ddh4r4m/wallpaper-collection/main/collection/thumbnails/seasonal/037.jpg"
      },
      "metadata": {
        "dimensions": {
          "width": 1080,
          "height": 1920
        },
        "file_size": 394188,
        "format": "JPEG",
        "added_at": "2025-07-17T00:04:40.941998",
        "hash": "970996c7bcc444eb93a26b084d5daa00",
        "source": "migrated"
      }
    },
    {
      "id": "seasonal_038",
      "category": "seasonal",
      "title": "Seasonal Wallpaper 038",
      "tags": [
        "seasonal",
        "wallpaper",
        "hd",
        "mobile"
      ],
      "urls": {
        "raw": "https://media.githubusercontent.com/media/ddh4r4m/wallpaper-collection/main/collection/wallpapers/seasonal/038.jpg",
        "thumb": "https://media.githubusercontent.com/media/ddh4r4m/wallpaper-collection/main/collection/thumbnails/seasonal/038.jpg"
      },
      "metadata": {
        "dimensions": {
          "width": 1080,
          "height": 1920
        },
        "file_size": 263283,
        "format": "JPEG",
        "added_at": "2025-07-17T00:04:40.998324",
        "hash": "7c51cc36449c061ba56707130e5a48c4",
        "source": "migrated"
      }
    },
    {
      "id": "seasonal_039",
      "category": "seasonal",
      "title": "Seasonal Wallpaper 039",
      "tags": [
        "seasonal",
        "wallpaper",
        "hd",
        "mobile"
      ],
      "urls": {
        "raw": "https://media.githubusercontent.com/media/ddh4r4m/wallpaper-collection/main/collection/wallpapers/seasonal/039.jpg",
        "thumb": "https://media.githubusercontent.com/media/ddh4r4m/wallpaper-collection/main/collection/thumbnails/seasonal/039.jpg"
      },
      "metadata": {
        "dimensions": {
          "width": 1080,
          "height": 1920
        },
        "file_size": 424801,
        "format": "JPEG",
        "added_at": "2025-07-17T00:04:41.062381",
        "hash": "91020b81b0e8e660f002b463bf2e743d",
        "source": "migrated"
      }
    },
    {
      "id": "seasonal_040",
      "category": "seasonal",
      "title": "Seasonal Wallpaper 040",
      "tags": [
        "seasonal",
        "wallpaper",
        "hd",
        "mobile"
      ],
      "urls": {
        "raw": "https://media.githubusercontent.com/media/ddh4r4m/wallpaper-collection/main/collection/wallpapers/seasonal/040.jpg",
        "thumb": "https://media.githubusercontent.com/media/ddh4r4m/wallpaper-collection/main/collection/thumbnails/seasonal/040.jpg"
      },
      "metadata": {
        "dimensions": {
          "width": 1080,
          "height": 1920
        },
        "file_size": 289987,
        "format": "JPEG",
        "added_at": "2025-07-17T00:04:41.120150",
        "hash": "5b0ed9d49cc1740058420d0b4c83c0cd",
        "source": "migrated"
      }
    },
    {
      "id": "seasonal_041",
      "category": "seasonal",
      "title": "Seasonal Wallpaper 041",
      "tags": [
        "seasonal",
        "wallpaper",
        "hd",
        "mobile"
      ],
      "urls": {
        "raw": "https://media.githubusercontent.com/media/ddh4r4m/wallpaper-collection/main/collection/wallpapers/seasonal/041.jpg",
        "thumb": "https://media.githubusercontent.com/media/ddh4r4m/wallpaper-collection/main/collection/thumbnails/seasonal/041.jpg"
      },
      "metadata": {
        "dimensions": {
          "width": 1080,
          "height": 1920
        },
        "file_size": 450983,
        "format": "JPEG",
        "added_at": "2025-07-17T00:04:41.183178",
        "hash": "a999d73aca32992c8a18ec8cc67b8184",
        "source": "migrated"
      }
    },
    {
      "id": "seasonal_042",
      "category": "seasonal",
      "title": "Seasonal Wallpaper 042",
      "tags": [
        "seasonal",
        "wallpaper",
        "hd",
        "mobile"
      ],
      "urls": {
        "raw": "https://media.githubusercontent.com/media/ddh4r4m/wallpaper-collection/main/collection/wallpapers/seasonal/042.jpg",
        "thumb": "https://media.githubusercontent.com/media/ddh4r4m/wallpaper-collection/main/collection/thumbnails/seasonal/042.jpg"
      },
      "metadata": {
        "dimensions": {
          "width": 1080,
          "height": 1920
        },
        "file_size": 358415,
        "format": "JPEG",
        "added_at": "2025-07-17T00:04:41.242965",
        "hash": "bc07f5c9cd0f3780a2646201343f8cf6",
        "source": "migrated"
      }
    },
    {
      "id": "seasonal_043",
      "category": "seasonal",
      "title": "Seasonal Wallpaper 043",
      "tags": [
        "seasonal",
        "wallpaper",
        "hd",
        "mobile"
      ],
      "urls": {
        "raw": "https://media.githubusercontent.com/media/ddh4r4m/wallpaper-collection/main/collection/wallpapers/seasonal/043.jpg",
        "thumb": "https://media.githubusercontent.com/media/ddh4r4m/wallpaper-collection/main/collection/thumbnails/seasonal/043.jpg"
      },
      "metadata": {
        "dimensions": {
          "width": 1080,
          "height": 1920
        },
        "file_size": 264440,
        "format": "JPEG",
        "added_at": "2025-07-17T00:04:41.297827",
        "hash": "5c028c2fb86b265db11270bad3d5fa6e",
        "source": "migrated"
      }
    },
    {
      "id": "seasonal_044",
      "category": "seasonal",
      "title": "Seasonal Wallpaper 044",
      "tags": [
        "seasonal",
        "wallpaper",
        "hd",
        "mobile"
      ],
      "urls": {
        "raw": "https://media.githubusercontent.com/media/ddh4r4m/wallpaper-collection/main/collection/wallpapers/seasonal/044.jpg",
        "thumb": "https://media.githubusercontent.com/media/ddh4r4m/wallpaper-collection/main/collection/thumbnails/seasonal/044.jpg"
      },
      "metadata": {
        "dimensions": {
          "width": 1080,
          "height": 1920
        },
        "file_size": 462850,
        "format": "JPEG",
        "added_at": "2025-07-17T00:04:41.362195",
        "hash": "6d08f5520559b56689c00e8fffa106fe",
        "source": "migrated"
      }
    },
    {
      "id": "seasonal_045",
      "category": "seasonal",
      "title": "Seasonal Wallpaper 045",
      "tags": [
        "seasonal",
        "wallpaper",
        "hd",
        "mobile"
      ],
      "urls": {
        "raw": "https://media.githubusercontent.com/media/ddh4r4m/wallpaper-collection/main/collection/wallpapers/seasonal/045.jpg",
        "thumb": "https://media.githubusercontent.com/media/ddh4r4m/wallpaper-collection/main/collection/thumbnails/seasonal/045.jpg"
      },
      "metadata": {
        "dimensions": {
          "width": 1080,
          "height": 1920
        },
        "file_size": 203283,
        "format": "JPEG",
        "added_at": "2025-07-17T00:04:41.413463",
        "hash": "bd86153605f9a5ff222434eefdd3a7c9",
        "source": "migrated"
      }
    },
    {
      "id": "seasonal_046",
      "category": "seasonal",
      "title": "Seasonal Wallpaper 046",
      "tags": [
        "seasonal",
        "wallpaper",
        "hd",
        "mobile"
      ],
      "urls": {
        "raw": "https://media.githubusercontent.com/media/ddh4r4m/wallpaper-collection/main/collection/wallpapers/seasonal/046.jpg",
        "thumb": "https://media.githubusercontent.com/media/ddh4r4m/wallpaper-collection/main/collection/thumbnails/seasonal/046.jpg"
      },
      "metadata": {
        "dimensions": {
          "width": 1080,
          "height": 1920
        },
        "file_size": 578754,
        "format": "JPEG",
        "added_at": "2025-07-17T00:04:41.481812",
        "hash": "7c02ea158cce4e7211ff8e651bee839f",
        "source": "migrated"
      }
    },
    {
      "id": "seasonal_047",
      "category": "seasonal",
      "title": "Seasonal Wallpaper 047",
      "tags": [
        "seasonal",
        "wallpaper",
        "hd",
        "mobile"
      ],
      "urls": {
        "raw": "https://media.githubusercontent.com/media/ddh4r4m/wallpaper-collection/main/collection/wallpapers/seasonal/047.jpg",
        "thumb": "https://media.githubusercontent.com/media/ddh4r4m/wallpaper-collection/main/collection/thumbnails/seasonal/047.jpg"
      },
      "metadata": {
        "dimensions": {
          "width": 1080,
          "height": 1920
        },
        "file_size": 614677,
        "format": "JPEG",
        "added_at": "2025-07-17T00:04:41.552418",
        "hash": "73a8bff12755343ecd862176623c407c",
        "source": "migrated"
      }
    },
    {
      "id": "seasonal_048",
      "category": "seasonal",
      "title": "Seasonal Wallpaper 048",
      "tags": [
        "seasonal",
        "wallpaper",
        "hd",
        "mobile"
      ],
      "urls": {
        "raw": "https://media.githubusercontent.com/media/ddh4r4m/wallpaper-collection/main/collection/wallpapers/seasonal/048.jpg",
        "thumb": "https://media.githubusercontent.com/media/ddh4r4m/wallpaper-collection/main/collection/thumbnails/seasonal/048.jpg"
      },
      "metadata": {
        "dimensions": {
          "width": 1080,
          "height": 1920
        },
        "file_size": 309480,
        "format": "JPEG",
        "added_at": "2025-07-17T00:04:41.607735",
        "hash": "08530deaa94ab24985bb6c027366eb8d",
        "source": "migrated"
      }
    },
    {
      "id": "seasonal_049",
      "category": "seasonal",
      "title": "Seasonal Wallpaper 049",
      "tags": [
        "seasonal",
        "wallpaper",
        "hd",
        "mobile"
      ],
      "urls": {
        "raw": "https://media.githubusercontent.com/media/ddh4r4m/wallpaper-collection/main/collection/wallpapers/seasonal/049.jpg",
        "thumb": "https://media.githubusercontent.com/media/ddh4r4m/wallpaper-collection/main/collection/thumbnails/seasonal/049.jpg"
      },
      "metadata": {
        "dimensions": {
          "width": 1080,
          "height": 1920
        },
        "file_size": 184289,
        "format": "JPEG",
        "added_at": "2025-07-17T00:04:41.657609",
        "hash": "93d26ac5beabb908486d941e6c0f9f1f",
        "source": "migrated"
      }
    },
    {
      "id": "seasonal_050",
      "category": "seasonal",
      "title": "Seasonal Wallpaper 050",
      "tags": [
        "seasonal",
        "wallpaper",
        "hd",
        "mobile"
      ],
      "urls": {
        "raw": "https://media.githubusercontent.com/media/ddh4r4m/wallpaper-collection/main/collection/wallpapers/seasonal/050.jpg",
        "thumb": "https://media.githubusercontent.com/media/ddh4r4m/wallpaper-collection/main/collection/thumbnails/seasonal/050.jpg"
      },
      "metadata": {
        "dimensions": {
          "width": 1080,
          "height": 1920
        },
        "file_size": 366083,
        "format": "JPEG",
        "added_at": "2025-07-17T00:04:41.717451",
        "hash": "262758c5fa60347cfb7f1eafccb4e37c",
        "source": "migrated"
      }
    }
  ]
}