{
  "meta": {
    "version": "1.0",
    "generated_at": "2025-07-28T23:12:02.393375",
    "page": 108,
    "per_page": 15,
    "total_pages": 183,
    "total_count": 2743,
    "count_on_page": 15,
    "categories": 22,
    "has_next": true,
    "has_prev": true,
    "next_page_url": "/api/v1/all/pages/109.json",
    "prev_page_url": "/api/v1/all/pages/107.json"
  },
  "data": [
    {
      "id": "gradient_136",
      "category": "gradient",
      "title": "Gradient Wallpaper 136",
      "tags": [
        "gradient"
      ],
      "urls": {
        "raw": "https://media.githubusercontent.com/media/ddh4r4m/wallpaper-collection/main/collection/wallpapers/gradient/136.jpg",
        "thumb": "https://media.githubusercontent.com/media/ddh4r4m/wallpaper-collection/main/collection/thumbnails/gradient/136.jpg"
      },
      "metadata": {
        "added_at": "2025-07-20T23:12:20.919179",
        "file_size": 40261,
        "dimensions": {
          "width": 1080,
          "height": 1920
        }
      }
    },
    {
      "id": "gradient_137",
      "category": "gradient",
      "title": "Gradient Wallpaper 137",
      "tags": [
        "gradient"
      ],
      "urls": {
        "raw": "https://media.githubusercontent.com/media/ddh4r4m/wallpaper-collection/main/collection/wallpapers/gradient/137.jpg",
        "thumb": "https://media.githubusercontent.com/media/ddh4r4m/wallpaper-collection/main/collection/thumbnails/gradient/137.jpg"
      },
      "metadata": {
        "added_at": "2025-07-20T23:12:21.057852",
        "file_size": 18874,
        "dimensions": {
          "width": 1080,
          "height": 1920
        }
      }
    },
    {
      "id": "gradient_138",
      "category": "gradient",
      "title": "Gradient Wallpaper 138",
      "tags": [
        "gradient"
      ],
      "urls": {
        "raw": "https://media.githubusercontent.com/media/ddh4r4m/wallpaper-collection/main/collection/wallpapers/gradient/138.jpg",
        "thumb": "https://media.githubusercontent.com/media/ddh4r4m/wallpaper-collection/main/collection/thumbnails/gradient/138.jpg"
      },
      "metadata": {
        "added_at": "2025-07-20T23:12:21.384579",
        "file_size": 46721,
        "dimensions": {
          "width": 1080,
          "height": 1920
        }
      }
    },
    {
      "id": "gradient_139",
      "category": "gradient",
      "title": "Gradient Wallpaper 139",
      "tags": [
        "gradient"
      ],
      "urls": {
        "raw": "https://media.githubusercontent.com/media/ddh4r4m/wallpaper-collection/main/collection/wallpapers/gradient/139.jpg",
        "thumb": "https://media.githubusercontent.com/media/ddh4r4m/wallpaper-collection/main/collection/thumbnails/gradient/139.jpg"
      },
      "metadata": {
        "added_at": "2025-07-20T23:12:21.534237",
        "file_size": 288671,
        "dimensions": {
          "width": 1080,
          "height": 1920
        }
      }
    },
    {
      "id": "gradient_140",
      "category": "gradient",
      "title": "Gradient Wallpaper 140",
      "tags": [
        "gradient"
      ],
      "urls": {
        "raw": "https://media.githubusercontent.com/media/ddh4r4m/wallpaper-collection/main/collection/wallpapers/gradient/140.jpg",
        "thumb": "https://media.githubusercontent.com/media/ddh4r4m/wallpaper-collection/main/collection/thumbnails/gradient/140.jpg"
      },
      "metadata": {
        "added_at": "2025-07-20T23:12:21.645474",
        "file_size": 259167,
        "dimensions": {
          "width": 1080,
          "height": 1920
        }
      }
    },
    {
      "id": "gradient_141",
      "category": "gradient",
      "title": "Gradient Wallpaper 141",
      "tags": [
        "gradient"
      ],
      "urls": {
        "raw": "https://media.githubusercontent.com/media/ddh4r4m/wallpaper-collection/main/collection/wallpapers/gradient/141.jpg",
        "thumb": "https://media.githubusercontent.com/media/ddh4r4m/wallpaper-collection/main/collection/thumbnails/gradient/141.jpg"
      },
      "metadata": {
        "added_at": "2025-07-20T23:12:21.834867",
        "file_size": 772145,
        "dimensions": {
          "width": 1080,
          "height": 1920
        }
      }
    },
    {
      "id": "gradient_142",
      "category": "gradient",
      "title": "Gradient Wallpaper 142",
      "tags": [
        "gradient"
      ],
      "urls": {
        "raw": "https://media.githubusercontent.com/media/ddh4r4m/wallpaper-collection/main/collection/wallpapers/gradient/142.jpg",
        "thumb": "https://media.githubusercontent.com/media/ddh4r4m/wallpaper-collection/main/collection/thumbnails/gradient/142.jpg"
      },
      "metadata": {
        "added_at": "2025-07-20T23:12:21.929388",
        "file_size": 93547,
        "dimensions": {
          "width": 1080,
          "height": 1920
        }
      }
    },
    {
      "id": "gradient_143",
      "category": "gradient",
      "title": "Gradient Wallpaper 143",
      "tags": [
        "gradient"
      ],
      "urls": {
        "raw": "https://media.githubusercontent.com/media/ddh4r4m/wallpaper-collection/main/collection/wallpapers/gradient/143.jpg",
        "thumb": "https://media.githubusercontent.com/media/ddh4r4m/wallpaper-collection/main/collection/thumbnails/gradient/143.jpg"
      },
      "metadata": {
        "added_at": "2025-07-20T23:12:22.015091",
        "file_size": 28756,
        "dimensions": {
          "width": 1080,
          "height": 1920
        }
      }
    },
    {
      "id": "gradient_144",
      "category": "gradient",
      "title": "Gradient Wallpaper 144",
      "tags": [
        "gradient"
      ],
      "urls": {
        "raw": "https://media.githubusercontent.com/media/ddh4r4m/wallpaper-collection/main/collection/wallpapers/gradient/144.jpg",
        "thumb": "https://media.githubusercontent.com/media/ddh4r4m/wallpaper-collection/main/collection/thumbnails/gradient/144.jpg"
      },
      "metadata": {
        "added_at": "2025-07-20T23:12:22.338352",
        "file_size": 171842,
        "dimensions": {
          "width": 1080,
          "height": 1920
        }
      }
    },
    {
      "id": "gradient_145",
      "category": "gradient",
      "title": "Gradient Wallpaper 145",
      "tags": [
        "gradient"
      ],
      "urls": {
        "raw": "https://media.githubusercontent.com/media/ddh4r4m/wallpaper-collection/main/collection/wallpapers/gradient/145.jpg",
        "thumb": "https://media.githubusercontent.com/media/ddh4r4m/wallpaper-collection/main/collection/thumbnails/gradient/145.jpg"
      },
      "metadata": {
        "added_at": "2025-07-20T23:12:22.495144",
        "file_size": 294728,
        "dimensions": {
          "width": 1080,
          "height": 1920
        }
      }
    },
    {
      "id": "gradient_146",
      "category": "gradient",
      "title": "Gradient Wallpaper 146",
      "tags": [
        "gradient"
      ],
      "urls": {
        "raw": "https://media.githubusercontent.com/media/ddh4r4m/wallpaper-collection/main/collection/wallpapers/gradient/146.jpg",
        "thumb": "https://media.githubusercontent.com/media/ddh4r4m/wallpaper-collection/main/collection/thumbnails/gradient/146.jpg"
      },
      "metadata": {
        "added_at": "2025-07-20T23:12:22.657923",
        "file_size": 293240,
        "dimensions": {
          "width": 1080,
          "height": 1920
        }
      }
    },
    {
      "id": "gradient_147",
      "category": "gradient",
      "title": "Gradient Wallpaper 147",
      "tags": [
        "gradient"
      ],
      "urls": {
        "raw": "https://media.githubusercontent.com/media/ddh4r4m/wallpaper-collection/main/collection/wallpapers/gradient/147.jpg",
        "thumb": "https://media.githubusercontent.com/media/ddh4r4m/wallpaper-collection/main/collection/thumbnails/gradient/147.jpg"
      },
      "metadata": {
        "added_at": "2025-07-20T23:12:22.780923",
        "file_size": 40848,
        "dimensions": {
          "width": 1080,
          "height": 1920
        }
      }
    },
    {
      "id": "gradient_148",
      "category": "gradient",
      "title": "Gradient Wallpaper 148",
      "tags": [
        "gradient"
      ],
      "urls": {
        "raw": "https://media.githubusercontent.com/media/ddh4r4m/wallpaper-collection/main/collection/wallpapers/gradient/148.jpg",
        "thumb": "https://media.githubusercontent.com/media/ddh4r4m/wallpaper-collection/main/collection/thumbnails/gradient/148.jpg"
      },
      "metadata": {
        "added_at": "2025-07-20T23:12:22.882577",
        "file_size": 173605,
        "dimensions": {
          "width": 1080,
          "height": 1920
        }
      }
    },
    {
      "id": "gradient_149",
      "category": "gradient",
      "title": "Gradient Wallpaper 149",
      "tags": [
        "gradient"
      ],
      "urls": {
        "raw": "https://media.githubusercontent.com/media/ddh4r4m/wallpaper-collection/main/collection/wallpapers/gradient/149.jpg",
        "thumb": "https://media.githubusercontent.com/media/ddh4r4m/wallpaper-collection/main/collection/thumbnails/gradient/149.jpg"
      },
      "metadata": {
        "added_at": "2025-07-20T23:12:23.040759",
        "file_size": 444981,
        "dimensions": {
          "width": 1080,
          "height": 1920
        }
      }
    },
    {
      "id": "minimal_001",
      "category": "minimal",
      "title": "Minimal Wallpaper 001",
      "tags": [
        "minimal",
        "wallpaper",
        "hd",
        "mobile"
      ],
      "urls": {
        "raw": "https://media.githubusercontent.com/media/ddh4r4m/wallpaper-collection/main/collection/wallpapers/minimal/001.jpg",
        "thumb": "https://media.githubusercontent.com/media/ddh4r4m/wallpaper-collection/main/collection/thumbnails/minimal/001.jpg"
      },
      "metadata": {
        "dimensions": {
          "width": 1080,
          "height": 1920
        },
        "file_size": 14539,
        "format": "JPEG",
        "added_at": "2025-07-17T00:04:00.384859",
        "hash": "9b6f9901397b459c29ea6f30f3ead674",
        "source": "migrated"
      }
    }
  ]
}