{
  "meta": {
    "version": "1.0",
    "generated_at": "2025-07-17T00:06:19.072196",
    "page": 109,
    "per_page": 15,
    "total_pages": 117,
    "total_count": 1751,
    "count_on_page": 15,
    "categories": 17,
    "has_next": true,
    "has_prev": true,
    "next_page_url": "/api/v1/all/pages/110.json",
    "prev_page_url": "/api/v1/all/pages/108.json"
  },
  "data": [
    {
      "id": "seasonal_081",
      "category": "seasonal",
      "title": "Seasonal Wallpaper 081",
      "tags": [
        "seasonal",
        "wallpaper",
        "hd",
        "mobile"
      ],
      "urls": {
        "raw": "https://raw.githubusercontent.com/ddh4r4m/wallpaper-collection/main/collection/wallpapers/seasonal/081.jpg",
        "thumb": "https://raw.githubusercontent.com/ddh4r4m/wallpaper-collection/main/collection/thumbnails/seasonal/081.jpg"
      },
      "metadata": {
        "dimensions": {
          "width": 1080,
          "height": 1920
        },
        "file_size": 132067,
        "format": "JPEG",
        "added_at": "2025-07-17T00:04:43.651203",
        "hash": "a373a9aa3b4a22afa31dbc03b00c9acc",
        "source": "migrated"
      }
    },
    {
      "id": "seasonal_082",
      "category": "seasonal",
      "title": "Seasonal Wallpaper 082",
      "tags": [
        "seasonal",
        "wallpaper",
        "hd",
        "mobile"
      ],
      "urls": {
        "raw": "https://raw.githubusercontent.com/ddh4r4m/wallpaper-collection/main/collection/wallpapers/seasonal/082.jpg",
        "thumb": "https://raw.githubusercontent.com/ddh4r4m/wallpaper-collection/main/collection/thumbnails/seasonal/082.jpg"
      },
      "metadata": {
        "dimensions": {
          "width": 1080,
          "height": 1920
        },
        "file_size": 251013,
        "format": "JPEG",
        "added_at": "2025-07-17T00:04:43.707796",
        "hash": "ccc47c44caf0589b2ff37feeff66f973",
        "source": "migrated"
      }
    },
    {
      "id": "seasonal_083",
      "category": "seasonal",
      "title": "Seasonal Wallpaper 083",
      "tags": [
        "seasonal",
        "wallpaper",
        "hd",
        "mobile"
      ],
      "urls": {
        "raw": "https://raw.githubusercontent.com/ddh4r4m/wallpaper-collection/main/collection/wallpapers/seasonal/083.jpg",
        "thumb": "https://raw.githubusercontent.com/ddh4r4m/wallpaper-collection/main/collection/thumbnails/seasonal/083.jpg"
      },
      "metadata": {
        "dimensions": {
          "width": 1080,
          "height": 1920
        },
        "file_size": 584911,
        "format": "JPEG",
        "added_at": "2025-07-17T00:04:43.778535",
        "hash": "2e883ed615b191bf30dad3bc6191112f",
        "source": "migrated"
      }
    },
    {
      "id": "seasonal_084",
      "category": "seasonal",
      "title": "Seasonal Wallpaper 084",
      "tags": [
        "seasonal",
        "wallpaper",
        "hd",
        "mobile"
      ],
      "urls": {
        "raw": "https://raw.githubusercontent.com/ddh4r4m/wallpaper-collection/main/collection/wallpapers/seasonal/084.jpg",
        "thumb": "https://raw.githubusercontent.com/ddh4r4m/wallpaper-collection/main/collection/thumbnails/seasonal/084.jpg"
      },
      "metadata": {
        "dimensions": {
          "width": 1080,
          "height": 1920
        },
        "file_size": 408650,
        "format": "JPEG",
        "added_at": "2025-07-17T00:04:43.840480",
        "hash": "f83ef482032e979ce0d20078c0c5131b",
        "source": "migrated"
      }
    },
    {
      "id": "seasonal_085",
      "category": "seasonal",
      "title": "Seasonal Wallpaper 085",
      "tags": [
        "seasonal",
        "wallpaper",
        "hd",
        "mobile"
      ],
      "urls": {
        "raw": "https://raw.githubusercontent.com/ddh4r4m/wallpaper-collection/main/collection/wallpapers/seasonal/085.jpg",
        "thumb": "https://raw.githubusercontent.com/ddh4r4m/wallpaper-collection/main/collection/thumbnails/seasonal/085.jpg"
      },
      "metadata": {
        "dimensions": {
          "width": 1080,
          "height": 1920
        },
        "file_size": 269070,
        "format": "JPEG",
        "added_at": "2025-07-17T00:04:43.895779",
        "hash": "d1102231c55f3a69e9321d07f8d491a9",
        "source": "migrated"
      }
    },
    {
      "id": "space_001",
      "category": "space",
      "title": "Space Wallpaper 001",
      "tags": [
        "space",
        "wallpaper",
        "hd",
        "mobile"
      ],
      "urls": {
        "raw": "https://raw.githubusercontent.com/ddh4r4m/wallpaper-collection/main/collection/wallpapers/space/001.jpg",
        "thumb": "https://raw.githubusercontent.com/ddh4r4m/wallpaper-collection/main/collection/thumbnails/space/001.jpg"
      },
      "metadata": {
        "dimensions": {
          "width": 1080,
          "height": 1920
        },
        "file_size": 618663,
        "format": "JPEG",
        "added_at": "2025-07-17T00:04:43.972500",
        "hash": "30401a78a49c8264f402d1e105d5f699",
        "source": "migrated"
      }
    },
    {
      "id": "space_002",
      "category": "space",
      "title": "Space Wallpaper 002",
      "tags": [
        "space",
        "wallpaper",
        "hd",
        "mobile"
      ],
      "urls": {
        "raw": "https://raw.githubusercontent.com/ddh4r4m/wallpaper-collection/main/collection/wallpapers/space/002.jpg",
        "thumb": "https://raw.githubusercontent.com/ddh4r4m/wallpaper-collection/main/collection/thumbnails/space/002.jpg"
      },
      "metadata": {
        "dimensions": {
          "width": 1080,
          "height": 1920
        },
        "file_size": 465502,
        "format": "JPEG",
        "added_at": "2025-07-17T00:04:44.041712",
        "hash": "a5e6fc27e476a8054982ceb891ea267c",
        "source": "migrated"
      }
    },
    {
      "id": "space_003",
      "category": "space",
      "title": "Space Wallpaper 003",
      "tags": [
        "space",
        "wallpaper",
        "hd",
        "mobile"
      ],
      "urls": {
        "raw": "https://raw.githubusercontent.com/ddh4r4m/wallpaper-collection/main/collection/wallpapers/space/003.jpg",
        "thumb": "https://raw.githubusercontent.com/ddh4r4m/wallpaper-collection/main/collection/thumbnails/space/003.jpg"
      },
      "metadata": {
        "dimensions": {
          "width": 1080,
          "height": 1920
        },
        "file_size": 675867,
        "format": "JPEG",
        "added_at": "2025-07-17T00:04:44.117083",
        "hash": "5fca8784192831f18d781421ca5a85e2",
        "source": "migrated"
      }
    },
    {
      "id": "space_004",
      "category": "space",
      "title": "Space Wallpaper 004",
      "tags": [
        "space",
        "wallpaper",
        "hd",
        "mobile"
      ],
      "urls": {
        "raw": "https://raw.githubusercontent.com/ddh4r4m/wallpaper-collection/main/collection/wallpapers/space/004.jpg",
        "thumb": "https://raw.githubusercontent.com/ddh4r4m/wallpaper-collection/main/collection/thumbnails/space/004.jpg"
      },
      "metadata": {
        "dimensions": {
          "width": 1080,
          "height": 1920
        },
        "file_size": 323514,
        "format": "JPEG",
        "added_at": "2025-07-17T00:04:44.173767",
        "hash": "becb7bd1b3289f28d3f10016655ccdb1",
        "source": "migrated"
      }
    },
    {
      "id": "space_005",
      "category": "space",
      "title": "Space Wallpaper 005",
      "tags": [
        "space",
        "wallpaper",
        "hd",
        "mobile"
      ],
      "urls": {
        "raw": "https://raw.githubusercontent.com/ddh4r4m/wallpaper-collection/main/collection/wallpapers/space/005.jpg",
        "thumb": "https://raw.githubusercontent.com/ddh4r4m/wallpaper-collection/main/collection/thumbnails/space/005.jpg"
      },
      "metadata": {
        "dimensions": {
          "width": 1080,
          "height": 1920
        },
        "file_size": 686584,
        "format": "JPEG",
        "added_at": "2025-07-17T00:04:44.253228",
        "hash": "c0b5a1e4a3e724f72be8d45d4e3035e2",
        "source": "migrated"
      }
    },
    {
      "id": "space_006",
      "category": "space",
      "title": "Space Wallpaper 006",
      "tags": [
        "space",
        "wallpaper",
        "hd",
        "mobile"
      ],
      "urls": {
        "raw": "https://raw.githubusercontent.com/ddh4r4m/wallpaper-collection/main/collection/wallpapers/space/006.jpg",
        "thumb": "https://raw.githubusercontent.com/ddh4r4m/wallpaper-collection/main/collection/thumbnails/space/006.jpg"
      },
      "metadata": {
        "dimensions": {
          "width": 1080,
          "height": 1920
        },
        "file_size": 64815,
        "format": "JPEG",
        "added_at": "2025-07-17T00:04:44.299196",
        "hash": "e24a550530e2f5b50d6aec96399c491a",
        "source": "migrated"
      }
    },
    {
      "id": "space_007",
      "category": "space",
      "title": "Space Wallpaper 007",
      "tags": [
        "space",
        "wallpaper",
        "hd",
        "mobile"
      ],
      "urls": {
        "raw": "https://raw.githubusercontent.com/ddh4r4m/wallpaper-collection/main/collection/wallpapers/space/007.jpg",
        "thumb": "https://raw.githubusercontent.com/ddh4r4m/wallpaper-collection/main/collection/thumbnails/space/007.jpg"
      },
      "metadata": {
        "dimensions": {
          "width": 1080,
          "height": 1920
        },
        "file_size": 109965,
        "format": "JPEG",
        "added_at": "2025-07-17T00:04:44.346736",
        "hash": "32f2495932fd65f571664c8ab45f1369",
        "source": "migrated"
      }
    },
    {
      "id": "space_008",
      "category": "space",
      "title": "Space Wallpaper 008",
      "tags": [
        "space",
        "wallpaper",
        "hd",
        "mobile"
      ],
      "urls": {
        "raw": "https://raw.githubusercontent.com/ddh4r4m/wallpaper-collection/main/collection/wallpapers/space/008.jpg",
        "thumb": "https://raw.githubusercontent.com/ddh4r4m/wallpaper-collection/main/collection/thumbnails/space/008.jpg"
      },
      "metadata": {
        "dimensions": {
          "width": 1080,
          "height": 1920
        },
        "file_size": 373081,
        "format": "JPEG",
        "added_at": "2025-07-17T00:04:44.409368",
        "hash": "4f2b6cf779552fbbd620fc44cd519184",
        "source": "migrated"
      }
    },
    {
      "id": "space_009",
      "category": "space",
      "title": "Space Wallpaper 009",
      "tags": [
        "space",
        "wallpaper",
        "hd",
        "mobile"
      ],
      "urls": {
        "raw": "https://raw.githubusercontent.com/ddh4r4m/wallpaper-collection/main/collection/wallpapers/space/009.jpg",
        "thumb": "https://raw.githubusercontent.com/ddh4r4m/wallpaper-collection/main/collection/thumbnails/space/009.jpg"
      },
      "metadata": {
        "dimensions": {
          "width": 1080,
          "height": 1920
        },
        "file_size": 163915,
        "format": "JPEG",
        "added_at": "2025-07-17T00:04:44.458347",
        "hash": "4ce189c30381d63ff65e01b0b48bd624",
        "source": "migrated"
      }
    },
    {
      "id": "space_010",
      "category": "space",
      "title": "Space Wallpaper 010",
      "tags": [
        "space",
        "wallpaper",
        "hd",
        "mobile"
      ],
      "urls": {
        "raw": "https://raw.githubusercontent.com/ddh4r4m/wallpaper-collection/main/collection/wallpapers/space/010.jpg",
        "thumb": "https://raw.githubusercontent.com/ddh4r4m/wallpaper-collection/main/collection/thumbnails/space/010.jpg"
      },
      "metadata": {
        "dimensions": {
          "width": 1080,
          "height": 1920
        },
        "file_size": 75994,
        "format": "JPEG",
        "added_at": "2025-07-17T00:04:44.502288",
        "hash": "24227f7865022d6145155eab92dfb1ba",
        "source": "migrated"
      }
    }
  ]
}