{
  "meta": {
    "version": "1.0",
    "generated_at": "2025-07-28T21:27:34.814586",
    "page": 11,
    "per_page": 15,
    "total_pages": 177,
    "total_count": 2647,
    "count_on_page": 15,
    "categories": 21,
    "has_next": true,
    "has_prev": true,
    "next_page_url": "/api/v1/all/pages/12.json",
    "prev_page_url": "/api/v1/all/pages/10.json"
  },
  "data": [
    {
      "id": "4k_151",
      "category": "4k",
      "title": "4K Wallpaper 151",
      "tags": [
        "4k"
      ],
      "urls": {
        "raw": "https://media.githubusercontent.com/media/ddh4r4m/wallpaper-collection/main/collection/wallpapers/4k/151.jpg",
        "thumb": "https://media.githubusercontent.com/media/ddh4r4m/wallpaper-collection/main/collection/thumbnails/4k/151.jpg"
      },
      "metadata": {
        "added_at": "2025-07-17T00:41:05.433078",
        "file_size": 611160,
        "dimensions": {
          "width": 1080,
          "height": 1920
        }
      }
    },
    {
      "id": "4k_152",
      "category": "4k",
      "title": "4K Wallpaper 152",
      "tags": [
        "4k"
      ],
      "urls": {
        "raw": "https://media.githubusercontent.com/media/ddh4r4m/wallpaper-collection/main/collection/wallpapers/4k/152.jpg",
        "thumb": "https://media.githubusercontent.com/media/ddh4r4m/wallpaper-collection/main/collection/thumbnails/4k/152.jpg"
      },
      "metadata": {
        "added_at": "2025-07-17T00:41:05.433088",
        "file_size": 338031,
        "dimensions": {
          "width": 1080,
          "height": 1920
        }
      }
    },
    {
      "id": "4k_153",
      "category": "4k",
      "title": "4K Wallpaper 153",
      "tags": [
        "4k"
      ],
      "urls": {
        "raw": "https://media.githubusercontent.com/media/ddh4r4m/wallpaper-collection/main/collection/wallpapers/4k/153.jpg",
        "thumb": "https://media.githubusercontent.com/media/ddh4r4m/wallpaper-collection/main/collection/thumbnails/4k/153.jpg"
      },
      "metadata": {
        "added_at": "2025-07-17T00:41:05.433099",
        "file_size": 352452,
        "dimensions": {
          "width": 1080,
          "height": 1920
        }
      }
    },
    {
      "id": "4k_154",
      "category": "4k",
      "title": "4K Wallpaper 154",
      "tags": [
        "4k"
      ],
      "urls": {
        "raw": "https://media.githubusercontent.com/media/ddh4r4m/wallpaper-collection/main/collection/wallpapers/4k/154.jpg",
        "thumb": "https://media.githubusercontent.com/media/ddh4r4m/wallpaper-collection/main/collection/thumbnails/4k/154.jpg"
      },
      "metadata": {
        "added_at": "2025-07-17T00:41:05.433110",
        "file_size": 395787,
        "dimensions": {
          "width": 1080,
          "height": 1920
        }
      }
    },
    {
      "id": "4k_155",
      "category": "4k",
      "title": "4K Wallpaper 155",
      "tags": [
        "4k"
      ],
      "urls": {
        "raw": "https://media.githubusercontent.com/media/ddh4r4m/wallpaper-collection/main/collection/wallpapers/4k/155.jpg",
        "thumb": "https://media.githubusercontent.com/media/ddh4r4m/wallpaper-collection/main/collection/thumbnails/4k/155.jpg"
      },
      "metadata": {
        "added_at": "2025-07-17T00:41:05.433122",
        "file_size": 336377,
        "dimensions": {
          "width": 1080,
          "height": 1920
        }
      }
    },
    {
      "id": "4k_156",
      "filename": "156.jpg",
      "title": "4K Wallpaper 156",
      "photographer": "Unknown",
      "source": "unsplash",
      "source_id": "",
      "source_url": "",
      "tags": [],
      "color": "#000000",
      "created_at": "",
      "download_url": "https://raw.githubusercontent.com/username/wallpaper-collection/main/collection/wallpapers/4k/156.jpg",
      "thumbnail_url": "https://raw.githubusercontent.com/username/wallpaper-collection/main/collection/thumbnails/4k/156.jpg",
      "urls": {
        "raw": "https://media.githubusercontent.com/media/ddh4r4m/wallpaper-collection/main/collection/wallpapers/4k/156.jpg",
        "thumb": "https://media.githubusercontent.com/media/ddh4r4m/wallpaper-collection/main/collection/thumbnails/4k/156.jpg"
      },
      "category": "4k"
    },
    {
      "id": "4k_157",
      "filename": "157.jpg",
      "title": "4K Wallpaper 157",
      "photographer": "Unknown",
      "source": "unsplash",
      "source_id": "",
      "source_url": "",
      "tags": [],
      "color": "#000000",
      "created_at": "",
      "download_url": "https://raw.githubusercontent.com/username/wallpaper-collection/main/collection/wallpapers/4k/157.jpg",
      "thumbnail_url": "https://raw.githubusercontent.com/username/wallpaper-collection/main/collection/thumbnails/4k/157.jpg",
      "urls": {
        "raw": "https://media.githubusercontent.com/media/ddh4r4m/wallpaper-collection/main/collection/wallpapers/4k/157.jpg",
        "thumb": "https://media.githubusercontent.com/media/ddh4r4m/wallpaper-collection/main/collection/thumbnails/4k/157.jpg"
      },
      "category": "4k"
    },
    {
      "id": "4k_158",
      "filename": "158.jpg",
      "title": "4K Wallpaper 158",
      "photographer": "Unknown",
      "source": "unsplash",
      "source_id": "",
      "source_url": "",
      "tags": [],
      "color": "#000000",
      "created_at": "",
      "download_url": "https://raw.githubusercontent.com/username/wallpaper-collection/main/collection/wallpapers/4k/158.jpg",
      "thumbnail_url": "https://raw.githubusercontent.com/username/wallpaper-collection/main/collection/thumbnails/4k/158.jpg",
      "urls": {
        "raw": "https://media.githubusercontent.com/media/ddh4r4m/wallpaper-collection/main/collection/wallpapers/4k/158.jpg",
        "thumb": "https://media.githubusercontent.com/media/ddh4r4m/wallpaper-collection/main/collection/thumbnails/4k/158.jpg"
      },
      "category": "4k"
    },
    {
      "id": "4k_159",
      "filename": "159.jpg",
      "title": "4K Wallpaper 159",
      "photographer": "Unknown",
      "source": "unsplash",
      "source_id": "",
      "source_url": "",
      "tags": [],
      "color": "#000000",
      "created_at": "",
      "download_url": "https://raw.githubusercontent.com/username/wallpaper-collection/main/collection/wallpapers/4k/159.jpg",
      "thumbnail_url": "https://raw.githubusercontent.com/username/wallpaper-collection/main/collection/thumbnails/4k/159.jpg",
      "urls": {
        "raw": "https://media.githubusercontent.com/media/ddh4r4m/wallpaper-collection/main/collection/wallpapers/4k/159.jpg",
        "thumb": "https://media.githubusercontent.com/media/ddh4r4m/wallpaper-collection/main/collection/thumbnails/4k/159.jpg"
      },
      "category": "4k"
    },
    {
      "id": "4k_160",
      "filename": "160.jpg",
      "title": "4K Wallpaper 160",
      "photographer": "Unknown",
      "source": "unsplash",
      "source_id": "",
      "source_url": "",
      "tags": [],
      "color": "#000000",
      "created_at": "",
      "download_url": "https://raw.githubusercontent.com/username/wallpaper-collection/main/collection/wallpapers/4k/160.jpg",
      "thumbnail_url": "https://raw.githubusercontent.com/username/wallpaper-collection/main/collection/thumbnails/4k/160.jpg",
      "urls": {
        "raw": "https://media.githubusercontent.com/media/ddh4r4m/wallpaper-collection/main/collection/wallpapers/4k/160.jpg",
        "thumb": "https://media.githubusercontent.com/media/ddh4r4m/wallpaper-collection/main/collection/thumbnails/4k/160.jpg"
      },
      "category": "4k"
    },
    {
      "id": "4k_161",
      "filename": "161.jpg",
      "title": "4K Wallpaper 161",
      "photographer": "Unknown",
      "source": "unsplash",
      "source_id": "",
      "source_url": "",
      "tags": [],
      "color": "#000000",
      "created_at": "",
      "download_url": "https://raw.githubusercontent.com/username/wallpaper-collection/main/collection/wallpapers/4k/161.jpg",
      "thumbnail_url": "https://raw.githubusercontent.com/username/wallpaper-collection/main/collection/thumbnails/4k/161.jpg",
      "urls": {
        "raw": "https://media.githubusercontent.com/media/ddh4r4m/wallpaper-collection/main/collection/wallpapers/4k/161.jpg",
        "thumb": "https://media.githubusercontent.com/media/ddh4r4m/wallpaper-collection/main/collection/thumbnails/4k/161.jpg"
      },
      "category": "4k"
    },
    {
      "id": "4k_162",
      "filename": "162.jpg",
      "title": "4K Wallpaper 162",
      "photographer": "Unknown",
      "source": "unsplash",
      "source_id": "",
      "source_url": "",
      "tags": [],
      "color": "#000000",
      "created_at": "",
      "download_url": "https://raw.githubusercontent.com/username/wallpaper-collection/main/collection/wallpapers/4k/162.jpg",
      "thumbnail_url": "https://raw.githubusercontent.com/username/wallpaper-collection/main/collection/thumbnails/4k/162.jpg",
      "urls": {
        "raw": "https://media.githubusercontent.com/media/ddh4r4m/wallpaper-collection/main/collection/wallpapers/4k/162.jpg",
        "thumb": "https://media.githubusercontent.com/media/ddh4r4m/wallpaper-collection/main/collection/thumbnails/4k/162.jpg"
      },
      "category": "4k"
    },
    {
      "id": "4k_163",
      "filename": "163.jpg",
      "title": "4K Wallpaper 163",
      "photographer": "Unknown",
      "source": "unsplash",
      "source_id": "",
      "source_url": "",
      "tags": [],
      "color": "#000000",
      "created_at": "",
      "download_url": "https://raw.githubusercontent.com/username/wallpaper-collection/main/collection/wallpapers/4k/163.jpg",
      "thumbnail_url": "https://raw.githubusercontent.com/username/wallpaper-collection/main/collection/thumbnails/4k/163.jpg",
      "urls": {
        "raw": "https://media.githubusercontent.com/media/ddh4r4m/wallpaper-collection/main/collection/wallpapers/4k/163.jpg",
        "thumb": "https://media.githubusercontent.com/media/ddh4r4m/wallpaper-collection/main/collection/thumbnails/4k/163.jpg"
      },
      "category": "4k"
    },
    {
      "id": "4k_164",
      "filename": "164.jpg",
      "title": "4K Wallpaper 164",
      "photographer": "Unknown",
      "source": "unsplash",
      "source_id": "",
      "source_url": "",
      "tags": [],
      "color": "#000000",
      "created_at": "",
      "download_url": "https://raw.githubusercontent.com/username/wallpaper-collection/main/collection/wallpapers/4k/164.jpg",
      "thumbnail_url": "https://raw.githubusercontent.com/username/wallpaper-collection/main/collection/thumbnails/4k/164.jpg",
      "urls": {
        "raw": "https://media.githubusercontent.com/media/ddh4r4m/wallpaper-collection/main/collection/wallpapers/4k/164.jpg",
        "thumb": "https://media.githubusercontent.com/media/ddh4r4m/wallpaper-collection/main/collection/thumbnails/4k/164.jpg"
      },
      "category": "4k"
    },
    {
      "id": "4k_165",
      "filename": "165.jpg",
      "title": "4K Wallpaper 165",
      "photographer": "Unknown",
      "source": "unsplash",
      "source_id": "",
      "source_url": "",
      "tags": [],
      "color": "#000000",
      "created_at": "",
      "download_url": "https://raw.githubusercontent.com/username/wallpaper-collection/main/collection/wallpapers/4k/165.jpg",
      "thumbnail_url": "https://raw.githubusercontent.com/username/wallpaper-collection/main/collection/thumbnails/4k/165.jpg",
      "urls": {
        "raw": "https://media.githubusercontent.com/media/ddh4r4m/wallpaper-collection/main/collection/wallpapers/4k/165.jpg",
        "thumb": "https://media.githubusercontent.com/media/ddh4r4m/wallpaper-collection/main/collection/thumbnails/4k/165.jpg"
      },
      "category": "4k"
    }
  ]
}