{
  "meta": {
    "version": "1.0",
    "generated_at": "2025-07-19T12:26:57.111378",
    "page": 110,
    "per_page": 15,
    "total_pages": 160,
    "total_count": 2387,
    "count_on_page": 15,
    "categories": 19,
    "has_next": true,
    "has_prev": true,
    "next_page_url": "/api/v1/all/pages/111.json",
    "prev_page_url": "/api/v1/all/pages/109.json"
  },
  "data": [
    {
      "id": "nature_104",
      "category": "nature",
      "title": "Nature Wallpaper 104",
      "tags": [
        "nature",
        "wallpaper",
        "hd",
        "mobile"
      ],
      "urls": {
        "raw": "https://media.githubusercontent.com/media/ddh4r4m/wallpaper-collection/main/collection/wallpapers/nature/104.jpg",
        "thumb": "https://media.githubusercontent.com/media/ddh4r4m/wallpaper-collection/main/collection/thumbnails/nature/104.jpg"
      },
      "metadata": {
        "dimensions": {
          "width": 1080,
          "height": 1920
        },
        "file_size": 645132,
        "format": "JPEG",
        "added_at": "2025-07-17T00:04:18.945597",
        "hash": "e35e6d2e5f7153c8dc18dc5af78e1454",
        "source": "migrated"
      }
    },
    {
      "id": "nature_105",
      "category": "nature",
      "title": "Nature Wallpaper 105",
      "tags": [
        "nature",
        "wallpaper",
        "hd",
        "mobile"
      ],
      "urls": {
        "raw": "https://media.githubusercontent.com/media/ddh4r4m/wallpaper-collection/main/collection/wallpapers/nature/105.jpg",
        "thumb": "https://media.githubusercontent.com/media/ddh4r4m/wallpaper-collection/main/collection/thumbnails/nature/105.jpg"
      },
      "metadata": {
        "dimensions": {
          "width": 1080,
          "height": 1920
        },
        "file_size": 593585,
        "format": "JPEG",
        "added_at": "2025-07-17T00:04:19.019688",
        "hash": "6183fe9342e9c87cafde7823b0fd3be7",
        "source": "migrated"
      }
    },
    {
      "id": "nature_106",
      "category": "nature",
      "title": "Nature Wallpaper 106",
      "tags": [
        "nature",
        "wallpaper",
        "hd",
        "mobile"
      ],
      "urls": {
        "raw": "https://media.githubusercontent.com/media/ddh4r4m/wallpaper-collection/main/collection/wallpapers/nature/106.jpg",
        "thumb": "https://media.githubusercontent.com/media/ddh4r4m/wallpaper-collection/main/collection/thumbnails/nature/106.jpg"
      },
      "metadata": {
        "dimensions": {
          "width": 1080,
          "height": 1920
        },
        "file_size": 216820,
        "format": "JPEG",
        "added_at": "2025-07-17T00:04:19.073922",
        "hash": "dd4168a8e563a3305f09ff118352079c",
        "source": "migrated"
      }
    },
    {
      "id": "nature_107",
      "category": "nature",
      "title": "Nature Wallpaper 107",
      "tags": [
        "nature",
        "wallpaper",
        "hd",
        "mobile"
      ],
      "urls": {
        "raw": "https://media.githubusercontent.com/media/ddh4r4m/wallpaper-collection/main/collection/wallpapers/nature/107.jpg",
        "thumb": "https://media.githubusercontent.com/media/ddh4r4m/wallpaper-collection/main/collection/thumbnails/nature/107.jpg"
      },
      "metadata": {
        "dimensions": {
          "width": 1080,
          "height": 1920
        },
        "file_size": 133908,
        "format": "JPEG",
        "added_at": "2025-07-17T00:04:19.124228",
        "hash": "dbbf05e1dd7d53d7d516dfcd693a4bb2",
        "source": "migrated"
      }
    },
    {
      "id": "nature_108",
      "category": "nature",
      "title": "Nature Wallpaper 108",
      "tags": [
        "nature",
        "wallpaper",
        "hd",
        "mobile"
      ],
      "urls": {
        "raw": "https://media.githubusercontent.com/media/ddh4r4m/wallpaper-collection/main/collection/wallpapers/nature/108.jpg",
        "thumb": "https://media.githubusercontent.com/media/ddh4r4m/wallpaper-collection/main/collection/thumbnails/nature/108.jpg"
      },
      "metadata": {
        "dimensions": {
          "width": 1080,
          "height": 1920
        },
        "file_size": 534271,
        "format": "JPEG",
        "added_at": "2025-07-17T00:04:19.193451",
        "hash": "369a6af9d2c4bf8d76135b6910e98a12",
        "source": "migrated"
      }
    },
    {
      "id": "nature_109",
      "category": "nature",
      "title": "Nature Wallpaper 109",
      "tags": [
        "nature",
        "wallpaper",
        "hd",
        "mobile"
      ],
      "urls": {
        "raw": "https://media.githubusercontent.com/media/ddh4r4m/wallpaper-collection/main/collection/wallpapers/nature/109.jpg",
        "thumb": "https://media.githubusercontent.com/media/ddh4r4m/wallpaper-collection/main/collection/thumbnails/nature/109.jpg"
      },
      "metadata": {
        "dimensions": {
          "width": 1080,
          "height": 1920
        },
        "file_size": 706917,
        "format": "JPEG",
        "added_at": "2025-07-17T00:04:19.271128",
        "hash": "f096f56cbc28995106c5200bc03273ce",
        "source": "migrated"
      }
    },
    {
      "id": "nature_110",
      "category": "nature",
      "title": "Nature Wallpaper 110",
      "tags": [
        "nature",
        "wallpaper",
        "hd",
        "mobile"
      ],
      "urls": {
        "raw": "https://media.githubusercontent.com/media/ddh4r4m/wallpaper-collection/main/collection/wallpapers/nature/110.jpg",
        "thumb": "https://media.githubusercontent.com/media/ddh4r4m/wallpaper-collection/main/collection/thumbnails/nature/110.jpg"
      },
      "metadata": {
        "dimensions": {
          "width": 1080,
          "height": 1920
        },
        "file_size": 424690,
        "format": "JPEG",
        "added_at": "2025-07-17T00:04:19.335707",
        "hash": "b5c3ea82508e851edd2571b4a863675b",
        "source": "migrated"
      }
    },
    {
      "id": "nature_111",
      "category": "nature",
      "title": "Nature Wallpaper 111",
      "tags": [
        "nature",
        "wallpaper",
        "hd",
        "mobile"
      ],
      "urls": {
        "raw": "https://media.githubusercontent.com/media/ddh4r4m/wallpaper-collection/main/collection/wallpapers/nature/111.jpg",
        "thumb": "https://media.githubusercontent.com/media/ddh4r4m/wallpaper-collection/main/collection/thumbnails/nature/111.jpg"
      },
      "metadata": {
        "dimensions": {
          "width": 1080,
          "height": 1920
        },
        "file_size": 364307,
        "format": "JPEG",
        "added_at": "2025-07-17T00:04:19.396194",
        "hash": "3f40449525c841b96908a3c2bae1d3b5",
        "source": "migrated"
      }
    },
    {
      "id": "nature_112",
      "category": "nature",
      "title": "Nature Wallpaper 112",
      "tags": [
        "nature",
        "wallpaper",
        "hd",
        "mobile"
      ],
      "urls": {
        "raw": "https://media.githubusercontent.com/media/ddh4r4m/wallpaper-collection/main/collection/wallpapers/nature/112.jpg",
        "thumb": "https://media.githubusercontent.com/media/ddh4r4m/wallpaper-collection/main/collection/thumbnails/nature/112.jpg"
      },
      "metadata": {
        "dimensions": {
          "width": 1080,
          "height": 1920
        },
        "file_size": 333483,
        "format": "JPEG",
        "added_at": "2025-07-17T00:04:19.456605",
        "hash": "c5f381fc25d75771a7898e8ce7426cab",
        "source": "migrated"
      }
    },
    {
      "id": "nature_113",
      "category": "nature",
      "title": "Nature Wallpaper 113",
      "tags": [
        "nature",
        "wallpaper",
        "hd",
        "mobile"
      ],
      "urls": {
        "raw": "https://media.githubusercontent.com/media/ddh4r4m/wallpaper-collection/main/collection/wallpapers/nature/113.jpg",
        "thumb": "https://media.githubusercontent.com/media/ddh4r4m/wallpaper-collection/main/collection/thumbnails/nature/113.jpg"
      },
      "metadata": {
        "dimensions": {
          "width": 1080,
          "height": 1920
        },
        "file_size": 493500,
        "format": "JPEG",
        "added_at": "2025-07-17T00:04:19.524636",
        "hash": "18c32080f4a66ab307158ee7392f8700",
        "source": "migrated"
      }
    },
    {
      "id": "nature_114",
      "category": "nature",
      "title": "Nature Wallpaper 114",
      "tags": [
        "nature",
        "wallpaper",
        "hd",
        "mobile"
      ],
      "urls": {
        "raw": "https://media.githubusercontent.com/media/ddh4r4m/wallpaper-collection/main/collection/wallpapers/nature/114.jpg",
        "thumb": "https://media.githubusercontent.com/media/ddh4r4m/wallpaper-collection/main/collection/thumbnails/nature/114.jpg"
      },
      "metadata": {
        "dimensions": {
          "width": 1080,
          "height": 1920
        },
        "file_size": 705875,
        "format": "JPEG",
        "added_at": "2025-07-17T00:04:19.602919",
        "hash": "53a8896ea9f693a42f184d918819d9b3",
        "source": "migrated"
      }
    },
    {
      "id": "nature_115",
      "category": "nature",
      "title": "Nature Wallpaper 115",
      "tags": [
        "nature",
        "wallpaper",
        "hd",
        "mobile"
      ],
      "urls": {
        "raw": "https://media.githubusercontent.com/media/ddh4r4m/wallpaper-collection/main/collection/wallpapers/nature/115.jpg",
        "thumb": "https://media.githubusercontent.com/media/ddh4r4m/wallpaper-collection/main/collection/thumbnails/nature/115.jpg"
      },
      "metadata": {
        "dimensions": {
          "width": 1080,
          "height": 1920
        },
        "file_size": 219773,
        "format": "JPEG",
        "added_at": "2025-07-17T00:04:19.655879",
        "hash": "caa18c4c0175d199fdd7338624508ea3",
        "source": "migrated"
      }
    },
    {
      "id": "nature_116",
      "category": "nature",
      "title": "Nature Wallpaper 116",
      "tags": [
        "nature",
        "wallpaper",
        "hd",
        "mobile"
      ],
      "urls": {
        "raw": "https://media.githubusercontent.com/media/ddh4r4m/wallpaper-collection/main/collection/wallpapers/nature/116.jpg",
        "thumb": "https://media.githubusercontent.com/media/ddh4r4m/wallpaper-collection/main/collection/thumbnails/nature/116.jpg"
      },
      "metadata": {
        "dimensions": {
          "width": 1080,
          "height": 1920
        },
        "file_size": 290653,
        "format": "JPEG",
        "added_at": "2025-07-17T00:04:19.714636",
        "hash": "9d496db123d198dc19adb795e7d06a1a",
        "source": "migrated"
      }
    },
    {
      "id": "nature_117",
      "category": "nature",
      "title": "Nature Wallpaper 117",
      "tags": [
        "nature",
        "wallpaper",
        "hd",
        "mobile"
      ],
      "urls": {
        "raw": "https://media.githubusercontent.com/media/ddh4r4m/wallpaper-collection/main/collection/wallpapers/nature/117.jpg",
        "thumb": "https://media.githubusercontent.com/media/ddh4r4m/wallpaper-collection/main/collection/thumbnails/nature/117.jpg"
      },
      "metadata": {
        "dimensions": {
          "width": 1080,
          "height": 1920
        },
        "file_size": 493390,
        "format": "JPEG",
        "added_at": "2025-07-17T00:04:19.783372",
        "hash": "5724640460e3d10b4a86f4ac8ddaf9a8",
        "source": "migrated"
      }
    },
    {
      "id": "nature_118",
      "category": "nature",
      "title": "Nature Wallpaper 118",
      "tags": [
        "nature",
        "wallpaper",
        "hd",
        "mobile"
      ],
      "urls": {
        "raw": "https://media.githubusercontent.com/media/ddh4r4m/wallpaper-collection/main/collection/wallpapers/nature/118.jpg",
        "thumb": "https://media.githubusercontent.com/media/ddh4r4m/wallpaper-collection/main/collection/thumbnails/nature/118.jpg"
      },
      "metadata": {
        "dimensions": {
          "width": 1080,
          "height": 1920
        },
        "file_size": 515135,
        "format": "JPEG",
        "added_at": "2025-07-17T00:04:19.853598",
        "hash": "e5973cbf1ccf97341de2712eaf25edb1",
        "source": "migrated"
      }
    }
  ]
}