{
  "meta": {
    "version": "1.0",
    "generated_at": "2025-07-28T22:48:38.208699",
    "page": 111,
    "per_page": 15,
    "total_pages": 183,
    "total_count": 2737,
    "count_on_page": 15,
    "categories": 22,
    "has_next": true,
    "has_prev": true,
    "next_page_url": "/api/v1/all/pages/112.json",
    "prev_page_url": "/api/v1/all/pages/110.json"
  },
  "data": [
    {
      "id": "minimal_038",
      "category": "minimal",
      "title": "Minimal Wallpaper 038",
      "tags": [
        "minimal",
        "wallpaper",
        "hd",
        "mobile"
      ],
      "urls": {
        "raw": "https://media.githubusercontent.com/media/ddh4r4m/wallpaper-collection/main/collection/wallpapers/minimal/038.jpg",
        "thumb": "https://media.githubusercontent.com/media/ddh4r4m/wallpaper-collection/main/collection/thumbnails/minimal/038.jpg"
      },
      "metadata": {
        "dimensions": {
          "width": 1080,
          "height": 1920
        },
        "file_size": 31645,
        "format": "JPEG",
        "added_at": "2025-07-17T00:04:08.984932",
        "hash": "2afb1b7729fdbd6f42d802a493ee7c1f",
        "source": "migrated"
      }
    },
    {
      "id": "minimal_039",
      "category": "minimal",
      "title": "Minimal Wallpaper 039",
      "tags": [
        "minimal",
        "wallpaper",
        "hd",
        "mobile"
      ],
      "urls": {
        "raw": "https://media.githubusercontent.com/media/ddh4r4m/wallpaper-collection/main/collection/wallpapers/minimal/039.jpg",
        "thumb": "https://media.githubusercontent.com/media/ddh4r4m/wallpaper-collection/main/collection/thumbnails/minimal/039.jpg"
      },
      "metadata": {
        "dimensions": {
          "width": 1080,
          "height": 1920
        },
        "file_size": 32356,
        "format": "JPEG",
        "added_at": "2025-07-17T00:04:09.127560",
        "hash": "5ed26d3f4b147d2272dec1686f14dfcf",
        "source": "migrated"
      }
    },
    {
      "id": "minimal_040",
      "category": "minimal",
      "title": "Minimal Wallpaper 040",
      "tags": [
        "minimal",
        "wallpaper",
        "hd",
        "mobile"
      ],
      "urls": {
        "raw": "https://media.githubusercontent.com/media/ddh4r4m/wallpaper-collection/main/collection/wallpapers/minimal/040.jpg",
        "thumb": "https://media.githubusercontent.com/media/ddh4r4m/wallpaper-collection/main/collection/thumbnails/minimal/040.jpg"
      },
      "metadata": {
        "dimensions": {
          "width": 1080,
          "height": 1920
        },
        "file_size": 55614,
        "format": "JPEG",
        "added_at": "2025-07-17T00:04:09.371535",
        "hash": "05881dda8e3b8f61c3b2611a24f60a4a",
        "source": "migrated"
      }
    },
    {
      "id": "minimal_041",
      "category": "minimal",
      "title": "Minimal Wallpaper 041",
      "tags": [
        "minimal",
        "wallpaper",
        "hd",
        "mobile"
      ],
      "urls": {
        "raw": "https://media.githubusercontent.com/media/ddh4r4m/wallpaper-collection/main/collection/wallpapers/minimal/041.jpg",
        "thumb": "https://media.githubusercontent.com/media/ddh4r4m/wallpaper-collection/main/collection/thumbnails/minimal/041.jpg"
      },
      "metadata": {
        "dimensions": {
          "width": 1080,
          "height": 1920
        },
        "file_size": 114315,
        "format": "JPEG",
        "added_at": "2025-07-17T00:04:09.766474",
        "hash": "86f5ff21d94c61723171a0f3a2d1d4f4",
        "source": "migrated"
      }
    },
    {
      "id": "minimal_042",
      "category": "minimal",
      "title": "Minimal Wallpaper 042",
      "tags": [
        "minimal",
        "wallpaper",
        "hd",
        "mobile"
      ],
      "urls": {
        "raw": "https://media.githubusercontent.com/media/ddh4r4m/wallpaper-collection/main/collection/wallpapers/minimal/042.jpg",
        "thumb": "https://media.githubusercontent.com/media/ddh4r4m/wallpaper-collection/main/collection/thumbnails/minimal/042.jpg"
      },
      "metadata": {
        "dimensions": {
          "width": 1080,
          "height": 1920
        },
        "file_size": 98514,
        "format": "JPEG",
        "added_at": "2025-07-17T00:04:11.060440",
        "hash": "3d93f822dd21235104cbe50c2d2d0c33",
        "source": "migrated"
      }
    },
    {
      "id": "minimal_043",
      "category": "minimal",
      "title": "Minimal Wallpaper 043",
      "tags": [
        "minimal",
        "wallpaper",
        "hd",
        "mobile"
      ],
      "urls": {
        "raw": "https://media.githubusercontent.com/media/ddh4r4m/wallpaper-collection/main/collection/wallpapers/minimal/043.jpg",
        "thumb": "https://media.githubusercontent.com/media/ddh4r4m/wallpaper-collection/main/collection/thumbnails/minimal/043.jpg"
      },
      "metadata": {
        "dimensions": {
          "width": 1080,
          "height": 1920
        },
        "file_size": 14612,
        "format": "JPEG",
        "added_at": "2025-07-17T00:04:11.278165",
        "hash": "1ac9cde7f83354a31fb35b799f23df4f",
        "source": "migrated"
      }
    },
    {
      "id": "minimal_044",
      "category": "minimal",
      "title": "Minimal Wallpaper 044",
      "tags": [
        "minimal",
        "wallpaper",
        "hd",
        "mobile"
      ],
      "urls": {
        "raw": "https://media.githubusercontent.com/media/ddh4r4m/wallpaper-collection/main/collection/wallpapers/minimal/044.jpg",
        "thumb": "https://media.githubusercontent.com/media/ddh4r4m/wallpaper-collection/main/collection/thumbnails/minimal/044.jpg"
      },
      "metadata": {
        "dimensions": {
          "width": 1080,
          "height": 1920
        },
        "file_size": 12724,
        "format": "JPEG",
        "added_at": "2025-07-17T00:04:11.495400",
        "hash": "0c14d96fe4516058fa62ea25fd6b5042",
        "source": "migrated"
      }
    },
    {
      "id": "minimal_045",
      "category": "minimal",
      "title": "Minimal Wallpaper 045",
      "tags": [
        "minimal",
        "wallpaper",
        "hd",
        "mobile"
      ],
      "urls": {
        "raw": "https://media.githubusercontent.com/media/ddh4r4m/wallpaper-collection/main/collection/wallpapers/minimal/045.jpg",
        "thumb": "https://media.githubusercontent.com/media/ddh4r4m/wallpaper-collection/main/collection/thumbnails/minimal/045.jpg"
      },
      "metadata": {
        "dimensions": {
          "width": 1080,
          "height": 1920
        },
        "file_size": 23466,
        "format": "JPEG",
        "added_at": "2025-07-17T00:04:11.733509",
        "hash": "9d81c835bec513ff1d65ff535c367440",
        "source": "migrated"
      }
    },
    {
      "id": "minimal_046",
      "category": "minimal",
      "title": "Minimal Wallpaper 046",
      "tags": [
        "minimal",
        "wallpaper",
        "hd",
        "mobile"
      ],
      "urls": {
        "raw": "https://media.githubusercontent.com/media/ddh4r4m/wallpaper-collection/main/collection/wallpapers/minimal/046.jpg",
        "thumb": "https://media.githubusercontent.com/media/ddh4r4m/wallpaper-collection/main/collection/thumbnails/minimal/046.jpg"
      },
      "metadata": {
        "dimensions": {
          "width": 1080,
          "height": 1920
        },
        "file_size": 499737,
        "format": "JPEG",
        "added_at": "2025-07-17T00:04:11.886739",
        "hash": "7a1a0c9d1c322e4b4f99e6fcf311ce40",
        "source": "migrated"
      }
    },
    {
      "id": "minimal_047",
      "category": "minimal",
      "title": "Minimal Wallpaper",
      "tags": [
        "minimal",
        "unsplash",
        "hd",
        "mobile"
      ],
      "metadata": {
        "dimensions": {
          "width": 1080,
          "height": 1620
        },
        "file_size": 26758,
        "format": "JPEG",
        "added_at": "2025-07-17T22:27:28.750286",
        "hash": "62eb74bf300a211b557d9bcad4f70cad",
        "photographer": "Unknown"
      },
      "urls": {
        "raw": "https://media.githubusercontent.com/media/ddh4r4m/wallpaper-collection/main/collection/wallpapers/minimal/047.jpg",
        "thumb": "https://media.githubusercontent.com/media/ddh4r4m/wallpaper-collection/main/collection/thumbnails/minimal/047.jpg"
      }
    },
    {
      "id": "minimal_048",
      "category": "minimal",
      "title": "Minimal Wallpaper",
      "tags": [
        "minimal",
        "unsplash",
        "hd",
        "mobile"
      ],
      "metadata": {
        "dimensions": {
          "width": 1080,
          "height": 1622
        },
        "file_size": 77249,
        "format": "JPEG",
        "added_at": "2025-07-17T22:27:31.492738",
        "hash": "3a1cfa80d2bc0db06f148cacf8d843a2",
        "photographer": "Unknown"
      },
      "urls": {
        "raw": "https://media.githubusercontent.com/media/ddh4r4m/wallpaper-collection/main/collection/wallpapers/minimal/048.jpg",
        "thumb": "https://media.githubusercontent.com/media/ddh4r4m/wallpaper-collection/main/collection/thumbnails/minimal/048.jpg"
      }
    },
    {
      "id": "minimal_049",
      "category": "minimal",
      "title": "Minimal Wallpaper",
      "tags": [
        "minimal",
        "unsplash",
        "hd",
        "mobile"
      ],
      "metadata": {
        "dimensions": {
          "width": 1080,
          "height": 608
        },
        "file_size": 16240,
        "format": "JPEG",
        "added_at": "2025-07-17T22:27:33.842644",
        "hash": "cd904db6b0678abfb902d7e7ccc45038",
        "photographer": "Unknown"
      },
      "urls": {
        "raw": "https://media.githubusercontent.com/media/ddh4r4m/wallpaper-collection/main/collection/wallpapers/minimal/049.jpg",
        "thumb": "https://media.githubusercontent.com/media/ddh4r4m/wallpaper-collection/main/collection/thumbnails/minimal/049.jpg"
      }
    },
    {
      "id": "minimal_050",
      "category": "minimal",
      "title": "Minimal Wallpaper",
      "tags": [
        "minimal",
        "unsplash",
        "hd",
        "mobile"
      ],
      "metadata": {
        "dimensions": {
          "width": 1080,
          "height": 720
        },
        "file_size": 59397,
        "format": "JPEG",
        "added_at": "2025-07-17T22:27:36.374784",
        "hash": "512c610043fb8108f51eef880881501b",
        "photographer": "Unknown"
      },
      "urls": {
        "raw": "https://media.githubusercontent.com/media/ddh4r4m/wallpaper-collection/main/collection/wallpapers/minimal/050.jpg",
        "thumb": "https://media.githubusercontent.com/media/ddh4r4m/wallpaper-collection/main/collection/thumbnails/minimal/050.jpg"
      }
    },
    {
      "id": "minimal_051",
      "category": "minimal",
      "title": "Minimal Wallpaper",
      "tags": [
        "minimal",
        "unsplash",
        "hd",
        "mobile"
      ],
      "metadata": {
        "dimensions": {
          "width": 1080,
          "height": 720
        },
        "file_size": 30744,
        "format": "JPEG",
        "added_at": "2025-07-17T22:27:39.698668",
        "hash": "8cdd2041d294bcbc11d5958b95f967b3",
        "photographer": "Unknown"
      },
      "urls": {
        "raw": "https://media.githubusercontent.com/media/ddh4r4m/wallpaper-collection/main/collection/wallpapers/minimal/051.jpg",
        "thumb": "https://media.githubusercontent.com/media/ddh4r4m/wallpaper-collection/main/collection/thumbnails/minimal/051.jpg"
      }
    },
    {
      "id": "minimal_052",
      "category": "minimal",
      "title": "Minimal Wallpaper",
      "tags": [
        "minimal",
        "unsplash",
        "hd",
        "mobile"
      ],
      "metadata": {
        "dimensions": {
          "width": 1080,
          "height": 735
        },
        "file_size": 27383,
        "format": "JPEG",
        "added_at": "2025-07-17T22:27:41.965080",
        "hash": "8aab290ead60589071ac4023e861d483",
        "photographer": "Unknown"
      },
      "urls": {
        "raw": "https://media.githubusercontent.com/media/ddh4r4m/wallpaper-collection/main/collection/wallpapers/minimal/052.jpg",
        "thumb": "https://media.githubusercontent.com/media/ddh4r4m/wallpaper-collection/main/collection/thumbnails/minimal/052.jpg"
      }
    }
  ]
}