{
  "meta": {
    "version": "1.0",
    "generated_at": "2025-07-17T00:06:19.072196",
    "page": 113,
    "per_page": 15,
    "total_pages": 117,
    "total_count": 1751,
    "count_on_page": 15,
    "categories": 17,
    "has_next": true,
    "has_prev": true,
    "next_page_url": "/api/v1/all/pages/114.json",
    "prev_page_url": "/api/v1/all/pages/112.json"
  },
  "data": [
    {
      "id": "space_056",
      "category": "space",
      "title": "Space Wallpaper 056",
      "tags": [
        "space",
        "wallpaper",
        "hd",
        "mobile"
      ],
      "urls": {
        "raw": "https://raw.githubusercontent.com/ddh4r4m/wallpaper-collection/main/collection/wallpapers/space/056.jpg",
        "thumb": "https://raw.githubusercontent.com/ddh4r4m/wallpaper-collection/main/collection/thumbnails/space/056.jpg"
      },
      "metadata": {
        "dimensions": {
          "width": 1080,
          "height": 1920
        },
        "file_size": 491982,
        "format": "JPEG",
        "added_at": "2025-07-17T00:04:47.429158",
        "hash": "8eb90344fc7f8d3d1574dc9464bdc80f",
        "source": "migrated"
      }
    },
    {
      "id": "space_057",
      "category": "space",
      "title": "Space Wallpaper 057",
      "tags": [
        "space",
        "wallpaper",
        "hd",
        "mobile"
      ],
      "urls": {
        "raw": "https://raw.githubusercontent.com/ddh4r4m/wallpaper-collection/main/collection/wallpapers/space/057.jpg",
        "thumb": "https://raw.githubusercontent.com/ddh4r4m/wallpaper-collection/main/collection/thumbnails/space/057.jpg"
      },
      "metadata": {
        "dimensions": {
          "width": 1080,
          "height": 1920
        },
        "file_size": 398454,
        "format": "JPEG",
        "added_at": "2025-07-17T00:04:47.493163",
        "hash": "ba8dbb865cd0d75a687913b9dcd5b7bc",
        "source": "migrated"
      }
    },
    {
      "id": "space_058",
      "category": "space",
      "title": "Space Wallpaper 058",
      "tags": [
        "space",
        "wallpaper",
        "hd",
        "mobile"
      ],
      "urls": {
        "raw": "https://raw.githubusercontent.com/ddh4r4m/wallpaper-collection/main/collection/wallpapers/space/058.jpg",
        "thumb": "https://raw.githubusercontent.com/ddh4r4m/wallpaper-collection/main/collection/thumbnails/space/058.jpg"
      },
      "metadata": {
        "dimensions": {
          "width": 1080,
          "height": 1920
        },
        "file_size": 362076,
        "format": "JPEG",
        "added_at": "2025-07-17T00:04:47.553518",
        "hash": "1050eaa6d6b661eb7045c461acbf2bf3",
        "source": "migrated"
      }
    },
    {
      "id": "space_059",
      "category": "space",
      "title": "Space Wallpaper 059",
      "tags": [
        "space",
        "wallpaper",
        "hd",
        "mobile"
      ],
      "urls": {
        "raw": "https://raw.githubusercontent.com/ddh4r4m/wallpaper-collection/main/collection/wallpapers/space/059.jpg",
        "thumb": "https://raw.githubusercontent.com/ddh4r4m/wallpaper-collection/main/collection/thumbnails/space/059.jpg"
      },
      "metadata": {
        "dimensions": {
          "width": 1080,
          "height": 1920
        },
        "file_size": 312207,
        "format": "JPEG",
        "added_at": "2025-07-17T00:04:47.607726",
        "hash": "4d40f25b1b9900800065cd632ff14261",
        "source": "migrated"
      }
    },
    {
      "id": "space_060",
      "category": "space",
      "title": "Space Wallpaper 060",
      "tags": [
        "space",
        "wallpaper",
        "hd",
        "mobile"
      ],
      "urls": {
        "raw": "https://raw.githubusercontent.com/ddh4r4m/wallpaper-collection/main/collection/wallpapers/space/060.jpg",
        "thumb": "https://raw.githubusercontent.com/ddh4r4m/wallpaper-collection/main/collection/thumbnails/space/060.jpg"
      },
      "metadata": {
        "dimensions": {
          "width": 1080,
          "height": 1920
        },
        "file_size": 115404,
        "format": "JPEG",
        "added_at": "2025-07-17T00:04:47.652618",
        "hash": "186559a4e9443c2aee9744249784d870",
        "source": "migrated"
      }
    },
    {
      "id": "space_061",
      "category": "space",
      "title": "Space Wallpaper 061",
      "tags": [
        "space",
        "wallpaper",
        "hd",
        "mobile"
      ],
      "urls": {
        "raw": "https://raw.githubusercontent.com/ddh4r4m/wallpaper-collection/main/collection/wallpapers/space/061.jpg",
        "thumb": "https://raw.githubusercontent.com/ddh4r4m/wallpaper-collection/main/collection/thumbnails/space/061.jpg"
      },
      "metadata": {
        "dimensions": {
          "width": 1080,
          "height": 1920
        },
        "file_size": 541870,
        "format": "JPEG",
        "added_at": "2025-07-17T00:04:47.722636",
        "hash": "fbbf574d974183672ea59dceb63ecd35",
        "source": "migrated"
      }
    },
    {
      "id": "space_062",
      "category": "space",
      "title": "Space Wallpaper 062",
      "tags": [
        "space",
        "wallpaper",
        "hd",
        "mobile"
      ],
      "urls": {
        "raw": "https://raw.githubusercontent.com/ddh4r4m/wallpaper-collection/main/collection/wallpapers/space/062.jpg",
        "thumb": "https://raw.githubusercontent.com/ddh4r4m/wallpaper-collection/main/collection/thumbnails/space/062.jpg"
      },
      "metadata": {
        "dimensions": {
          "width": 1080,
          "height": 1920
        },
        "file_size": 301758,
        "format": "JPEG",
        "added_at": "2025-07-17T00:04:47.778936",
        "hash": "8fb0fecad2e18e9b1ea66c0af21a1c8f",
        "source": "migrated"
      }
    },
    {
      "id": "space_063",
      "category": "space",
      "title": "Space Wallpaper 063",
      "tags": [
        "space",
        "wallpaper",
        "hd",
        "mobile"
      ],
      "urls": {
        "raw": "https://raw.githubusercontent.com/ddh4r4m/wallpaper-collection/main/collection/wallpapers/space/063.jpg",
        "thumb": "https://raw.githubusercontent.com/ddh4r4m/wallpaper-collection/main/collection/thumbnails/space/063.jpg"
      },
      "metadata": {
        "dimensions": {
          "width": 1080,
          "height": 1920
        },
        "file_size": 124515,
        "format": "JPEG",
        "added_at": "2025-07-17T00:04:47.825057",
        "hash": "0c349b019d3466201ebab6095e3adbde",
        "source": "migrated"
      }
    },
    {
      "id": "space_064",
      "category": "space",
      "title": "Space Wallpaper 064",
      "tags": [
        "space",
        "wallpaper",
        "hd",
        "mobile"
      ],
      "urls": {
        "raw": "https://raw.githubusercontent.com/ddh4r4m/wallpaper-collection/main/collection/wallpapers/space/064.jpg",
        "thumb": "https://raw.githubusercontent.com/ddh4r4m/wallpaper-collection/main/collection/thumbnails/space/064.jpg"
      },
      "metadata": {
        "dimensions": {
          "width": 1080,
          "height": 1920
        },
        "file_size": 764258,
        "format": "JPEG",
        "added_at": "2025-07-17T00:04:47.906736",
        "hash": "7476a76350c07ed7a9f64e9cf61c963e",
        "source": "migrated"
      }
    },
    {
      "id": "space_065",
      "category": "space",
      "title": "Space Wallpaper 065",
      "tags": [
        "space",
        "wallpaper",
        "hd",
        "mobile"
      ],
      "urls": {
        "raw": "https://raw.githubusercontent.com/ddh4r4m/wallpaper-collection/main/collection/wallpapers/space/065.jpg",
        "thumb": "https://raw.githubusercontent.com/ddh4r4m/wallpaper-collection/main/collection/thumbnails/space/065.jpg"
      },
      "metadata": {
        "dimensions": {
          "width": 1080,
          "height": 1920
        },
        "file_size": 146382,
        "format": "JPEG",
        "added_at": "2025-07-17T00:04:47.956658",
        "hash": "0f76a2928a5d7b72181e614748c1f4dd",
        "source": "migrated"
      }
    },
    {
      "id": "space_066",
      "category": "space",
      "title": "Space Wallpaper 066",
      "tags": [
        "space",
        "wallpaper",
        "hd",
        "mobile"
      ],
      "urls": {
        "raw": "https://raw.githubusercontent.com/ddh4r4m/wallpaper-collection/main/collection/wallpapers/space/066.jpg",
        "thumb": "https://raw.githubusercontent.com/ddh4r4m/wallpaper-collection/main/collection/thumbnails/space/066.jpg"
      },
      "metadata": {
        "dimensions": {
          "width": 1080,
          "height": 1920
        },
        "file_size": 765814,
        "format": "JPEG",
        "added_at": "2025-07-17T00:04:48.039740",
        "hash": "ce7058bac369bd9dc113ff370811c99b",
        "source": "migrated"
      }
    },
    {
      "id": "space_067",
      "category": "space",
      "title": "Space Wallpaper 067",
      "tags": [
        "space",
        "wallpaper",
        "hd",
        "mobile"
      ],
      "urls": {
        "raw": "https://raw.githubusercontent.com/ddh4r4m/wallpaper-collection/main/collection/wallpapers/space/067.jpg",
        "thumb": "https://raw.githubusercontent.com/ddh4r4m/wallpaper-collection/main/collection/thumbnails/space/067.jpg"
      },
      "metadata": {
        "dimensions": {
          "width": 1080,
          "height": 1920
        },
        "file_size": 201202,
        "format": "JPEG",
        "added_at": "2025-07-17T00:04:48.090731",
        "hash": "25578a35e427fe9245067c34b666f8ab",
        "source": "migrated"
      }
    },
    {
      "id": "space_068",
      "category": "space",
      "title": "Space Wallpaper 068",
      "tags": [
        "space",
        "wallpaper",
        "hd",
        "mobile"
      ],
      "urls": {
        "raw": "https://raw.githubusercontent.com/ddh4r4m/wallpaper-collection/main/collection/wallpapers/space/068.jpg",
        "thumb": "https://raw.githubusercontent.com/ddh4r4m/wallpaper-collection/main/collection/thumbnails/space/068.jpg"
      },
      "metadata": {
        "dimensions": {
          "width": 1080,
          "height": 1920
        },
        "file_size": 221953,
        "format": "JPEG",
        "added_at": "2025-07-17T00:04:48.143714",
        "hash": "4a51f115298cddbe81592d0500efa728",
        "source": "migrated"
      }
    },
    {
      "id": "space_069",
      "category": "space",
      "title": "Space Wallpaper 069",
      "tags": [
        "space",
        "wallpaper",
        "hd",
        "mobile"
      ],
      "urls": {
        "raw": "https://raw.githubusercontent.com/ddh4r4m/wallpaper-collection/main/collection/wallpapers/space/069.jpg",
        "thumb": "https://raw.githubusercontent.com/ddh4r4m/wallpaper-collection/main/collection/thumbnails/space/069.jpg"
      },
      "metadata": {
        "dimensions": {
          "width": 1080,
          "height": 1920
        },
        "file_size": 162212,
        "format": "JPEG",
        "added_at": "2025-07-17T00:04:48.193320",
        "hash": "3fcd50bceee3338114e9a4fefa3eb69b",
        "source": "migrated"
      }
    },
    {
      "id": "space_070",
      "category": "space",
      "title": "Space Wallpaper 070",
      "tags": [
        "space",
        "wallpaper",
        "hd",
        "mobile"
      ],
      "urls": {
        "raw": "https://raw.githubusercontent.com/ddh4r4m/wallpaper-collection/main/collection/wallpapers/space/070.jpg",
        "thumb": "https://raw.githubusercontent.com/ddh4r4m/wallpaper-collection/main/collection/thumbnails/space/070.jpg"
      },
      "metadata": {
        "dimensions": {
          "width": 1080,
          "height": 1920
        },
        "file_size": 304153,
        "format": "JPEG",
        "added_at": "2025-07-17T00:04:48.251337",
        "hash": "57257846f8b1309fdd258ec96cc68d26",
        "source": "migrated"
      }
    }
  ]
}