{
  "meta": {
    "version": "1.0",
    "generated_at": "2025-07-19T12:26:57.111378",
    "page": 115,
    "per_page": 15,
    "total_pages": 160,
    "total_count": 2387,
    "count_on_page": 15,
    "categories": 19,
    "has_next": true,
    "has_prev": true,
    "next_page_url": "/api/v1/all/pages/116.json",
    "prev_page_url": "/api/v1/all/pages/114.json"
  },
  "data": [
    {
      "id": "nature_179",
      "category": "nature",
      "title": "Nature Wallpaper 179",
      "tags": [
        "nature",
        "wallpaper",
        "hd",
        "mobile"
      ],
      "urls": {
        "raw": "https://media.githubusercontent.com/media/ddh4r4m/wallpaper-collection/main/collection/wallpapers/nature/179.jpg",
        "thumb": "https://media.githubusercontent.com/media/ddh4r4m/wallpaper-collection/main/collection/thumbnails/nature/179.jpg"
      },
      "metadata": {
        "dimensions": {
          "width": 1080,
          "height": 1920
        },
        "file_size": 448271,
        "format": "JPEG",
        "added_at": "2025-07-17T00:04:23.942789",
        "hash": "0ef9874612cc9c9e7a5e8188e56db240",
        "source": "migrated"
      }
    },
    {
      "id": "nature_180",
      "category": "nature",
      "title": "Nature Wallpaper 180",
      "tags": [
        "nature",
        "wallpaper",
        "hd",
        "mobile"
      ],
      "urls": {
        "raw": "https://media.githubusercontent.com/media/ddh4r4m/wallpaper-collection/main/collection/wallpapers/nature/180.jpg",
        "thumb": "https://media.githubusercontent.com/media/ddh4r4m/wallpaper-collection/main/collection/thumbnails/nature/180.jpg"
      },
      "metadata": {
        "dimensions": {
          "width": 1080,
          "height": 1920
        },
        "file_size": 673469,
        "format": "JPEG",
        "added_at": "2025-07-17T00:04:24.023599",
        "hash": "02743bfb83ecaafe890e75ce4b7b0ef4",
        "source": "migrated"
      }
    },
    {
      "id": "nature_181",
      "category": "nature",
      "title": "Nature Wallpaper 181",
      "tags": [
        "nature",
        "wallpaper",
        "hd",
        "mobile"
      ],
      "urls": {
        "raw": "https://media.githubusercontent.com/media/ddh4r4m/wallpaper-collection/main/collection/wallpapers/nature/181.jpg",
        "thumb": "https://media.githubusercontent.com/media/ddh4r4m/wallpaper-collection/main/collection/thumbnails/nature/181.jpg"
      },
      "metadata": {
        "dimensions": {
          "width": 1080,
          "height": 1920
        },
        "file_size": 798535,
        "format": "JPEG",
        "added_at": "2025-07-17T00:04:24.106298",
        "hash": "dd96f6055760d4fab19ebb4788be58ea",
        "source": "migrated"
      }
    },
    {
      "id": "nature_182",
      "category": "nature",
      "title": "Nature Wallpaper 182",
      "tags": [
        "nature",
        "wallpaper",
        "hd",
        "mobile"
      ],
      "urls": {
        "raw": "https://media.githubusercontent.com/media/ddh4r4m/wallpaper-collection/main/collection/wallpapers/nature/182.jpg",
        "thumb": "https://media.githubusercontent.com/media/ddh4r4m/wallpaper-collection/main/collection/thumbnails/nature/182.jpg"
      },
      "metadata": {
        "dimensions": {
          "width": 1080,
          "height": 1920
        },
        "file_size": 385750,
        "format": "JPEG",
        "added_at": "2025-07-17T00:04:24.170136",
        "hash": "a91a0cd4720617d965517b7a92b119b5",
        "source": "migrated"
      }
    },
    {
      "id": "nature_183",
      "category": "nature",
      "title": "Nature Wallpaper 183",
      "tags": [
        "nature",
        "wallpaper",
        "hd",
        "mobile"
      ],
      "urls": {
        "raw": "https://media.githubusercontent.com/media/ddh4r4m/wallpaper-collection/main/collection/wallpapers/nature/183.jpg",
        "thumb": "https://media.githubusercontent.com/media/ddh4r4m/wallpaper-collection/main/collection/thumbnails/nature/183.jpg"
      },
      "metadata": {
        "dimensions": {
          "width": 1080,
          "height": 1920
        },
        "file_size": 461267,
        "format": "JPEG",
        "added_at": "2025-07-17T00:04:24.234685",
        "hash": "b0026dc94345a560bd77f26b3e6e078c",
        "source": "migrated"
      }
    },
    {
      "id": "nature_184",
      "category": "nature",
      "title": "Nature Wallpaper 184",
      "tags": [
        "nature",
        "wallpaper",
        "hd",
        "mobile"
      ],
      "urls": {
        "raw": "https://media.githubusercontent.com/media/ddh4r4m/wallpaper-collection/main/collection/wallpapers/nature/184.jpg",
        "thumb": "https://media.githubusercontent.com/media/ddh4r4m/wallpaper-collection/main/collection/thumbnails/nature/184.jpg"
      },
      "metadata": {
        "dimensions": {
          "width": 1080,
          "height": 1920
        },
        "file_size": 449104,
        "format": "JPEG",
        "added_at": "2025-07-17T00:04:24.300123",
        "hash": "33228aff88ba38d831f43c24e48f54ed",
        "source": "migrated"
      }
    },
    {
      "id": "nature_185",
      "category": "nature",
      "title": "Nature Wallpaper 185",
      "tags": [
        "nature",
        "wallpaper",
        "hd",
        "mobile"
      ],
      "urls": {
        "raw": "https://media.githubusercontent.com/media/ddh4r4m/wallpaper-collection/main/collection/wallpapers/nature/185.jpg",
        "thumb": "https://media.githubusercontent.com/media/ddh4r4m/wallpaper-collection/main/collection/thumbnails/nature/185.jpg"
      },
      "metadata": {
        "dimensions": {
          "width": 1080,
          "height": 1920
        },
        "file_size": 285115,
        "format": "JPEG",
        "added_at": "2025-07-17T00:04:24.356970",
        "hash": "5b87dc3567e288a033a8fa179e12ec0c",
        "source": "migrated"
      }
    },
    {
      "id": "nature_186",
      "category": "nature",
      "title": "Nature Wallpaper 186",
      "tags": [
        "nature",
        "wallpaper",
        "hd",
        "mobile"
      ],
      "urls": {
        "raw": "https://media.githubusercontent.com/media/ddh4r4m/wallpaper-collection/main/collection/wallpapers/nature/186.jpg",
        "thumb": "https://media.githubusercontent.com/media/ddh4r4m/wallpaper-collection/main/collection/thumbnails/nature/186.jpg"
      },
      "metadata": {
        "dimensions": {
          "width": 1080,
          "height": 1920
        },
        "file_size": 478268,
        "format": "JPEG",
        "added_at": "2025-07-17T00:04:24.423485",
        "hash": "e280119cd33b255fdee00173bee52569",
        "source": "migrated"
      }
    },
    {
      "id": "nature_187",
      "category": "nature",
      "title": "Nature Wallpaper 187",
      "tags": [
        "nature",
        "wallpaper",
        "hd",
        "mobile"
      ],
      "urls": {
        "raw": "https://media.githubusercontent.com/media/ddh4r4m/wallpaper-collection/main/collection/wallpapers/nature/187.jpg",
        "thumb": "https://media.githubusercontent.com/media/ddh4r4m/wallpaper-collection/main/collection/thumbnails/nature/187.jpg"
      },
      "metadata": {
        "dimensions": {
          "width": 1080,
          "height": 1920
        },
        "file_size": 826028,
        "format": "JPEG",
        "added_at": "2025-07-17T00:04:24.508427",
        "hash": "2afcd1fc3dff40cad87f8a71fb7e7805",
        "source": "migrated"
      }
    },
    {
      "id": "nature_188",
      "category": "nature",
      "title": "Nature Wallpaper 188",
      "tags": [
        "nature",
        "wallpaper",
        "hd",
        "mobile"
      ],
      "urls": {
        "raw": "https://media.githubusercontent.com/media/ddh4r4m/wallpaper-collection/main/collection/wallpapers/nature/188.jpg",
        "thumb": "https://media.githubusercontent.com/media/ddh4r4m/wallpaper-collection/main/collection/thumbnails/nature/188.jpg"
      },
      "metadata": {
        "dimensions": {
          "width": 1080,
          "height": 1920
        },
        "file_size": 611868,
        "format": "JPEG",
        "added_at": "2025-07-17T00:04:24.585843",
        "hash": "7dacec2c90ced41289b41fd7758e08fa",
        "source": "migrated"
      }
    },
    {
      "id": "nature_189",
      "category": "nature",
      "title": "Nature Wallpaper 189",
      "tags": [
        "nature",
        "wallpaper",
        "hd",
        "mobile"
      ],
      "urls": {
        "raw": "https://media.githubusercontent.com/media/ddh4r4m/wallpaper-collection/main/collection/wallpapers/nature/189.jpg",
        "thumb": "https://media.githubusercontent.com/media/ddh4r4m/wallpaper-collection/main/collection/thumbnails/nature/189.jpg"
      },
      "metadata": {
        "dimensions": {
          "width": 1080,
          "height": 1920
        },
        "file_size": 551748,
        "format": "JPEG",
        "added_at": "2025-07-17T00:04:24.656002",
        "hash": "17c943e91c9e314ef9b9c290ac1a4b0c",
        "source": "migrated"
      }
    },
    {
      "id": "nature_190",
      "category": "nature",
      "title": "Nature Wallpaper 190",
      "tags": [
        "nature",
        "wallpaper",
        "hd",
        "mobile"
      ],
      "urls": {
        "raw": "https://media.githubusercontent.com/media/ddh4r4m/wallpaper-collection/main/collection/wallpapers/nature/190.jpg",
        "thumb": "https://media.githubusercontent.com/media/ddh4r4m/wallpaper-collection/main/collection/thumbnails/nature/190.jpg"
      },
      "metadata": {
        "dimensions": {
          "width": 1080,
          "height": 1920
        },
        "file_size": 563477,
        "format": "JPEG",
        "added_at": "2025-07-17T00:04:24.727290",
        "hash": "86d1d2c2cd4e3fd8bd1e5f32b3e5cda1",
        "source": "migrated"
      }
    },
    {
      "id": "nature_191",
      "category": "nature",
      "title": "Nature Wallpaper 191",
      "tags": [
        "nature",
        "wallpaper",
        "hd",
        "mobile"
      ],
      "urls": {
        "raw": "https://media.githubusercontent.com/media/ddh4r4m/wallpaper-collection/main/collection/wallpapers/nature/191.jpg",
        "thumb": "https://media.githubusercontent.com/media/ddh4r4m/wallpaper-collection/main/collection/thumbnails/nature/191.jpg"
      },
      "metadata": {
        "dimensions": {
          "width": 1080,
          "height": 1920
        },
        "file_size": 471052,
        "format": "JPEG",
        "added_at": "2025-07-17T00:04:24.794986",
        "hash": "6c9da257670b7e56506a7aad2dbae67c",
        "source": "migrated"
      }
    },
    {
      "id": "nature_192",
      "category": "nature",
      "title": "Nature Wallpaper 192",
      "tags": [
        "nature",
        "wallpaper",
        "hd",
        "mobile"
      ],
      "urls": {
        "raw": "https://media.githubusercontent.com/media/ddh4r4m/wallpaper-collection/main/collection/wallpapers/nature/192.jpg",
        "thumb": "https://media.githubusercontent.com/media/ddh4r4m/wallpaper-collection/main/collection/thumbnails/nature/192.jpg"
      },
      "metadata": {
        "dimensions": {
          "width": 1080,
          "height": 1920
        },
        "file_size": 390683,
        "format": "JPEG",
        "added_at": "2025-07-17T00:04:24.858888",
        "hash": "3067b8e9fbf5f68e2eef1e7e5ec1b1a8",
        "source": "migrated"
      }
    },
    {
      "id": "nature_193",
      "category": "nature",
      "title": "Nature Wallpaper 193",
      "tags": [
        "nature",
        "wallpaper",
        "hd",
        "mobile"
      ],
      "urls": {
        "raw": "https://media.githubusercontent.com/media/ddh4r4m/wallpaper-collection/main/collection/wallpapers/nature/193.jpg",
        "thumb": "https://media.githubusercontent.com/media/ddh4r4m/wallpaper-collection/main/collection/thumbnails/nature/193.jpg"
      },
      "metadata": {
        "dimensions": {
          "width": 1080,
          "height": 1920
        },
        "file_size": 394700,
        "format": "JPEG",
        "added_at": "2025-07-17T00:04:24.919833",
        "hash": "506fb9450c3f776bcdd2cc02daef95e3",
        "source": "migrated"
      }
    }
  ]
}