{
  "meta": {
    "version": "1.0",
    "generated_at": "2025-07-28T22:48:38.208699",
    "page": 116,
    "per_page": 15,
    "total_pages": 183,
    "total_count": 2737,
    "count_on_page": 15,
    "categories": 22,
    "has_next": true,
    "has_prev": true,
    "next_page_url": "/api/v1/all/pages/117.json",
    "prev_page_url": "/api/v1/all/pages/115.json"
  },
  "data": [
    {
      "id": "nature_049",
      "category": "nature",
      "title": "Nature Wallpaper 049",
      "tags": [
        "nature",
        "wallpaper",
        "hd",
        "mobile"
      ],
      "urls": {
        "raw": "https://media.githubusercontent.com/media/ddh4r4m/wallpaper-collection/main/collection/wallpapers/nature/049.jpg",
        "thumb": "https://media.githubusercontent.com/media/ddh4r4m/wallpaper-collection/main/collection/thumbnails/nature/049.jpg"
      },
      "metadata": {
        "dimensions": {
          "width": 1080,
          "height": 1920
        },
        "file_size": 620668,
        "format": "JPEG",
        "added_at": "2025-07-17T00:04:15.169070",
        "hash": "101d08e39c0c7261d920fb6e065be108",
        "source": "migrated"
      }
    },
    {
      "id": "nature_050",
      "category": "nature",
      "title": "Nature Wallpaper 050",
      "tags": [
        "nature",
        "wallpaper",
        "hd",
        "mobile"
      ],
      "urls": {
        "raw": "https://media.githubusercontent.com/media/ddh4r4m/wallpaper-collection/main/collection/wallpapers/nature/050.jpg",
        "thumb": "https://media.githubusercontent.com/media/ddh4r4m/wallpaper-collection/main/collection/thumbnails/nature/050.jpg"
      },
      "metadata": {
        "dimensions": {
          "width": 1080,
          "height": 1920
        },
        "file_size": 736221,
        "format": "JPEG",
        "added_at": "2025-07-17T00:04:15.248796",
        "hash": "1a9b3d6bf5abee28249fb016883204b8",
        "source": "migrated"
      }
    },
    {
      "id": "nature_051",
      "category": "nature",
      "title": "Nature Wallpaper 051",
      "tags": [
        "nature",
        "wallpaper",
        "hd",
        "mobile"
      ],
      "urls": {
        "raw": "https://media.githubusercontent.com/media/ddh4r4m/wallpaper-collection/main/collection/wallpapers/nature/051.jpg",
        "thumb": "https://media.githubusercontent.com/media/ddh4r4m/wallpaper-collection/main/collection/thumbnails/nature/051.jpg"
      },
      "metadata": {
        "dimensions": {
          "width": 1080,
          "height": 1920
        },
        "file_size": 761396,
        "format": "JPEG",
        "added_at": "2025-07-17T00:04:15.330847",
        "hash": "21be02eb2eee5c7c44631e89a69777ac",
        "source": "migrated"
      }
    },
    {
      "id": "nature_052",
      "category": "nature",
      "title": "Nature Wallpaper 052",
      "tags": [
        "nature",
        "wallpaper",
        "hd",
        "mobile"
      ],
      "urls": {
        "raw": "https://media.githubusercontent.com/media/ddh4r4m/wallpaper-collection/main/collection/wallpapers/nature/052.jpg",
        "thumb": "https://media.githubusercontent.com/media/ddh4r4m/wallpaper-collection/main/collection/thumbnails/nature/052.jpg"
      },
      "metadata": {
        "dimensions": {
          "width": 1080,
          "height": 1920
        },
        "file_size": 544093,
        "format": "JPEG",
        "added_at": "2025-07-17T00:04:15.401446",
        "hash": "f00cf58a4861ccd19b3803b8dfb2d1f1",
        "source": "migrated"
      }
    },
    {
      "id": "nature_053",
      "category": "nature",
      "title": "Nature Wallpaper 053",
      "tags": [
        "nature",
        "wallpaper",
        "hd",
        "mobile"
      ],
      "urls": {
        "raw": "https://media.githubusercontent.com/media/ddh4r4m/wallpaper-collection/main/collection/wallpapers/nature/053.jpg",
        "thumb": "https://media.githubusercontent.com/media/ddh4r4m/wallpaper-collection/main/collection/thumbnails/nature/053.jpg"
      },
      "metadata": {
        "dimensions": {
          "width": 1080,
          "height": 1920
        },
        "file_size": 470110,
        "format": "JPEG",
        "added_at": "2025-07-17T00:04:15.465468",
        "hash": "c5d27db7d2337ad9d9db77b580fbb05e",
        "source": "migrated"
      }
    },
    {
      "id": "nature_054",
      "category": "nature",
      "title": "Nature Wallpaper 054",
      "tags": [
        "nature",
        "wallpaper",
        "hd",
        "mobile"
      ],
      "urls": {
        "raw": "https://media.githubusercontent.com/media/ddh4r4m/wallpaper-collection/main/collection/wallpapers/nature/054.jpg",
        "thumb": "https://media.githubusercontent.com/media/ddh4r4m/wallpaper-collection/main/collection/thumbnails/nature/054.jpg"
      },
      "metadata": {
        "dimensions": {
          "width": 1080,
          "height": 1920
        },
        "file_size": 143331,
        "format": "JPEG",
        "added_at": "2025-07-17T00:04:15.514740",
        "hash": "bfd1482fc1192bbe9c7613792a8b4eb0",
        "source": "migrated"
      }
    },
    {
      "id": "nature_055",
      "category": "nature",
      "title": "Nature Wallpaper 055",
      "tags": [
        "nature",
        "wallpaper",
        "hd",
        "mobile"
      ],
      "urls": {
        "raw": "https://media.githubusercontent.com/media/ddh4r4m/wallpaper-collection/main/collection/wallpapers/nature/055.jpg",
        "thumb": "https://media.githubusercontent.com/media/ddh4r4m/wallpaper-collection/main/collection/thumbnails/nature/055.jpg"
      },
      "metadata": {
        "dimensions": {
          "width": 1080,
          "height": 1920
        },
        "file_size": 835258,
        "format": "JPEG",
        "added_at": "2025-07-17T00:04:15.598472",
        "hash": "af92a49ca4077de1212d1fce39173e8e",
        "source": "migrated"
      }
    },
    {
      "id": "nature_056",
      "category": "nature",
      "title": "Nature Wallpaper 056",
      "tags": [
        "nature",
        "wallpaper",
        "hd",
        "mobile"
      ],
      "urls": {
        "raw": "https://media.githubusercontent.com/media/ddh4r4m/wallpaper-collection/main/collection/wallpapers/nature/056.jpg",
        "thumb": "https://media.githubusercontent.com/media/ddh4r4m/wallpaper-collection/main/collection/thumbnails/nature/056.jpg"
      },
      "metadata": {
        "dimensions": {
          "width": 1080,
          "height": 1920
        },
        "file_size": 349498,
        "format": "JPEG",
        "added_at": "2025-07-17T00:04:15.660782",
        "hash": "5e12bbcae553f9333f9cfeb1e8bc60e6",
        "source": "migrated"
      }
    },
    {
      "id": "nature_057",
      "category": "nature",
      "title": "Nature Wallpaper 057",
      "tags": [
        "nature",
        "wallpaper",
        "hd",
        "mobile"
      ],
      "urls": {
        "raw": "https://media.githubusercontent.com/media/ddh4r4m/wallpaper-collection/main/collection/wallpapers/nature/057.jpg",
        "thumb": "https://media.githubusercontent.com/media/ddh4r4m/wallpaper-collection/main/collection/thumbnails/nature/057.jpg"
      },
      "metadata": {
        "dimensions": {
          "width": 1080,
          "height": 1920
        },
        "file_size": 744906,
        "format": "JPEG",
        "added_at": "2025-07-17T00:04:15.737720",
        "hash": "1d110ffdfffb8e2f1696caf5c1d4b4eb",
        "source": "migrated"
      }
    },
    {
      "id": "nature_058",
      "category": "nature",
      "title": "Nature Wallpaper 058",
      "tags": [
        "nature",
        "wallpaper",
        "hd",
        "mobile"
      ],
      "urls": {
        "raw": "https://media.githubusercontent.com/media/ddh4r4m/wallpaper-collection/main/collection/wallpapers/nature/058.jpg",
        "thumb": "https://media.githubusercontent.com/media/ddh4r4m/wallpaper-collection/main/collection/thumbnails/nature/058.jpg"
      },
      "metadata": {
        "dimensions": {
          "width": 1080,
          "height": 1920
        },
        "file_size": 452470,
        "format": "JPEG",
        "added_at": "2025-07-17T00:04:15.802874",
        "hash": "9b543ecd96a9e61ee5b1474cdb2f2a53",
        "source": "migrated"
      }
    },
    {
      "id": "nature_059",
      "category": "nature",
      "title": "Nature Wallpaper 059",
      "tags": [
        "nature",
        "wallpaper",
        "hd",
        "mobile"
      ],
      "urls": {
        "raw": "https://media.githubusercontent.com/media/ddh4r4m/wallpaper-collection/main/collection/wallpapers/nature/059.jpg",
        "thumb": "https://media.githubusercontent.com/media/ddh4r4m/wallpaper-collection/main/collection/thumbnails/nature/059.jpg"
      },
      "metadata": {
        "dimensions": {
          "width": 1080,
          "height": 1920
        },
        "file_size": 875937,
        "format": "JPEG",
        "added_at": "2025-07-17T00:04:15.888129",
        "hash": "c9bc9e281e98f72e19f425d782cd7674",
        "source": "migrated"
      }
    },
    {
      "id": "nature_060",
      "category": "nature",
      "title": "Nature Wallpaper 060",
      "tags": [
        "nature",
        "wallpaper",
        "hd",
        "mobile"
      ],
      "urls": {
        "raw": "https://media.githubusercontent.com/media/ddh4r4m/wallpaper-collection/main/collection/wallpapers/nature/060.jpg",
        "thumb": "https://media.githubusercontent.com/media/ddh4r4m/wallpaper-collection/main/collection/thumbnails/nature/060.jpg"
      },
      "metadata": {
        "dimensions": {
          "width": 1080,
          "height": 1920
        },
        "file_size": 343631,
        "format": "JPEG",
        "added_at": "2025-07-17T00:04:15.949519",
        "hash": "6f09315f23508e0aa4484c1f3fe97cd2",
        "source": "migrated"
      }
    },
    {
      "id": "nature_061",
      "category": "nature",
      "title": "Nature Wallpaper 061",
      "tags": [
        "nature",
        "wallpaper",
        "hd",
        "mobile"
      ],
      "urls": {
        "raw": "https://media.githubusercontent.com/media/ddh4r4m/wallpaper-collection/main/collection/wallpapers/nature/061.jpg",
        "thumb": "https://media.githubusercontent.com/media/ddh4r4m/wallpaper-collection/main/collection/thumbnails/nature/061.jpg"
      },
      "metadata": {
        "dimensions": {
          "width": 1080,
          "height": 1920
        },
        "file_size": 412965,
        "format": "JPEG",
        "added_at": "2025-07-17T00:04:16.013403",
        "hash": "7bdbcb8be8586e976824d57ddca68722",
        "source": "migrated"
      }
    },
    {
      "id": "nature_062",
      "category": "nature",
      "title": "Nature Wallpaper 062",
      "tags": [
        "nature",
        "wallpaper",
        "hd",
        "mobile"
      ],
      "urls": {
        "raw": "https://media.githubusercontent.com/media/ddh4r4m/wallpaper-collection/main/collection/wallpapers/nature/062.jpg",
        "thumb": "https://media.githubusercontent.com/media/ddh4r4m/wallpaper-collection/main/collection/thumbnails/nature/062.jpg"
      },
      "metadata": {
        "dimensions": {
          "width": 1080,
          "height": 1920
        },
        "file_size": 532079,
        "format": "JPEG",
        "added_at": "2025-07-17T00:04:16.083350",
        "hash": "60f1f6c64451cae624bad9fba68806b5",
        "source": "migrated"
      }
    },
    {
      "id": "nature_063",
      "category": "nature",
      "title": "Nature Wallpaper 063",
      "tags": [
        "nature",
        "wallpaper",
        "hd",
        "mobile"
      ],
      "urls": {
        "raw": "https://media.githubusercontent.com/media/ddh4r4m/wallpaper-collection/main/collection/wallpapers/nature/063.jpg",
        "thumb": "https://media.githubusercontent.com/media/ddh4r4m/wallpaper-collection/main/collection/thumbnails/nature/063.jpg"
      },
      "metadata": {
        "dimensions": {
          "width": 1080,
          "height": 1920
        },
        "file_size": 427510,
        "format": "JPEG",
        "added_at": "2025-07-17T00:04:16.148212",
        "hash": "2a056f926c3a49e72a1a6c60014b8816",
        "source": "migrated"
      }
    }
  ]
}