{
  "meta": {
    "version": "1.0",
    "generated_at": "2025-07-28T23:12:02.393375",
    "page": 117,
    "per_page": 15,
    "total_pages": 183,
    "total_count": 2743,
    "count_on_page": 15,
    "categories": 22,
    "has_next": true,
    "has_prev": true,
    "next_page_url": "/api/v1/all/pages/118.json",
    "prev_page_url": "/api/v1/all/pages/116.json"
  },
  "data": [
    {
      "id": "nature_058",
      "category": "nature",
      "title": "Nature Wallpaper 058",
      "tags": [
        "nature",
        "wallpaper",
        "hd",
        "mobile"
      ],
      "urls": {
        "raw": "https://media.githubusercontent.com/media/ddh4r4m/wallpaper-collection/main/collection/wallpapers/nature/058.jpg",
        "thumb": "https://media.githubusercontent.com/media/ddh4r4m/wallpaper-collection/main/collection/thumbnails/nature/058.jpg"
      },
      "metadata": {
        "dimensions": {
          "width": 1080,
          "height": 1920
        },
        "file_size": 452470,
        "format": "JPEG",
        "added_at": "2025-07-17T00:04:15.802874",
        "hash": "9b543ecd96a9e61ee5b1474cdb2f2a53",
        "source": "migrated"
      }
    },
    {
      "id": "nature_059",
      "category": "nature",
      "title": "Nature Wallpaper 059",
      "tags": [
        "nature",
        "wallpaper",
        "hd",
        "mobile"
      ],
      "urls": {
        "raw": "https://media.githubusercontent.com/media/ddh4r4m/wallpaper-collection/main/collection/wallpapers/nature/059.jpg",
        "thumb": "https://media.githubusercontent.com/media/ddh4r4m/wallpaper-collection/main/collection/thumbnails/nature/059.jpg"
      },
      "metadata": {
        "dimensions": {
          "width": 1080,
          "height": 1920
        },
        "file_size": 875937,
        "format": "JPEG",
        "added_at": "2025-07-17T00:04:15.888129",
        "hash": "c9bc9e281e98f72e19f425d782cd7674",
        "source": "migrated"
      }
    },
    {
      "id": "nature_060",
      "category": "nature",
      "title": "Nature Wallpaper 060",
      "tags": [
        "nature",
        "wallpaper",
        "hd",
        "mobile"
      ],
      "urls": {
        "raw": "https://media.githubusercontent.com/media/ddh4r4m/wallpaper-collection/main/collection/wallpapers/nature/060.jpg",
        "thumb": "https://media.githubusercontent.com/media/ddh4r4m/wallpaper-collection/main/collection/thumbnails/nature/060.jpg"
      },
      "metadata": {
        "dimensions": {
          "width": 1080,
          "height": 1920
        },
        "file_size": 343631,
        "format": "JPEG",
        "added_at": "2025-07-17T00:04:15.949519",
        "hash": "6f09315f23508e0aa4484c1f3fe97cd2",
        "source": "migrated"
      }
    },
    {
      "id": "nature_061",
      "category": "nature",
      "title": "Nature Wallpaper 061",
      "tags": [
        "nature",
        "wallpaper",
        "hd",
        "mobile"
      ],
      "urls": {
        "raw": "https://media.githubusercontent.com/media/ddh4r4m/wallpaper-collection/main/collection/wallpapers/nature/061.jpg",
        "thumb": "https://media.githubusercontent.com/media/ddh4r4m/wallpaper-collection/main/collection/thumbnails/nature/061.jpg"
      },
      "metadata": {
        "dimensions": {
          "width": 1080,
          "height": 1920
        },
        "file_size": 412965,
        "format": "JPEG",
        "added_at": "2025-07-17T00:04:16.013403",
        "hash": "7bdbcb8be8586e976824d57ddca68722",
        "source": "migrated"
      }
    },
    {
      "id": "nature_062",
      "category": "nature",
      "title": "Nature Wallpaper 062",
      "tags": [
        "nature",
        "wallpaper",
        "hd",
        "mobile"
      ],
      "urls": {
        "raw": "https://media.githubusercontent.com/media/ddh4r4m/wallpaper-collection/main/collection/wallpapers/nature/062.jpg",
        "thumb": "https://media.githubusercontent.com/media/ddh4r4m/wallpaper-collection/main/collection/thumbnails/nature/062.jpg"
      },
      "metadata": {
        "dimensions": {
          "width": 1080,
          "height": 1920
        },
        "file_size": 532079,
        "format": "JPEG",
        "added_at": "2025-07-17T00:04:16.083350",
        "hash": "60f1f6c64451cae624bad9fba68806b5",
        "source": "migrated"
      }
    },
    {
      "id": "nature_063",
      "category": "nature",
      "title": "Nature Wallpaper 063",
      "tags": [
        "nature",
        "wallpaper",
        "hd",
        "mobile"
      ],
      "urls": {
        "raw": "https://media.githubusercontent.com/media/ddh4r4m/wallpaper-collection/main/collection/wallpapers/nature/063.jpg",
        "thumb": "https://media.githubusercontent.com/media/ddh4r4m/wallpaper-collection/main/collection/thumbnails/nature/063.jpg"
      },
      "metadata": {
        "dimensions": {
          "width": 1080,
          "height": 1920
        },
        "file_size": 427510,
        "format": "JPEG",
        "added_at": "2025-07-17T00:04:16.148212",
        "hash": "2a056f926c3a49e72a1a6c60014b8816",
        "source": "migrated"
      }
    },
    {
      "id": "nature_064",
      "category": "nature",
      "title": "Nature Wallpaper 064",
      "tags": [
        "nature",
        "wallpaper",
        "hd",
        "mobile"
      ],
      "urls": {
        "raw": "https://media.githubusercontent.com/media/ddh4r4m/wallpaper-collection/main/collection/wallpapers/nature/064.jpg",
        "thumb": "https://media.githubusercontent.com/media/ddh4r4m/wallpaper-collection/main/collection/thumbnails/nature/064.jpg"
      },
      "metadata": {
        "dimensions": {
          "width": 1080,
          "height": 1920
        },
        "file_size": 675336,
        "format": "JPEG",
        "added_at": "2025-07-17T00:04:16.222903",
        "hash": "64d5ee0e323c50c1c585ac548d2e7ff5",
        "source": "migrated"
      }
    },
    {
      "id": "nature_065",
      "category": "nature",
      "title": "Nature Wallpaper 065",
      "tags": [
        "nature",
        "wallpaper",
        "hd",
        "mobile"
      ],
      "urls": {
        "raw": "https://media.githubusercontent.com/media/ddh4r4m/wallpaper-collection/main/collection/wallpapers/nature/065.jpg",
        "thumb": "https://media.githubusercontent.com/media/ddh4r4m/wallpaper-collection/main/collection/thumbnails/nature/065.jpg"
      },
      "metadata": {
        "dimensions": {
          "width": 1080,
          "height": 1920
        },
        "file_size": 488404,
        "format": "JPEG",
        "added_at": "2025-07-17T00:04:16.288662",
        "hash": "1a0f1565130922c273c3eea0b57f4624",
        "source": "migrated"
      }
    },
    {
      "id": "nature_066",
      "category": "nature",
      "title": "Nature Wallpaper 066",
      "tags": [
        "nature",
        "wallpaper",
        "hd",
        "mobile"
      ],
      "urls": {
        "raw": "https://media.githubusercontent.com/media/ddh4r4m/wallpaper-collection/main/collection/wallpapers/nature/066.jpg",
        "thumb": "https://media.githubusercontent.com/media/ddh4r4m/wallpaper-collection/main/collection/thumbnails/nature/066.jpg"
      },
      "metadata": {
        "dimensions": {
          "width": 1080,
          "height": 1920
        },
        "file_size": 551613,
        "format": "JPEG",
        "added_at": "2025-07-17T00:04:16.358878",
        "hash": "46e0d36971107812588237ce69dd7972",
        "source": "migrated"
      }
    },
    {
      "id": "nature_067",
      "category": "nature",
      "title": "Nature Wallpaper 067",
      "tags": [
        "nature",
        "wallpaper",
        "hd",
        "mobile"
      ],
      "urls": {
        "raw": "https://media.githubusercontent.com/media/ddh4r4m/wallpaper-collection/main/collection/wallpapers/nature/067.jpg",
        "thumb": "https://media.githubusercontent.com/media/ddh4r4m/wallpaper-collection/main/collection/thumbnails/nature/067.jpg"
      },
      "metadata": {
        "dimensions": {
          "width": 1080,
          "height": 1920
        },
        "file_size": 749381,
        "format": "JPEG",
        "added_at": "2025-07-17T00:04:16.440794",
        "hash": "fe3f98443f1440e83f59063e1ae05827",
        "source": "migrated"
      }
    },
    {
      "id": "nature_068",
      "category": "nature",
      "title": "Nature Wallpaper 068",
      "tags": [
        "nature",
        "wallpaper",
        "hd",
        "mobile"
      ],
      "urls": {
        "raw": "https://media.githubusercontent.com/media/ddh4r4m/wallpaper-collection/main/collection/wallpapers/nature/068.jpg",
        "thumb": "https://media.githubusercontent.com/media/ddh4r4m/wallpaper-collection/main/collection/thumbnails/nature/068.jpg"
      },
      "metadata": {
        "dimensions": {
          "width": 1080,
          "height": 1920
        },
        "file_size": 360556,
        "format": "JPEG",
        "added_at": "2025-07-17T00:04:16.502417",
        "hash": "2931fab0cc8e7a087a25fe44f07b8757",
        "source": "migrated"
      }
    },
    {
      "id": "nature_069",
      "category": "nature",
      "title": "Nature Wallpaper 069",
      "tags": [
        "nature",
        "wallpaper",
        "hd",
        "mobile"
      ],
      "urls": {
        "raw": "https://media.githubusercontent.com/media/ddh4r4m/wallpaper-collection/main/collection/wallpapers/nature/069.jpg",
        "thumb": "https://media.githubusercontent.com/media/ddh4r4m/wallpaper-collection/main/collection/thumbnails/nature/069.jpg"
      },
      "metadata": {
        "dimensions": {
          "width": 1080,
          "height": 1920
        },
        "file_size": 589347,
        "format": "JPEG",
        "added_at": "2025-07-17T00:04:16.575017",
        "hash": "34df96f775e83f82ffd98d7126268c22",
        "source": "migrated"
      }
    },
    {
      "id": "nature_070",
      "category": "nature",
      "title": "Nature Wallpaper 070",
      "tags": [
        "nature",
        "wallpaper",
        "hd",
        "mobile"
      ],
      "urls": {
        "raw": "https://media.githubusercontent.com/media/ddh4r4m/wallpaper-collection/main/collection/wallpapers/nature/070.jpg",
        "thumb": "https://media.githubusercontent.com/media/ddh4r4m/wallpaper-collection/main/collection/thumbnails/nature/070.jpg"
      },
      "metadata": {
        "dimensions": {
          "width": 1080,
          "height": 1920
        },
        "file_size": 251100,
        "format": "JPEG",
        "added_at": "2025-07-17T00:04:16.629814",
        "hash": "84eebebf5f8fa7bf2f018c9e661a92d2",
        "source": "migrated"
      }
    },
    {
      "id": "nature_071",
      "category": "nature",
      "title": "Nature Wallpaper 071",
      "tags": [
        "nature",
        "wallpaper",
        "hd",
        "mobile"
      ],
      "urls": {
        "raw": "https://media.githubusercontent.com/media/ddh4r4m/wallpaper-collection/main/collection/wallpapers/nature/071.jpg",
        "thumb": "https://media.githubusercontent.com/media/ddh4r4m/wallpaper-collection/main/collection/thumbnails/nature/071.jpg"
      },
      "metadata": {
        "dimensions": {
          "width": 1080,
          "height": 1920
        },
        "file_size": 418694,
        "format": "JPEG",
        "added_at": "2025-07-17T00:04:16.692819",
        "hash": "9369fcaac15bc5fec3b050818ac3c7a1",
        "source": "migrated"
      }
    },
    {
      "id": "nature_072",
      "category": "nature",
      "title": "Nature Wallpaper 072",
      "tags": [
        "nature",
        "wallpaper",
        "hd",
        "mobile"
      ],
      "urls": {
        "raw": "https://media.githubusercontent.com/media/ddh4r4m/wallpaper-collection/main/collection/wallpapers/nature/072.jpg",
        "thumb": "https://media.githubusercontent.com/media/ddh4r4m/wallpaper-collection/main/collection/thumbnails/nature/072.jpg"
      },
      "metadata": {
        "dimensions": {
          "width": 1080,
          "height": 1920
        },
        "file_size": 366408,
        "format": "JPEG",
        "added_at": "2025-07-17T00:04:16.752926",
        "hash": "57139c290cfc7270153ba9864614d800",
        "source": "migrated"
      }
    }
  ]
}