{
  "meta": {
    "version": "1.0",
    "generated_at": "2025-07-28T22:38:03.579947",
    "page": 123,
    "per_page": 15,
    "total_pages": 178,
    "total_count": 2656,
    "count_on_page": 15,
    "categories": 21,
    "has_next": true,
    "has_prev": true,
    "next_page_url": "/api/v1/all/pages/124.json",
    "prev_page_url": "/api/v1/all/pages/122.json"
  },
  "data": [
    {
      "id": "nature_154",
      "category": "nature",
      "title": "Nature Wallpaper 154",
      "tags": [
        "nature",
        "wallpaper",
        "hd",
        "mobile"
      ],
      "urls": {
        "raw": "https://media.githubusercontent.com/media/ddh4r4m/wallpaper-collection/main/collection/wallpapers/nature/154.jpg",
        "thumb": "https://media.githubusercontent.com/media/ddh4r4m/wallpaper-collection/main/collection/thumbnails/nature/154.jpg"
      },
      "metadata": {
        "dimensions": {
          "width": 1080,
          "height": 1920
        },
        "file_size": 619150,
        "format": "JPEG",
        "added_at": "2025-07-17T00:04:22.262450",
        "hash": "e6d084a2b4ee3fb844d1ac483c13e07a",
        "source": "migrated"
      }
    },
    {
      "id": "nature_155",
      "category": "nature",
      "title": "Nature Wallpaper 155",
      "tags": [
        "nature",
        "wallpaper",
        "hd",
        "mobile"
      ],
      "urls": {
        "raw": "https://media.githubusercontent.com/media/ddh4r4m/wallpaper-collection/main/collection/wallpapers/nature/155.jpg",
        "thumb": "https://media.githubusercontent.com/media/ddh4r4m/wallpaper-collection/main/collection/thumbnails/nature/155.jpg"
      },
      "metadata": {
        "dimensions": {
          "width": 1080,
          "height": 1920
        },
        "file_size": 393941,
        "format": "JPEG",
        "added_at": "2025-07-17T00:04:22.324732",
        "hash": "c58fd4b29c010bff6a0d9669dfc8c78d",
        "source": "migrated"
      }
    },
    {
      "id": "nature_156",
      "category": "nature",
      "title": "Nature Wallpaper 156",
      "tags": [
        "nature",
        "wallpaper",
        "hd",
        "mobile"
      ],
      "urls": {
        "raw": "https://media.githubusercontent.com/media/ddh4r4m/wallpaper-collection/main/collection/wallpapers/nature/156.jpg",
        "thumb": "https://media.githubusercontent.com/media/ddh4r4m/wallpaper-collection/main/collection/thumbnails/nature/156.jpg"
      },
      "metadata": {
        "dimensions": {
          "width": 1080,
          "height": 1920
        },
        "file_size": 182355,
        "format": "JPEG",
        "added_at": "2025-07-17T00:04:22.377199",
        "hash": "e53a72e0377be3f6e30c9df50c94b682",
        "source": "migrated"
      }
    },
    {
      "id": "nature_157",
      "category": "nature",
      "title": "Nature Wallpaper 157",
      "tags": [
        "nature",
        "wallpaper",
        "hd",
        "mobile"
      ],
      "urls": {
        "raw": "https://media.githubusercontent.com/media/ddh4r4m/wallpaper-collection/main/collection/wallpapers/nature/157.jpg",
        "thumb": "https://media.githubusercontent.com/media/ddh4r4m/wallpaper-collection/main/collection/thumbnails/nature/157.jpg"
      },
      "metadata": {
        "dimensions": {
          "width": 1080,
          "height": 1920
        },
        "file_size": 445952,
        "format": "JPEG",
        "added_at": "2025-07-17T00:04:22.442613",
        "hash": "33d9145d75f02a74b9019eab587bfef1",
        "source": "migrated"
      }
    },
    {
      "id": "nature_158",
      "category": "nature",
      "title": "Nature Wallpaper 158",
      "tags": [
        "nature",
        "wallpaper",
        "hd",
        "mobile"
      ],
      "urls": {
        "raw": "https://media.githubusercontent.com/media/ddh4r4m/wallpaper-collection/main/collection/wallpapers/nature/158.jpg",
        "thumb": "https://media.githubusercontent.com/media/ddh4r4m/wallpaper-collection/main/collection/thumbnails/nature/158.jpg"
      },
      "metadata": {
        "dimensions": {
          "width": 1080,
          "height": 1920
        },
        "file_size": 601431,
        "format": "JPEG",
        "added_at": "2025-07-17T00:04:22.516360",
        "hash": "7fa329251ba73f91eb80899815f934b7",
        "source": "migrated"
      }
    },
    {
      "id": "nature_159",
      "category": "nature",
      "title": "Nature Wallpaper 159",
      "tags": [
        "nature",
        "wallpaper",
        "hd",
        "mobile"
      ],
      "urls": {
        "raw": "https://media.githubusercontent.com/media/ddh4r4m/wallpaper-collection/main/collection/wallpapers/nature/159.jpg",
        "thumb": "https://media.githubusercontent.com/media/ddh4r4m/wallpaper-collection/main/collection/thumbnails/nature/159.jpg"
      },
      "metadata": {
        "dimensions": {
          "width": 1080,
          "height": 1920
        },
        "file_size": 561021,
        "format": "JPEG",
        "added_at": "2025-07-17T00:04:22.585900",
        "hash": "b45173ba82e13584aa17196c81473583",
        "source": "migrated"
      }
    },
    {
      "id": "nature_160",
      "category": "nature",
      "title": "Nature Wallpaper 160",
      "tags": [
        "nature",
        "wallpaper",
        "hd",
        "mobile"
      ],
      "urls": {
        "raw": "https://media.githubusercontent.com/media/ddh4r4m/wallpaper-collection/main/collection/wallpapers/nature/160.jpg",
        "thumb": "https://media.githubusercontent.com/media/ddh4r4m/wallpaper-collection/main/collection/thumbnails/nature/160.jpg"
      },
      "metadata": {
        "dimensions": {
          "width": 1080,
          "height": 1920
        },
        "file_size": 451969,
        "format": "JPEG",
        "added_at": "2025-07-17T00:04:22.651102",
        "hash": "f5e75286c6d03532b167d3201afc640c",
        "source": "migrated"
      }
    },
    {
      "id": "nature_161",
      "category": "nature",
      "title": "Nature Wallpaper 161",
      "tags": [
        "nature",
        "wallpaper",
        "hd",
        "mobile"
      ],
      "urls": {
        "raw": "https://media.githubusercontent.com/media/ddh4r4m/wallpaper-collection/main/collection/wallpapers/nature/161.jpg",
        "thumb": "https://media.githubusercontent.com/media/ddh4r4m/wallpaper-collection/main/collection/thumbnails/nature/161.jpg"
      },
      "metadata": {
        "dimensions": {
          "width": 1080,
          "height": 1920
        },
        "file_size": 405137,
        "format": "JPEG",
        "added_at": "2025-07-17T00:04:22.714605",
        "hash": "8b0a9ffc7f58d50f484ae3c01ef39dfb",
        "source": "migrated"
      }
    },
    {
      "id": "nature_162",
      "category": "nature",
      "title": "Nature Wallpaper 162",
      "tags": [
        "nature",
        "wallpaper",
        "hd",
        "mobile"
      ],
      "urls": {
        "raw": "https://media.githubusercontent.com/media/ddh4r4m/wallpaper-collection/main/collection/wallpapers/nature/162.jpg",
        "thumb": "https://media.githubusercontent.com/media/ddh4r4m/wallpaper-collection/main/collection/thumbnails/nature/162.jpg"
      },
      "metadata": {
        "dimensions": {
          "width": 1080,
          "height": 1920
        },
        "file_size": 571604,
        "format": "JPEG",
        "added_at": "2025-07-17T00:04:22.786195",
        "hash": "59ccac155fac34565479f447c782d46e",
        "source": "migrated"
      }
    },
    {
      "id": "nature_163",
      "category": "nature",
      "title": "Nature Wallpaper 163",
      "tags": [
        "nature",
        "wallpaper",
        "hd",
        "mobile"
      ],
      "urls": {
        "raw": "https://media.githubusercontent.com/media/ddh4r4m/wallpaper-collection/main/collection/wallpapers/nature/163.jpg",
        "thumb": "https://media.githubusercontent.com/media/ddh4r4m/wallpaper-collection/main/collection/thumbnails/nature/163.jpg"
      },
      "metadata": {
        "dimensions": {
          "width": 1080,
          "height": 1920
        },
        "file_size": 456883,
        "format": "JPEG",
        "added_at": "2025-07-17T00:04:22.852253",
        "hash": "053be9a5f0aa60fea88942798ff8a84a",
        "source": "migrated"
      }
    },
    {
      "id": "nature_164",
      "category": "nature",
      "title": "Nature Wallpaper 164",
      "tags": [
        "nature",
        "wallpaper",
        "hd",
        "mobile"
      ],
      "urls": {
        "raw": "https://media.githubusercontent.com/media/ddh4r4m/wallpaper-collection/main/collection/wallpapers/nature/164.jpg",
        "thumb": "https://media.githubusercontent.com/media/ddh4r4m/wallpaper-collection/main/collection/thumbnails/nature/164.jpg"
      },
      "metadata": {
        "dimensions": {
          "width": 1080,
          "height": 1920
        },
        "file_size": 611300,
        "format": "JPEG",
        "added_at": "2025-07-17T00:04:22.926160",
        "hash": "1674b8262bacc435fec99bbc5587875a",
        "source": "migrated"
      }
    },
    {
      "id": "nature_165",
      "category": "nature",
      "title": "Nature Wallpaper 165",
      "tags": [
        "nature",
        "wallpaper",
        "hd",
        "mobile"
      ],
      "urls": {
        "raw": "https://media.githubusercontent.com/media/ddh4r4m/wallpaper-collection/main/collection/wallpapers/nature/165.jpg",
        "thumb": "https://media.githubusercontent.com/media/ddh4r4m/wallpaper-collection/main/collection/thumbnails/nature/165.jpg"
      },
      "metadata": {
        "dimensions": {
          "width": 1080,
          "height": 1920
        },
        "file_size": 499107,
        "format": "JPEG",
        "added_at": "2025-07-17T00:04:22.996503",
        "hash": "96ca7934ffa9e351231ecdfa4442a020",
        "source": "migrated"
      }
    },
    {
      "id": "nature_166",
      "category": "nature",
      "title": "Nature Wallpaper 166",
      "tags": [
        "nature",
        "wallpaper",
        "hd",
        "mobile"
      ],
      "urls": {
        "raw": "https://media.githubusercontent.com/media/ddh4r4m/wallpaper-collection/main/collection/wallpapers/nature/166.jpg",
        "thumb": "https://media.githubusercontent.com/media/ddh4r4m/wallpaper-collection/main/collection/thumbnails/nature/166.jpg"
      },
      "metadata": {
        "dimensions": {
          "width": 1080,
          "height": 1920
        },
        "file_size": 570011,
        "format": "JPEG",
        "added_at": "2025-07-17T00:04:23.069751",
        "hash": "7da6e8ce85648fc3082a58a793dfd509",
        "source": "migrated"
      }
    },
    {
      "id": "nature_167",
      "category": "nature",
      "title": "Nature Wallpaper 167",
      "tags": [
        "nature",
        "wallpaper",
        "hd",
        "mobile"
      ],
      "urls": {
        "raw": "https://media.githubusercontent.com/media/ddh4r4m/wallpaper-collection/main/collection/wallpapers/nature/167.jpg",
        "thumb": "https://media.githubusercontent.com/media/ddh4r4m/wallpaper-collection/main/collection/thumbnails/nature/167.jpg"
      },
      "metadata": {
        "dimensions": {
          "width": 1080,
          "height": 1920
        },
        "file_size": 429176,
        "format": "JPEG",
        "added_at": "2025-07-17T00:04:23.133409",
        "hash": "a77e97cd80b4bb7b0d76588d189403a9",
        "source": "migrated"
      }
    },
    {
      "id": "nature_168",
      "category": "nature",
      "title": "Nature Wallpaper 168",
      "tags": [
        "nature",
        "wallpaper",
        "hd",
        "mobile"
      ],
      "urls": {
        "raw": "https://media.githubusercontent.com/media/ddh4r4m/wallpaper-collection/main/collection/wallpapers/nature/168.jpg",
        "thumb": "https://media.githubusercontent.com/media/ddh4r4m/wallpaper-collection/main/collection/thumbnails/nature/168.jpg"
      },
      "metadata": {
        "dimensions": {
          "width": 1080,
          "height": 1920
        },
        "file_size": 738620,
        "format": "JPEG",
        "added_at": "2025-07-17T00:04:23.212816",
        "hash": "02e4f6b87b650c87e3d135172ba576fd",
        "source": "migrated"
      }
    }
  ]
}