{
  "meta": {
    "version": "1.0",
    "generated_at": "2025-07-28T21:27:34.814586",
    "page": 124,
    "per_page": 15,
    "total_pages": 177,
    "total_count": 2647,
    "count_on_page": 15,
    "categories": 21,
    "has_next": true,
    "has_prev": true,
    "next_page_url": "/api/v1/all/pages/125.json",
    "prev_page_url": "/api/v1/all/pages/123.json"
  },
  "data": [
    {
      "id": "nature_169",
      "category": "nature",
      "title": "Nature Wallpaper 169",
      "tags": [
        "nature",
        "wallpaper",
        "hd",
        "mobile"
      ],
      "urls": {
        "raw": "https://media.githubusercontent.com/media/ddh4r4m/wallpaper-collection/main/collection/wallpapers/nature/169.jpg",
        "thumb": "https://media.githubusercontent.com/media/ddh4r4m/wallpaper-collection/main/collection/thumbnails/nature/169.jpg"
      },
      "metadata": {
        "dimensions": {
          "width": 1080,
          "height": 1920
        },
        "file_size": 304612,
        "format": "JPEG",
        "added_at": "2025-07-17T00:04:23.273719",
        "hash": "540d5b2b8d8cd89ba814030c14af2d9b",
        "source": "migrated"
      }
    },
    {
      "id": "nature_170",
      "category": "nature",
      "title": "Nature Wallpaper 170",
      "tags": [
        "nature",
        "wallpaper",
        "hd",
        "mobile"
      ],
      "urls": {
        "raw": "https://media.githubusercontent.com/media/ddh4r4m/wallpaper-collection/main/collection/wallpapers/nature/170.jpg",
        "thumb": "https://media.githubusercontent.com/media/ddh4r4m/wallpaper-collection/main/collection/thumbnails/nature/170.jpg"
      },
      "metadata": {
        "dimensions": {
          "width": 1080,
          "height": 1920
        },
        "file_size": 444985,
        "format": "JPEG",
        "added_at": "2025-07-17T00:04:23.340249",
        "hash": "ae5c8e181223d976ea08a4c0944f1695",
        "source": "migrated"
      }
    },
    {
      "id": "nature_171",
      "category": "nature",
      "title": "Nature Wallpaper 171",
      "tags": [
        "nature",
        "wallpaper",
        "hd",
        "mobile"
      ],
      "urls": {
        "raw": "https://media.githubusercontent.com/media/ddh4r4m/wallpaper-collection/main/collection/wallpapers/nature/171.jpg",
        "thumb": "https://media.githubusercontent.com/media/ddh4r4m/wallpaper-collection/main/collection/thumbnails/nature/171.jpg"
      },
      "metadata": {
        "dimensions": {
          "width": 1080,
          "height": 1920
        },
        "file_size": 475905,
        "format": "JPEG",
        "added_at": "2025-07-17T00:04:23.406657",
        "hash": "65fb88598cb57700c8521adf69167cc8",
        "source": "migrated"
      }
    },
    {
      "id": "nature_172",
      "category": "nature",
      "title": "Nature Wallpaper 172",
      "tags": [
        "nature",
        "wallpaper",
        "hd",
        "mobile"
      ],
      "urls": {
        "raw": "https://media.githubusercontent.com/media/ddh4r4m/wallpaper-collection/main/collection/wallpapers/nature/172.jpg",
        "thumb": "https://media.githubusercontent.com/media/ddh4r4m/wallpaper-collection/main/collection/thumbnails/nature/172.jpg"
      },
      "metadata": {
        "dimensions": {
          "width": 1080,
          "height": 1920
        },
        "file_size": 641420,
        "format": "JPEG",
        "added_at": "2025-07-17T00:04:23.481255",
        "hash": "8ff6caca49aa37b8b14579529d8031a2",
        "source": "migrated"
      }
    },
    {
      "id": "nature_173",
      "category": "nature",
      "title": "Nature Wallpaper 173",
      "tags": [
        "nature",
        "wallpaper",
        "hd",
        "mobile"
      ],
      "urls": {
        "raw": "https://media.githubusercontent.com/media/ddh4r4m/wallpaper-collection/main/collection/wallpapers/nature/173.jpg",
        "thumb": "https://media.githubusercontent.com/media/ddh4r4m/wallpaper-collection/main/collection/thumbnails/nature/173.jpg"
      },
      "metadata": {
        "dimensions": {
          "width": 1080,
          "height": 1920
        },
        "file_size": 328652,
        "format": "JPEG",
        "added_at": "2025-07-17T00:04:23.539715",
        "hash": "6979118ce237216c794103c319f53074",
        "source": "migrated"
      }
    },
    {
      "id": "nature_174",
      "category": "nature",
      "title": "Nature Wallpaper 174",
      "tags": [
        "nature",
        "wallpaper",
        "hd",
        "mobile"
      ],
      "urls": {
        "raw": "https://media.githubusercontent.com/media/ddh4r4m/wallpaper-collection/main/collection/wallpapers/nature/174.jpg",
        "thumb": "https://media.githubusercontent.com/media/ddh4r4m/wallpaper-collection/main/collection/thumbnails/nature/174.jpg"
      },
      "metadata": {
        "dimensions": {
          "width": 1080,
          "height": 1920
        },
        "file_size": 702658,
        "format": "JPEG",
        "added_at": "2025-07-17T00:04:23.616127",
        "hash": "7889808369420d593b7427b171b6265a",
        "source": "migrated"
      }
    },
    {
      "id": "nature_175",
      "category": "nature",
      "title": "Nature Wallpaper 175",
      "tags": [
        "nature",
        "wallpaper",
        "hd",
        "mobile"
      ],
      "urls": {
        "raw": "https://media.githubusercontent.com/media/ddh4r4m/wallpaper-collection/main/collection/wallpapers/nature/175.jpg",
        "thumb": "https://media.githubusercontent.com/media/ddh4r4m/wallpaper-collection/main/collection/thumbnails/nature/175.jpg"
      },
      "metadata": {
        "dimensions": {
          "width": 1080,
          "height": 1920
        },
        "file_size": 319316,
        "format": "JPEG",
        "added_at": "2025-07-17T00:04:23.674505",
        "hash": "3550dd0825586162f90d8f744ff64cf9",
        "source": "migrated"
      }
    },
    {
      "id": "nature_176",
      "category": "nature",
      "title": "Nature Wallpaper 176",
      "tags": [
        "nature",
        "wallpaper",
        "hd",
        "mobile"
      ],
      "urls": {
        "raw": "https://media.githubusercontent.com/media/ddh4r4m/wallpaper-collection/main/collection/wallpapers/nature/176.jpg",
        "thumb": "https://media.githubusercontent.com/media/ddh4r4m/wallpaper-collection/main/collection/thumbnails/nature/176.jpg"
      },
      "metadata": {
        "dimensions": {
          "width": 1080,
          "height": 1920
        },
        "file_size": 549129,
        "format": "JPEG",
        "added_at": "2025-07-17T00:04:23.745017",
        "hash": "9eb17e1c0dddc8eda2560da0b84fe584",
        "source": "migrated"
      }
    },
    {
      "id": "nature_177",
      "category": "nature",
      "title": "Nature Wallpaper 177",
      "tags": [
        "nature",
        "wallpaper",
        "hd",
        "mobile"
      ],
      "urls": {
        "raw": "https://media.githubusercontent.com/media/ddh4r4m/wallpaper-collection/main/collection/wallpapers/nature/177.jpg",
        "thumb": "https://media.githubusercontent.com/media/ddh4r4m/wallpaper-collection/main/collection/thumbnails/nature/177.jpg"
      },
      "metadata": {
        "dimensions": {
          "width": 1080,
          "height": 1920
        },
        "file_size": 566629,
        "format": "JPEG",
        "added_at": "2025-07-17T00:04:23.817320",
        "hash": "ceac88c66e7ff1da5d1a1acfe9b55a32",
        "source": "migrated"
      }
    },
    {
      "id": "nature_178",
      "category": "nature",
      "title": "Nature Wallpaper 178",
      "tags": [
        "nature",
        "wallpaper",
        "hd",
        "mobile"
      ],
      "urls": {
        "raw": "https://media.githubusercontent.com/media/ddh4r4m/wallpaper-collection/main/collection/wallpapers/nature/178.jpg",
        "thumb": "https://media.githubusercontent.com/media/ddh4r4m/wallpaper-collection/main/collection/thumbnails/nature/178.jpg"
      },
      "metadata": {
        "dimensions": {
          "width": 1080,
          "height": 1920
        },
        "file_size": 363569,
        "format": "JPEG",
        "added_at": "2025-07-17T00:04:23.878440",
        "hash": "61d8c22bf04f667b6a5c12c2b3b20884",
        "source": "migrated"
      }
    },
    {
      "id": "nature_179",
      "category": "nature",
      "title": "Nature Wallpaper 179",
      "tags": [
        "nature",
        "wallpaper",
        "hd",
        "mobile"
      ],
      "urls": {
        "raw": "https://media.githubusercontent.com/media/ddh4r4m/wallpaper-collection/main/collection/wallpapers/nature/179.jpg",
        "thumb": "https://media.githubusercontent.com/media/ddh4r4m/wallpaper-collection/main/collection/thumbnails/nature/179.jpg"
      },
      "metadata": {
        "dimensions": {
          "width": 1080,
          "height": 1920
        },
        "file_size": 448271,
        "format": "JPEG",
        "added_at": "2025-07-17T00:04:23.942789",
        "hash": "0ef9874612cc9c9e7a5e8188e56db240",
        "source": "migrated"
      }
    },
    {
      "id": "nature_180",
      "category": "nature",
      "title": "Nature Wallpaper 180",
      "tags": [
        "nature",
        "wallpaper",
        "hd",
        "mobile"
      ],
      "urls": {
        "raw": "https://media.githubusercontent.com/media/ddh4r4m/wallpaper-collection/main/collection/wallpapers/nature/180.jpg",
        "thumb": "https://media.githubusercontent.com/media/ddh4r4m/wallpaper-collection/main/collection/thumbnails/nature/180.jpg"
      },
      "metadata": {
        "dimensions": {
          "width": 1080,
          "height": 1920
        },
        "file_size": 673469,
        "format": "JPEG",
        "added_at": "2025-07-17T00:04:24.023599",
        "hash": "02743bfb83ecaafe890e75ce4b7b0ef4",
        "source": "migrated"
      }
    },
    {
      "id": "nature_181",
      "category": "nature",
      "title": "Nature Wallpaper 181",
      "tags": [
        "nature",
        "wallpaper",
        "hd",
        "mobile"
      ],
      "urls": {
        "raw": "https://media.githubusercontent.com/media/ddh4r4m/wallpaper-collection/main/collection/wallpapers/nature/181.jpg",
        "thumb": "https://media.githubusercontent.com/media/ddh4r4m/wallpaper-collection/main/collection/thumbnails/nature/181.jpg"
      },
      "metadata": {
        "dimensions": {
          "width": 1080,
          "height": 1920
        },
        "file_size": 798535,
        "format": "JPEG",
        "added_at": "2025-07-17T00:04:24.106298",
        "hash": "dd96f6055760d4fab19ebb4788be58ea",
        "source": "migrated"
      }
    },
    {
      "id": "nature_182",
      "category": "nature",
      "title": "Nature Wallpaper 182",
      "tags": [
        "nature",
        "wallpaper",
        "hd",
        "mobile"
      ],
      "urls": {
        "raw": "https://media.githubusercontent.com/media/ddh4r4m/wallpaper-collection/main/collection/wallpapers/nature/182.jpg",
        "thumb": "https://media.githubusercontent.com/media/ddh4r4m/wallpaper-collection/main/collection/thumbnails/nature/182.jpg"
      },
      "metadata": {
        "dimensions": {
          "width": 1080,
          "height": 1920
        },
        "file_size": 385750,
        "format": "JPEG",
        "added_at": "2025-07-17T00:04:24.170136",
        "hash": "a91a0cd4720617d965517b7a92b119b5",
        "source": "migrated"
      }
    },
    {
      "id": "nature_183",
      "category": "nature",
      "title": "Nature Wallpaper 183",
      "tags": [
        "nature",
        "wallpaper",
        "hd",
        "mobile"
      ],
      "urls": {
        "raw": "https://media.githubusercontent.com/media/ddh4r4m/wallpaper-collection/main/collection/wallpapers/nature/183.jpg",
        "thumb": "https://media.githubusercontent.com/media/ddh4r4m/wallpaper-collection/main/collection/thumbnails/nature/183.jpg"
      },
      "metadata": {
        "dimensions": {
          "width": 1080,
          "height": 1920
        },
        "file_size": 461267,
        "format": "JPEG",
        "added_at": "2025-07-17T00:04:24.234685",
        "hash": "b0026dc94345a560bd77f26b3e6e078c",
        "source": "migrated"
      }
    }
  ]
}