{
  "meta": {
    "version": "1.0",
    "generated_at": "2025-07-19T12:26:57.111378",
    "page": 125,
    "per_page": 15,
    "total_pages": 160,
    "total_count": 2387,
    "count_on_page": 15,
    "categories": 19,
    "has_next": true,
    "has_prev": true,
    "next_page_url": "/api/v1/all/pages/126.json",
    "prev_page_url": "/api/v1/all/pages/124.json"
  },
  "data": [
    {
      "id": "neon_025",
      "category": "neon",
      "title": "Neon Wallpaper 025",
      "tags": [
        "neon",
        "wallpaper",
        "hd",
        "mobile"
      ],
      "urls": {
        "raw": "https://media.githubusercontent.com/media/ddh4r4m/wallpaper-collection/main/collection/wallpapers/neon/025.jpg",
        "thumb": "https://media.githubusercontent.com/media/ddh4r4m/wallpaper-collection/main/collection/thumbnails/neon/025.jpg"
      },
      "metadata": {
        "dimensions": {
          "width": 1080,
          "height": 1920
        },
        "file_size": 292890,
        "format": "JPEG",
        "added_at": "2025-07-17T00:04:32.766114",
        "hash": "0f5ce9fa87655bd252e73286352d5dec",
        "source": "migrated"
      }
    },
    {
      "id": "neon_026",
      "category": "neon",
      "title": "Neon Wallpaper 026",
      "tags": [
        "neon",
        "wallpaper",
        "hd",
        "mobile"
      ],
      "urls": {
        "raw": "https://media.githubusercontent.com/media/ddh4r4m/wallpaper-collection/main/collection/wallpapers/neon/026.jpg",
        "thumb": "https://media.githubusercontent.com/media/ddh4r4m/wallpaper-collection/main/collection/thumbnails/neon/026.jpg"
      },
      "metadata": {
        "dimensions": {
          "width": 1080,
          "height": 1920
        },
        "file_size": 157904,
        "format": "JPEG",
        "added_at": "2025-07-17T00:04:32.816644",
        "hash": "83c38bdbb120409a6b5266b6e77c66d0",
        "source": "migrated"
      }
    },
    {
      "id": "neon_027",
      "category": "neon",
      "title": "Neon Wallpaper 027",
      "tags": [
        "neon",
        "wallpaper",
        "hd",
        "mobile"
      ],
      "urls": {
        "raw": "https://media.githubusercontent.com/media/ddh4r4m/wallpaper-collection/main/collection/wallpapers/neon/027.jpg",
        "thumb": "https://media.githubusercontent.com/media/ddh4r4m/wallpaper-collection/main/collection/thumbnails/neon/027.jpg"
      },
      "metadata": {
        "dimensions": {
          "width": 1080,
          "height": 1920
        },
        "file_size": 205723,
        "format": "JPEG",
        "added_at": "2025-07-17T00:04:32.868896",
        "hash": "bb1e4e9962c4f90c693fe29d5722957e",
        "source": "migrated"
      }
    },
    {
      "id": "neon_028",
      "category": "neon",
      "title": "Neon Wallpaper 028",
      "tags": [
        "neon",
        "wallpaper",
        "hd",
        "mobile"
      ],
      "urls": {
        "raw": "https://media.githubusercontent.com/media/ddh4r4m/wallpaper-collection/main/collection/wallpapers/neon/028.jpg",
        "thumb": "https://media.githubusercontent.com/media/ddh4r4m/wallpaper-collection/main/collection/thumbnails/neon/028.jpg"
      },
      "metadata": {
        "dimensions": {
          "width": 1080,
          "height": 1920
        },
        "file_size": 320548,
        "format": "JPEG",
        "added_at": "2025-07-17T00:04:32.928489",
        "hash": "a4a8354ed6d8a6d19fc4e9717777cbc5",
        "source": "migrated"
      }
    },
    {
      "id": "neon_029",
      "category": "neon",
      "title": "Neon Wallpaper 029",
      "tags": [
        "neon",
        "wallpaper",
        "hd",
        "mobile"
      ],
      "urls": {
        "raw": "https://media.githubusercontent.com/media/ddh4r4m/wallpaper-collection/main/collection/wallpapers/neon/029.jpg",
        "thumb": "https://media.githubusercontent.com/media/ddh4r4m/wallpaper-collection/main/collection/thumbnails/neon/029.jpg"
      },
      "metadata": {
        "dimensions": {
          "width": 1080,
          "height": 1920
        },
        "file_size": 270171,
        "format": "JPEG",
        "added_at": "2025-07-17T00:04:32.988976",
        "hash": "49cff5f44ed96a99f9b8484147ff7a47",
        "source": "migrated"
      }
    },
    {
      "id": "neon_030",
      "category": "neon",
      "title": "Neon Wallpaper 030",
      "tags": [
        "neon",
        "wallpaper",
        "hd",
        "mobile"
      ],
      "urls": {
        "raw": "https://media.githubusercontent.com/media/ddh4r4m/wallpaper-collection/main/collection/wallpapers/neon/030.jpg",
        "thumb": "https://media.githubusercontent.com/media/ddh4r4m/wallpaper-collection/main/collection/thumbnails/neon/030.jpg"
      },
      "metadata": {
        "dimensions": {
          "width": 1080,
          "height": 1920
        },
        "file_size": 207594,
        "format": "JPEG",
        "added_at": "2025-07-17T00:04:33.040143",
        "hash": "3a15a80cd5141c3c7e5531ad1ad19987",
        "source": "migrated"
      }
    },
    {
      "id": "neon_031",
      "category": "neon",
      "title": "Neon Wallpaper 031",
      "tags": [
        "neon",
        "wallpaper",
        "hd",
        "mobile"
      ],
      "urls": {
        "raw": "https://media.githubusercontent.com/media/ddh4r4m/wallpaper-collection/main/collection/wallpapers/neon/031.jpg",
        "thumb": "https://media.githubusercontent.com/media/ddh4r4m/wallpaper-collection/main/collection/thumbnails/neon/031.jpg"
      },
      "metadata": {
        "dimensions": {
          "width": 1080,
          "height": 1920
        },
        "file_size": 280985,
        "format": "JPEG",
        "added_at": "2025-07-17T00:04:33.097418",
        "hash": "c3fca34b99233bac20070cdeca831435",
        "source": "migrated"
      }
    },
    {
      "id": "neon_032",
      "category": "neon",
      "title": "Neon Wallpaper 032",
      "tags": [
        "neon",
        "wallpaper",
        "hd",
        "mobile"
      ],
      "urls": {
        "raw": "https://media.githubusercontent.com/media/ddh4r4m/wallpaper-collection/main/collection/wallpapers/neon/032.jpg",
        "thumb": "https://media.githubusercontent.com/media/ddh4r4m/wallpaper-collection/main/collection/thumbnails/neon/032.jpg"
      },
      "metadata": {
        "dimensions": {
          "width": 1080,
          "height": 1920
        },
        "file_size": 209002,
        "format": "JPEG",
        "added_at": "2025-07-17T00:04:33.148910",
        "hash": "04f733b3d61c33b2b2cba0640824b7b3",
        "source": "migrated"
      }
    },
    {
      "id": "neon_033",
      "category": "neon",
      "title": "Neon Wallpaper 033",
      "tags": [
        "neon",
        "wallpaper",
        "hd",
        "mobile"
      ],
      "urls": {
        "raw": "https://media.githubusercontent.com/media/ddh4r4m/wallpaper-collection/main/collection/wallpapers/neon/033.jpg",
        "thumb": "https://media.githubusercontent.com/media/ddh4r4m/wallpaper-collection/main/collection/thumbnails/neon/033.jpg"
      },
      "metadata": {
        "dimensions": {
          "width": 1080,
          "height": 1920
        },
        "file_size": 187799,
        "format": "JPEG",
        "added_at": "2025-07-17T00:04:33.200494",
        "hash": "b69750bb85e9e1500d7b7243518c9e80",
        "source": "migrated"
      }
    },
    {
      "id": "neon_034",
      "category": "neon",
      "title": "Neon Wallpaper 034",
      "tags": [
        "neon",
        "wallpaper",
        "hd",
        "mobile"
      ],
      "urls": {
        "raw": "https://media.githubusercontent.com/media/ddh4r4m/wallpaper-collection/main/collection/wallpapers/neon/034.jpg",
        "thumb": "https://media.githubusercontent.com/media/ddh4r4m/wallpaper-collection/main/collection/thumbnails/neon/034.jpg"
      },
      "metadata": {
        "dimensions": {
          "width": 1080,
          "height": 1920
        },
        "file_size": 172206,
        "format": "JPEG",
        "added_at": "2025-07-17T00:04:33.251016",
        "hash": "438baddb5242a3e8c730f32d9bdf6b30",
        "source": "migrated"
      }
    },
    {
      "id": "neon_035",
      "category": "neon",
      "title": "Neon Wallpaper 035",
      "tags": [
        "neon",
        "wallpaper",
        "hd",
        "mobile"
      ],
      "urls": {
        "raw": "https://media.githubusercontent.com/media/ddh4r4m/wallpaper-collection/main/collection/wallpapers/neon/035.jpg",
        "thumb": "https://media.githubusercontent.com/media/ddh4r4m/wallpaper-collection/main/collection/thumbnails/neon/035.jpg"
      },
      "metadata": {
        "dimensions": {
          "width": 1080,
          "height": 1920
        },
        "file_size": 240899,
        "format": "JPEG",
        "added_at": "2025-07-17T00:04:33.304069",
        "hash": "0847882a1b65e660ceb3e2e656f501cf",
        "source": "migrated"
      }
    },
    {
      "id": "neon_036",
      "category": "neon",
      "title": "Neon Wallpaper 036",
      "tags": [
        "neon",
        "wallpaper",
        "hd",
        "mobile"
      ],
      "urls": {
        "raw": "https://media.githubusercontent.com/media/ddh4r4m/wallpaper-collection/main/collection/wallpapers/neon/036.jpg",
        "thumb": "https://media.githubusercontent.com/media/ddh4r4m/wallpaper-collection/main/collection/thumbnails/neon/036.jpg"
      },
      "metadata": {
        "dimensions": {
          "width": 1080,
          "height": 1920
        },
        "file_size": 417824,
        "format": "JPEG",
        "added_at": "2025-07-17T00:04:33.369982",
        "hash": "e92153040569f585283f6169d6aa111e",
        "source": "migrated"
      }
    },
    {
      "id": "neon_037",
      "category": "neon",
      "title": "Neon Wallpaper 037",
      "tags": [
        "neon",
        "wallpaper",
        "hd",
        "mobile"
      ],
      "urls": {
        "raw": "https://media.githubusercontent.com/media/ddh4r4m/wallpaper-collection/main/collection/wallpapers/neon/037.jpg",
        "thumb": "https://media.githubusercontent.com/media/ddh4r4m/wallpaper-collection/main/collection/thumbnails/neon/037.jpg"
      },
      "metadata": {
        "dimensions": {
          "width": 1080,
          "height": 1920
        },
        "file_size": 366774,
        "format": "JPEG",
        "added_at": "2025-07-17T00:04:33.431347",
        "hash": "553a093c256ea0bb513348183de73f8a",
        "source": "migrated"
      }
    },
    {
      "id": "neon_038",
      "category": "neon",
      "title": "Neon Wallpaper 038",
      "tags": [
        "neon",
        "wallpaper",
        "hd",
        "mobile"
      ],
      "urls": {
        "raw": "https://media.githubusercontent.com/media/ddh4r4m/wallpaper-collection/main/collection/wallpapers/neon/038.jpg",
        "thumb": "https://media.githubusercontent.com/media/ddh4r4m/wallpaper-collection/main/collection/thumbnails/neon/038.jpg"
      },
      "metadata": {
        "dimensions": {
          "width": 1080,
          "height": 1920
        },
        "file_size": 263287,
        "format": "JPEG",
        "added_at": "2025-07-17T00:04:33.488524",
        "hash": "7ce0d035e27488e17115122575def80a",
        "source": "migrated"
      }
    },
    {
      "id": "neon_039",
      "category": "neon",
      "title": "Neon Wallpaper 039",
      "tags": [
        "neon",
        "wallpaper",
        "hd",
        "mobile"
      ],
      "urls": {
        "raw": "https://media.githubusercontent.com/media/ddh4r4m/wallpaper-collection/main/collection/wallpapers/neon/039.jpg",
        "thumb": "https://media.githubusercontent.com/media/ddh4r4m/wallpaper-collection/main/collection/thumbnails/neon/039.jpg"
      },
      "metadata": {
        "dimensions": {
          "width": 1080,
          "height": 1920
        },
        "file_size": 508048,
        "format": "JPEG",
        "added_at": "2025-07-17T00:04:33.556832",
        "hash": "eb239d975380e3355c6d275a6ad6c3b0",
        "source": "migrated"
      }
    }
  ]
}