{
  "meta": {
    "version": "1.0",
    "generated_at": "2025-07-28T22:48:38.208699",
    "page": 126,
    "per_page": 15,
    "total_pages": 183,
    "total_count": 2737,
    "count_on_page": 15,
    "categories": 22,
    "has_next": true,
    "has_prev": true,
    "next_page_url": "/api/v1/all/pages/127.json",
    "prev_page_url": "/api/v1/all/pages/125.json"
  },
  "data": [
    {
      "id": "nature_199",
      "category": "nature",
      "title": "Nature Wallpaper 199",
      "tags": [
        "nature",
        "wallpaper",
        "hd",
        "mobile"
      ],
      "urls": {
        "raw": "https://media.githubusercontent.com/media/ddh4r4m/wallpaper-collection/main/collection/wallpapers/nature/199.jpg",
        "thumb": "https://media.githubusercontent.com/media/ddh4r4m/wallpaper-collection/main/collection/thumbnails/nature/199.jpg"
      },
      "metadata": {
        "dimensions": {
          "width": 1080,
          "height": 1920
        },
        "file_size": 844359,
        "format": "JPEG",
        "added_at": "2025-07-17T00:04:25.348568",
        "hash": "e48b4b36860866f313591c33334e0d5f",
        "source": "migrated"
      }
    },
    {
      "id": "nature_200",
      "category": "nature",
      "title": "Nature Wallpaper 200",
      "tags": [
        "nature",
        "wallpaper",
        "hd",
        "mobile"
      ],
      "urls": {
        "raw": "https://media.githubusercontent.com/media/ddh4r4m/wallpaper-collection/main/collection/wallpapers/nature/200.jpg",
        "thumb": "https://media.githubusercontent.com/media/ddh4r4m/wallpaper-collection/main/collection/thumbnails/nature/200.jpg"
      },
      "metadata": {
        "dimensions": {
          "width": 1080,
          "height": 1920
        },
        "file_size": 560527,
        "format": "JPEG",
        "added_at": "2025-07-17T00:04:25.420279",
        "hash": "6d9fabc63d0599fa9638d2fc29a42f52",
        "source": "migrated"
      }
    },
    {
      "id": "nature_201",
      "category": "nature",
      "title": "Nature Wallpaper 201",
      "tags": [
        "nature",
        "wallpaper",
        "hd",
        "mobile"
      ],
      "urls": {
        "raw": "https://media.githubusercontent.com/media/ddh4r4m/wallpaper-collection/main/collection/wallpapers/nature/201.jpg",
        "thumb": "https://media.githubusercontent.com/media/ddh4r4m/wallpaper-collection/main/collection/thumbnails/nature/201.jpg"
      },
      "metadata": {
        "dimensions": {
          "width": 1080,
          "height": 1920
        },
        "file_size": 291488,
        "format": "JPEG",
        "added_at": "2025-07-17T00:04:25.478561",
        "hash": "d01b8a3b8cd8f93a2ad01c12192379d7",
        "source": "migrated"
      }
    },
    {
      "id": "nature_202",
      "category": "nature",
      "title": "Nature Wallpaper 202",
      "tags": [
        "nature",
        "wallpaper",
        "hd",
        "mobile"
      ],
      "urls": {
        "raw": "https://media.githubusercontent.com/media/ddh4r4m/wallpaper-collection/main/collection/wallpapers/nature/202.jpg",
        "thumb": "https://media.githubusercontent.com/media/ddh4r4m/wallpaper-collection/main/collection/thumbnails/nature/202.jpg"
      },
      "metadata": {
        "dimensions": {
          "width": 1080,
          "height": 1920
        },
        "file_size": 469749,
        "format": "JPEG",
        "added_at": "2025-07-17T00:04:25.542548",
        "hash": "c0994cffb1c1156c66566dda31ce093b",
        "source": "migrated"
      }
    },
    {
      "id": "nature_203",
      "category": "nature",
      "title": "Nature Wallpaper 203",
      "tags": [
        "nature",
        "wallpaper",
        "hd",
        "mobile"
      ],
      "urls": {
        "raw": "https://media.githubusercontent.com/media/ddh4r4m/wallpaper-collection/main/collection/wallpapers/nature/203.jpg",
        "thumb": "https://media.githubusercontent.com/media/ddh4r4m/wallpaper-collection/main/collection/thumbnails/nature/203.jpg"
      },
      "metadata": {
        "dimensions": {
          "width": 1080,
          "height": 1920
        },
        "file_size": 525519,
        "format": "JPEG",
        "added_at": "2025-07-17T00:04:25.613041",
        "hash": "63afc89ccb786835bb79263d7c421566",
        "source": "migrated"
      }
    },
    {
      "id": "nature_204",
      "category": "nature",
      "title": "Nature Wallpaper 204",
      "tags": [
        "nature",
        "wallpaper",
        "hd",
        "mobile"
      ],
      "urls": {
        "raw": "https://media.githubusercontent.com/media/ddh4r4m/wallpaper-collection/main/collection/wallpapers/nature/204.jpg",
        "thumb": "https://media.githubusercontent.com/media/ddh4r4m/wallpaper-collection/main/collection/thumbnails/nature/204.jpg"
      },
      "metadata": {
        "dimensions": {
          "width": 1080,
          "height": 1920
        },
        "file_size": 432465,
        "format": "JPEG",
        "added_at": "2025-07-17T00:04:25.678888",
        "hash": "08657bcc98a16e041a8293598731b7b1",
        "source": "migrated"
      }
    },
    {
      "id": "nature_205",
      "category": "nature",
      "title": "Nature Wallpaper 205",
      "tags": [
        "nature",
        "wallpaper",
        "hd",
        "mobile"
      ],
      "urls": {
        "raw": "https://media.githubusercontent.com/media/ddh4r4m/wallpaper-collection/main/collection/wallpapers/nature/205.jpg",
        "thumb": "https://media.githubusercontent.com/media/ddh4r4m/wallpaper-collection/main/collection/thumbnails/nature/205.jpg"
      },
      "metadata": {
        "dimensions": {
          "width": 1080,
          "height": 1920
        },
        "file_size": 427652,
        "format": "JPEG",
        "added_at": "2025-07-17T00:04:25.741597",
        "hash": "52e3d3ade165b8598a47fcd2035723c4",
        "source": "migrated"
      }
    },
    {
      "id": "nature_206",
      "category": "nature",
      "title": "Nature Wallpaper 206",
      "tags": [
        "nature",
        "wallpaper",
        "hd",
        "mobile"
      ],
      "urls": {
        "raw": "https://media.githubusercontent.com/media/ddh4r4m/wallpaper-collection/main/collection/wallpapers/nature/206.jpg",
        "thumb": "https://media.githubusercontent.com/media/ddh4r4m/wallpaper-collection/main/collection/thumbnails/nature/206.jpg"
      },
      "metadata": {
        "dimensions": {
          "width": 1080,
          "height": 1920
        },
        "file_size": 386035,
        "format": "JPEG",
        "added_at": "2025-07-17T00:04:25.804836",
        "hash": "49f6f4f0106b09c41bd5a6fa2bdf4ef6",
        "source": "migrated"
      }
    },
    {
      "id": "nature_207",
      "category": "nature",
      "title": "Nature Wallpaper 207",
      "tags": [
        "nature",
        "wallpaper",
        "hd",
        "mobile"
      ],
      "urls": {
        "raw": "https://media.githubusercontent.com/media/ddh4r4m/wallpaper-collection/main/collection/wallpapers/nature/207.jpg",
        "thumb": "https://media.githubusercontent.com/media/ddh4r4m/wallpaper-collection/main/collection/thumbnails/nature/207.jpg"
      },
      "metadata": {
        "dimensions": {
          "width": 1080,
          "height": 1920
        },
        "file_size": 93902,
        "format": "JPEG",
        "added_at": "2025-07-17T00:04:25.884621",
        "hash": "72bcbcb929c0df6421367d59002de7bc",
        "source": "migrated"
      }
    },
    {
      "id": "nature_208",
      "category": "nature",
      "title": "Nature Wallpaper 208",
      "tags": [
        "nature",
        "wallpaper",
        "hd",
        "mobile"
      ],
      "urls": {
        "raw": "https://media.githubusercontent.com/media/ddh4r4m/wallpaper-collection/main/collection/wallpapers/nature/208.jpg",
        "thumb": "https://media.githubusercontent.com/media/ddh4r4m/wallpaper-collection/main/collection/thumbnails/nature/208.jpg"
      },
      "metadata": {
        "dimensions": {
          "width": 1080,
          "height": 1920
        },
        "file_size": 481398,
        "format": "JPEG",
        "added_at": "2025-07-17T00:04:25.953837",
        "hash": "3066189f9c05a7fefd45910ca9891d24",
        "source": "migrated"
      }
    },
    {
      "id": "nature_209",
      "category": "nature",
      "title": "Nature Wallpaper 209",
      "tags": [
        "nature",
        "wallpaper",
        "hd",
        "mobile"
      ],
      "urls": {
        "raw": "https://media.githubusercontent.com/media/ddh4r4m/wallpaper-collection/main/collection/wallpapers/nature/209.jpg",
        "thumb": "https://media.githubusercontent.com/media/ddh4r4m/wallpaper-collection/main/collection/thumbnails/nature/209.jpg"
      },
      "metadata": {
        "dimensions": {
          "width": 1080,
          "height": 1920
        },
        "file_size": 554259,
        "format": "JPEG",
        "added_at": "2025-07-17T00:04:26.025750",
        "hash": "cc57162e7c6a7511378df1a250c6e142",
        "source": "migrated"
      }
    },
    {
      "id": "nature_210",
      "category": "nature",
      "title": "Nature Wallpaper 210",
      "tags": [
        "nature",
        "wallpaper",
        "hd",
        "mobile"
      ],
      "urls": {
        "raw": "https://media.githubusercontent.com/media/ddh4r4m/wallpaper-collection/main/collection/wallpapers/nature/210.jpg",
        "thumb": "https://media.githubusercontent.com/media/ddh4r4m/wallpaper-collection/main/collection/thumbnails/nature/210.jpg"
      },
      "metadata": {
        "dimensions": {
          "width": 1080,
          "height": 1920
        },
        "file_size": 353169,
        "format": "JPEG",
        "added_at": "2025-07-17T00:04:26.085790",
        "hash": "1c1c02a1410b995113d662f0637b78d5",
        "source": "migrated"
      }
    },
    {
      "id": "nature_211",
      "category": "nature",
      "title": "Nature Wallpaper 211",
      "tags": [
        "nature",
        "wallpaper",
        "hd",
        "mobile"
      ],
      "urls": {
        "raw": "https://media.githubusercontent.com/media/ddh4r4m/wallpaper-collection/main/collection/wallpapers/nature/211.jpg",
        "thumb": "https://media.githubusercontent.com/media/ddh4r4m/wallpaper-collection/main/collection/thumbnails/nature/211.jpg"
      },
      "metadata": {
        "dimensions": {
          "width": 1080,
          "height": 1920
        },
        "file_size": 620382,
        "format": "JPEG",
        "added_at": "2025-07-17T00:04:26.159113",
        "hash": "fbe6f001ca096509c0901482d3c39ee8",
        "source": "migrated"
      }
    },
    {
      "id": "nature_212",
      "category": "nature",
      "title": "Nature Wallpaper 212",
      "tags": [
        "nature",
        "wallpaper",
        "hd",
        "mobile"
      ],
      "urls": {
        "raw": "https://media.githubusercontent.com/media/ddh4r4m/wallpaper-collection/main/collection/wallpapers/nature/212.jpg",
        "thumb": "https://media.githubusercontent.com/media/ddh4r4m/wallpaper-collection/main/collection/thumbnails/nature/212.jpg"
      },
      "metadata": {
        "dimensions": {
          "width": 1080,
          "height": 1920
        },
        "file_size": 443047,
        "format": "JPEG",
        "added_at": "2025-07-17T00:04:26.223901",
        "hash": "3540c20cd84a66c062900518bc720fd1",
        "source": "migrated"
      }
    },
    {
      "id": "nature_213",
      "category": "nature",
      "title": "Nature Wallpaper 213",
      "tags": [
        "nature",
        "wallpaper",
        "hd",
        "mobile"
      ],
      "urls": {
        "raw": "https://media.githubusercontent.com/media/ddh4r4m/wallpaper-collection/main/collection/wallpapers/nature/213.jpg",
        "thumb": "https://media.githubusercontent.com/media/ddh4r4m/wallpaper-collection/main/collection/thumbnails/nature/213.jpg"
      },
      "metadata": {
        "dimensions": {
          "width": 1080,
          "height": 1920
        },
        "file_size": 738517,
        "format": "JPEG",
        "added_at": "2025-07-17T00:04:26.304531",
        "hash": "82a39bbedddc65d437cd72e750ba0742",
        "source": "migrated"
      }
    }
  ]
}