{
  "meta": {
    "version": "1.0",
    "generated_at": "2025-07-28T21:27:34.814586",
    "page": 127,
    "per_page": 15,
    "total_pages": 177,
    "total_count": 2647,
    "count_on_page": 15,
    "categories": 21,
    "has_next": true,
    "has_prev": true,
    "next_page_url": "/api/v1/all/pages/128.json",
    "prev_page_url": "/api/v1/all/pages/126.json"
  },
  "data": [
    {
      "id": "nature_214",
      "category": "nature",
      "title": "Nature Wallpaper 214",
      "tags": [
        "nature",
        "wallpaper",
        "hd",
        "mobile"
      ],
      "urls": {
        "raw": "https://media.githubusercontent.com/media/ddh4r4m/wallpaper-collection/main/collection/wallpapers/nature/214.jpg",
        "thumb": "https://media.githubusercontent.com/media/ddh4r4m/wallpaper-collection/main/collection/thumbnails/nature/214.jpg"
      },
      "metadata": {
        "dimensions": {
          "width": 1080,
          "height": 1920
        },
        "file_size": 502102,
        "format": "JPEG",
        "added_at": "2025-07-17T00:04:26.372186",
        "hash": "534618f93e55167c4d2918987f45c7a4",
        "source": "migrated"
      }
    },
    {
      "id": "nature_215",
      "category": "nature",
      "title": "Nature Wallpaper 215",
      "tags": [
        "nature",
        "wallpaper",
        "hd",
        "mobile"
      ],
      "urls": {
        "raw": "https://media.githubusercontent.com/media/ddh4r4m/wallpaper-collection/main/collection/wallpapers/nature/215.jpg",
        "thumb": "https://media.githubusercontent.com/media/ddh4r4m/wallpaper-collection/main/collection/thumbnails/nature/215.jpg"
      },
      "metadata": {
        "dimensions": {
          "width": 1080,
          "height": 1920
        },
        "file_size": 510795,
        "format": "JPEG",
        "added_at": "2025-07-17T00:04:26.441320",
        "hash": "8b5c4a1a3b46eb1d2e3989f726d016bc",
        "source": "migrated"
      }
    },
    {
      "id": "nature_216",
      "category": "nature",
      "title": "Nature Wallpaper 216",
      "tags": [
        "nature",
        "wallpaper",
        "hd",
        "mobile"
      ],
      "urls": {
        "raw": "https://media.githubusercontent.com/media/ddh4r4m/wallpaper-collection/main/collection/wallpapers/nature/216.jpg",
        "thumb": "https://media.githubusercontent.com/media/ddh4r4m/wallpaper-collection/main/collection/thumbnails/nature/216.jpg"
      },
      "metadata": {
        "dimensions": {
          "width": 1080,
          "height": 1920
        },
        "file_size": 817789,
        "format": "JPEG",
        "added_at": "2025-07-17T00:04:26.525408",
        "hash": "25330ca715f8097f4e9e3c806ec3b026",
        "source": "migrated"
      }
    },
    {
      "id": "nature_217",
      "category": "nature",
      "title": "Nature Wallpaper 217",
      "tags": [
        "nature",
        "wallpaper",
        "hd",
        "mobile"
      ],
      "urls": {
        "raw": "https://media.githubusercontent.com/media/ddh4r4m/wallpaper-collection/main/collection/wallpapers/nature/217.jpg",
        "thumb": "https://media.githubusercontent.com/media/ddh4r4m/wallpaper-collection/main/collection/thumbnails/nature/217.jpg"
      },
      "metadata": {
        "dimensions": {
          "width": 1080,
          "height": 1920
        },
        "file_size": 488034,
        "format": "JPEG",
        "added_at": "2025-07-17T00:04:26.592094",
        "hash": "9ac4f943b50ed0089e93f78409e91403",
        "source": "migrated"
      }
    },
    {
      "id": "nature_218",
      "category": "nature",
      "title": "Nature Wallpaper 218",
      "tags": [
        "nature",
        "wallpaper",
        "hd",
        "mobile"
      ],
      "urls": {
        "raw": "https://media.githubusercontent.com/media/ddh4r4m/wallpaper-collection/main/collection/wallpapers/nature/218.jpg",
        "thumb": "https://media.githubusercontent.com/media/ddh4r4m/wallpaper-collection/main/collection/thumbnails/nature/218.jpg"
      },
      "metadata": {
        "dimensions": {
          "width": 1080,
          "height": 1920
        },
        "file_size": 589910,
        "format": "JPEG",
        "added_at": "2025-07-17T00:04:26.665661",
        "hash": "8bf00788cb69dd2a2739c9c1dcb392cf",
        "source": "migrated"
      }
    },
    {
      "id": "nature_219",
      "category": "nature",
      "title": "Nature Wallpaper 219",
      "tags": [
        "nature",
        "wallpaper",
        "hd",
        "mobile"
      ],
      "urls": {
        "raw": "https://media.githubusercontent.com/media/ddh4r4m/wallpaper-collection/main/collection/wallpapers/nature/219.jpg",
        "thumb": "https://media.githubusercontent.com/media/ddh4r4m/wallpaper-collection/main/collection/thumbnails/nature/219.jpg"
      },
      "metadata": {
        "dimensions": {
          "width": 1080,
          "height": 1920
        },
        "file_size": 567089,
        "format": "JPEG",
        "added_at": "2025-07-17T00:04:26.739250",
        "hash": "e068eb4b42918ff66658f2ab43006a34",
        "source": "migrated"
      }
    },
    {
      "id": "nature_220",
      "category": "nature",
      "title": "Nature Wallpaper 220",
      "tags": [
        "nature",
        "wallpaper",
        "hd",
        "mobile"
      ],
      "urls": {
        "raw": "https://media.githubusercontent.com/media/ddh4r4m/wallpaper-collection/main/collection/wallpapers/nature/220.jpg",
        "thumb": "https://media.githubusercontent.com/media/ddh4r4m/wallpaper-collection/main/collection/thumbnails/nature/220.jpg"
      },
      "metadata": {
        "dimensions": {
          "width": 1080,
          "height": 1920
        },
        "file_size": 721470,
        "format": "JPEG",
        "added_at": "2025-07-17T00:04:26.819124",
        "hash": "17c6aef97f615b7be804c93e6994d5f0",
        "source": "migrated"
      }
    },
    {
      "id": "nature_221",
      "category": "nature",
      "title": "Nature Wallpaper 221",
      "tags": [
        "nature",
        "wallpaper",
        "hd",
        "mobile"
      ],
      "urls": {
        "raw": "https://media.githubusercontent.com/media/ddh4r4m/wallpaper-collection/main/collection/wallpapers/nature/221.jpg",
        "thumb": "https://media.githubusercontent.com/media/ddh4r4m/wallpaper-collection/main/collection/thumbnails/nature/221.jpg"
      },
      "metadata": {
        "dimensions": {
          "width": 1080,
          "height": 1920
        },
        "file_size": 486584,
        "format": "JPEG",
        "added_at": "2025-07-17T00:04:26.888216",
        "hash": "d1f5cf65047392138182d87a44406220",
        "source": "migrated"
      }
    },
    {
      "id": "nature_222",
      "category": "nature",
      "title": "Nature Wallpaper 222",
      "tags": [
        "nature",
        "wallpaper",
        "hd",
        "mobile"
      ],
      "urls": {
        "raw": "https://media.githubusercontent.com/media/ddh4r4m/wallpaper-collection/main/collection/wallpapers/nature/222.jpg",
        "thumb": "https://media.githubusercontent.com/media/ddh4r4m/wallpaper-collection/main/collection/thumbnails/nature/222.jpg"
      },
      "metadata": {
        "dimensions": {
          "width": 1080,
          "height": 1920
        },
        "file_size": 304066,
        "format": "JPEG",
        "added_at": "2025-07-17T00:04:26.946003",
        "hash": "e2ad1e0143bdfc5cbfba358ee4849e0b",
        "source": "migrated"
      }
    },
    {
      "id": "nature_223",
      "category": "nature",
      "title": "Nature Wallpaper 223",
      "tags": [
        "nature",
        "wallpaper",
        "hd",
        "mobile"
      ],
      "urls": {
        "raw": "https://media.githubusercontent.com/media/ddh4r4m/wallpaper-collection/main/collection/wallpapers/nature/223.jpg",
        "thumb": "https://media.githubusercontent.com/media/ddh4r4m/wallpaper-collection/main/collection/thumbnails/nature/223.jpg"
      },
      "metadata": {
        "dimensions": {
          "width": 1080,
          "height": 1920
        },
        "file_size": 483420,
        "format": "JPEG",
        "added_at": "2025-07-17T00:04:27.013431",
        "hash": "fd6591621a6347c2cce7cfbeb012f758",
        "source": "migrated"
      }
    },
    {
      "id": "nature_224",
      "category": "nature",
      "title": "Nature Wallpaper 224",
      "tags": [
        "nature",
        "wallpaper",
        "hd",
        "mobile"
      ],
      "urls": {
        "raw": "https://media.githubusercontent.com/media/ddh4r4m/wallpaper-collection/main/collection/wallpapers/nature/224.jpg",
        "thumb": "https://media.githubusercontent.com/media/ddh4r4m/wallpaper-collection/main/collection/thumbnails/nature/224.jpg"
      },
      "metadata": {
        "dimensions": {
          "width": 1080,
          "height": 1920
        },
        "file_size": 293661,
        "format": "JPEG",
        "added_at": "2025-07-17T00:04:27.071329",
        "hash": "fdbcb446c9ff774dcb02d59ce7c19feb",
        "source": "migrated"
      }
    },
    {
      "id": "nature_225",
      "category": "nature",
      "title": "Nature Wallpaper 225",
      "tags": [
        "nature",
        "wallpaper",
        "hd",
        "mobile"
      ],
      "urls": {
        "raw": "https://media.githubusercontent.com/media/ddh4r4m/wallpaper-collection/main/collection/wallpapers/nature/225.jpg",
        "thumb": "https://media.githubusercontent.com/media/ddh4r4m/wallpaper-collection/main/collection/thumbnails/nature/225.jpg"
      },
      "metadata": {
        "dimensions": {
          "width": 1080,
          "height": 1920
        },
        "file_size": 462699,
        "format": "JPEG",
        "added_at": "2025-07-17T00:04:27.135711",
        "hash": "d27aeb6afc17c93020d44b59a9c84637",
        "source": "migrated"
      }
    },
    {
      "id": "nature_226",
      "category": "nature",
      "title": "Nature Wallpaper 226",
      "tags": [
        "nature",
        "wallpaper",
        "hd",
        "mobile"
      ],
      "urls": {
        "raw": "https://media.githubusercontent.com/media/ddh4r4m/wallpaper-collection/main/collection/wallpapers/nature/226.jpg",
        "thumb": "https://media.githubusercontent.com/media/ddh4r4m/wallpaper-collection/main/collection/thumbnails/nature/226.jpg"
      },
      "metadata": {
        "dimensions": {
          "width": 1080,
          "height": 1920
        },
        "file_size": 462094,
        "format": "JPEG",
        "added_at": "2025-07-17T00:04:27.203559",
        "hash": "86ed736bdf1c538b54600de0d05e0a27",
        "source": "migrated"
      }
    },
    {
      "id": "nature_227",
      "category": "nature",
      "title": "Nature Wallpaper 227",
      "tags": [
        "nature",
        "wallpaper",
        "hd",
        "mobile"
      ],
      "urls": {
        "raw": "https://media.githubusercontent.com/media/ddh4r4m/wallpaper-collection/main/collection/wallpapers/nature/227.jpg",
        "thumb": "https://media.githubusercontent.com/media/ddh4r4m/wallpaper-collection/main/collection/thumbnails/nature/227.jpg"
      },
      "metadata": {
        "dimensions": {
          "width": 1080,
          "height": 1920
        },
        "file_size": 656772,
        "format": "JPEG",
        "added_at": "2025-07-17T00:04:27.282680",
        "hash": "0923622751097d357b4ab86693bc58de",
        "source": "migrated"
      }
    },
    {
      "id": "nature_228",
      "category": "nature",
      "title": "Nature Wallpaper 228",
      "tags": [
        "nature",
        "wallpaper",
        "hd",
        "mobile"
      ],
      "urls": {
        "raw": "https://media.githubusercontent.com/media/ddh4r4m/wallpaper-collection/main/collection/wallpapers/nature/228.jpg",
        "thumb": "https://media.githubusercontent.com/media/ddh4r4m/wallpaper-collection/main/collection/thumbnails/nature/228.jpg"
      },
      "metadata": {
        "dimensions": {
          "width": 1080,
          "height": 1920
        },
        "file_size": 289930,
        "format": "JPEG",
        "added_at": "2025-07-17T00:04:27.339459",
        "hash": "a0640fb4f99a8c6a752069efe820112c",
        "source": "migrated"
      }
    }
  ]
}