{
  "meta": {
    "version": "1.0",
    "generated_at": "2025-07-19T12:26:57.111378",
    "page": 128,
    "per_page": 15,
    "total_pages": 160,
    "total_count": 2387,
    "count_on_page": 15,
    "categories": 19,
    "has_next": true,
    "has_prev": true,
    "next_page_url": "/api/v1/all/pages/129.json",
    "prev_page_url": "/api/v1/all/pages/127.json"
  },
  "data": [
    {
      "id": "neon_070",
      "category": "neon",
      "title": "Neon Wallpaper 070",
      "tags": [
        "neon",
        "wallpaper",
        "hd",
        "mobile"
      ],
      "urls": {
        "raw": "https://media.githubusercontent.com/media/ddh4r4m/wallpaper-collection/main/collection/wallpapers/neon/070.jpg",
        "thumb": "https://media.githubusercontent.com/media/ddh4r4m/wallpaper-collection/main/collection/thumbnails/neon/070.jpg"
      },
      "metadata": {
        "dimensions": {
          "width": 1080,
          "height": 1920
        },
        "file_size": 166997,
        "format": "JPEG",
        "added_at": "2025-07-17T00:04:35.330271",
        "hash": "0d58b4e2c3095288af5258f48d7bf1ab",
        "source": "migrated"
      }
    },
    {
      "id": "neon_071",
      "category": "neon",
      "title": "Neon Wallpaper 071",
      "tags": [
        "neon",
        "wallpaper",
        "hd",
        "mobile"
      ],
      "urls": {
        "raw": "https://media.githubusercontent.com/media/ddh4r4m/wallpaper-collection/main/collection/wallpapers/neon/071.jpg",
        "thumb": "https://media.githubusercontent.com/media/ddh4r4m/wallpaper-collection/main/collection/thumbnails/neon/071.jpg"
      },
      "metadata": {
        "dimensions": {
          "width": 1080,
          "height": 1920
        },
        "file_size": 211715,
        "format": "JPEG",
        "added_at": "2025-07-17T00:04:35.383432",
        "hash": "8eaeff967726106e61acdd9a6e7d7d25",
        "source": "migrated"
      }
    },
    {
      "id": "neon_072",
      "category": "neon",
      "title": "Neon Wallpaper 072",
      "tags": [
        "neon",
        "wallpaper",
        "hd",
        "mobile"
      ],
      "urls": {
        "raw": "https://media.githubusercontent.com/media/ddh4r4m/wallpaper-collection/main/collection/wallpapers/neon/072.jpg",
        "thumb": "https://media.githubusercontent.com/media/ddh4r4m/wallpaper-collection/main/collection/thumbnails/neon/072.jpg"
      },
      "metadata": {
        "dimensions": {
          "width": 1080,
          "height": 1920
        },
        "file_size": 162013,
        "format": "JPEG",
        "added_at": "2025-07-17T00:04:35.432726",
        "hash": "0a7d40c6382f0b745600a15615f5971d",
        "source": "migrated"
      }
    },
    {
      "id": "neon_073",
      "category": "neon",
      "title": "Neon Wallpaper 073",
      "tags": [
        "neon",
        "wallpaper",
        "hd",
        "mobile"
      ],
      "urls": {
        "raw": "https://media.githubusercontent.com/media/ddh4r4m/wallpaper-collection/main/collection/wallpapers/neon/073.jpg",
        "thumb": "https://media.githubusercontent.com/media/ddh4r4m/wallpaper-collection/main/collection/thumbnails/neon/073.jpg"
      },
      "metadata": {
        "dimensions": {
          "width": 1080,
          "height": 1920
        },
        "file_size": 109171,
        "format": "JPEG",
        "added_at": "2025-07-17T00:04:35.479916",
        "hash": "38d634bba06621d5bceaa87726132fe8",
        "source": "migrated"
      }
    },
    {
      "id": "neon_074",
      "category": "neon",
      "title": "Neon Wallpaper 074",
      "tags": [
        "neon",
        "wallpaper",
        "hd",
        "mobile"
      ],
      "urls": {
        "raw": "https://media.githubusercontent.com/media/ddh4r4m/wallpaper-collection/main/collection/wallpapers/neon/074.jpg",
        "thumb": "https://media.githubusercontent.com/media/ddh4r4m/wallpaper-collection/main/collection/thumbnails/neon/074.jpg"
      },
      "metadata": {
        "dimensions": {
          "width": 1080,
          "height": 1920
        },
        "file_size": 191115,
        "format": "JPEG",
        "added_at": "2025-07-17T00:04:35.531613",
        "hash": "cd446ea2aeb558e418c96df80486b905",
        "source": "migrated"
      }
    },
    {
      "id": "neon_075",
      "category": "neon",
      "title": "Neon Wallpaper 075",
      "tags": [
        "neon",
        "wallpaper",
        "hd",
        "mobile"
      ],
      "urls": {
        "raw": "https://media.githubusercontent.com/media/ddh4r4m/wallpaper-collection/main/collection/wallpapers/neon/075.jpg",
        "thumb": "https://media.githubusercontent.com/media/ddh4r4m/wallpaper-collection/main/collection/thumbnails/neon/075.jpg"
      },
      "metadata": {
        "dimensions": {
          "width": 1080,
          "height": 1920
        },
        "file_size": 246669,
        "format": "JPEG",
        "added_at": "2025-07-17T00:04:35.590237",
        "hash": "4f66cc43000c44141043724956df323e",
        "source": "migrated"
      }
    },
    {
      "id": "neon_076",
      "category": "neon",
      "title": "Neon Wallpaper 076",
      "tags": [
        "neon",
        "wallpaper",
        "hd",
        "mobile"
      ],
      "urls": {
        "raw": "https://media.githubusercontent.com/media/ddh4r4m/wallpaper-collection/main/collection/wallpapers/neon/076.jpg",
        "thumb": "https://media.githubusercontent.com/media/ddh4r4m/wallpaper-collection/main/collection/thumbnails/neon/076.jpg"
      },
      "metadata": {
        "dimensions": {
          "width": 1080,
          "height": 1920
        },
        "file_size": 382270,
        "format": "JPEG",
        "added_at": "2025-07-17T00:04:35.653074",
        "hash": "bd0cd9edeaa5858072771a78832f85df",
        "source": "migrated"
      }
    },
    {
      "id": "neon_077",
      "category": "neon",
      "title": "Neon Wallpaper 077",
      "tags": [
        "neon",
        "wallpaper",
        "hd",
        "mobile"
      ],
      "urls": {
        "raw": "https://media.githubusercontent.com/media/ddh4r4m/wallpaper-collection/main/collection/wallpapers/neon/077.jpg",
        "thumb": "https://media.githubusercontent.com/media/ddh4r4m/wallpaper-collection/main/collection/thumbnails/neon/077.jpg"
      },
      "metadata": {
        "dimensions": {
          "width": 1080,
          "height": 1920
        },
        "file_size": 368695,
        "format": "JPEG",
        "added_at": "2025-07-17T00:04:35.714223",
        "hash": "64bd0dab3f6bd933ead253363c9917d6",
        "source": "migrated"
      }
    },
    {
      "id": "neon_078",
      "category": "neon",
      "title": "Neon Wallpaper 078",
      "tags": [
        "neon",
        "wallpaper",
        "hd",
        "mobile"
      ],
      "urls": {
        "raw": "https://media.githubusercontent.com/media/ddh4r4m/wallpaper-collection/main/collection/wallpapers/neon/078.jpg",
        "thumb": "https://media.githubusercontent.com/media/ddh4r4m/wallpaper-collection/main/collection/thumbnails/neon/078.jpg"
      },
      "metadata": {
        "dimensions": {
          "width": 1080,
          "height": 1920
        },
        "file_size": 282619,
        "format": "JPEG",
        "added_at": "2025-07-17T00:04:35.774632",
        "hash": "43ce71244b7b2d4a10949e53b7fbad7c",
        "source": "migrated"
      }
    },
    {
      "id": "neon_079",
      "category": "neon",
      "title": "Neon Wallpaper",
      "tags": [
        "neon",
        "unsplash",
        "hd",
        "mobile"
      ],
      "metadata": {
        "dimensions": {
          "width": 1080,
          "height": 1620
        },
        "file_size": 109585,
        "format": "JPEG",
        "added_at": "2025-07-18T00:33:07.787554",
        "hash": "a4793dd9bfb7868501e45e95f3f6dd9b",
        "photographer": "Unknown"
      },
      "urls": {
        "raw": "https://media.githubusercontent.com/media/ddh4r4m/wallpaper-collection/main/collection/wallpapers/neon/079.jpg",
        "thumb": "https://media.githubusercontent.com/media/ddh4r4m/wallpaper-collection/main/collection/thumbnails/neon/079.jpg"
      }
    },
    {
      "id": "neon_080",
      "category": "neon",
      "title": "Neon Wallpaper",
      "tags": [
        "neon",
        "unsplash",
        "hd",
        "mobile"
      ],
      "metadata": {
        "dimensions": {
          "width": 1080,
          "height": 1625
        },
        "file_size": 109905,
        "format": "JPEG",
        "added_at": "2025-07-18T00:33:10.207595",
        "hash": "678fae4d91702f08c3803d02d28f109b",
        "photographer": "Unknown"
      },
      "urls": {
        "raw": "https://media.githubusercontent.com/media/ddh4r4m/wallpaper-collection/main/collection/wallpapers/neon/080.jpg",
        "thumb": "https://media.githubusercontent.com/media/ddh4r4m/wallpaper-collection/main/collection/thumbnails/neon/080.jpg"
      }
    },
    {
      "id": "neon_081",
      "category": "neon",
      "title": "Neon Wallpaper",
      "tags": [
        "neon",
        "unsplash",
        "hd",
        "mobile"
      ],
      "metadata": {
        "dimensions": {
          "width": 1080,
          "height": 1620
        },
        "file_size": 76868,
        "format": "JPEG",
        "added_at": "2025-07-18T00:33:13.839654",
        "hash": "8a855d9bafa1ebd345ab5af33ab6d9ac",
        "photographer": "Unknown"
      },
      "urls": {
        "raw": "https://media.githubusercontent.com/media/ddh4r4m/wallpaper-collection/main/collection/wallpapers/neon/081.jpg",
        "thumb": "https://media.githubusercontent.com/media/ddh4r4m/wallpaper-collection/main/collection/thumbnails/neon/081.jpg"
      }
    },
    {
      "id": "neon_082",
      "category": "neon",
      "title": "Neon Wallpaper",
      "tags": [
        "neon",
        "unsplash",
        "hd",
        "mobile"
      ],
      "metadata": {
        "dimensions": {
          "width": 1080,
          "height": 720
        },
        "file_size": 46329,
        "format": "JPEG",
        "added_at": "2025-07-18T00:33:16.214209",
        "hash": "8f80766c1ce1c3d1694d835f14cb9e6e",
        "photographer": "Unknown"
      },
      "urls": {
        "raw": "https://media.githubusercontent.com/media/ddh4r4m/wallpaper-collection/main/collection/wallpapers/neon/082.jpg",
        "thumb": "https://media.githubusercontent.com/media/ddh4r4m/wallpaper-collection/main/collection/thumbnails/neon/082.jpg"
      }
    },
    {
      "id": "neon_083",
      "category": "neon",
      "title": "Neon Wallpaper",
      "tags": [
        "neon",
        "unsplash",
        "hd",
        "mobile"
      ],
      "metadata": {
        "dimensions": {
          "width": 1080,
          "height": 720
        },
        "file_size": 49753,
        "format": "JPEG",
        "added_at": "2025-07-18T00:33:19.390396",
        "hash": "4222274370d0260590bd1fc9a3af288a",
        "photographer": "Unknown"
      },
      "urls": {
        "raw": "https://media.githubusercontent.com/media/ddh4r4m/wallpaper-collection/main/collection/wallpapers/neon/083.jpg",
        "thumb": "https://media.githubusercontent.com/media/ddh4r4m/wallpaper-collection/main/collection/thumbnails/neon/083.jpg"
      }
    },
    {
      "id": "neon_084",
      "category": "neon",
      "title": "Neon Wallpaper",
      "tags": [
        "neon",
        "unsplash",
        "hd",
        "mobile"
      ],
      "metadata": {
        "dimensions": {
          "width": 1080,
          "height": 1440
        },
        "file_size": 448831,
        "format": "JPEG",
        "added_at": "2025-07-18T00:33:22.325090",
        "hash": "e0477fe61e5994b4f374bb9512bdfe9f",
        "photographer": "Unknown"
      },
      "urls": {
        "raw": "https://media.githubusercontent.com/media/ddh4r4m/wallpaper-collection/main/collection/wallpapers/neon/084.jpg",
        "thumb": "https://media.githubusercontent.com/media/ddh4r4m/wallpaper-collection/main/collection/thumbnails/neon/084.jpg"
      }
    }
  ]
}