{
  "meta": {
    "version": "1.0",
    "generated_at": "2025-07-28T23:12:02.393375",
    "page": 129,
    "per_page": 15,
    "total_pages": 183,
    "total_count": 2743,
    "count_on_page": 15,
    "categories": 22,
    "has_next": true,
    "has_prev": true,
    "next_page_url": "/api/v1/all/pages/130.json",
    "prev_page_url": "/api/v1/all/pages/128.json"
  },
  "data": [
    {
      "id": "nature_238",
      "category": "nature",
      "title": "Nature Wallpaper 238",
      "tags": [
        "nature",
        "wallpaper",
        "hd",
        "mobile"
      ],
      "urls": {
        "raw": "https://media.githubusercontent.com/media/ddh4r4m/wallpaper-collection/main/collection/wallpapers/nature/238.jpg",
        "thumb": "https://media.githubusercontent.com/media/ddh4r4m/wallpaper-collection/main/collection/thumbnails/nature/238.jpg"
      },
      "metadata": {
        "dimensions": {
          "width": 1080,
          "height": 1920
        },
        "file_size": 1009544,
        "format": "JPEG",
        "added_at": "2025-07-17T00:04:28.105738",
        "hash": "454cab147bd12e96807a942c67516a2d",
        "source": "migrated"
      }
    },
    {
      "id": "nature_239",
      "category": "nature",
      "title": "Nature Wallpaper 239",
      "tags": [
        "nature",
        "wallpaper",
        "hd",
        "mobile"
      ],
      "urls": {
        "raw": "https://media.githubusercontent.com/media/ddh4r4m/wallpaper-collection/main/collection/wallpapers/nature/239.jpg",
        "thumb": "https://media.githubusercontent.com/media/ddh4r4m/wallpaper-collection/main/collection/thumbnails/nature/239.jpg"
      },
      "metadata": {
        "dimensions": {
          "width": 1080,
          "height": 1920
        },
        "file_size": 345456,
        "format": "JPEG",
        "added_at": "2025-07-17T00:04:28.166542",
        "hash": "f5646012c3088f23476284a62f5446c5",
        "source": "migrated"
      }
    },
    {
      "id": "nature_240",
      "category": "nature",
      "title": "Nature Wallpaper 240",
      "tags": [
        "nature",
        "wallpaper",
        "hd",
        "mobile"
      ],
      "urls": {
        "raw": "https://media.githubusercontent.com/media/ddh4r4m/wallpaper-collection/main/collection/wallpapers/nature/240.jpg",
        "thumb": "https://media.githubusercontent.com/media/ddh4r4m/wallpaper-collection/main/collection/thumbnails/nature/240.jpg"
      },
      "metadata": {
        "dimensions": {
          "width": 1080,
          "height": 1920
        },
        "file_size": 780200,
        "format": "JPEG",
        "added_at": "2025-07-17T00:04:28.246275",
        "hash": "e6672fca25956e0629a40b76e28bfeeb",
        "source": "migrated"
      }
    },
    {
      "id": "nature_241",
      "category": "nature",
      "title": "Nature Wallpaper 241",
      "tags": [
        "nature",
        "wallpaper",
        "hd",
        "mobile"
      ],
      "urls": {
        "raw": "https://media.githubusercontent.com/media/ddh4r4m/wallpaper-collection/main/collection/wallpapers/nature/241.jpg",
        "thumb": "https://media.githubusercontent.com/media/ddh4r4m/wallpaper-collection/main/collection/thumbnails/nature/241.jpg"
      },
      "metadata": {
        "dimensions": {
          "width": 1080,
          "height": 1920
        },
        "file_size": 268772,
        "format": "JPEG",
        "added_at": "2025-07-17T00:04:28.301684",
        "hash": "a18e6c6c2133175b9c9f23c637f9a338",
        "source": "migrated"
      }
    },
    {
      "id": "nature_242",
      "category": "nature",
      "title": "Nature Wallpaper 242",
      "tags": [
        "nature",
        "wallpaper",
        "hd",
        "mobile"
      ],
      "urls": {
        "raw": "https://media.githubusercontent.com/media/ddh4r4m/wallpaper-collection/main/collection/wallpapers/nature/242.jpg",
        "thumb": "https://media.githubusercontent.com/media/ddh4r4m/wallpaper-collection/main/collection/thumbnails/nature/242.jpg"
      },
      "metadata": {
        "dimensions": {
          "width": 1080,
          "height": 1920
        },
        "file_size": 508848,
        "format": "JPEG",
        "added_at": "2025-07-17T00:04:28.371022",
        "hash": "5e432714d64a938d79e317b02681d478",
        "source": "migrated"
      }
    },
    {
      "id": "nature_243",
      "category": "nature",
      "title": "Nature Wallpaper 243",
      "tags": [
        "nature",
        "wallpaper",
        "hd",
        "mobile"
      ],
      "urls": {
        "raw": "https://media.githubusercontent.com/media/ddh4r4m/wallpaper-collection/main/collection/wallpapers/nature/243.jpg",
        "thumb": "https://media.githubusercontent.com/media/ddh4r4m/wallpaper-collection/main/collection/thumbnails/nature/243.jpg"
      },
      "metadata": {
        "dimensions": {
          "width": 1080,
          "height": 1920
        },
        "file_size": 317599,
        "format": "JPEG",
        "added_at": "2025-07-17T00:04:28.429865",
        "hash": "a172293fe6137faf6e1262f829ac4e41",
        "source": "migrated"
      }
    },
    {
      "id": "nature_244",
      "category": "nature",
      "title": "Nature Wallpaper 244",
      "tags": [
        "nature",
        "wallpaper",
        "hd",
        "mobile"
      ],
      "urls": {
        "raw": "https://media.githubusercontent.com/media/ddh4r4m/wallpaper-collection/main/collection/wallpapers/nature/244.jpg",
        "thumb": "https://media.githubusercontent.com/media/ddh4r4m/wallpaper-collection/main/collection/thumbnails/nature/244.jpg"
      },
      "metadata": {
        "dimensions": {
          "width": 1080,
          "height": 1920
        },
        "file_size": 909608,
        "format": "JPEG",
        "added_at": "2025-07-17T00:04:28.517582",
        "hash": "74e73efac06644851605f5c3bc5cfed7",
        "source": "migrated"
      }
    },
    {
      "id": "nature_245",
      "category": "nature",
      "title": "Nature Wallpaper 245",
      "tags": [
        "nature",
        "wallpaper",
        "hd",
        "mobile"
      ],
      "urls": {
        "raw": "https://media.githubusercontent.com/media/ddh4r4m/wallpaper-collection/main/collection/wallpapers/nature/245.jpg",
        "thumb": "https://media.githubusercontent.com/media/ddh4r4m/wallpaper-collection/main/collection/thumbnails/nature/245.jpg"
      },
      "metadata": {
        "dimensions": {
          "width": 1080,
          "height": 1920
        },
        "file_size": 306034,
        "format": "JPEG",
        "added_at": "2025-07-17T00:04:28.575620",
        "hash": "52cc398262795ecf6b61c7d7e44d7610",
        "source": "migrated"
      }
    },
    {
      "id": "nature_246",
      "category": "nature",
      "title": "Nature Wallpaper 246",
      "tags": [
        "nature",
        "wallpaper",
        "hd",
        "mobile"
      ],
      "urls": {
        "raw": "https://media.githubusercontent.com/media/ddh4r4m/wallpaper-collection/main/collection/wallpapers/nature/246.jpg",
        "thumb": "https://media.githubusercontent.com/media/ddh4r4m/wallpaper-collection/main/collection/thumbnails/nature/246.jpg"
      },
      "metadata": {
        "dimensions": {
          "width": 1080,
          "height": 1920
        },
        "file_size": 498461,
        "format": "JPEG",
        "added_at": "2025-07-17T00:04:28.644584",
        "hash": "4291a26fbf3c37478f20b94e7787a7cc",
        "source": "migrated"
      }
    },
    {
      "id": "nature_247",
      "category": "nature",
      "title": "Nature Wallpaper 247",
      "tags": [
        "nature",
        "wallpaper",
        "hd",
        "mobile"
      ],
      "urls": {
        "raw": "https://media.githubusercontent.com/media/ddh4r4m/wallpaper-collection/main/collection/wallpapers/nature/247.jpg",
        "thumb": "https://media.githubusercontent.com/media/ddh4r4m/wallpaper-collection/main/collection/thumbnails/nature/247.jpg"
      },
      "metadata": {
        "dimensions": {
          "width": 1080,
          "height": 1920
        },
        "file_size": 642457,
        "format": "JPEG",
        "added_at": "2025-07-17T00:04:28.721139",
        "hash": "4259ad63cfc38a29852587719f9e4de3",
        "source": "migrated"
      }
    },
    {
      "id": "nature_248",
      "category": "nature",
      "title": "Nature Wallpaper 248",
      "tags": [
        "nature",
        "wallpaper",
        "hd",
        "mobile"
      ],
      "urls": {
        "raw": "https://media.githubusercontent.com/media/ddh4r4m/wallpaper-collection/main/collection/wallpapers/nature/248.jpg",
        "thumb": "https://media.githubusercontent.com/media/ddh4r4m/wallpaper-collection/main/collection/thumbnails/nature/248.jpg"
      },
      "metadata": {
        "dimensions": {
          "width": 1080,
          "height": 1920
        },
        "file_size": 731130,
        "format": "JPEG",
        "added_at": "2025-07-17T00:04:28.800472",
        "hash": "47f511e526f6df9519656234ce09f91a",
        "source": "migrated"
      }
    },
    {
      "id": "nature_249",
      "category": "nature",
      "title": "Nature Wallpaper 249",
      "tags": [
        "nature",
        "wallpaper",
        "hd",
        "mobile"
      ],
      "urls": {
        "raw": "https://media.githubusercontent.com/media/ddh4r4m/wallpaper-collection/main/collection/wallpapers/nature/249.jpg",
        "thumb": "https://media.githubusercontent.com/media/ddh4r4m/wallpaper-collection/main/collection/thumbnails/nature/249.jpg"
      },
      "metadata": {
        "dimensions": {
          "width": 1080,
          "height": 1920
        },
        "file_size": 400086,
        "format": "JPEG",
        "added_at": "2025-07-17T00:04:28.890498",
        "hash": "5f3f850a0aee890160e011f2e9bc04dd",
        "source": "migrated"
      }
    },
    {
      "id": "nature_250",
      "category": "nature",
      "title": "Nature Wallpaper 250",
      "tags": [
        "nature",
        "wallpaper",
        "hd",
        "mobile"
      ],
      "urls": {
        "raw": "https://media.githubusercontent.com/media/ddh4r4m/wallpaper-collection/main/collection/wallpapers/nature/250.jpg",
        "thumb": "https://media.githubusercontent.com/media/ddh4r4m/wallpaper-collection/main/collection/thumbnails/nature/250.jpg"
      },
      "metadata": {
        "dimensions": {
          "width": 1080,
          "height": 1920
        },
        "file_size": 335084,
        "format": "JPEG",
        "added_at": "2025-07-17T00:04:28.951692",
        "hash": "414d26b6e10b8b65287a89096ccb0498",
        "source": "migrated"
      }
    },
    {
      "id": "nature_251",
      "category": "nature",
      "title": "Nature Wallpaper 251",
      "tags": [
        "nature",
        "wallpaper",
        "hd",
        "mobile"
      ],
      "urls": {
        "raw": "https://media.githubusercontent.com/media/ddh4r4m/wallpaper-collection/main/collection/wallpapers/nature/251.jpg",
        "thumb": "https://media.githubusercontent.com/media/ddh4r4m/wallpaper-collection/main/collection/thumbnails/nature/251.jpg"
      },
      "metadata": {
        "dimensions": {
          "width": 1080,
          "height": 1920
        },
        "file_size": 540936,
        "format": "JPEG",
        "added_at": "2025-07-17T00:04:29.022042",
        "hash": "da3d9a595a829bd91eb8fecb65bc0995",
        "source": "migrated"
      }
    },
    {
      "id": "nature_252",
      "category": "nature",
      "title": "Nature Wallpaper 252",
      "tags": [
        "nature",
        "wallpaper",
        "hd",
        "mobile"
      ],
      "urls": {
        "raw": "https://media.githubusercontent.com/media/ddh4r4m/wallpaper-collection/main/collection/wallpapers/nature/252.jpg",
        "thumb": "https://media.githubusercontent.com/media/ddh4r4m/wallpaper-collection/main/collection/thumbnails/nature/252.jpg"
      },
      "metadata": {
        "dimensions": {
          "width": 1080,
          "height": 1920
        },
        "file_size": 533712,
        "format": "JPEG",
        "added_at": "2025-07-17T00:04:29.092380",
        "hash": "0d4a02ce4fe0e25c5def93e439aefd7d",
        "source": "migrated"
      }
    }
  ]
}