{
  "meta": {
    "version": "1.0",
    "generated_at": "2025-07-28T22:38:03.579947",
    "page": 13,
    "per_page": 15,
    "total_pages": 178,
    "total_count": 2656,
    "count_on_page": 15,
    "categories": 21,
    "has_next": true,
    "has_prev": true,
    "next_page_url": "/api/v1/all/pages/14.json",
    "prev_page_url": "/api/v1/all/pages/12.json"
  },
  "data": [
    {
      "id": "4k_181",
      "filename": "181.jpg",
      "title": "4K Wallpaper 181",
      "photographer": "Unknown",
      "source": "unsplash",
      "source_id": "",
      "source_url": "",
      "tags": [],
      "color": "#000000",
      "created_at": "",
      "download_url": "https://raw.githubusercontent.com/username/wallpaper-collection/main/collection/wallpapers/4k/181.jpg",
      "thumbnail_url": "https://raw.githubusercontent.com/username/wallpaper-collection/main/collection/thumbnails/4k/181.jpg",
      "urls": {
        "raw": "https://media.githubusercontent.com/media/ddh4r4m/wallpaper-collection/main/collection/wallpapers/4k/181.jpg",
        "thumb": "https://media.githubusercontent.com/media/ddh4r4m/wallpaper-collection/main/collection/thumbnails/4k/181.jpg"
      },
      "category": "4k"
    },
    {
      "id": "4k_182",
      "filename": "182.jpg",
      "title": "4K Wallpaper 182",
      "photographer": "Unknown",
      "source": "unsplash",
      "source_id": "",
      "source_url": "",
      "tags": [],
      "color": "#000000",
      "created_at": "",
      "download_url": "https://raw.githubusercontent.com/username/wallpaper-collection/main/collection/wallpapers/4k/182.jpg",
      "thumbnail_url": "https://raw.githubusercontent.com/username/wallpaper-collection/main/collection/thumbnails/4k/182.jpg",
      "urls": {
        "raw": "https://media.githubusercontent.com/media/ddh4r4m/wallpaper-collection/main/collection/wallpapers/4k/182.jpg",
        "thumb": "https://media.githubusercontent.com/media/ddh4r4m/wallpaper-collection/main/collection/thumbnails/4k/182.jpg"
      },
      "category": "4k"
    },
    {
      "id": "4k_183",
      "filename": "183.jpg",
      "title": "4K Wallpaper 183",
      "photographer": "Unknown",
      "source": "unsplash",
      "source_id": "",
      "source_url": "",
      "tags": [],
      "color": "#000000",
      "created_at": "",
      "download_url": "https://raw.githubusercontent.com/username/wallpaper-collection/main/collection/wallpapers/4k/183.jpg",
      "thumbnail_url": "https://raw.githubusercontent.com/username/wallpaper-collection/main/collection/thumbnails/4k/183.jpg",
      "urls": {
        "raw": "https://media.githubusercontent.com/media/ddh4r4m/wallpaper-collection/main/collection/wallpapers/4k/183.jpg",
        "thumb": "https://media.githubusercontent.com/media/ddh4r4m/wallpaper-collection/main/collection/thumbnails/4k/183.jpg"
      },
      "category": "4k"
    },
    {
      "id": "4k_184",
      "filename": "184.jpg",
      "title": "4K Wallpaper 184",
      "photographer": "Unknown",
      "source": "unsplash",
      "source_id": "",
      "source_url": "",
      "tags": [],
      "color": "#000000",
      "created_at": "",
      "download_url": "https://raw.githubusercontent.com/username/wallpaper-collection/main/collection/wallpapers/4k/184.jpg",
      "thumbnail_url": "https://raw.githubusercontent.com/username/wallpaper-collection/main/collection/thumbnails/4k/184.jpg",
      "urls": {
        "raw": "https://media.githubusercontent.com/media/ddh4r4m/wallpaper-collection/main/collection/wallpapers/4k/184.jpg",
        "thumb": "https://media.githubusercontent.com/media/ddh4r4m/wallpaper-collection/main/collection/thumbnails/4k/184.jpg"
      },
      "category": "4k"
    },
    {
      "id": "4k_185",
      "filename": "185.jpg",
      "title": "4K Wallpaper 185",
      "photographer": "Unknown",
      "source": "unsplash",
      "source_id": "",
      "source_url": "",
      "tags": [],
      "color": "#000000",
      "created_at": "",
      "download_url": "https://raw.githubusercontent.com/username/wallpaper-collection/main/collection/wallpapers/4k/185.jpg",
      "thumbnail_url": "https://raw.githubusercontent.com/username/wallpaper-collection/main/collection/thumbnails/4k/185.jpg",
      "urls": {
        "raw": "https://media.githubusercontent.com/media/ddh4r4m/wallpaper-collection/main/collection/wallpapers/4k/185.jpg",
        "thumb": "https://media.githubusercontent.com/media/ddh4r4m/wallpaper-collection/main/collection/thumbnails/4k/185.jpg"
      },
      "category": "4k"
    },
    {
      "id": "4k_186",
      "filename": "186.jpg",
      "title": "4K Wallpaper 186",
      "photographer": "Unknown",
      "source": "unsplash",
      "source_id": "",
      "source_url": "",
      "tags": [],
      "color": "#000000",
      "created_at": "",
      "download_url": "https://raw.githubusercontent.com/username/wallpaper-collection/main/collection/wallpapers/4k/186.jpg",
      "thumbnail_url": "https://raw.githubusercontent.com/username/wallpaper-collection/main/collection/thumbnails/4k/186.jpg",
      "urls": {
        "raw": "https://media.githubusercontent.com/media/ddh4r4m/wallpaper-collection/main/collection/wallpapers/4k/186.jpg",
        "thumb": "https://media.githubusercontent.com/media/ddh4r4m/wallpaper-collection/main/collection/thumbnails/4k/186.jpg"
      },
      "category": "4k"
    },
    {
      "id": "4k_187",
      "filename": "187.jpg",
      "title": "4K Wallpaper 187",
      "photographer": "Unknown",
      "source": "unsplash",
      "source_id": "",
      "source_url": "",
      "tags": [],
      "color": "#000000",
      "created_at": "",
      "download_url": "https://raw.githubusercontent.com/username/wallpaper-collection/main/collection/wallpapers/4k/187.jpg",
      "thumbnail_url": "https://raw.githubusercontent.com/username/wallpaper-collection/main/collection/thumbnails/4k/187.jpg",
      "urls": {
        "raw": "https://media.githubusercontent.com/media/ddh4r4m/wallpaper-collection/main/collection/wallpapers/4k/187.jpg",
        "thumb": "https://media.githubusercontent.com/media/ddh4r4m/wallpaper-collection/main/collection/thumbnails/4k/187.jpg"
      },
      "category": "4k"
    },
    {
      "id": "4k_188",
      "filename": "188.jpg",
      "title": "4K Wallpaper 188",
      "photographer": "Unknown",
      "source": "unsplash",
      "source_id": "",
      "source_url": "",
      "tags": [],
      "color": "#000000",
      "created_at": "",
      "download_url": "https://raw.githubusercontent.com/username/wallpaper-collection/main/collection/wallpapers/4k/188.jpg",
      "thumbnail_url": "https://raw.githubusercontent.com/username/wallpaper-collection/main/collection/thumbnails/4k/188.jpg",
      "urls": {
        "raw": "https://media.githubusercontent.com/media/ddh4r4m/wallpaper-collection/main/collection/wallpapers/4k/188.jpg",
        "thumb": "https://media.githubusercontent.com/media/ddh4r4m/wallpaper-collection/main/collection/thumbnails/4k/188.jpg"
      },
      "category": "4k"
    },
    {
      "id": "4k_189",
      "filename": "189.jpg",
      "title": "4K Wallpaper 189",
      "photographer": "Unknown",
      "source": "unsplash",
      "source_id": "",
      "source_url": "",
      "tags": [],
      "color": "#000000",
      "created_at": "",
      "download_url": "https://raw.githubusercontent.com/username/wallpaper-collection/main/collection/wallpapers/4k/189.jpg",
      "thumbnail_url": "https://raw.githubusercontent.com/username/wallpaper-collection/main/collection/thumbnails/4k/189.jpg",
      "urls": {
        "raw": "https://media.githubusercontent.com/media/ddh4r4m/wallpaper-collection/main/collection/wallpapers/4k/189.jpg",
        "thumb": "https://media.githubusercontent.com/media/ddh4r4m/wallpaper-collection/main/collection/thumbnails/4k/189.jpg"
      },
      "category": "4k"
    },
    {
      "id": "4k_190",
      "filename": "190.jpg",
      "title": "4K Wallpaper 190",
      "photographer": "Unknown",
      "source": "unsplash",
      "source_id": "",
      "source_url": "",
      "tags": [],
      "color": "#000000",
      "created_at": "",
      "download_url": "https://raw.githubusercontent.com/username/wallpaper-collection/main/collection/wallpapers/4k/190.jpg",
      "thumbnail_url": "https://raw.githubusercontent.com/username/wallpaper-collection/main/collection/thumbnails/4k/190.jpg",
      "urls": {
        "raw": "https://media.githubusercontent.com/media/ddh4r4m/wallpaper-collection/main/collection/wallpapers/4k/190.jpg",
        "thumb": "https://media.githubusercontent.com/media/ddh4r4m/wallpaper-collection/main/collection/thumbnails/4k/190.jpg"
      },
      "category": "4k"
    },
    {
      "id": "4k_191",
      "filename": "191.jpg",
      "title": "4K Wallpaper 191",
      "photographer": "Unknown",
      "source": "unsplash",
      "source_id": "",
      "source_url": "",
      "tags": [],
      "color": "#000000",
      "created_at": "",
      "download_url": "https://raw.githubusercontent.com/username/wallpaper-collection/main/collection/wallpapers/4k/191.jpg",
      "thumbnail_url": "https://raw.githubusercontent.com/username/wallpaper-collection/main/collection/thumbnails/4k/191.jpg",
      "urls": {
        "raw": "https://media.githubusercontent.com/media/ddh4r4m/wallpaper-collection/main/collection/wallpapers/4k/191.jpg",
        "thumb": "https://media.githubusercontent.com/media/ddh4r4m/wallpaper-collection/main/collection/thumbnails/4k/191.jpg"
      },
      "category": "4k"
    },
    {
      "id": "4k_192",
      "filename": "192.jpg",
      "title": "4K Wallpaper 192",
      "photographer": "Unknown",
      "source": "unsplash",
      "source_id": "",
      "source_url": "",
      "tags": [],
      "color": "#000000",
      "created_at": "",
      "download_url": "https://raw.githubusercontent.com/username/wallpaper-collection/main/collection/wallpapers/4k/192.jpg",
      "thumbnail_url": "https://raw.githubusercontent.com/username/wallpaper-collection/main/collection/thumbnails/4k/192.jpg",
      "urls": {
        "raw": "https://media.githubusercontent.com/media/ddh4r4m/wallpaper-collection/main/collection/wallpapers/4k/192.jpg",
        "thumb": "https://media.githubusercontent.com/media/ddh4r4m/wallpaper-collection/main/collection/thumbnails/4k/192.jpg"
      },
      "category": "4k"
    },
    {
      "id": "4k_193",
      "filename": "193.jpg",
      "title": "4K Wallpaper 193",
      "photographer": "Unknown",
      "source": "unsplash",
      "source_id": "",
      "source_url": "",
      "tags": [],
      "color": "#000000",
      "created_at": "",
      "download_url": "https://raw.githubusercontent.com/username/wallpaper-collection/main/collection/wallpapers/4k/193.jpg",
      "thumbnail_url": "https://raw.githubusercontent.com/username/wallpaper-collection/main/collection/thumbnails/4k/193.jpg",
      "urls": {
        "raw": "https://media.githubusercontent.com/media/ddh4r4m/wallpaper-collection/main/collection/wallpapers/4k/193.jpg",
        "thumb": "https://media.githubusercontent.com/media/ddh4r4m/wallpaper-collection/main/collection/thumbnails/4k/193.jpg"
      },
      "category": "4k"
    },
    {
      "id": "4k_194",
      "filename": "194.jpg",
      "title": "4K Wallpaper 194",
      "photographer": "Unknown",
      "source": "unsplash",
      "source_id": "",
      "source_url": "",
      "tags": [],
      "color": "#000000",
      "created_at": "",
      "download_url": "https://raw.githubusercontent.com/username/wallpaper-collection/main/collection/wallpapers/4k/194.jpg",
      "thumbnail_url": "https://raw.githubusercontent.com/username/wallpaper-collection/main/collection/thumbnails/4k/194.jpg",
      "urls": {
        "raw": "https://media.githubusercontent.com/media/ddh4r4m/wallpaper-collection/main/collection/wallpapers/4k/194.jpg",
        "thumb": "https://media.githubusercontent.com/media/ddh4r4m/wallpaper-collection/main/collection/thumbnails/4k/194.jpg"
      },
      "category": "4k"
    },
    {
      "id": "4k_195",
      "filename": "195.jpg",
      "title": "4K Wallpaper 195",
      "photographer": "Unknown",
      "source": "unsplash",
      "source_id": "",
      "source_url": "",
      "tags": [],
      "color": "#000000",
      "created_at": "",
      "download_url": "https://raw.githubusercontent.com/username/wallpaper-collection/main/collection/wallpapers/4k/195.jpg",
      "thumbnail_url": "https://raw.githubusercontent.com/username/wallpaper-collection/main/collection/thumbnails/4k/195.jpg",
      "urls": {
        "raw": "https://media.githubusercontent.com/media/ddh4r4m/wallpaper-collection/main/collection/wallpapers/4k/195.jpg",
        "thumb": "https://media.githubusercontent.com/media/ddh4r4m/wallpaper-collection/main/collection/thumbnails/4k/195.jpg"
      },
      "category": "4k"
    }
  ]
}