{
  "meta": {
    "version": "1.0",
    "generated_at": "2025-07-28T23:12:02.393375",
    "page": 131,
    "per_page": 15,
    "total_pages": 183,
    "total_count": 2743,
    "count_on_page": 15,
    "categories": 22,
    "has_next": true,
    "has_prev": true,
    "next_page_url": "/api/v1/all/pages/132.json",
    "prev_page_url": "/api/v1/all/pages/130.json"
  },
  "data": [
    {
      "id": "nature_268",
      "category": "nature",
      "title": "Nature Wallpaper 268",
      "tags": [
        "nature",
        "wallpaper",
        "hd",
        "mobile"
      ],
      "urls": {
        "raw": "https://media.githubusercontent.com/media/ddh4r4m/wallpaper-collection/main/collection/wallpapers/nature/268.jpg",
        "thumb": "https://media.githubusercontent.com/media/ddh4r4m/wallpaper-collection/main/collection/thumbnails/nature/268.jpg"
      },
      "metadata": {
        "dimensions": {
          "width": 1080,
          "height": 1920
        },
        "file_size": 629065,
        "format": "JPEG",
        "added_at": "2025-07-17T00:04:30.169781",
        "hash": "a20eacd98fe77e0c552845a60445f765",
        "source": "migrated"
      }
    },
    {
      "id": "nature_269",
      "category": "nature",
      "title": "Nature Wallpaper 269",
      "tags": [
        "nature",
        "wallpaper",
        "hd",
        "mobile"
      ],
      "urls": {
        "raw": "https://media.githubusercontent.com/media/ddh4r4m/wallpaper-collection/main/collection/wallpapers/nature/269.jpg",
        "thumb": "https://media.githubusercontent.com/media/ddh4r4m/wallpaper-collection/main/collection/thumbnails/nature/269.jpg"
      },
      "metadata": {
        "dimensions": {
          "width": 1080,
          "height": 1920
        },
        "file_size": 173827,
        "format": "JPEG",
        "added_at": "2025-07-17T00:04:30.222438",
        "hash": "dd8cc06946aa540be4c2c50530683d32",
        "source": "migrated"
      }
    },
    {
      "id": "nature_270",
      "category": "nature",
      "title": "Nature Wallpaper 270",
      "tags": [
        "nature",
        "wallpaper",
        "hd",
        "mobile"
      ],
      "urls": {
        "raw": "https://media.githubusercontent.com/media/ddh4r4m/wallpaper-collection/main/collection/wallpapers/nature/270.jpg",
        "thumb": "https://media.githubusercontent.com/media/ddh4r4m/wallpaper-collection/main/collection/thumbnails/nature/270.jpg"
      },
      "metadata": {
        "dimensions": {
          "width": 1080,
          "height": 1920
        },
        "file_size": 476276,
        "format": "JPEG",
        "added_at": "2025-07-17T00:04:30.289080",
        "hash": "25a514b8a74cac2bd20b08864f346a47",
        "source": "migrated"
      }
    },
    {
      "id": "nature_271",
      "category": "nature",
      "title": "Nature Wallpaper 271",
      "tags": [
        "nature",
        "wallpaper",
        "hd",
        "mobile"
      ],
      "urls": {
        "raw": "https://media.githubusercontent.com/media/ddh4r4m/wallpaper-collection/main/collection/wallpapers/nature/271.jpg",
        "thumb": "https://media.githubusercontent.com/media/ddh4r4m/wallpaper-collection/main/collection/thumbnails/nature/271.jpg"
      },
      "metadata": {
        "dimensions": {
          "width": 1080,
          "height": 1920
        },
        "file_size": 358190,
        "format": "JPEG",
        "added_at": "2025-07-17T00:04:30.349876",
        "hash": "23b1fff5e606fee8ab6fc256e46fe614",
        "source": "migrated"
      }
    },
    {
      "id": "nature_272",
      "category": "nature",
      "title": "Nature Wallpaper 272",
      "tags": [
        "nature",
        "wallpaper",
        "hd",
        "mobile"
      ],
      "urls": {
        "raw": "https://media.githubusercontent.com/media/ddh4r4m/wallpaper-collection/main/collection/wallpapers/nature/272.jpg",
        "thumb": "https://media.githubusercontent.com/media/ddh4r4m/wallpaper-collection/main/collection/thumbnails/nature/272.jpg"
      },
      "metadata": {
        "dimensions": {
          "width": 1080,
          "height": 1920
        },
        "file_size": 490821,
        "format": "JPEG",
        "added_at": "2025-07-17T00:04:30.417623",
        "hash": "42c4a4370ac8256d493660dccd8d7e20",
        "source": "migrated"
      }
    },
    {
      "id": "nature_273",
      "category": "nature",
      "title": "Nature Wallpaper 273",
      "tags": [
        "nature",
        "wallpaper",
        "hd",
        "mobile"
      ],
      "urls": {
        "raw": "https://media.githubusercontent.com/media/ddh4r4m/wallpaper-collection/main/collection/wallpapers/nature/273.jpg",
        "thumb": "https://media.githubusercontent.com/media/ddh4r4m/wallpaper-collection/main/collection/thumbnails/nature/273.jpg"
      },
      "metadata": {
        "dimensions": {
          "width": 1080,
          "height": 1920
        },
        "file_size": 422763,
        "format": "JPEG",
        "added_at": "2025-07-17T00:04:30.482628",
        "hash": "d39ec289f8acae8b950e9e1d9e3379bb",
        "source": "migrated"
      }
    },
    {
      "id": "nature_274",
      "category": "nature",
      "title": "Nature Wallpaper 274",
      "tags": [
        "nature",
        "wallpaper",
        "hd",
        "mobile"
      ],
      "urls": {
        "raw": "https://media.githubusercontent.com/media/ddh4r4m/wallpaper-collection/main/collection/wallpapers/nature/274.jpg",
        "thumb": "https://media.githubusercontent.com/media/ddh4r4m/wallpaper-collection/main/collection/thumbnails/nature/274.jpg"
      },
      "metadata": {
        "dimensions": {
          "width": 1080,
          "height": 1920
        },
        "file_size": 469176,
        "format": "JPEG",
        "added_at": "2025-07-17T00:04:30.550295",
        "hash": "da2f622108454fd1ae1e470a5773146f",
        "source": "migrated"
      }
    },
    {
      "id": "nature_275",
      "category": "nature",
      "title": "Nature Wallpaper 275",
      "tags": [
        "nature",
        "wallpaper",
        "hd",
        "mobile"
      ],
      "urls": {
        "raw": "https://media.githubusercontent.com/media/ddh4r4m/wallpaper-collection/main/collection/wallpapers/nature/275.jpg",
        "thumb": "https://media.githubusercontent.com/media/ddh4r4m/wallpaper-collection/main/collection/thumbnails/nature/275.jpg"
      },
      "metadata": {
        "dimensions": {
          "width": 1080,
          "height": 1920
        },
        "file_size": 371238,
        "format": "JPEG",
        "added_at": "2025-07-17T00:04:30.613052",
        "hash": "0a7819f5d15d453ddc12204734c7b1ea",
        "source": "migrated"
      }
    },
    {
      "id": "nature_276",
      "category": "nature",
      "title": "Nature Wallpaper 276",
      "tags": [
        "nature",
        "wallpaper",
        "hd",
        "mobile"
      ],
      "urls": {
        "raw": "https://media.githubusercontent.com/media/ddh4r4m/wallpaper-collection/main/collection/wallpapers/nature/276.jpg",
        "thumb": "https://media.githubusercontent.com/media/ddh4r4m/wallpaper-collection/main/collection/thumbnails/nature/276.jpg"
      },
      "metadata": {
        "dimensions": {
          "width": 1080,
          "height": 1920
        },
        "file_size": 696734,
        "format": "JPEG",
        "added_at": "2025-07-17T00:04:30.689402",
        "hash": "7ac1b7206bf19ae7c49de2a6d681b41f",
        "source": "migrated"
      }
    },
    {
      "id": "nature_277",
      "category": "nature",
      "title": "Nature Wallpaper 277",
      "tags": [
        "nature",
        "wallpaper",
        "hd",
        "mobile"
      ],
      "urls": {
        "raw": "https://media.githubusercontent.com/media/ddh4r4m/wallpaper-collection/main/collection/wallpapers/nature/277.jpg",
        "thumb": "https://media.githubusercontent.com/media/ddh4r4m/wallpaper-collection/main/collection/thumbnails/nature/277.jpg"
      },
      "metadata": {
        "dimensions": {
          "width": 1080,
          "height": 1920
        },
        "file_size": 495411,
        "format": "JPEG",
        "added_at": "2025-07-17T00:04:30.756307",
        "hash": "4e40fbf1ce930ea0495ea4bec987ffc0",
        "source": "migrated"
      }
    },
    {
      "id": "nature_278",
      "category": "nature",
      "title": "Nature Wallpaper 278",
      "tags": [
        "nature",
        "wallpaper",
        "hd",
        "mobile"
      ],
      "urls": {
        "raw": "https://media.githubusercontent.com/media/ddh4r4m/wallpaper-collection/main/collection/wallpapers/nature/278.jpg",
        "thumb": "https://media.githubusercontent.com/media/ddh4r4m/wallpaper-collection/main/collection/thumbnails/nature/278.jpg"
      },
      "metadata": {
        "dimensions": {
          "width": 1080,
          "height": 1920
        },
        "file_size": 474934,
        "format": "JPEG",
        "added_at": "2025-07-17T00:04:30.823293",
        "hash": "8daa82c67a1b09eb36e7b945a1c713be",
        "source": "migrated"
      }
    },
    {
      "id": "nature_279",
      "category": "nature",
      "title": "Nature Wallpaper 279",
      "tags": [
        "nature",
        "wallpaper",
        "hd",
        "mobile"
      ],
      "urls": {
        "raw": "https://media.githubusercontent.com/media/ddh4r4m/wallpaper-collection/main/collection/wallpapers/nature/279.jpg",
        "thumb": "https://media.githubusercontent.com/media/ddh4r4m/wallpaper-collection/main/collection/thumbnails/nature/279.jpg"
      },
      "metadata": {
        "dimensions": {
          "width": 1080,
          "height": 1920
        },
        "file_size": 655187,
        "format": "JPEG",
        "added_at": "2025-07-17T00:04:30.899566",
        "hash": "be7572fa7565d7ec9efe240f15f70f6c",
        "source": "migrated"
      }
    },
    {
      "id": "nature_280",
      "category": "nature",
      "title": "Nature Wallpaper 280",
      "tags": [
        "nature",
        "wallpaper",
        "hd",
        "mobile"
      ],
      "urls": {
        "raw": "https://media.githubusercontent.com/media/ddh4r4m/wallpaper-collection/main/collection/wallpapers/nature/280.jpg",
        "thumb": "https://media.githubusercontent.com/media/ddh4r4m/wallpaper-collection/main/collection/thumbnails/nature/280.jpg"
      },
      "metadata": {
        "dimensions": {
          "width": 1080,
          "height": 1920
        },
        "file_size": 932028,
        "format": "JPEG",
        "added_at": "2025-07-17T00:04:30.987007",
        "hash": "bdffe21dc4ccdbaa797ad953bfd3a2b5",
        "source": "migrated"
      }
    },
    {
      "id": "nature_281",
      "category": "nature",
      "title": "Nature Wallpaper 281",
      "tags": [
        "nature",
        "wallpaper",
        "hd",
        "mobile"
      ],
      "urls": {
        "raw": "https://media.githubusercontent.com/media/ddh4r4m/wallpaper-collection/main/collection/wallpapers/nature/281.jpg",
        "thumb": "https://media.githubusercontent.com/media/ddh4r4m/wallpaper-collection/main/collection/thumbnails/nature/281.jpg"
      },
      "metadata": {
        "dimensions": {
          "width": 1080,
          "height": 1920
        },
        "file_size": 681160,
        "format": "JPEG",
        "added_at": "2025-07-17T00:04:31.062223",
        "hash": "fa2bf8ce1087ecc252e675312dbd0800",
        "source": "migrated"
      }
    },
    {
      "id": "nature_282",
      "category": "nature",
      "title": "Nature Wallpaper 282",
      "tags": [
        "nature",
        "wallpaper",
        "hd",
        "mobile"
      ],
      "urls": {
        "raw": "https://media.githubusercontent.com/media/ddh4r4m/wallpaper-collection/main/collection/wallpapers/nature/282.jpg",
        "thumb": "https://media.githubusercontent.com/media/ddh4r4m/wallpaper-collection/main/collection/thumbnails/nature/282.jpg"
      },
      "metadata": {
        "dimensions": {
          "width": 1080,
          "height": 1920
        },
        "file_size": 442525,
        "format": "JPEG",
        "added_at": "2025-07-17T00:04:31.128685",
        "hash": "6911ee6be21a038741b2f296e088f926",
        "source": "migrated"
      }
    }
  ]
}