{
  "meta": {
    "version": "1.0",
    "generated_at": "2025-07-28T22:48:38.208699",
    "page": 132,
    "per_page": 15,
    "total_pages": 183,
    "total_count": 2737,
    "count_on_page": 15,
    "categories": 22,
    "has_next": true,
    "has_prev": true,
    "next_page_url": "/api/v1/all/pages/133.json",
    "prev_page_url": "/api/v1/all/pages/131.json"
  },
  "data": [
    {
      "id": "nature_289",
      "category": "nature",
      "title": "Sunset in the Olympic National - Reddit AI",
      "tags": [
        "nature",
        "ai-generated",
        "hd",
        "mobile",
        "community"
      ],
      "metadata": {
        "dimensions": {
          "width": 1080,
          "height": 720
        },
        "file_size": 124361,
        "format": "JPEG",
        "added_at": "2025-07-18T00:29:02.188997",
        "hash": "2f7eedf28341b0717669f0244b7c41b4",
        "ai_source": "reddit",
        "ai_generated": true,
        "community_score": 168
      },
      "urls": {
        "raw": "https://media.githubusercontent.com/media/ddh4r4m/wallpaper-collection/main/collection/wallpapers/nature/289.jpg",
        "thumb": "https://media.githubusercontent.com/media/ddh4r4m/wallpaper-collection/main/collection/thumbnails/nature/289.jpg"
      }
    },
    {
      "id": "nature_290",
      "category": "nature",
      "title": "Glacial ponds of the Rockies.  - Reddit AI",
      "tags": [
        "nature",
        "ai-generated",
        "hd",
        "mobile",
        "community"
      ],
      "metadata": {
        "dimensions": {
          "width": 1080,
          "height": 1918
        },
        "file_size": 752528,
        "format": "JPEG",
        "added_at": "2025-07-18T00:29:03.601038",
        "hash": "fec20b76cc4a9956073639aaa8f94f5f",
        "ai_source": "reddit",
        "ai_generated": true,
        "community_score": 138
      },
      "urls": {
        "raw": "https://media.githubusercontent.com/media/ddh4r4m/wallpaper-collection/main/collection/wallpapers/nature/290.jpg",
        "thumb": "https://media.githubusercontent.com/media/ddh4r4m/wallpaper-collection/main/collection/thumbnails/nature/290.jpg"
      }
    },
    {
      "id": "nature_291",
      "category": "nature",
      "title": "Mexican Hat, Utah [2404x3024]  - Reddit AI",
      "tags": [
        "nature",
        "ai-generated",
        "hd",
        "mobile",
        "community"
      ],
      "metadata": {
        "dimensions": {
          "width": 1080,
          "height": 1359
        },
        "file_size": 377873,
        "format": "JPEG",
        "added_at": "2025-07-18T00:29:04.940317",
        "hash": "599130655f44fca27fadfaf296ea5fed",
        "ai_source": "reddit",
        "ai_generated": true,
        "community_score": 1534
      },
      "urls": {
        "raw": "https://media.githubusercontent.com/media/ddh4r4m/wallpaper-collection/main/collection/wallpapers/nature/291.jpg",
        "thumb": "https://media.githubusercontent.com/media/ddh4r4m/wallpaper-collection/main/collection/thumbnails/nature/291.jpg"
      }
    },
    {
      "id": "nature_292",
      "category": "nature",
      "title": "Bow Lake - Banff National Park - Reddit AI",
      "tags": [
        "nature",
        "ai-generated",
        "hd",
        "mobile",
        "community"
      ],
      "metadata": {
        "dimensions": {
          "width": 1080,
          "height": 720
        },
        "file_size": 201230,
        "format": "JPEG",
        "added_at": "2025-07-18T00:29:06.495615",
        "hash": "434c166fe1374727cc0b1d043a9a240c",
        "ai_source": "reddit",
        "ai_generated": true,
        "community_score": 602
      },
      "urls": {
        "raw": "https://media.githubusercontent.com/media/ddh4r4m/wallpaper-collection/main/collection/wallpapers/nature/292.jpg",
        "thumb": "https://media.githubusercontent.com/media/ddh4r4m/wallpaper-collection/main/collection/thumbnails/nature/292.jpg"
      }
    },
    {
      "id": "nature_293",
      "category": "nature",
      "title": "Promised Land State Park, Penn - Reddit AI",
      "tags": [
        "nature",
        "ai-generated",
        "hd",
        "mobile",
        "community"
      ],
      "metadata": {
        "dimensions": {
          "width": 1080,
          "height": 720
        },
        "file_size": 175604,
        "format": "JPEG",
        "added_at": "2025-07-18T00:29:07.842430",
        "hash": "647e195edfd8a574709418b03f170b94",
        "ai_source": "reddit",
        "ai_generated": true,
        "community_score": 78
      },
      "urls": {
        "raw": "https://media.githubusercontent.com/media/ddh4r4m/wallpaper-collection/main/collection/wallpapers/nature/293.jpg",
        "thumb": "https://media.githubusercontent.com/media/ddh4r4m/wallpaper-collection/main/collection/thumbnails/nature/293.jpg"
      }
    },
    {
      "id": "nature_294",
      "category": "nature",
      "title": "Fire Wave, Valley of Fire Stat - Reddit AI",
      "tags": [
        "nature",
        "ai-generated",
        "hd",
        "mobile",
        "community"
      ],
      "metadata": {
        "dimensions": {
          "width": 1080,
          "height": 721
        },
        "file_size": 224414,
        "format": "JPEG",
        "added_at": "2025-07-18T00:29:09.002588",
        "hash": "f8a5992fb16823b45e2e30ce0f0b9089",
        "ai_source": "reddit",
        "ai_generated": true,
        "community_score": 56
      },
      "urls": {
        "raw": "https://media.githubusercontent.com/media/ddh4r4m/wallpaper-collection/main/collection/wallpapers/nature/294.jpg",
        "thumb": "https://media.githubusercontent.com/media/ddh4r4m/wallpaper-collection/main/collection/thumbnails/nature/294.jpg"
      }
    },
    {
      "id": "nature_295",
      "category": "nature",
      "title": "Trail Along Bow Lake, Alberta  - Reddit AI",
      "tags": [
        "nature",
        "ai-generated",
        "hd",
        "mobile",
        "community"
      ],
      "metadata": {
        "dimensions": {
          "width": 1080,
          "height": 1350
        },
        "file_size": 351760,
        "format": "JPEG",
        "added_at": "2025-07-19T11:45:33.064955",
        "hash": "9dc368f879ff3ac103d9b39519675ba2",
        "ai_source": "reddit",
        "ai_generated": true,
        "community_score": 1734
      },
      "urls": {
        "raw": "https://media.githubusercontent.com/media/ddh4r4m/wallpaper-collection/main/collection/wallpapers/nature/295.jpg",
        "thumb": "https://media.githubusercontent.com/media/ddh4r4m/wallpaper-collection/main/collection/thumbnails/nature/295.jpg"
      }
    },
    {
      "id": "nature_296",
      "category": "nature",
      "title": "Lago Federa- Cortina, IT [OC]  - Reddit AI",
      "tags": [
        "nature",
        "ai-generated",
        "hd",
        "mobile",
        "community"
      ],
      "metadata": {
        "dimensions": {
          "width": 1080,
          "height": 608
        },
        "file_size": 216325,
        "format": "JPEG",
        "added_at": "2025-07-19T11:45:34.707075",
        "hash": "bd48a0e3a7490237f865580d44c867a5",
        "ai_source": "reddit",
        "ai_generated": true,
        "community_score": 574
      },
      "urls": {
        "raw": "https://media.githubusercontent.com/media/ddh4r4m/wallpaper-collection/main/collection/wallpapers/nature/296.jpg",
        "thumb": "https://media.githubusercontent.com/media/ddh4r4m/wallpaper-collection/main/collection/thumbnails/nature/296.jpg"
      }
    },
    {
      "id": "nature_297",
      "category": "nature",
      "title": "Pico de Arieiro, Madeira [OC]  - Reddit AI",
      "tags": [
        "nature",
        "ai-generated",
        "hd",
        "mobile",
        "community"
      ],
      "metadata": {
        "dimensions": {
          "width": 1080,
          "height": 1620
        },
        "file_size": 413575,
        "format": "JPEG",
        "added_at": "2025-07-19T11:45:36.018719",
        "hash": "333d5686d6762fbbae39eb5d4903df43",
        "ai_source": "reddit",
        "ai_generated": true,
        "community_score": 580
      },
      "urls": {
        "raw": "https://media.githubusercontent.com/media/ddh4r4m/wallpaper-collection/main/collection/wallpapers/nature/297.jpg",
        "thumb": "https://media.githubusercontent.com/media/ddh4r4m/wallpaper-collection/main/collection/thumbnails/nature/297.jpg"
      }
    },
    {
      "id": "nature_298",
      "category": "nature",
      "title": "Plummer Peak in Mt. Rainier Na - Reddit AI",
      "tags": [
        "nature",
        "ai-generated",
        "hd",
        "mobile",
        "community"
      ],
      "metadata": {
        "dimensions": {
          "width": 1080,
          "height": 659
        },
        "file_size": 178893,
        "format": "JPEG",
        "added_at": "2025-07-19T11:45:37.297731",
        "hash": "4bcf82514c360d847e6556581c5e1cf4",
        "ai_source": "reddit",
        "ai_generated": true,
        "community_score": 214
      },
      "urls": {
        "raw": "https://media.githubusercontent.com/media/ddh4r4m/wallpaper-collection/main/collection/wallpapers/nature/298.jpg",
        "thumb": "https://media.githubusercontent.com/media/ddh4r4m/wallpaper-collection/main/collection/thumbnails/nature/298.jpg"
      }
    },
    {
      "id": "nature_299",
      "category": "nature",
      "title": "Manzanita OR [OC] [8256x5504] - Reddit AI",
      "tags": [
        "nature",
        "ai-generated",
        "hd",
        "mobile",
        "community"
      ],
      "metadata": {
        "dimensions": {
          "width": 1080,
          "height": 720
        },
        "file_size": 65871,
        "format": "JPEG",
        "added_at": "2025-07-19T11:45:38.902630",
        "hash": "34dc5103127c0d214d76c4a27675e8da",
        "ai_source": "reddit",
        "ai_generated": true,
        "community_score": 104
      },
      "urls": {
        "raw": "https://media.githubusercontent.com/media/ddh4r4m/wallpaper-collection/main/collection/wallpapers/nature/299.jpg",
        "thumb": "https://media.githubusercontent.com/media/ddh4r4m/wallpaper-collection/main/collection/thumbnails/nature/299.jpg"
      }
    },
    {
      "id": "nature_300",
      "category": "nature",
      "title": "Near Carrington Point on Santa - Reddit AI",
      "tags": [
        "nature",
        "ai-generated",
        "hd",
        "mobile",
        "community"
      ],
      "metadata": {
        "dimensions": {
          "width": 1080,
          "height": 720
        },
        "file_size": 276336,
        "format": "JPEG",
        "added_at": "2025-07-19T11:45:40.161809",
        "hash": "3b8602a1637fa73aac94145c52589bf8",
        "ai_source": "reddit",
        "ai_generated": true,
        "community_score": 97
      },
      "urls": {
        "raw": "https://media.githubusercontent.com/media/ddh4r4m/wallpaper-collection/main/collection/wallpapers/nature/300.jpg",
        "thumb": "https://media.githubusercontent.com/media/ddh4r4m/wallpaper-collection/main/collection/thumbnails/nature/300.jpg"
      }
    },
    {
      "id": "nature_301",
      "category": "nature",
      "title": "Tasmanian Rainforest [OC][3000 - Reddit AI",
      "tags": [
        "nature",
        "ai-generated",
        "hd",
        "mobile",
        "community"
      ],
      "metadata": {
        "dimensions": {
          "width": 1080,
          "height": 1620
        },
        "file_size": 573180,
        "format": "JPEG",
        "added_at": "2025-07-19T11:45:41.637445",
        "hash": "788f5e876b13662ce2ea40f62a99569f",
        "ai_source": "reddit",
        "ai_generated": true,
        "community_score": 1182
      },
      "urls": {
        "raw": "https://media.githubusercontent.com/media/ddh4r4m/wallpaper-collection/main/collection/wallpapers/nature/301.jpg",
        "thumb": "https://media.githubusercontent.com/media/ddh4r4m/wallpaper-collection/main/collection/thumbnails/nature/301.jpg"
      }
    },
    {
      "id": "nature_302",
      "category": "nature",
      "title": "Arch Cape, OR [OC] [4000x6000] - Reddit AI",
      "tags": [
        "nature",
        "ai-generated",
        "hd",
        "mobile",
        "community"
      ],
      "metadata": {
        "dimensions": {
          "width": 1080,
          "height": 1620
        },
        "file_size": 453244,
        "format": "JPEG",
        "added_at": "2025-07-19T11:45:43.770092",
        "hash": "1fd3ff40f5ee9afba439085b675236cc",
        "ai_source": "reddit",
        "ai_generated": true,
        "community_score": 36
      },
      "urls": {
        "raw": "https://media.githubusercontent.com/media/ddh4r4m/wallpaper-collection/main/collection/wallpapers/nature/302.jpg",
        "thumb": "https://media.githubusercontent.com/media/ddh4r4m/wallpaper-collection/main/collection/thumbnails/nature/302.jpg"
      }
    },
    {
      "id": "nature_303",
      "category": "nature",
      "title": "Ridges and glaciers in the Nor - Reddit AI",
      "tags": [
        "nature",
        "ai-generated",
        "hd",
        "mobile",
        "community"
      ],
      "metadata": {
        "dimensions": {
          "width": 1080,
          "height": 720
        },
        "file_size": 113335,
        "format": "JPEG",
        "added_at": "2025-07-19T11:45:45.015701",
        "hash": "e5d2d730c36e6ecb2b3ed72d3f18abf5",
        "ai_source": "reddit",
        "ai_generated": true,
        "community_score": 486
      },
      "urls": {
        "raw": "https://media.githubusercontent.com/media/ddh4r4m/wallpaper-collection/main/collection/wallpapers/nature/303.jpg",
        "thumb": "https://media.githubusercontent.com/media/ddh4r4m/wallpaper-collection/main/collection/thumbnails/nature/303.jpg"
      }
    }
  ]
}