{
  "meta": {
    "version": "1.0",
    "generated_at": "2025-07-19T12:26:57.111378",
    "page": 133,
    "per_page": 15,
    "total_pages": 160,
    "total_count": 2387,
    "count_on_page": 15,
    "categories": 19,
    "has_next": true,
    "has_prev": true,
    "next_page_url": "/api/v1/all/pages/134.json",
    "prev_page_url": "/api/v1/all/pages/132.json"
  },
  "data": [
    {
      "id": "pastel_057",
      "category": "pastel",
      "title": "Pastel Wallpaper",
      "tags": [
        "pastel",
        "unsplash",
        "hd",
        "mobile"
      ],
      "metadata": {
        "dimensions": {
          "width": 1080,
          "height": 1623
        },
        "file_size": 40274,
        "format": "JPEG",
        "added_at": "2025-07-17T22:25:21.159275",
        "hash": "9d93b0e60fff6037c3ab0e66e048dfab",
        "photographer": "Unknown"
      },
      "urls": {
        "raw": "https://media.githubusercontent.com/media/ddh4r4m/wallpaper-collection/main/collection/wallpapers/pastel/057.jpg",
        "thumb": "https://media.githubusercontent.com/media/ddh4r4m/wallpaper-collection/main/collection/thumbnails/pastel/057.jpg"
      }
    },
    {
      "id": "pastel_058",
      "category": "pastel",
      "title": "Pastel Wallpaper",
      "tags": [
        "pastel",
        "unsplash",
        "hd",
        "mobile"
      ],
      "metadata": {
        "dimensions": {
          "width": 1080,
          "height": 720
        },
        "file_size": 18562,
        "format": "JPEG",
        "added_at": "2025-07-18T00:36:20.974983",
        "hash": "171006a1e6e06d58ec62028c18f02335",
        "photographer": "Unknown"
      },
      "urls": {
        "raw": "https://media.githubusercontent.com/media/ddh4r4m/wallpaper-collection/main/collection/wallpapers/pastel/058.jpg",
        "thumb": "https://media.githubusercontent.com/media/ddh4r4m/wallpaper-collection/main/collection/thumbnails/pastel/058.jpg"
      }
    },
    {
      "id": "pastel_059",
      "category": "pastel",
      "title": "Pastel Wallpaper",
      "tags": [
        "pastel",
        "unsplash",
        "hd",
        "mobile"
      ],
      "metadata": {
        "dimensions": {
          "width": 1080,
          "height": 721
        },
        "file_size": 39891,
        "format": "JPEG",
        "added_at": "2025-07-18T00:36:23.207247",
        "hash": "3a3bea846225b6ebdc6406175903281a",
        "photographer": "Unknown"
      },
      "urls": {
        "raw": "https://media.githubusercontent.com/media/ddh4r4m/wallpaper-collection/main/collection/wallpapers/pastel/059.jpg",
        "thumb": "https://media.githubusercontent.com/media/ddh4r4m/wallpaper-collection/main/collection/thumbnails/pastel/059.jpg"
      }
    },
    {
      "id": "pastel_060",
      "category": "pastel",
      "title": "Pastel Wallpaper",
      "tags": [
        "pastel",
        "unsplash",
        "hd",
        "mobile"
      ],
      "metadata": {
        "dimensions": {
          "width": 1080,
          "height": 1620
        },
        "file_size": 58208,
        "format": "JPEG",
        "added_at": "2025-07-18T00:36:24.505838",
        "hash": "de4e56eaa252931b620031d8b94e3f07",
        "photographer": "Unknown"
      },
      "urls": {
        "raw": "https://media.githubusercontent.com/media/ddh4r4m/wallpaper-collection/main/collection/wallpapers/pastel/060.jpg",
        "thumb": "https://media.githubusercontent.com/media/ddh4r4m/wallpaper-collection/main/collection/thumbnails/pastel/060.jpg"
      }
    },
    {
      "id": "pastel_061",
      "category": "pastel",
      "title": "Pastel Wallpaper",
      "tags": [
        "pastel",
        "unsplash",
        "hd",
        "mobile"
      ],
      "metadata": {
        "dimensions": {
          "width": 1080,
          "height": 720
        },
        "file_size": 16327,
        "format": "JPEG",
        "added_at": "2025-07-18T00:36:27.726072",
        "hash": "42eae9a81c04effa81db5b60b71839c8",
        "photographer": "Unknown"
      },
      "urls": {
        "raw": "https://media.githubusercontent.com/media/ddh4r4m/wallpaper-collection/main/collection/wallpapers/pastel/061.jpg",
        "thumb": "https://media.githubusercontent.com/media/ddh4r4m/wallpaper-collection/main/collection/thumbnails/pastel/061.jpg"
      }
    },
    {
      "id": "pastel_062",
      "category": "pastel",
      "title": "Pastel Wallpaper",
      "tags": [
        "pastel",
        "unsplash",
        "hd",
        "mobile"
      ],
      "metadata": {
        "dimensions": {
          "width": 1080,
          "height": 608
        },
        "file_size": 66603,
        "format": "JPEG",
        "added_at": "2025-07-18T00:36:29.902931",
        "hash": "a49c1d098ba336875b7db834332ee17d",
        "photographer": "Unknown"
      },
      "urls": {
        "raw": "https://media.githubusercontent.com/media/ddh4r4m/wallpaper-collection/main/collection/wallpapers/pastel/062.jpg",
        "thumb": "https://media.githubusercontent.com/media/ddh4r4m/wallpaper-collection/main/collection/thumbnails/pastel/062.jpg"
      }
    },
    {
      "id": "pastel_063",
      "category": "pastel",
      "title": "Pastel Wallpaper",
      "tags": [
        "pastel",
        "unsplash",
        "hd",
        "mobile"
      ],
      "metadata": {
        "dimensions": {
          "width": 1080,
          "height": 720
        },
        "file_size": 60119,
        "format": "JPEG",
        "added_at": "2025-07-18T00:36:32.238327",
        "hash": "a48222e7d21c4f274895c596ce9306f4",
        "photographer": "Unknown"
      },
      "urls": {
        "raw": "https://media.githubusercontent.com/media/ddh4r4m/wallpaper-collection/main/collection/wallpapers/pastel/063.jpg",
        "thumb": "https://media.githubusercontent.com/media/ddh4r4m/wallpaper-collection/main/collection/thumbnails/pastel/063.jpg"
      }
    },
    {
      "id": "pastel_064",
      "category": "pastel",
      "title": "Pastel Wallpaper",
      "tags": [
        "pastel",
        "unsplash",
        "hd",
        "mobile"
      ],
      "metadata": {
        "dimensions": {
          "width": 1080,
          "height": 720
        },
        "file_size": 49536,
        "format": "JPEG",
        "added_at": "2025-07-18T00:36:35.473123",
        "hash": "23715d62a08111af19c36675e63679fb",
        "photographer": "Unknown"
      },
      "urls": {
        "raw": "https://media.githubusercontent.com/media/ddh4r4m/wallpaper-collection/main/collection/wallpapers/pastel/064.jpg",
        "thumb": "https://media.githubusercontent.com/media/ddh4r4m/wallpaper-collection/main/collection/thumbnails/pastel/064.jpg"
      }
    },
    {
      "id": "pastel_065",
      "category": "pastel",
      "title": "Pastel Wallpaper",
      "tags": [
        "pastel",
        "unsplash",
        "hd",
        "mobile"
      ],
      "metadata": {
        "dimensions": {
          "width": 1080,
          "height": 720
        },
        "file_size": 46210,
        "format": "JPEG",
        "added_at": "2025-07-18T00:36:37.660376",
        "hash": "0547659ea10b3b443ad1422122611b50",
        "photographer": "Unknown"
      },
      "urls": {
        "raw": "https://media.githubusercontent.com/media/ddh4r4m/wallpaper-collection/main/collection/wallpapers/pastel/065.jpg",
        "thumb": "https://media.githubusercontent.com/media/ddh4r4m/wallpaper-collection/main/collection/thumbnails/pastel/065.jpg"
      }
    },
    {
      "id": "pastel_066",
      "category": "pastel",
      "title": "Pastel Wallpaper",
      "tags": [
        "pastel",
        "unsplash",
        "hd",
        "mobile"
      ],
      "metadata": {
        "dimensions": {
          "width": 1080,
          "height": 1620
        },
        "file_size": 64669,
        "format": "JPEG",
        "added_at": "2025-07-18T00:36:40.043606",
        "hash": "5a09b000a7b853b147109c485661cb5f",
        "photographer": "Unknown"
      },
      "urls": {
        "raw": "https://media.githubusercontent.com/media/ddh4r4m/wallpaper-collection/main/collection/wallpapers/pastel/066.jpg",
        "thumb": "https://media.githubusercontent.com/media/ddh4r4m/wallpaper-collection/main/collection/thumbnails/pastel/066.jpg"
      }
    },
    {
      "id": "pastel_067",
      "category": "pastel",
      "title": "Pastel Wallpaper",
      "tags": [
        "pastel",
        "unsplash",
        "hd",
        "mobile"
      ],
      "metadata": {
        "dimensions": {
          "width": 1080,
          "height": 1620
        },
        "file_size": 139711,
        "format": "JPEG",
        "added_at": "2025-07-18T00:36:43.720128",
        "hash": "12b58afc5a1f7aedc9d7657edce26b6a",
        "photographer": "Unknown"
      },
      "urls": {
        "raw": "https://media.githubusercontent.com/media/ddh4r4m/wallpaper-collection/main/collection/wallpapers/pastel/067.jpg",
        "thumb": "https://media.githubusercontent.com/media/ddh4r4m/wallpaper-collection/main/collection/thumbnails/pastel/067.jpg"
      }
    },
    {
      "id": "pastel_068",
      "category": "pastel",
      "title": "Pastel Wallpaper",
      "tags": [
        "pastel",
        "unsplash",
        "hd",
        "mobile"
      ],
      "metadata": {
        "dimensions": {
          "width": 1080,
          "height": 1623
        },
        "file_size": 40274,
        "format": "JPEG",
        "added_at": "2025-07-18T00:36:46.077919",
        "hash": "9d93b0e60fff6037c3ab0e66e048dfab",
        "photographer": "Unknown"
      },
      "urls": {
        "raw": "https://media.githubusercontent.com/media/ddh4r4m/wallpaper-collection/main/collection/wallpapers/pastel/068.jpg",
        "thumb": "https://media.githubusercontent.com/media/ddh4r4m/wallpaper-collection/main/collection/thumbnails/pastel/068.jpg"
      }
    },
    {
      "id": "pastel_069",
      "category": "pastel",
      "title": "Pastel Wallpaper",
      "tags": [
        "pastel",
        "unsplash",
        "hd",
        "mobile"
      ],
      "metadata": {
        "dimensions": {
          "width": 1080,
          "height": 720
        },
        "file_size": 18730,
        "format": "JPEG",
        "added_at": "2025-07-18T00:36:48.604719",
        "hash": "d9d75f40db4e02adf16600ea1ec38962",
        "photographer": "Unknown"
      },
      "urls": {
        "raw": "https://media.githubusercontent.com/media/ddh4r4m/wallpaper-collection/main/collection/wallpapers/pastel/069.jpg",
        "thumb": "https://media.githubusercontent.com/media/ddh4r4m/wallpaper-collection/main/collection/thumbnails/pastel/069.jpg"
      }
    },
    {
      "id": "seasonal_001",
      "category": "seasonal",
      "title": "Seasonal Wallpaper 001",
      "tags": [
        "seasonal",
        "wallpaper",
        "hd",
        "mobile"
      ],
      "urls": {
        "raw": "https://media.githubusercontent.com/media/ddh4r4m/wallpaper-collection/main/collection/wallpapers/seasonal/001.jpg",
        "thumb": "https://media.githubusercontent.com/media/ddh4r4m/wallpaper-collection/main/collection/thumbnails/seasonal/001.jpg"
      },
      "metadata": {
        "dimensions": {
          "width": 1080,
          "height": 1920
        },
        "file_size": 390400,
        "format": "JPEG",
        "added_at": "2025-07-17T00:04:38.760586",
        "hash": "2cdf4e81f0509c07c245fee8a4b434d4",
        "source": "migrated"
      }
    },
    {
      "id": "seasonal_002",
      "category": "seasonal",
      "title": "Seasonal Wallpaper 002",
      "tags": [
        "seasonal",
        "wallpaper",
        "hd",
        "mobile"
      ],
      "urls": {
        "raw": "https://media.githubusercontent.com/media/ddh4r4m/wallpaper-collection/main/collection/wallpapers/seasonal/002.jpg",
        "thumb": "https://media.githubusercontent.com/media/ddh4r4m/wallpaper-collection/main/collection/thumbnails/seasonal/002.jpg"
      },
      "metadata": {
        "dimensions": {
          "width": 1080,
          "height": 1920
        },
        "file_size": 362535,
        "format": "JPEG",
        "added_at": "2025-07-17T00:04:38.823224",
        "hash": "067799eec80847f41d5158c708070e1e",
        "source": "migrated"
      }
    }
  ]
}