{
  "meta": {
    "version": "1.0",
    "generated_at": "2025-07-28T22:38:03.579947",
    "page": 134,
    "per_page": 15,
    "total_pages": 178,
    "total_count": 2656,
    "count_on_page": 15,
    "categories": 21,
    "has_next": true,
    "has_prev": true,
    "next_page_url": "/api/v1/all/pages/135.json",
    "prev_page_url": "/api/v1/all/pages/133.json"
  },
  "data": [
    {
      "id": "neon_009",
      "category": "neon",
      "title": "Neon Wallpaper 009",
      "tags": [
        "neon",
        "wallpaper",
        "hd",
        "mobile"
      ],
      "urls": {
        "raw": "https://media.githubusercontent.com/media/ddh4r4m/wallpaper-collection/main/collection/wallpapers/neon/009.jpg",
        "thumb": "https://media.githubusercontent.com/media/ddh4r4m/wallpaper-collection/main/collection/thumbnails/neon/009.jpg"
      },
      "metadata": {
        "dimensions": {
          "width": 1080,
          "height": 1920
        },
        "file_size": 319082,
        "format": "JPEG",
        "added_at": "2025-07-17T00:04:31.805229",
        "hash": "465953ef0e652b0875c88ac30bf13c26",
        "source": "migrated"
      }
    },
    {
      "id": "neon_010",
      "category": "neon",
      "title": "Neon Wallpaper 010",
      "tags": [
        "neon",
        "wallpaper",
        "hd",
        "mobile"
      ],
      "urls": {
        "raw": "https://media.githubusercontent.com/media/ddh4r4m/wallpaper-collection/main/collection/wallpapers/neon/010.jpg",
        "thumb": "https://media.githubusercontent.com/media/ddh4r4m/wallpaper-collection/main/collection/thumbnails/neon/010.jpg"
      },
      "metadata": {
        "dimensions": {
          "width": 1080,
          "height": 1920
        },
        "file_size": 478879,
        "format": "JPEG",
        "added_at": "2025-07-17T00:04:31.872706",
        "hash": "6300a0223c34a4e51e33bf11c50853f8",
        "source": "migrated"
      }
    },
    {
      "id": "neon_011",
      "category": "neon",
      "title": "Neon Wallpaper 011",
      "tags": [
        "neon",
        "wallpaper",
        "hd",
        "mobile"
      ],
      "urls": {
        "raw": "https://media.githubusercontent.com/media/ddh4r4m/wallpaper-collection/main/collection/wallpapers/neon/011.jpg",
        "thumb": "https://media.githubusercontent.com/media/ddh4r4m/wallpaper-collection/main/collection/thumbnails/neon/011.jpg"
      },
      "metadata": {
        "dimensions": {
          "width": 1080,
          "height": 1920
        },
        "file_size": 273969,
        "format": "JPEG",
        "added_at": "2025-07-17T00:04:31.931137",
        "hash": "55d811b524a01c76e7aa2a0c48886a47",
        "source": "migrated"
      }
    },
    {
      "id": "neon_012",
      "category": "neon",
      "title": "Neon Wallpaper 012",
      "tags": [
        "neon",
        "wallpaper",
        "hd",
        "mobile"
      ],
      "urls": {
        "raw": "https://media.githubusercontent.com/media/ddh4r4m/wallpaper-collection/main/collection/wallpapers/neon/012.jpg",
        "thumb": "https://media.githubusercontent.com/media/ddh4r4m/wallpaper-collection/main/collection/thumbnails/neon/012.jpg"
      },
      "metadata": {
        "dimensions": {
          "width": 1080,
          "height": 1920
        },
        "file_size": 212372,
        "format": "JPEG",
        "added_at": "2025-07-17T00:04:31.983710",
        "hash": "6c1a30ce4a195aa902e54a6acf664f1c",
        "source": "migrated"
      }
    },
    {
      "id": "neon_013",
      "category": "neon",
      "title": "Neon Wallpaper 013",
      "tags": [
        "neon",
        "wallpaper",
        "hd",
        "mobile"
      ],
      "urls": {
        "raw": "https://media.githubusercontent.com/media/ddh4r4m/wallpaper-collection/main/collection/wallpapers/neon/013.jpg",
        "thumb": "https://media.githubusercontent.com/media/ddh4r4m/wallpaper-collection/main/collection/thumbnails/neon/013.jpg"
      },
      "metadata": {
        "dimensions": {
          "width": 1080,
          "height": 1920
        },
        "file_size": 321905,
        "format": "JPEG",
        "added_at": "2025-07-17T00:04:32.045120",
        "hash": "f776e8180ead3fbf408b4d54994da6b7",
        "source": "migrated"
      }
    },
    {
      "id": "neon_014",
      "category": "neon",
      "title": "Neon Wallpaper 014",
      "tags": [
        "neon",
        "wallpaper",
        "hd",
        "mobile"
      ],
      "urls": {
        "raw": "https://media.githubusercontent.com/media/ddh4r4m/wallpaper-collection/main/collection/wallpapers/neon/014.jpg",
        "thumb": "https://media.githubusercontent.com/media/ddh4r4m/wallpaper-collection/main/collection/thumbnails/neon/014.jpg"
      },
      "metadata": {
        "dimensions": {
          "width": 1080,
          "height": 1920
        },
        "file_size": 532687,
        "format": "JPEG",
        "added_at": "2025-07-17T00:04:32.115727",
        "hash": "0e4156814971335fd0f3fd42479fbdc1",
        "source": "migrated"
      }
    },
    {
      "id": "neon_015",
      "category": "neon",
      "title": "Neon Wallpaper 015",
      "tags": [
        "neon",
        "wallpaper",
        "hd",
        "mobile"
      ],
      "urls": {
        "raw": "https://media.githubusercontent.com/media/ddh4r4m/wallpaper-collection/main/collection/wallpapers/neon/015.jpg",
        "thumb": "https://media.githubusercontent.com/media/ddh4r4m/wallpaper-collection/main/collection/thumbnails/neon/015.jpg"
      },
      "metadata": {
        "dimensions": {
          "width": 1080,
          "height": 1920
        },
        "file_size": 495139,
        "format": "JPEG",
        "added_at": "2025-07-17T00:04:32.183795",
        "hash": "d3ebabfa9f9dc7f3b327f7dce06d7251",
        "source": "migrated"
      }
    },
    {
      "id": "neon_016",
      "category": "neon",
      "title": "Neon Wallpaper 016",
      "tags": [
        "neon",
        "wallpaper",
        "hd",
        "mobile"
      ],
      "urls": {
        "raw": "https://media.githubusercontent.com/media/ddh4r4m/wallpaper-collection/main/collection/wallpapers/neon/016.jpg",
        "thumb": "https://media.githubusercontent.com/media/ddh4r4m/wallpaper-collection/main/collection/thumbnails/neon/016.jpg"
      },
      "metadata": {
        "dimensions": {
          "width": 1080,
          "height": 1920
        },
        "file_size": 391521,
        "format": "JPEG",
        "added_at": "2025-07-17T00:04:32.247228",
        "hash": "8fabc732843eb3c9aa8a892dde4b3480",
        "source": "migrated"
      }
    },
    {
      "id": "neon_017",
      "category": "neon",
      "title": "Neon Wallpaper 017",
      "tags": [
        "neon",
        "wallpaper",
        "hd",
        "mobile"
      ],
      "urls": {
        "raw": "https://media.githubusercontent.com/media/ddh4r4m/wallpaper-collection/main/collection/wallpapers/neon/017.jpg",
        "thumb": "https://media.githubusercontent.com/media/ddh4r4m/wallpaper-collection/main/collection/thumbnails/neon/017.jpg"
      },
      "metadata": {
        "dimensions": {
          "width": 1080,
          "height": 1920
        },
        "file_size": 249441,
        "format": "JPEG",
        "added_at": "2025-07-17T00:04:32.302874",
        "hash": "df7ef81667ce6aa180ff934c954734ed",
        "source": "migrated"
      }
    },
    {
      "id": "neon_018",
      "category": "neon",
      "title": "Neon Wallpaper 018",
      "tags": [
        "neon",
        "wallpaper",
        "hd",
        "mobile"
      ],
      "urls": {
        "raw": "https://media.githubusercontent.com/media/ddh4r4m/wallpaper-collection/main/collection/wallpapers/neon/018.jpg",
        "thumb": "https://media.githubusercontent.com/media/ddh4r4m/wallpaper-collection/main/collection/thumbnails/neon/018.jpg"
      },
      "metadata": {
        "dimensions": {
          "width": 1080,
          "height": 1920
        },
        "file_size": 144143,
        "format": "JPEG",
        "added_at": "2025-07-17T00:04:32.352290",
        "hash": "870cdc9e42d5634eaba12b90845c043b",
        "source": "migrated"
      }
    },
    {
      "id": "neon_019",
      "category": "neon",
      "title": "Neon Wallpaper 019",
      "tags": [
        "neon",
        "wallpaper",
        "hd",
        "mobile"
      ],
      "urls": {
        "raw": "https://media.githubusercontent.com/media/ddh4r4m/wallpaper-collection/main/collection/wallpapers/neon/019.jpg",
        "thumb": "https://media.githubusercontent.com/media/ddh4r4m/wallpaper-collection/main/collection/thumbnails/neon/019.jpg"
      },
      "metadata": {
        "dimensions": {
          "width": 1080,
          "height": 1920
        },
        "file_size": 157921,
        "format": "JPEG",
        "added_at": "2025-07-17T00:04:32.401730",
        "hash": "ba22dfa4b9d251e6cd113a87d9bd0ce5",
        "source": "migrated"
      }
    },
    {
      "id": "neon_020",
      "category": "neon",
      "title": "Neon Wallpaper 020",
      "tags": [
        "neon",
        "wallpaper",
        "hd",
        "mobile"
      ],
      "urls": {
        "raw": "https://media.githubusercontent.com/media/ddh4r4m/wallpaper-collection/main/collection/wallpapers/neon/020.jpg",
        "thumb": "https://media.githubusercontent.com/media/ddh4r4m/wallpaper-collection/main/collection/thumbnails/neon/020.jpg"
      },
      "metadata": {
        "dimensions": {
          "width": 1080,
          "height": 1920
        },
        "file_size": 259768,
        "format": "JPEG",
        "added_at": "2025-07-17T00:04:32.458080",
        "hash": "9cdd1c3399fe970fa6122434cb545bf6",
        "source": "migrated"
      }
    },
    {
      "id": "neon_021",
      "category": "neon",
      "title": "Neon Wallpaper 021",
      "tags": [
        "neon",
        "wallpaper",
        "hd",
        "mobile"
      ],
      "urls": {
        "raw": "https://media.githubusercontent.com/media/ddh4r4m/wallpaper-collection/main/collection/wallpapers/neon/021.jpg",
        "thumb": "https://media.githubusercontent.com/media/ddh4r4m/wallpaper-collection/main/collection/thumbnails/neon/021.jpg"
      },
      "metadata": {
        "dimensions": {
          "width": 1080,
          "height": 1920
        },
        "file_size": 533964,
        "format": "JPEG",
        "added_at": "2025-07-17T00:04:32.528023",
        "hash": "0e122a6e88aa0507533637bae30f7f14",
        "source": "migrated"
      }
    },
    {
      "id": "neon_022",
      "category": "neon",
      "title": "Neon Wallpaper 022",
      "tags": [
        "neon",
        "wallpaper",
        "hd",
        "mobile"
      ],
      "urls": {
        "raw": "https://media.githubusercontent.com/media/ddh4r4m/wallpaper-collection/main/collection/wallpapers/neon/022.jpg",
        "thumb": "https://media.githubusercontent.com/media/ddh4r4m/wallpaper-collection/main/collection/thumbnails/neon/022.jpg"
      },
      "metadata": {
        "dimensions": {
          "width": 1080,
          "height": 1920
        },
        "file_size": 427255,
        "format": "JPEG",
        "added_at": "2025-07-17T00:04:32.591534",
        "hash": "2eac1e22a18c706a883a0be487464ba4",
        "source": "migrated"
      }
    },
    {
      "id": "neon_023",
      "category": "neon",
      "title": "Neon Wallpaper 023",
      "tags": [
        "neon",
        "wallpaper",
        "hd",
        "mobile"
      ],
      "urls": {
        "raw": "https://media.githubusercontent.com/media/ddh4r4m/wallpaper-collection/main/collection/wallpapers/neon/023.jpg",
        "thumb": "https://media.githubusercontent.com/media/ddh4r4m/wallpaper-collection/main/collection/thumbnails/neon/023.jpg"
      },
      "metadata": {
        "dimensions": {
          "width": 1080,
          "height": 1920
        },
        "file_size": 435360,
        "format": "JPEG",
        "added_at": "2025-07-17T00:04:32.658683",
        "hash": "e73dfa1bcde5af136a6e1478b38e01e7",
        "source": "migrated"
      }
    }
  ]
}