{
  "meta": {
    "version": "1.0",
    "generated_at": "2025-07-28T22:48:38.208699",
    "page": 136,
    "per_page": 15,
    "total_pages": 183,
    "total_count": 2737,
    "count_on_page": 15,
    "categories": 22,
    "has_next": true,
    "has_prev": true,
    "next_page_url": "/api/v1/all/pages/137.json",
    "prev_page_url": "/api/v1/all/pages/135.json"
  },
  "data": [
    {
      "id": "neon_039",
      "category": "neon",
      "title": "Neon Wallpaper 039",
      "tags": [
        "neon",
        "wallpaper",
        "hd",
        "mobile"
      ],
      "urls": {
        "raw": "https://media.githubusercontent.com/media/ddh4r4m/wallpaper-collection/main/collection/wallpapers/neon/039.jpg",
        "thumb": "https://media.githubusercontent.com/media/ddh4r4m/wallpaper-collection/main/collection/thumbnails/neon/039.jpg"
      },
      "metadata": {
        "dimensions": {
          "width": 1080,
          "height": 1920
        },
        "file_size": 508048,
        "format": "JPEG",
        "added_at": "2025-07-17T00:04:33.556832",
        "hash": "eb239d975380e3355c6d275a6ad6c3b0",
        "source": "migrated"
      }
    },
    {
      "id": "neon_040",
      "category": "neon",
      "title": "Neon Wallpaper 040",
      "tags": [
        "neon",
        "wallpaper",
        "hd",
        "mobile"
      ],
      "urls": {
        "raw": "https://media.githubusercontent.com/media/ddh4r4m/wallpaper-collection/main/collection/wallpapers/neon/040.jpg",
        "thumb": "https://media.githubusercontent.com/media/ddh4r4m/wallpaper-collection/main/collection/thumbnails/neon/040.jpg"
      },
      "metadata": {
        "dimensions": {
          "width": 1080,
          "height": 1920
        },
        "file_size": 367496,
        "format": "JPEG",
        "added_at": "2025-07-17T00:04:33.619581",
        "hash": "995f39218462df455328defb1fa66ebd",
        "source": "migrated"
      }
    },
    {
      "id": "neon_041",
      "category": "neon",
      "title": "Neon Wallpaper 041",
      "tags": [
        "neon",
        "wallpaper",
        "hd",
        "mobile"
      ],
      "urls": {
        "raw": "https://media.githubusercontent.com/media/ddh4r4m/wallpaper-collection/main/collection/wallpapers/neon/041.jpg",
        "thumb": "https://media.githubusercontent.com/media/ddh4r4m/wallpaper-collection/main/collection/thumbnails/neon/041.jpg"
      },
      "metadata": {
        "dimensions": {
          "width": 1080,
          "height": 1920
        },
        "file_size": 415896,
        "format": "JPEG",
        "added_at": "2025-07-17T00:04:33.685183",
        "hash": "716777516d711f4b8241b2c50979f39d",
        "source": "migrated"
      }
    },
    {
      "id": "neon_042",
      "category": "neon",
      "title": "Neon Wallpaper 042",
      "tags": [
        "neon",
        "wallpaper",
        "hd",
        "mobile"
      ],
      "urls": {
        "raw": "https://media.githubusercontent.com/media/ddh4r4m/wallpaper-collection/main/collection/wallpapers/neon/042.jpg",
        "thumb": "https://media.githubusercontent.com/media/ddh4r4m/wallpaper-collection/main/collection/thumbnails/neon/042.jpg"
      },
      "metadata": {
        "dimensions": {
          "width": 1080,
          "height": 1920
        },
        "file_size": 239663,
        "format": "JPEG",
        "added_at": "2025-07-17T00:04:33.741301",
        "hash": "75cce6ceee4e3060f3acf5ba4ffca101",
        "source": "migrated"
      }
    },
    {
      "id": "neon_043",
      "category": "neon",
      "title": "Neon Wallpaper 043",
      "tags": [
        "neon",
        "wallpaper",
        "hd",
        "mobile"
      ],
      "urls": {
        "raw": "https://media.githubusercontent.com/media/ddh4r4m/wallpaper-collection/main/collection/wallpapers/neon/043.jpg",
        "thumb": "https://media.githubusercontent.com/media/ddh4r4m/wallpaper-collection/main/collection/thumbnails/neon/043.jpg"
      },
      "metadata": {
        "dimensions": {
          "width": 1080,
          "height": 1920
        },
        "file_size": 122301,
        "format": "JPEG",
        "added_at": "2025-07-17T00:04:33.787448",
        "hash": "92be0d6a9e2665ef867c36573102e087",
        "source": "migrated"
      }
    },
    {
      "id": "neon_044",
      "category": "neon",
      "title": "Neon Wallpaper 044",
      "tags": [
        "neon",
        "wallpaper",
        "hd",
        "mobile"
      ],
      "urls": {
        "raw": "https://media.githubusercontent.com/media/ddh4r4m/wallpaper-collection/main/collection/wallpapers/neon/044.jpg",
        "thumb": "https://media.githubusercontent.com/media/ddh4r4m/wallpaper-collection/main/collection/thumbnails/neon/044.jpg"
      },
      "metadata": {
        "dimensions": {
          "width": 1080,
          "height": 1920
        },
        "file_size": 260835,
        "format": "JPEG",
        "added_at": "2025-07-17T00:04:33.843104",
        "hash": "ad8e88dea4b78aa49347217f95c367c6",
        "source": "migrated"
      }
    },
    {
      "id": "neon_045",
      "category": "neon",
      "title": "Neon Wallpaper 045",
      "tags": [
        "neon",
        "wallpaper",
        "hd",
        "mobile"
      ],
      "urls": {
        "raw": "https://media.githubusercontent.com/media/ddh4r4m/wallpaper-collection/main/collection/wallpapers/neon/045.jpg",
        "thumb": "https://media.githubusercontent.com/media/ddh4r4m/wallpaper-collection/main/collection/thumbnails/neon/045.jpg"
      },
      "metadata": {
        "dimensions": {
          "width": 1080,
          "height": 1920
        },
        "file_size": 161052,
        "format": "JPEG",
        "added_at": "2025-07-17T00:04:33.893294",
        "hash": "b637c12ad86ebd9cd518009654e192de",
        "source": "migrated"
      }
    },
    {
      "id": "neon_046",
      "category": "neon",
      "title": "Neon Wallpaper 046",
      "tags": [
        "neon",
        "wallpaper",
        "hd",
        "mobile"
      ],
      "urls": {
        "raw": "https://media.githubusercontent.com/media/ddh4r4m/wallpaper-collection/main/collection/wallpapers/neon/046.jpg",
        "thumb": "https://media.githubusercontent.com/media/ddh4r4m/wallpaper-collection/main/collection/thumbnails/neon/046.jpg"
      },
      "metadata": {
        "dimensions": {
          "width": 1080,
          "height": 1920
        },
        "file_size": 257538,
        "format": "JPEG",
        "added_at": "2025-07-17T00:04:33.949625",
        "hash": "e6ba1f23301d20abdcec364c04de95c6",
        "source": "migrated"
      }
    },
    {
      "id": "neon_047",
      "category": "neon",
      "title": "Neon Wallpaper 047",
      "tags": [
        "neon",
        "wallpaper",
        "hd",
        "mobile"
      ],
      "urls": {
        "raw": "https://media.githubusercontent.com/media/ddh4r4m/wallpaper-collection/main/collection/wallpapers/neon/047.jpg",
        "thumb": "https://media.githubusercontent.com/media/ddh4r4m/wallpaper-collection/main/collection/thumbnails/neon/047.jpg"
      },
      "metadata": {
        "dimensions": {
          "width": 1080,
          "height": 1920
        },
        "file_size": 94249,
        "format": "JPEG",
        "added_at": "2025-07-17T00:04:33.995519",
        "hash": "1182c7a11d82450060951cfdd6e4b76c",
        "source": "migrated"
      }
    },
    {
      "id": "neon_048",
      "category": "neon",
      "title": "Neon Wallpaper 048",
      "tags": [
        "neon",
        "wallpaper",
        "hd",
        "mobile"
      ],
      "urls": {
        "raw": "https://media.githubusercontent.com/media/ddh4r4m/wallpaper-collection/main/collection/wallpapers/neon/048.jpg",
        "thumb": "https://media.githubusercontent.com/media/ddh4r4m/wallpaper-collection/main/collection/thumbnails/neon/048.jpg"
      },
      "metadata": {
        "dimensions": {
          "width": 1080,
          "height": 1920
        },
        "file_size": 295072,
        "format": "JPEG",
        "added_at": "2025-07-17T00:04:34.053733",
        "hash": "6146f31f670ec54f027549a5de4d4aff",
        "source": "migrated"
      }
    },
    {
      "id": "neon_049",
      "category": "neon",
      "title": "Neon Wallpaper 049",
      "tags": [
        "neon",
        "wallpaper",
        "hd",
        "mobile"
      ],
      "urls": {
        "raw": "https://media.githubusercontent.com/media/ddh4r4m/wallpaper-collection/main/collection/wallpapers/neon/049.jpg",
        "thumb": "https://media.githubusercontent.com/media/ddh4r4m/wallpaper-collection/main/collection/thumbnails/neon/049.jpg"
      },
      "metadata": {
        "dimensions": {
          "width": 1080,
          "height": 1920
        },
        "file_size": 135162,
        "format": "JPEG",
        "added_at": "2025-07-17T00:04:34.103293",
        "hash": "d6e9e7a8f0950e3914f704bad2aa9dd8",
        "source": "migrated"
      }
    },
    {
      "id": "neon_050",
      "category": "neon",
      "title": "Neon Wallpaper 050",
      "tags": [
        "neon",
        "wallpaper",
        "hd",
        "mobile"
      ],
      "urls": {
        "raw": "https://media.githubusercontent.com/media/ddh4r4m/wallpaper-collection/main/collection/wallpapers/neon/050.jpg",
        "thumb": "https://media.githubusercontent.com/media/ddh4r4m/wallpaper-collection/main/collection/thumbnails/neon/050.jpg"
      },
      "metadata": {
        "dimensions": {
          "width": 1080,
          "height": 1920
        },
        "file_size": 536954,
        "format": "JPEG",
        "added_at": "2025-07-17T00:04:34.172768",
        "hash": "a25d8beb384aa441cb43e90a0c61321a",
        "source": "migrated"
      }
    },
    {
      "id": "neon_051",
      "category": "neon",
      "title": "Neon Wallpaper 051",
      "tags": [
        "neon",
        "wallpaper",
        "hd",
        "mobile"
      ],
      "urls": {
        "raw": "https://media.githubusercontent.com/media/ddh4r4m/wallpaper-collection/main/collection/wallpapers/neon/051.jpg",
        "thumb": "https://media.githubusercontent.com/media/ddh4r4m/wallpaper-collection/main/collection/thumbnails/neon/051.jpg"
      },
      "metadata": {
        "dimensions": {
          "width": 1080,
          "height": 1920
        },
        "file_size": 494543,
        "format": "JPEG",
        "added_at": "2025-07-17T00:04:34.240465",
        "hash": "bec0b3f4b9a95435dcfba98ef4270554",
        "source": "migrated"
      }
    },
    {
      "id": "neon_052",
      "category": "neon",
      "title": "Neon Wallpaper 052",
      "tags": [
        "neon",
        "wallpaper",
        "hd",
        "mobile"
      ],
      "urls": {
        "raw": "https://media.githubusercontent.com/media/ddh4r4m/wallpaper-collection/main/collection/wallpapers/neon/052.jpg",
        "thumb": "https://media.githubusercontent.com/media/ddh4r4m/wallpaper-collection/main/collection/thumbnails/neon/052.jpg"
      },
      "metadata": {
        "dimensions": {
          "width": 1080,
          "height": 1920
        },
        "file_size": 329560,
        "format": "JPEG",
        "added_at": "2025-07-17T00:04:34.300504",
        "hash": "06082a590f8c6c80d1d8b1562e43aefa",
        "source": "migrated"
      }
    },
    {
      "id": "neon_053",
      "category": "neon",
      "title": "Neon Wallpaper 053",
      "tags": [
        "neon",
        "wallpaper",
        "hd",
        "mobile"
      ],
      "urls": {
        "raw": "https://media.githubusercontent.com/media/ddh4r4m/wallpaper-collection/main/collection/wallpapers/neon/053.jpg",
        "thumb": "https://media.githubusercontent.com/media/ddh4r4m/wallpaper-collection/main/collection/thumbnails/neon/053.jpg"
      },
      "metadata": {
        "dimensions": {
          "width": 1080,
          "height": 1920
        },
        "file_size": 268996,
        "format": "JPEG",
        "added_at": "2025-07-17T00:04:34.356436",
        "hash": "4c88c3de1efb882512cd6df6f531d4b6",
        "source": "migrated"
      }
    }
  ]
}