{
  "meta": {
    "version": "1.0",
    "generated_at": "2025-07-28T22:38:03.579947",
    "page": 137,
    "per_page": 15,
    "total_pages": 178,
    "total_count": 2656,
    "count_on_page": 15,
    "categories": 21,
    "has_next": true,
    "has_prev": true,
    "next_page_url": "/api/v1/all/pages/138.json",
    "prev_page_url": "/api/v1/all/pages/136.json"
  },
  "data": [
    {
      "id": "neon_054",
      "category": "neon",
      "title": "Neon Wallpaper 054",
      "tags": [
        "neon",
        "wallpaper",
        "hd",
        "mobile"
      ],
      "urls": {
        "raw": "https://media.githubusercontent.com/media/ddh4r4m/wallpaper-collection/main/collection/wallpapers/neon/054.jpg",
        "thumb": "https://media.githubusercontent.com/media/ddh4r4m/wallpaper-collection/main/collection/thumbnails/neon/054.jpg"
      },
      "metadata": {
        "dimensions": {
          "width": 1080,
          "height": 1920
        },
        "file_size": 224187,
        "format": "JPEG",
        "added_at": "2025-07-17T00:04:34.408903",
        "hash": "82eac1f8b7d4cc21982df7d6b46bbe71",
        "source": "migrated"
      }
    },
    {
      "id": "neon_055",
      "category": "neon",
      "title": "Neon Wallpaper 055",
      "tags": [
        "neon",
        "wallpaper",
        "hd",
        "mobile"
      ],
      "urls": {
        "raw": "https://media.githubusercontent.com/media/ddh4r4m/wallpaper-collection/main/collection/wallpapers/neon/055.jpg",
        "thumb": "https://media.githubusercontent.com/media/ddh4r4m/wallpaper-collection/main/collection/thumbnails/neon/055.jpg"
      },
      "metadata": {
        "dimensions": {
          "width": 1080,
          "height": 1920
        },
        "file_size": 264292,
        "format": "JPEG",
        "added_at": "2025-07-17T00:04:34.465224",
        "hash": "fa339bd046dd395966921ce2d44b1be5",
        "source": "migrated"
      }
    },
    {
      "id": "neon_056",
      "category": "neon",
      "title": "Neon Wallpaper 056",
      "tags": [
        "neon",
        "wallpaper",
        "hd",
        "mobile"
      ],
      "urls": {
        "raw": "https://media.githubusercontent.com/media/ddh4r4m/wallpaper-collection/main/collection/wallpapers/neon/056.jpg",
        "thumb": "https://media.githubusercontent.com/media/ddh4r4m/wallpaper-collection/main/collection/thumbnails/neon/056.jpg"
      },
      "metadata": {
        "dimensions": {
          "width": 1080,
          "height": 1920
        },
        "file_size": 316798,
        "format": "JPEG",
        "added_at": "2025-07-17T00:04:34.523362",
        "hash": "6cad793f5c0a2c97aa08395cfba25c89",
        "source": "migrated"
      }
    },
    {
      "id": "neon_057",
      "category": "neon",
      "title": "Neon Wallpaper 057",
      "tags": [
        "neon",
        "wallpaper",
        "hd",
        "mobile"
      ],
      "urls": {
        "raw": "https://media.githubusercontent.com/media/ddh4r4m/wallpaper-collection/main/collection/wallpapers/neon/057.jpg",
        "thumb": "https://media.githubusercontent.com/media/ddh4r4m/wallpaper-collection/main/collection/thumbnails/neon/057.jpg"
      },
      "metadata": {
        "dimensions": {
          "width": 1080,
          "height": 1920
        },
        "file_size": 88679,
        "format": "JPEG",
        "added_at": "2025-07-17T00:04:34.570477",
        "hash": "eeb0203e7ff7e6408b3e686bd332ae33",
        "source": "migrated"
      }
    },
    {
      "id": "neon_058",
      "category": "neon",
      "title": "Neon Wallpaper 058",
      "tags": [
        "neon",
        "wallpaper",
        "hd",
        "mobile"
      ],
      "urls": {
        "raw": "https://media.githubusercontent.com/media/ddh4r4m/wallpaper-collection/main/collection/wallpapers/neon/058.jpg",
        "thumb": "https://media.githubusercontent.com/media/ddh4r4m/wallpaper-collection/main/collection/thumbnails/neon/058.jpg"
      },
      "metadata": {
        "dimensions": {
          "width": 1080,
          "height": 1920
        },
        "file_size": 338249,
        "format": "JPEG",
        "added_at": "2025-07-17T00:04:34.629574",
        "hash": "047f49162368f7ecbe63659ee48fb920",
        "source": "migrated"
      }
    },
    {
      "id": "neon_059",
      "category": "neon",
      "title": "Neon Wallpaper 059",
      "tags": [
        "neon",
        "wallpaper",
        "hd",
        "mobile"
      ],
      "urls": {
        "raw": "https://media.githubusercontent.com/media/ddh4r4m/wallpaper-collection/main/collection/wallpapers/neon/059.jpg",
        "thumb": "https://media.githubusercontent.com/media/ddh4r4m/wallpaper-collection/main/collection/thumbnails/neon/059.jpg"
      },
      "metadata": {
        "dimensions": {
          "width": 1080,
          "height": 1920
        },
        "file_size": 219637,
        "format": "JPEG",
        "added_at": "2025-07-17T00:04:34.682295",
        "hash": "0aeb38133d6ae8901e7a417235af00ce",
        "source": "migrated"
      }
    },
    {
      "id": "neon_060",
      "category": "neon",
      "title": "Neon Wallpaper 060",
      "tags": [
        "neon",
        "wallpaper",
        "hd",
        "mobile"
      ],
      "urls": {
        "raw": "https://media.githubusercontent.com/media/ddh4r4m/wallpaper-collection/main/collection/wallpapers/neon/060.jpg",
        "thumb": "https://media.githubusercontent.com/media/ddh4r4m/wallpaper-collection/main/collection/thumbnails/neon/060.jpg"
      },
      "metadata": {
        "dimensions": {
          "width": 1080,
          "height": 1920
        },
        "file_size": 310647,
        "format": "JPEG",
        "added_at": "2025-07-17T00:04:34.741483",
        "hash": "018aef0a843dac134a6b1e6c5cdd4146",
        "source": "migrated"
      }
    },
    {
      "id": "neon_061",
      "category": "neon",
      "title": "Neon Wallpaper 061",
      "tags": [
        "neon",
        "wallpaper",
        "hd",
        "mobile"
      ],
      "urls": {
        "raw": "https://media.githubusercontent.com/media/ddh4r4m/wallpaper-collection/main/collection/wallpapers/neon/061.jpg",
        "thumb": "https://media.githubusercontent.com/media/ddh4r4m/wallpaper-collection/main/collection/thumbnails/neon/061.jpg"
      },
      "metadata": {
        "dimensions": {
          "width": 1080,
          "height": 1920
        },
        "file_size": 288169,
        "format": "JPEG",
        "added_at": "2025-07-17T00:04:34.798619",
        "hash": "bf009bda9e2ac73e6c9b4bc55c0c3aaf",
        "source": "migrated"
      }
    },
    {
      "id": "neon_062",
      "category": "neon",
      "title": "Neon Wallpaper 062",
      "tags": [
        "neon",
        "wallpaper",
        "hd",
        "mobile"
      ],
      "urls": {
        "raw": "https://media.githubusercontent.com/media/ddh4r4m/wallpaper-collection/main/collection/wallpapers/neon/062.jpg",
        "thumb": "https://media.githubusercontent.com/media/ddh4r4m/wallpaper-collection/main/collection/thumbnails/neon/062.jpg"
      },
      "metadata": {
        "dimensions": {
          "width": 1080,
          "height": 1920
        },
        "file_size": 483051,
        "format": "JPEG",
        "added_at": "2025-07-17T00:04:34.866122",
        "hash": "01bf31774873392563c3a5362c727058",
        "source": "migrated"
      }
    },
    {
      "id": "neon_063",
      "category": "neon",
      "title": "Neon Wallpaper 063",
      "tags": [
        "neon",
        "wallpaper",
        "hd",
        "mobile"
      ],
      "urls": {
        "raw": "https://media.githubusercontent.com/media/ddh4r4m/wallpaper-collection/main/collection/wallpapers/neon/063.jpg",
        "thumb": "https://media.githubusercontent.com/media/ddh4r4m/wallpaper-collection/main/collection/thumbnails/neon/063.jpg"
      },
      "metadata": {
        "dimensions": {
          "width": 1080,
          "height": 1920
        },
        "file_size": 173286,
        "format": "JPEG",
        "added_at": "2025-07-17T00:04:34.916082",
        "hash": "101e5914f92fc704a3a1ddc4e47242d6",
        "source": "migrated"
      }
    },
    {
      "id": "neon_064",
      "category": "neon",
      "title": "Neon Wallpaper 064",
      "tags": [
        "neon",
        "wallpaper",
        "hd",
        "mobile"
      ],
      "urls": {
        "raw": "https://media.githubusercontent.com/media/ddh4r4m/wallpaper-collection/main/collection/wallpapers/neon/064.jpg",
        "thumb": "https://media.githubusercontent.com/media/ddh4r4m/wallpaper-collection/main/collection/thumbnails/neon/064.jpg"
      },
      "metadata": {
        "dimensions": {
          "width": 1080,
          "height": 1920
        },
        "file_size": 198441,
        "format": "JPEG",
        "added_at": "2025-07-17T00:04:34.969687",
        "hash": "f88e075da207c811bb8025f2948c25fb",
        "source": "migrated"
      }
    },
    {
      "id": "neon_065",
      "category": "neon",
      "title": "Neon Wallpaper 065",
      "tags": [
        "neon",
        "wallpaper",
        "hd",
        "mobile"
      ],
      "urls": {
        "raw": "https://media.githubusercontent.com/media/ddh4r4m/wallpaper-collection/main/collection/wallpapers/neon/065.jpg",
        "thumb": "https://media.githubusercontent.com/media/ddh4r4m/wallpaper-collection/main/collection/thumbnails/neon/065.jpg"
      },
      "metadata": {
        "dimensions": {
          "width": 1080,
          "height": 1920
        },
        "file_size": 183005,
        "format": "JPEG",
        "added_at": "2025-07-17T00:04:35.020141",
        "hash": "4f68e453fe71ab18117a131d8666ef47",
        "source": "migrated"
      }
    },
    {
      "id": "neon_066",
      "category": "neon",
      "title": "Neon Wallpaper 066",
      "tags": [
        "neon",
        "wallpaper",
        "hd",
        "mobile"
      ],
      "urls": {
        "raw": "https://media.githubusercontent.com/media/ddh4r4m/wallpaper-collection/main/collection/wallpapers/neon/066.jpg",
        "thumb": "https://media.githubusercontent.com/media/ddh4r4m/wallpaper-collection/main/collection/thumbnails/neon/066.jpg"
      },
      "metadata": {
        "dimensions": {
          "width": 1080,
          "height": 1920
        },
        "file_size": 329530,
        "format": "JPEG",
        "added_at": "2025-07-17T00:04:35.083839",
        "hash": "64654f664c0974da4b0d33a2a052dbb2",
        "source": "migrated"
      }
    },
    {
      "id": "neon_067",
      "category": "neon",
      "title": "Neon Wallpaper 067",
      "tags": [
        "neon",
        "wallpaper",
        "hd",
        "mobile"
      ],
      "urls": {
        "raw": "https://media.githubusercontent.com/media/ddh4r4m/wallpaper-collection/main/collection/wallpapers/neon/067.jpg",
        "thumb": "https://media.githubusercontent.com/media/ddh4r4m/wallpaper-collection/main/collection/thumbnails/neon/067.jpg"
      },
      "metadata": {
        "dimensions": {
          "width": 1080,
          "height": 1920
        },
        "file_size": 177148,
        "format": "JPEG",
        "added_at": "2025-07-17T00:04:35.138093",
        "hash": "0396a0ece73e631416709fbabd5428b3",
        "source": "migrated"
      }
    },
    {
      "id": "neon_068",
      "category": "neon",
      "title": "Neon Wallpaper 068",
      "tags": [
        "neon",
        "wallpaper",
        "hd",
        "mobile"
      ],
      "urls": {
        "raw": "https://media.githubusercontent.com/media/ddh4r4m/wallpaper-collection/main/collection/wallpapers/neon/068.jpg",
        "thumb": "https://media.githubusercontent.com/media/ddh4r4m/wallpaper-collection/main/collection/thumbnails/neon/068.jpg"
      },
      "metadata": {
        "dimensions": {
          "width": 1080,
          "height": 1920
        },
        "file_size": 486716,
        "format": "JPEG",
        "added_at": "2025-07-17T00:04:35.218980",
        "hash": "4bfb996148cca9bdfd82bc5e23a411ed",
        "source": "migrated"
      }
    }
  ]
}