{
  "meta": {
    "version": "1.0",
    "generated_at": "2025-07-28T23:12:02.393375",
    "page": 138,
    "per_page": 15,
    "total_pages": 183,
    "total_count": 2743,
    "count_on_page": 15,
    "categories": 22,
    "has_next": true,
    "has_prev": true,
    "next_page_url": "/api/v1/all/pages/139.json",
    "prev_page_url": "/api/v1/all/pages/137.json"
  },
  "data": [
    {
      "id": "neon_063",
      "category": "neon",
      "title": "Neon Wallpaper 063",
      "tags": [
        "neon",
        "wallpaper",
        "hd",
        "mobile"
      ],
      "urls": {
        "raw": "https://media.githubusercontent.com/media/ddh4r4m/wallpaper-collection/main/collection/wallpapers/neon/063.jpg",
        "thumb": "https://media.githubusercontent.com/media/ddh4r4m/wallpaper-collection/main/collection/thumbnails/neon/063.jpg"
      },
      "metadata": {
        "dimensions": {
          "width": 1080,
          "height": 1920
        },
        "file_size": 173286,
        "format": "JPEG",
        "added_at": "2025-07-17T00:04:34.916082",
        "hash": "101e5914f92fc704a3a1ddc4e47242d6",
        "source": "migrated"
      }
    },
    {
      "id": "neon_064",
      "category": "neon",
      "title": "Neon Wallpaper 064",
      "tags": [
        "neon",
        "wallpaper",
        "hd",
        "mobile"
      ],
      "urls": {
        "raw": "https://media.githubusercontent.com/media/ddh4r4m/wallpaper-collection/main/collection/wallpapers/neon/064.jpg",
        "thumb": "https://media.githubusercontent.com/media/ddh4r4m/wallpaper-collection/main/collection/thumbnails/neon/064.jpg"
      },
      "metadata": {
        "dimensions": {
          "width": 1080,
          "height": 1920
        },
        "file_size": 198441,
        "format": "JPEG",
        "added_at": "2025-07-17T00:04:34.969687",
        "hash": "f88e075da207c811bb8025f2948c25fb",
        "source": "migrated"
      }
    },
    {
      "id": "neon_065",
      "category": "neon",
      "title": "Neon Wallpaper 065",
      "tags": [
        "neon",
        "wallpaper",
        "hd",
        "mobile"
      ],
      "urls": {
        "raw": "https://media.githubusercontent.com/media/ddh4r4m/wallpaper-collection/main/collection/wallpapers/neon/065.jpg",
        "thumb": "https://media.githubusercontent.com/media/ddh4r4m/wallpaper-collection/main/collection/thumbnails/neon/065.jpg"
      },
      "metadata": {
        "dimensions": {
          "width": 1080,
          "height": 1920
        },
        "file_size": 183005,
        "format": "JPEG",
        "added_at": "2025-07-17T00:04:35.020141",
        "hash": "4f68e453fe71ab18117a131d8666ef47",
        "source": "migrated"
      }
    },
    {
      "id": "neon_066",
      "category": "neon",
      "title": "Neon Wallpaper 066",
      "tags": [
        "neon",
        "wallpaper",
        "hd",
        "mobile"
      ],
      "urls": {
        "raw": "https://media.githubusercontent.com/media/ddh4r4m/wallpaper-collection/main/collection/wallpapers/neon/066.jpg",
        "thumb": "https://media.githubusercontent.com/media/ddh4r4m/wallpaper-collection/main/collection/thumbnails/neon/066.jpg"
      },
      "metadata": {
        "dimensions": {
          "width": 1080,
          "height": 1920
        },
        "file_size": 329530,
        "format": "JPEG",
        "added_at": "2025-07-17T00:04:35.083839",
        "hash": "64654f664c0974da4b0d33a2a052dbb2",
        "source": "migrated"
      }
    },
    {
      "id": "neon_067",
      "category": "neon",
      "title": "Neon Wallpaper 067",
      "tags": [
        "neon",
        "wallpaper",
        "hd",
        "mobile"
      ],
      "urls": {
        "raw": "https://media.githubusercontent.com/media/ddh4r4m/wallpaper-collection/main/collection/wallpapers/neon/067.jpg",
        "thumb": "https://media.githubusercontent.com/media/ddh4r4m/wallpaper-collection/main/collection/thumbnails/neon/067.jpg"
      },
      "metadata": {
        "dimensions": {
          "width": 1080,
          "height": 1920
        },
        "file_size": 177148,
        "format": "JPEG",
        "added_at": "2025-07-17T00:04:35.138093",
        "hash": "0396a0ece73e631416709fbabd5428b3",
        "source": "migrated"
      }
    },
    {
      "id": "neon_068",
      "category": "neon",
      "title": "Neon Wallpaper 068",
      "tags": [
        "neon",
        "wallpaper",
        "hd",
        "mobile"
      ],
      "urls": {
        "raw": "https://media.githubusercontent.com/media/ddh4r4m/wallpaper-collection/main/collection/wallpapers/neon/068.jpg",
        "thumb": "https://media.githubusercontent.com/media/ddh4r4m/wallpaper-collection/main/collection/thumbnails/neon/068.jpg"
      },
      "metadata": {
        "dimensions": {
          "width": 1080,
          "height": 1920
        },
        "file_size": 486716,
        "format": "JPEG",
        "added_at": "2025-07-17T00:04:35.218980",
        "hash": "4bfb996148cca9bdfd82bc5e23a411ed",
        "source": "migrated"
      }
    },
    {
      "id": "neon_069",
      "category": "neon",
      "title": "Neon Wallpaper 069",
      "tags": [
        "neon",
        "wallpaper",
        "hd",
        "mobile"
      ],
      "urls": {
        "raw": "https://media.githubusercontent.com/media/ddh4r4m/wallpaper-collection/main/collection/wallpapers/neon/069.jpg",
        "thumb": "https://media.githubusercontent.com/media/ddh4r4m/wallpaper-collection/main/collection/thumbnails/neon/069.jpg"
      },
      "metadata": {
        "dimensions": {
          "width": 1080,
          "height": 1920
        },
        "file_size": 339323,
        "format": "JPEG",
        "added_at": "2025-07-17T00:04:35.279711",
        "hash": "a7c8b8281b309372dc16e71a082e517c",
        "source": "migrated"
      }
    },
    {
      "id": "neon_070",
      "category": "neon",
      "title": "Neon Wallpaper 070",
      "tags": [
        "neon",
        "wallpaper",
        "hd",
        "mobile"
      ],
      "urls": {
        "raw": "https://media.githubusercontent.com/media/ddh4r4m/wallpaper-collection/main/collection/wallpapers/neon/070.jpg",
        "thumb": "https://media.githubusercontent.com/media/ddh4r4m/wallpaper-collection/main/collection/thumbnails/neon/070.jpg"
      },
      "metadata": {
        "dimensions": {
          "width": 1080,
          "height": 1920
        },
        "file_size": 166997,
        "format": "JPEG",
        "added_at": "2025-07-17T00:04:35.330271",
        "hash": "0d58b4e2c3095288af5258f48d7bf1ab",
        "source": "migrated"
      }
    },
    {
      "id": "neon_071",
      "category": "neon",
      "title": "Neon Wallpaper 071",
      "tags": [
        "neon",
        "wallpaper",
        "hd",
        "mobile"
      ],
      "urls": {
        "raw": "https://media.githubusercontent.com/media/ddh4r4m/wallpaper-collection/main/collection/wallpapers/neon/071.jpg",
        "thumb": "https://media.githubusercontent.com/media/ddh4r4m/wallpaper-collection/main/collection/thumbnails/neon/071.jpg"
      },
      "metadata": {
        "dimensions": {
          "width": 1080,
          "height": 1920
        },
        "file_size": 211715,
        "format": "JPEG",
        "added_at": "2025-07-17T00:04:35.383432",
        "hash": "8eaeff967726106e61acdd9a6e7d7d25",
        "source": "migrated"
      }
    },
    {
      "id": "neon_072",
      "category": "neon",
      "title": "Neon Wallpaper 072",
      "tags": [
        "neon",
        "wallpaper",
        "hd",
        "mobile"
      ],
      "urls": {
        "raw": "https://media.githubusercontent.com/media/ddh4r4m/wallpaper-collection/main/collection/wallpapers/neon/072.jpg",
        "thumb": "https://media.githubusercontent.com/media/ddh4r4m/wallpaper-collection/main/collection/thumbnails/neon/072.jpg"
      },
      "metadata": {
        "dimensions": {
          "width": 1080,
          "height": 1920
        },
        "file_size": 162013,
        "format": "JPEG",
        "added_at": "2025-07-17T00:04:35.432726",
        "hash": "0a7d40c6382f0b745600a15615f5971d",
        "source": "migrated"
      }
    },
    {
      "id": "neon_073",
      "category": "neon",
      "title": "Neon Wallpaper 073",
      "tags": [
        "neon",
        "wallpaper",
        "hd",
        "mobile"
      ],
      "urls": {
        "raw": "https://media.githubusercontent.com/media/ddh4r4m/wallpaper-collection/main/collection/wallpapers/neon/073.jpg",
        "thumb": "https://media.githubusercontent.com/media/ddh4r4m/wallpaper-collection/main/collection/thumbnails/neon/073.jpg"
      },
      "metadata": {
        "dimensions": {
          "width": 1080,
          "height": 1920
        },
        "file_size": 109171,
        "format": "JPEG",
        "added_at": "2025-07-17T00:04:35.479916",
        "hash": "38d634bba06621d5bceaa87726132fe8",
        "source": "migrated"
      }
    },
    {
      "id": "neon_074",
      "category": "neon",
      "title": "Neon Wallpaper 074",
      "tags": [
        "neon",
        "wallpaper",
        "hd",
        "mobile"
      ],
      "urls": {
        "raw": "https://media.githubusercontent.com/media/ddh4r4m/wallpaper-collection/main/collection/wallpapers/neon/074.jpg",
        "thumb": "https://media.githubusercontent.com/media/ddh4r4m/wallpaper-collection/main/collection/thumbnails/neon/074.jpg"
      },
      "metadata": {
        "dimensions": {
          "width": 1080,
          "height": 1920
        },
        "file_size": 191115,
        "format": "JPEG",
        "added_at": "2025-07-17T00:04:35.531613",
        "hash": "cd446ea2aeb558e418c96df80486b905",
        "source": "migrated"
      }
    },
    {
      "id": "neon_075",
      "category": "neon",
      "title": "Neon Wallpaper 075",
      "tags": [
        "neon",
        "wallpaper",
        "hd",
        "mobile"
      ],
      "urls": {
        "raw": "https://media.githubusercontent.com/media/ddh4r4m/wallpaper-collection/main/collection/wallpapers/neon/075.jpg",
        "thumb": "https://media.githubusercontent.com/media/ddh4r4m/wallpaper-collection/main/collection/thumbnails/neon/075.jpg"
      },
      "metadata": {
        "dimensions": {
          "width": 1080,
          "height": 1920
        },
        "file_size": 246669,
        "format": "JPEG",
        "added_at": "2025-07-17T00:04:35.590237",
        "hash": "4f66cc43000c44141043724956df323e",
        "source": "migrated"
      }
    },
    {
      "id": "neon_076",
      "category": "neon",
      "title": "Neon Wallpaper 076",
      "tags": [
        "neon",
        "wallpaper",
        "hd",
        "mobile"
      ],
      "urls": {
        "raw": "https://media.githubusercontent.com/media/ddh4r4m/wallpaper-collection/main/collection/wallpapers/neon/076.jpg",
        "thumb": "https://media.githubusercontent.com/media/ddh4r4m/wallpaper-collection/main/collection/thumbnails/neon/076.jpg"
      },
      "metadata": {
        "dimensions": {
          "width": 1080,
          "height": 1920
        },
        "file_size": 382270,
        "format": "JPEG",
        "added_at": "2025-07-17T00:04:35.653074",
        "hash": "bd0cd9edeaa5858072771a78832f85df",
        "source": "migrated"
      }
    },
    {
      "id": "neon_077",
      "category": "neon",
      "title": "Neon Wallpaper 077",
      "tags": [
        "neon",
        "wallpaper",
        "hd",
        "mobile"
      ],
      "urls": {
        "raw": "https://media.githubusercontent.com/media/ddh4r4m/wallpaper-collection/main/collection/wallpapers/neon/077.jpg",
        "thumb": "https://media.githubusercontent.com/media/ddh4r4m/wallpaper-collection/main/collection/thumbnails/neon/077.jpg"
      },
      "metadata": {
        "dimensions": {
          "width": 1080,
          "height": 1920
        },
        "file_size": 368695,
        "format": "JPEG",
        "added_at": "2025-07-17T00:04:35.714223",
        "hash": "64bd0dab3f6bd933ead253363c9917d6",
        "source": "migrated"
      }
    }
  ]
}