{
  "meta": {
    "version": "1.0",
    "generated_at": "2025-07-28T23:12:02.393375",
    "page": 139,
    "per_page": 15,
    "total_pages": 183,
    "total_count": 2743,
    "count_on_page": 15,
    "categories": 22,
    "has_next": true,
    "has_prev": true,
    "next_page_url": "/api/v1/all/pages/140.json",
    "prev_page_url": "/api/v1/all/pages/138.json"
  },
  "data": [
    {
      "id": "neon_078",
      "category": "neon",
      "title": "Neon Wallpaper 078",
      "tags": [
        "neon",
        "wallpaper",
        "hd",
        "mobile"
      ],
      "urls": {
        "raw": "https://media.githubusercontent.com/media/ddh4r4m/wallpaper-collection/main/collection/wallpapers/neon/078.jpg",
        "thumb": "https://media.githubusercontent.com/media/ddh4r4m/wallpaper-collection/main/collection/thumbnails/neon/078.jpg"
      },
      "metadata": {
        "dimensions": {
          "width": 1080,
          "height": 1920
        },
        "file_size": 282619,
        "format": "JPEG",
        "added_at": "2025-07-17T00:04:35.774632",
        "hash": "43ce71244b7b2d4a10949e53b7fbad7c",
        "source": "migrated"
      }
    },
    {
      "id": "neon_079",
      "category": "neon",
      "title": "Neon Wallpaper",
      "tags": [
        "neon",
        "unsplash",
        "hd",
        "mobile"
      ],
      "metadata": {
        "dimensions": {
          "width": 1080,
          "height": 1620
        },
        "file_size": 109585,
        "format": "JPEG",
        "added_at": "2025-07-18T00:33:07.787554",
        "hash": "a4793dd9bfb7868501e45e95f3f6dd9b",
        "photographer": "Unknown"
      },
      "urls": {
        "raw": "https://media.githubusercontent.com/media/ddh4r4m/wallpaper-collection/main/collection/wallpapers/neon/079.jpg",
        "thumb": "https://media.githubusercontent.com/media/ddh4r4m/wallpaper-collection/main/collection/thumbnails/neon/079.jpg"
      }
    },
    {
      "id": "neon_080",
      "category": "neon",
      "title": "Neon Wallpaper",
      "tags": [
        "neon",
        "unsplash",
        "hd",
        "mobile"
      ],
      "metadata": {
        "dimensions": {
          "width": 1080,
          "height": 1625
        },
        "file_size": 109905,
        "format": "JPEG",
        "added_at": "2025-07-18T00:33:10.207595",
        "hash": "678fae4d91702f08c3803d02d28f109b",
        "photographer": "Unknown"
      },
      "urls": {
        "raw": "https://media.githubusercontent.com/media/ddh4r4m/wallpaper-collection/main/collection/wallpapers/neon/080.jpg",
        "thumb": "https://media.githubusercontent.com/media/ddh4r4m/wallpaper-collection/main/collection/thumbnails/neon/080.jpg"
      }
    },
    {
      "id": "neon_081",
      "category": "neon",
      "title": "Neon Wallpaper",
      "tags": [
        "neon",
        "unsplash",
        "hd",
        "mobile"
      ],
      "metadata": {
        "dimensions": {
          "width": 1080,
          "height": 1620
        },
        "file_size": 76868,
        "format": "JPEG",
        "added_at": "2025-07-18T00:33:13.839654",
        "hash": "8a855d9bafa1ebd345ab5af33ab6d9ac",
        "photographer": "Unknown"
      },
      "urls": {
        "raw": "https://media.githubusercontent.com/media/ddh4r4m/wallpaper-collection/main/collection/wallpapers/neon/081.jpg",
        "thumb": "https://media.githubusercontent.com/media/ddh4r4m/wallpaper-collection/main/collection/thumbnails/neon/081.jpg"
      }
    },
    {
      "id": "neon_082",
      "category": "neon",
      "title": "Neon Wallpaper",
      "tags": [
        "neon",
        "unsplash",
        "hd",
        "mobile"
      ],
      "metadata": {
        "dimensions": {
          "width": 1080,
          "height": 720
        },
        "file_size": 46329,
        "format": "JPEG",
        "added_at": "2025-07-18T00:33:16.214209",
        "hash": "8f80766c1ce1c3d1694d835f14cb9e6e",
        "photographer": "Unknown"
      },
      "urls": {
        "raw": "https://media.githubusercontent.com/media/ddh4r4m/wallpaper-collection/main/collection/wallpapers/neon/082.jpg",
        "thumb": "https://media.githubusercontent.com/media/ddh4r4m/wallpaper-collection/main/collection/thumbnails/neon/082.jpg"
      }
    },
    {
      "id": "neon_083",
      "category": "neon",
      "title": "Neon Wallpaper",
      "tags": [
        "neon",
        "unsplash",
        "hd",
        "mobile"
      ],
      "metadata": {
        "dimensions": {
          "width": 1080,
          "height": 720
        },
        "file_size": 49753,
        "format": "JPEG",
        "added_at": "2025-07-18T00:33:19.390396",
        "hash": "4222274370d0260590bd1fc9a3af288a",
        "photographer": "Unknown"
      },
      "urls": {
        "raw": "https://media.githubusercontent.com/media/ddh4r4m/wallpaper-collection/main/collection/wallpapers/neon/083.jpg",
        "thumb": "https://media.githubusercontent.com/media/ddh4r4m/wallpaper-collection/main/collection/thumbnails/neon/083.jpg"
      }
    },
    {
      "id": "neon_084",
      "category": "neon",
      "title": "Neon Wallpaper",
      "tags": [
        "neon",
        "unsplash",
        "hd",
        "mobile"
      ],
      "metadata": {
        "dimensions": {
          "width": 1080,
          "height": 1440
        },
        "file_size": 448831,
        "format": "JPEG",
        "added_at": "2025-07-18T00:33:22.325090",
        "hash": "e0477fe61e5994b4f374bb9512bdfe9f",
        "photographer": "Unknown"
      },
      "urls": {
        "raw": "https://media.githubusercontent.com/media/ddh4r4m/wallpaper-collection/main/collection/wallpapers/neon/084.jpg",
        "thumb": "https://media.githubusercontent.com/media/ddh4r4m/wallpaper-collection/main/collection/thumbnails/neon/084.jpg"
      }
    },
    {
      "id": "neon_085",
      "category": "neon",
      "title": "Neon Wallpaper",
      "tags": [
        "neon",
        "unsplash",
        "hd",
        "mobile"
      ],
      "metadata": {
        "dimensions": {
          "width": 1080,
          "height": 720
        },
        "file_size": 96158,
        "format": "JPEG",
        "added_at": "2025-07-18T00:33:25.970053",
        "hash": "2352bbc7be264b60cdcb2ed8b5dedd26",
        "photographer": "Unknown"
      },
      "urls": {
        "raw": "https://media.githubusercontent.com/media/ddh4r4m/wallpaper-collection/main/collection/wallpapers/neon/085.jpg",
        "thumb": "https://media.githubusercontent.com/media/ddh4r4m/wallpaper-collection/main/collection/thumbnails/neon/085.jpg"
      }
    },
    {
      "id": "neon_086",
      "category": "neon",
      "title": "Neon Wallpaper",
      "tags": [
        "neon",
        "unsplash",
        "hd",
        "mobile"
      ],
      "metadata": {
        "dimensions": {
          "width": 1080,
          "height": 810
        },
        "file_size": 51995,
        "format": "JPEG",
        "added_at": "2025-07-18T00:33:28.295534",
        "hash": "d8cf2e8c95f2e09dfe7a79f48df60c55",
        "photographer": "Unknown"
      },
      "urls": {
        "raw": "https://media.githubusercontent.com/media/ddh4r4m/wallpaper-collection/main/collection/wallpapers/neon/086.jpg",
        "thumb": "https://media.githubusercontent.com/media/ddh4r4m/wallpaper-collection/main/collection/thumbnails/neon/086.jpg"
      }
    },
    {
      "id": "neon_087",
      "category": "neon",
      "title": "Neon Wallpaper",
      "tags": [
        "neon",
        "unsplash",
        "hd",
        "mobile"
      ],
      "metadata": {
        "dimensions": {
          "width": 1080,
          "height": 720
        },
        "file_size": 67101,
        "format": "JPEG",
        "added_at": "2025-07-18T00:33:31.735827",
        "hash": "eba3c2e7ddd65447cdd759b758e870fa",
        "photographer": "Unknown"
      },
      "urls": {
        "raw": "https://media.githubusercontent.com/media/ddh4r4m/wallpaper-collection/main/collection/wallpapers/neon/087.jpg",
        "thumb": "https://media.githubusercontent.com/media/ddh4r4m/wallpaper-collection/main/collection/thumbnails/neon/087.jpg"
      }
    },
    {
      "id": "neon_088",
      "category": "neon",
      "title": "Neon Wallpaper",
      "tags": [
        "neon",
        "unsplash",
        "hd",
        "mobile"
      ],
      "metadata": {
        "dimensions": {
          "width": 1080,
          "height": 1620
        },
        "file_size": 160857,
        "format": "JPEG",
        "added_at": "2025-07-18T00:33:35.645489",
        "hash": "0a5cc4853c11c1ed5791392f23823236",
        "photographer": "Unknown"
      },
      "urls": {
        "raw": "https://media.githubusercontent.com/media/ddh4r4m/wallpaper-collection/main/collection/wallpapers/neon/088.jpg",
        "thumb": "https://media.githubusercontent.com/media/ddh4r4m/wallpaper-collection/main/collection/thumbnails/neon/088.jpg"
      }
    },
    {
      "id": "pastel_001",
      "category": "pastel",
      "title": "Pastel Wallpaper 001",
      "tags": [
        "pastel",
        "wallpaper",
        "hd",
        "mobile"
      ],
      "urls": {
        "raw": "https://media.githubusercontent.com/media/ddh4r4m/wallpaper-collection/main/collection/wallpapers/pastel/001.jpg",
        "thumb": "https://media.githubusercontent.com/media/ddh4r4m/wallpaper-collection/main/collection/thumbnails/pastel/001.jpg"
      },
      "metadata": {
        "dimensions": {
          "width": 1080,
          "height": 1920
        },
        "file_size": 454760,
        "format": "JPEG",
        "added_at": "2025-07-17T00:04:35.842372",
        "hash": "b550b693683cfc708d2b6857966f0fb0",
        "source": "migrated"
      }
    },
    {
      "id": "pastel_002",
      "category": "pastel",
      "title": "Pastel Wallpaper 002",
      "tags": [
        "pastel",
        "wallpaper",
        "hd",
        "mobile"
      ],
      "urls": {
        "raw": "https://media.githubusercontent.com/media/ddh4r4m/wallpaper-collection/main/collection/wallpapers/pastel/002.jpg",
        "thumb": "https://media.githubusercontent.com/media/ddh4r4m/wallpaper-collection/main/collection/thumbnails/pastel/002.jpg"
      },
      "metadata": {
        "dimensions": {
          "width": 1080,
          "height": 1920
        },
        "file_size": 479226,
        "format": "JPEG",
        "added_at": "2025-07-17T00:04:35.912894",
        "hash": "baaa28df92e2438f51d1d466dec450cb",
        "source": "migrated"
      }
    },
    {
      "id": "pastel_003",
      "category": "pastel",
      "title": "Pastel Wallpaper 003",
      "tags": [
        "pastel",
        "wallpaper",
        "hd",
        "mobile"
      ],
      "urls": {
        "raw": "https://media.githubusercontent.com/media/ddh4r4m/wallpaper-collection/main/collection/wallpapers/pastel/003.jpg",
        "thumb": "https://media.githubusercontent.com/media/ddh4r4m/wallpaper-collection/main/collection/thumbnails/pastel/003.jpg"
      },
      "metadata": {
        "dimensions": {
          "width": 1080,
          "height": 1920
        },
        "file_size": 417881,
        "format": "JPEG",
        "added_at": "2025-07-17T00:04:35.975960",
        "hash": "58bc4b035425db7559990c3cd74818f2",
        "source": "migrated"
      }
    },
    {
      "id": "pastel_004",
      "category": "pastel",
      "title": "Pastel Wallpaper 004",
      "tags": [
        "pastel",
        "wallpaper",
        "hd",
        "mobile"
      ],
      "urls": {
        "raw": "https://media.githubusercontent.com/media/ddh4r4m/wallpaper-collection/main/collection/wallpapers/pastel/004.jpg",
        "thumb": "https://media.githubusercontent.com/media/ddh4r4m/wallpaper-collection/main/collection/thumbnails/pastel/004.jpg"
      },
      "metadata": {
        "dimensions": {
          "width": 1080,
          "height": 1920
        },
        "file_size": 221388,
        "format": "JPEG",
        "added_at": "2025-07-17T00:04:36.030608",
        "hash": "d54165adcbb9d2b3f2783102e81eda24",
        "source": "migrated"
      }
    }
  ]
}