{
  "meta": {
    "version": "1.0",
    "generated_at": "2025-07-17T00:06:19.072196",
    "page": 14,
    "per_page": 15,
    "total_pages": 117,
    "total_count": 1751,
    "count_on_page": 15,
    "categories": 17,
    "has_next": true,
    "has_prev": true,
    "next_page_url": "/api/v1/all/pages/15.json",
    "prev_page_url": "/api/v1/all/pages/13.json"
  },
  "data": [
    {
      "id": "4k_196",
      "filename": "196.jpg",
      "title": "4K Wallpaper 196",
      "photographer": "Unknown",
      "source": "unsplash",
      "source_id": "",
      "source_url": "",
      "tags": [],
      "color": "#000000",
      "created_at": "",
      "download_url": "https://raw.githubusercontent.com/username/wallpaper-collection/main/collection/wallpapers/4k/196.jpg",
      "thumbnail_url": "https://raw.githubusercontent.com/username/wallpaper-collection/main/collection/thumbnails/4k/196.jpg",
      "urls": {
        "raw": "https://raw.githubusercontent.com/ddh4r4m/wallpaper-collection/main/collection/wallpapers/4k/196.jpg",
        "thumb": "https://raw.githubusercontent.com/ddh4r4m/wallpaper-collection/main/collection/thumbnails/4k/196.jpg"
      },
      "category": "4k"
    },
    {
      "id": "4k_197",
      "filename": "197.jpg",
      "title": "4K Wallpaper 197",
      "photographer": "Unknown",
      "source": "unsplash",
      "source_id": "",
      "source_url": "",
      "tags": [],
      "color": "#000000",
      "created_at": "",
      "download_url": "https://raw.githubusercontent.com/username/wallpaper-collection/main/collection/wallpapers/4k/197.jpg",
      "thumbnail_url": "https://raw.githubusercontent.com/username/wallpaper-collection/main/collection/thumbnails/4k/197.jpg",
      "urls": {
        "raw": "https://raw.githubusercontent.com/ddh4r4m/wallpaper-collection/main/collection/wallpapers/4k/197.jpg",
        "thumb": "https://raw.githubusercontent.com/ddh4r4m/wallpaper-collection/main/collection/thumbnails/4k/197.jpg"
      },
      "category": "4k"
    },
    {
      "id": "4k_198",
      "filename": "198.jpg",
      "title": "4K Wallpaper 198",
      "photographer": "Unknown",
      "source": "unsplash",
      "source_id": "",
      "source_url": "",
      "tags": [],
      "color": "#000000",
      "created_at": "",
      "download_url": "https://raw.githubusercontent.com/username/wallpaper-collection/main/collection/wallpapers/4k/198.jpg",
      "thumbnail_url": "https://raw.githubusercontent.com/username/wallpaper-collection/main/collection/thumbnails/4k/198.jpg",
      "urls": {
        "raw": "https://raw.githubusercontent.com/ddh4r4m/wallpaper-collection/main/collection/wallpapers/4k/198.jpg",
        "thumb": "https://raw.githubusercontent.com/ddh4r4m/wallpaper-collection/main/collection/thumbnails/4k/198.jpg"
      },
      "category": "4k"
    },
    {
      "id": "4k_199",
      "filename": "199.jpg",
      "title": "4K Wallpaper 199",
      "photographer": "Unknown",
      "source": "unsplash",
      "source_id": "",
      "source_url": "",
      "tags": [],
      "color": "#000000",
      "created_at": "",
      "download_url": "https://raw.githubusercontent.com/username/wallpaper-collection/main/collection/wallpapers/4k/199.jpg",
      "thumbnail_url": "https://raw.githubusercontent.com/username/wallpaper-collection/main/collection/thumbnails/4k/199.jpg",
      "urls": {
        "raw": "https://raw.githubusercontent.com/ddh4r4m/wallpaper-collection/main/collection/wallpapers/4k/199.jpg",
        "thumb": "https://raw.githubusercontent.com/ddh4r4m/wallpaper-collection/main/collection/thumbnails/4k/199.jpg"
      },
      "category": "4k"
    },
    {
      "id": "4k_200",
      "filename": "200.jpg",
      "title": "4K Wallpaper 200",
      "photographer": "Unknown",
      "source": "unsplash",
      "source_id": "",
      "source_url": "",
      "tags": [],
      "color": "#000000",
      "created_at": "",
      "download_url": "https://raw.githubusercontent.com/username/wallpaper-collection/main/collection/wallpapers/4k/200.jpg",
      "thumbnail_url": "https://raw.githubusercontent.com/username/wallpaper-collection/main/collection/thumbnails/4k/200.jpg",
      "urls": {
        "raw": "https://raw.githubusercontent.com/ddh4r4m/wallpaper-collection/main/collection/wallpapers/4k/200.jpg",
        "thumb": "https://raw.githubusercontent.com/ddh4r4m/wallpaper-collection/main/collection/thumbnails/4k/200.jpg"
      },
      "category": "4k"
    },
    {
      "id": "abstract_001",
      "category": "abstract",
      "title": "Abstract Wallpaper 001",
      "tags": [
        "abstract"
      ],
      "urls": {
        "raw": "https://raw.githubusercontent.com/ddh4r4m/wallpaper-collection/main/collection/wallpapers/abstract/001.jpg",
        "thumb": "https://raw.githubusercontent.com/ddh4r4m/wallpaper-collection/main/collection/thumbnails/abstract/001.jpg"
      },
      "metadata": {
        "added_at": "2025-07-16T20:57:48.288245",
        "file_size": 13480,
        "dimensions": {
          "width": 1080,
          "height": 1920
        }
      }
    },
    {
      "id": "abstract_002",
      "category": "abstract",
      "title": "Test Abstract Wallpaper",
      "tags": [
        "test",
        "abstract",
        "blue"
      ],
      "metadata": {
        "dimensions": {
          "width": 1080,
          "height": 1920
        },
        "file_size": 13480,
        "format": "JPEG",
        "added_at": "2025-07-16T20:58:21.539833",
        "hash": "6c0f395c4b9bdd34b02e659cdacafde7"
      },
      "urls": {
        "raw": "https://raw.githubusercontent.com/ddh4r4m/wallpaper-collection/main/collection/wallpapers/abstract/002.jpg",
        "thumb": "https://raw.githubusercontent.com/ddh4r4m/wallpaper-collection/main/collection/thumbnails/abstract/002.jpg"
      }
    },
    {
      "id": "abstract_003",
      "category": "abstract",
      "title": "Abstract Wallpaper 003",
      "tags": [
        "abstract",
        "wallpaper",
        "hd",
        "mobile"
      ],
      "urls": {
        "raw": "https://raw.githubusercontent.com/ddh4r4m/wallpaper-collection/main/collection/wallpapers/abstract/003.jpg",
        "thumb": "https://raw.githubusercontent.com/ddh4r4m/wallpaper-collection/main/collection/thumbnails/abstract/003.jpg"
      },
      "metadata": {
        "dimensions": {
          "width": 1080,
          "height": 1920
        },
        "file_size": 587324,
        "format": "JPEG",
        "added_at": "2025-07-17T00:02:12.450632",
        "hash": "e1dbfe385e170c39396d0534d2b10737",
        "source": "migrated"
      }
    },
    {
      "id": "abstract_004",
      "category": "abstract",
      "title": "Abstract Wallpaper 004",
      "tags": [
        "abstract",
        "wallpaper",
        "hd",
        "mobile"
      ],
      "urls": {
        "raw": "https://raw.githubusercontent.com/ddh4r4m/wallpaper-collection/main/collection/wallpapers/abstract/004.jpg",
        "thumb": "https://raw.githubusercontent.com/ddh4r4m/wallpaper-collection/main/collection/thumbnails/abstract/004.jpg"
      },
      "metadata": {
        "dimensions": {
          "width": 1080,
          "height": 1920
        },
        "file_size": 414159,
        "format": "JPEG",
        "added_at": "2025-07-17T00:02:12.516875",
        "hash": "527fc5665c3b146e69a53edee6b16e07",
        "source": "migrated"
      }
    },
    {
      "id": "abstract_005",
      "category": "abstract",
      "title": "Abstract Wallpaper 005",
      "tags": [
        "abstract",
        "wallpaper",
        "hd",
        "mobile"
      ],
      "urls": {
        "raw": "https://raw.githubusercontent.com/ddh4r4m/wallpaper-collection/main/collection/wallpapers/abstract/005.jpg",
        "thumb": "https://raw.githubusercontent.com/ddh4r4m/wallpaper-collection/main/collection/thumbnails/abstract/005.jpg"
      },
      "metadata": {
        "dimensions": {
          "width": 1080,
          "height": 1920
        },
        "file_size": 454153,
        "format": "JPEG",
        "added_at": "2025-07-17T00:02:12.585094",
        "hash": "6819215b6e2d97cd49d8c4066f32b7f3",
        "source": "migrated"
      }
    },
    {
      "id": "abstract_006",
      "category": "abstract",
      "title": "Abstract Wallpaper 006",
      "tags": [
        "abstract",
        "wallpaper",
        "hd",
        "mobile"
      ],
      "urls": {
        "raw": "https://raw.githubusercontent.com/ddh4r4m/wallpaper-collection/main/collection/wallpapers/abstract/006.jpg",
        "thumb": "https://raw.githubusercontent.com/ddh4r4m/wallpaper-collection/main/collection/thumbnails/abstract/006.jpg"
      },
      "metadata": {
        "dimensions": {
          "width": 1080,
          "height": 1920
        },
        "file_size": 419249,
        "format": "JPEG",
        "added_at": "2025-07-17T00:02:12.650965",
        "hash": "85ec7fdf64922b88ef69c84f9ca6c901",
        "source": "migrated"
      }
    },
    {
      "id": "abstract_007",
      "category": "abstract",
      "title": "Abstract Wallpaper 007",
      "tags": [
        "abstract",
        "wallpaper",
        "hd",
        "mobile"
      ],
      "urls": {
        "raw": "https://raw.githubusercontent.com/ddh4r4m/wallpaper-collection/main/collection/wallpapers/abstract/007.jpg",
        "thumb": "https://raw.githubusercontent.com/ddh4r4m/wallpaper-collection/main/collection/thumbnails/abstract/007.jpg"
      },
      "metadata": {
        "dimensions": {
          "width": 1080,
          "height": 1920
        },
        "file_size": 396187,
        "format": "JPEG",
        "added_at": "2025-07-17T00:02:12.717305",
        "hash": "96d7384ed531062eaff25add038df536",
        "source": "migrated"
      }
    },
    {
      "id": "abstract_008",
      "category": "abstract",
      "title": "Abstract Wallpaper 008",
      "tags": [
        "abstract",
        "wallpaper",
        "hd",
        "mobile"
      ],
      "urls": {
        "raw": "https://raw.githubusercontent.com/ddh4r4m/wallpaper-collection/main/collection/wallpapers/abstract/008.jpg",
        "thumb": "https://raw.githubusercontent.com/ddh4r4m/wallpaper-collection/main/collection/thumbnails/abstract/008.jpg"
      },
      "metadata": {
        "dimensions": {
          "width": 1080,
          "height": 1920
        },
        "file_size": 506485,
        "format": "JPEG",
        "added_at": "2025-07-17T00:02:12.786607",
        "hash": "b5054d2af5aee5f00fabfbd443c62fd5",
        "source": "migrated"
      }
    },
    {
      "id": "abstract_009",
      "category": "abstract",
      "title": "Abstract Wallpaper 009",
      "tags": [
        "abstract",
        "wallpaper",
        "hd",
        "mobile"
      ],
      "urls": {
        "raw": "https://raw.githubusercontent.com/ddh4r4m/wallpaper-collection/main/collection/wallpapers/abstract/009.jpg",
        "thumb": "https://raw.githubusercontent.com/ddh4r4m/wallpaper-collection/main/collection/thumbnails/abstract/009.jpg"
      },
      "metadata": {
        "dimensions": {
          "width": 1080,
          "height": 1920
        },
        "file_size": 415224,
        "format": "JPEG",
        "added_at": "2025-07-17T00:02:12.850155",
        "hash": "a21686a0f46844fa78830d2dece1820d",
        "source": "migrated"
      }
    },
    {
      "id": "abstract_010",
      "category": "abstract",
      "title": "Abstract Wallpaper 010",
      "tags": [
        "abstract",
        "wallpaper",
        "hd",
        "mobile"
      ],
      "urls": {
        "raw": "https://raw.githubusercontent.com/ddh4r4m/wallpaper-collection/main/collection/wallpapers/abstract/010.jpg",
        "thumb": "https://raw.githubusercontent.com/ddh4r4m/wallpaper-collection/main/collection/thumbnails/abstract/010.jpg"
      },
      "metadata": {
        "dimensions": {
          "width": 1080,
          "height": 1920
        },
        "file_size": 442989,
        "format": "JPEG",
        "added_at": "2025-07-17T00:02:12.916337",
        "hash": "a80c5b3a7c59ad21abeb89371091e7a4",
        "source": "migrated"
      }
    }
  ]
}