{
  "meta": {
    "version": "1.0",
    "generated_at": "2025-07-28T23:12:02.393375",
    "page": 140,
    "per_page": 15,
    "total_pages": 183,
    "total_count": 2743,
    "count_on_page": 15,
    "categories": 22,
    "has_next": true,
    "has_prev": true,
    "next_page_url": "/api/v1/all/pages/141.json",
    "prev_page_url": "/api/v1/all/pages/139.json"
  },
  "data": [
    {
      "id": "pastel_005",
      "category": "pastel",
      "title": "Pastel Wallpaper 005",
      "tags": [
        "pastel",
        "wallpaper",
        "hd",
        "mobile"
      ],
      "urls": {
        "raw": "https://media.githubusercontent.com/media/ddh4r4m/wallpaper-collection/main/collection/wallpapers/pastel/005.jpg",
        "thumb": "https://media.githubusercontent.com/media/ddh4r4m/wallpaper-collection/main/collection/thumbnails/pastel/005.jpg"
      },
      "metadata": {
        "dimensions": {
          "width": 1080,
          "height": 1920
        },
        "file_size": 663823,
        "format": "JPEG",
        "added_at": "2025-07-17T00:04:36.109358",
        "hash": "8026de66c829ab2a324305c406cd4d9d",
        "source": "migrated"
      }
    },
    {
      "id": "pastel_006",
      "category": "pastel",
      "title": "Pastel Wallpaper 006",
      "tags": [
        "pastel",
        "wallpaper",
        "hd",
        "mobile"
      ],
      "urls": {
        "raw": "https://media.githubusercontent.com/media/ddh4r4m/wallpaper-collection/main/collection/wallpapers/pastel/006.jpg",
        "thumb": "https://media.githubusercontent.com/media/ddh4r4m/wallpaper-collection/main/collection/thumbnails/pastel/006.jpg"
      },
      "metadata": {
        "dimensions": {
          "width": 1080,
          "height": 1920
        },
        "file_size": 413712,
        "format": "JPEG",
        "added_at": "2025-07-17T00:04:36.172479",
        "hash": "3bc0b7488fe25a0c7ca6b267f67b9211",
        "source": "migrated"
      }
    },
    {
      "id": "pastel_007",
      "category": "pastel",
      "title": "Pastel Wallpaper 007",
      "tags": [
        "pastel",
        "wallpaper",
        "hd",
        "mobile"
      ],
      "urls": {
        "raw": "https://media.githubusercontent.com/media/ddh4r4m/wallpaper-collection/main/collection/wallpapers/pastel/007.jpg",
        "thumb": "https://media.githubusercontent.com/media/ddh4r4m/wallpaper-collection/main/collection/thumbnails/pastel/007.jpg"
      },
      "metadata": {
        "dimensions": {
          "width": 1080,
          "height": 1920
        },
        "file_size": 97462,
        "format": "JPEG",
        "added_at": "2025-07-17T00:04:36.219758",
        "hash": "95e23ea5a47802019f9f44d2a873e5c6",
        "source": "migrated"
      }
    },
    {
      "id": "pastel_008",
      "category": "pastel",
      "title": "Pastel Wallpaper 008",
      "tags": [
        "pastel",
        "wallpaper",
        "hd",
        "mobile"
      ],
      "urls": {
        "raw": "https://media.githubusercontent.com/media/ddh4r4m/wallpaper-collection/main/collection/wallpapers/pastel/008.jpg",
        "thumb": "https://media.githubusercontent.com/media/ddh4r4m/wallpaper-collection/main/collection/thumbnails/pastel/008.jpg"
      },
      "metadata": {
        "dimensions": {
          "width": 1080,
          "height": 1920
        },
        "file_size": 435044,
        "format": "JPEG",
        "added_at": "2025-07-17T00:04:36.286950",
        "hash": "5f2a0dca440e18e5a3bbc4ef2b0724a7",
        "source": "migrated"
      }
    },
    {
      "id": "pastel_009",
      "category": "pastel",
      "title": "Pastel Wallpaper 009",
      "tags": [
        "pastel",
        "wallpaper",
        "hd",
        "mobile"
      ],
      "urls": {
        "raw": "https://media.githubusercontent.com/media/ddh4r4m/wallpaper-collection/main/collection/wallpapers/pastel/009.jpg",
        "thumb": "https://media.githubusercontent.com/media/ddh4r4m/wallpaper-collection/main/collection/thumbnails/pastel/009.jpg"
      },
      "metadata": {
        "dimensions": {
          "width": 1080,
          "height": 1920
        },
        "file_size": 63107,
        "format": "JPEG",
        "added_at": "2025-07-17T00:04:36.331874",
        "hash": "fa63242d03d49e063868c6866ada4776",
        "source": "migrated"
      }
    },
    {
      "id": "pastel_010",
      "category": "pastel",
      "title": "Pastel Wallpaper 010",
      "tags": [
        "pastel",
        "wallpaper",
        "hd",
        "mobile"
      ],
      "urls": {
        "raw": "https://media.githubusercontent.com/media/ddh4r4m/wallpaper-collection/main/collection/wallpapers/pastel/010.jpg",
        "thumb": "https://media.githubusercontent.com/media/ddh4r4m/wallpaper-collection/main/collection/thumbnails/pastel/010.jpg"
      },
      "metadata": {
        "dimensions": {
          "width": 1080,
          "height": 1920
        },
        "file_size": 209027,
        "format": "JPEG",
        "added_at": "2025-07-17T00:04:36.385406",
        "hash": "b2c842925dd96922ef874cf4a74e65bf",
        "source": "migrated"
      }
    },
    {
      "id": "pastel_011",
      "category": "pastel",
      "title": "Pastel Wallpaper 011",
      "tags": [
        "pastel",
        "wallpaper",
        "hd",
        "mobile"
      ],
      "urls": {
        "raw": "https://media.githubusercontent.com/media/ddh4r4m/wallpaper-collection/main/collection/wallpapers/pastel/011.jpg",
        "thumb": "https://media.githubusercontent.com/media/ddh4r4m/wallpaper-collection/main/collection/thumbnails/pastel/011.jpg"
      },
      "metadata": {
        "dimensions": {
          "width": 1080,
          "height": 1920
        },
        "file_size": 242245,
        "format": "JPEG",
        "added_at": "2025-07-17T00:04:36.441065",
        "hash": "57c3aa456d510e5fb2ce66d6385a7be5",
        "source": "migrated"
      }
    },
    {
      "id": "pastel_012",
      "category": "pastel",
      "title": "Pastel Wallpaper 012",
      "tags": [
        "pastel",
        "wallpaper",
        "hd",
        "mobile"
      ],
      "urls": {
        "raw": "https://media.githubusercontent.com/media/ddh4r4m/wallpaper-collection/main/collection/wallpapers/pastel/012.jpg",
        "thumb": "https://media.githubusercontent.com/media/ddh4r4m/wallpaper-collection/main/collection/thumbnails/pastel/012.jpg"
      },
      "metadata": {
        "dimensions": {
          "width": 1080,
          "height": 1920
        },
        "file_size": 227340,
        "format": "JPEG",
        "added_at": "2025-07-17T00:04:36.497004",
        "hash": "c14cffc850fa28b5e1370096a62b4b8f",
        "source": "migrated"
      }
    },
    {
      "id": "pastel_013",
      "category": "pastel",
      "title": "Pastel Wallpaper 013",
      "tags": [
        "pastel",
        "wallpaper",
        "hd",
        "mobile"
      ],
      "urls": {
        "raw": "https://media.githubusercontent.com/media/ddh4r4m/wallpaper-collection/main/collection/wallpapers/pastel/013.jpg",
        "thumb": "https://media.githubusercontent.com/media/ddh4r4m/wallpaper-collection/main/collection/thumbnails/pastel/013.jpg"
      },
      "metadata": {
        "dimensions": {
          "width": 1080,
          "height": 1920
        },
        "file_size": 849476,
        "format": "JPEG",
        "added_at": "2025-07-17T00:04:36.584400",
        "hash": "a4e3c1877f77dae76a0804ef7df1a268",
        "source": "migrated"
      }
    },
    {
      "id": "pastel_014",
      "category": "pastel",
      "title": "Pastel Wallpaper 014",
      "tags": [
        "pastel",
        "wallpaper",
        "hd",
        "mobile"
      ],
      "urls": {
        "raw": "https://media.githubusercontent.com/media/ddh4r4m/wallpaper-collection/main/collection/wallpapers/pastel/014.jpg",
        "thumb": "https://media.githubusercontent.com/media/ddh4r4m/wallpaper-collection/main/collection/thumbnails/pastel/014.jpg"
      },
      "metadata": {
        "dimensions": {
          "width": 1080,
          "height": 1920
        },
        "file_size": 128249,
        "format": "JPEG",
        "added_at": "2025-07-17T00:04:36.632628",
        "hash": "6df7f66888c4ee3380df615d92abcd41",
        "source": "migrated"
      }
    },
    {
      "id": "pastel_015",
      "category": "pastel",
      "title": "Pastel Wallpaper 015",
      "tags": [
        "pastel",
        "wallpaper",
        "hd",
        "mobile"
      ],
      "urls": {
        "raw": "https://media.githubusercontent.com/media/ddh4r4m/wallpaper-collection/main/collection/wallpapers/pastel/015.jpg",
        "thumb": "https://media.githubusercontent.com/media/ddh4r4m/wallpaper-collection/main/collection/thumbnails/pastel/015.jpg"
      },
      "metadata": {
        "dimensions": {
          "width": 1080,
          "height": 1920
        },
        "file_size": 244308,
        "format": "JPEG",
        "added_at": "2025-07-17T00:04:36.709868",
        "hash": "e87df0b176205a9d7dbfa5034877dad4",
        "source": "migrated"
      }
    },
    {
      "id": "pastel_016",
      "category": "pastel",
      "title": "Pastel Wallpaper 016",
      "tags": [
        "pastel",
        "wallpaper",
        "hd",
        "mobile"
      ],
      "urls": {
        "raw": "https://media.githubusercontent.com/media/ddh4r4m/wallpaper-collection/main/collection/wallpapers/pastel/016.jpg",
        "thumb": "https://media.githubusercontent.com/media/ddh4r4m/wallpaper-collection/main/collection/thumbnails/pastel/016.jpg"
      },
      "metadata": {
        "dimensions": {
          "width": 1080,
          "height": 1920
        },
        "file_size": 366591,
        "format": "JPEG",
        "added_at": "2025-07-17T00:04:36.771218",
        "hash": "9bf0f43d7002c341ce484788d644ecf0",
        "source": "migrated"
      }
    },
    {
      "id": "pastel_017",
      "category": "pastel",
      "title": "Pastel Wallpaper 017",
      "tags": [
        "pastel",
        "wallpaper",
        "hd",
        "mobile"
      ],
      "urls": {
        "raw": "https://media.githubusercontent.com/media/ddh4r4m/wallpaper-collection/main/collection/wallpapers/pastel/017.jpg",
        "thumb": "https://media.githubusercontent.com/media/ddh4r4m/wallpaper-collection/main/collection/thumbnails/pastel/017.jpg"
      },
      "metadata": {
        "dimensions": {
          "width": 1080,
          "height": 1920
        },
        "file_size": 207147,
        "format": "JPEG",
        "added_at": "2025-07-17T00:04:36.825327",
        "hash": "f958f8b57fa95ba37ed6ba9b16ba116b",
        "source": "migrated"
      }
    },
    {
      "id": "pastel_018",
      "category": "pastel",
      "title": "Pastel Wallpaper 018",
      "tags": [
        "pastel",
        "wallpaper",
        "hd",
        "mobile"
      ],
      "urls": {
        "raw": "https://media.githubusercontent.com/media/ddh4r4m/wallpaper-collection/main/collection/wallpapers/pastel/018.jpg",
        "thumb": "https://media.githubusercontent.com/media/ddh4r4m/wallpaper-collection/main/collection/thumbnails/pastel/018.jpg"
      },
      "metadata": {
        "dimensions": {
          "width": 1080,
          "height": 1920
        },
        "file_size": 724034,
        "format": "JPEG",
        "added_at": "2025-07-17T00:04:36.905521",
        "hash": "9ddabd306237edd86adc5f66b7024338",
        "source": "migrated"
      }
    },
    {
      "id": "pastel_019",
      "category": "pastel",
      "title": "Pastel Wallpaper 019",
      "tags": [
        "pastel",
        "wallpaper",
        "hd",
        "mobile"
      ],
      "urls": {
        "raw": "https://media.githubusercontent.com/media/ddh4r4m/wallpaper-collection/main/collection/wallpapers/pastel/019.jpg",
        "thumb": "https://media.githubusercontent.com/media/ddh4r4m/wallpaper-collection/main/collection/thumbnails/pastel/019.jpg"
      },
      "metadata": {
        "dimensions": {
          "width": 1080,
          "height": 1920
        },
        "file_size": 181563,
        "format": "JPEG",
        "added_at": "2025-07-17T00:04:36.955370",
        "hash": "87c58f7609987ddd23ef95bfb1517ebb",
        "source": "migrated"
      }
    }
  ]
}