{
  "meta": {
    "version": "1.0",
    "generated_at": "2025-07-28T23:12:02.393375",
    "page": 141,
    "per_page": 15,
    "total_pages": 183,
    "total_count": 2743,
    "count_on_page": 15,
    "categories": 22,
    "has_next": true,
    "has_prev": true,
    "next_page_url": "/api/v1/all/pages/142.json",
    "prev_page_url": "/api/v1/all/pages/140.json"
  },
  "data": [
    {
      "id": "pastel_020",
      "category": "pastel",
      "title": "Pastel Wallpaper 020",
      "tags": [
        "pastel",
        "wallpaper",
        "hd",
        "mobile"
      ],
      "urls": {
        "raw": "https://media.githubusercontent.com/media/ddh4r4m/wallpaper-collection/main/collection/wallpapers/pastel/020.jpg",
        "thumb": "https://media.githubusercontent.com/media/ddh4r4m/wallpaper-collection/main/collection/thumbnails/pastel/020.jpg"
      },
      "metadata": {
        "dimensions": {
          "width": 1080,
          "height": 1920
        },
        "file_size": 97967,
        "format": "JPEG",
        "added_at": "2025-07-17T00:04:37.003152",
        "hash": "b994a815c7dc57acba3a4763f887821b",
        "source": "migrated"
      }
    },
    {
      "id": "pastel_021",
      "category": "pastel",
      "title": "Pastel Wallpaper 021",
      "tags": [
        "pastel",
        "wallpaper",
        "hd",
        "mobile"
      ],
      "urls": {
        "raw": "https://media.githubusercontent.com/media/ddh4r4m/wallpaper-collection/main/collection/wallpapers/pastel/021.jpg",
        "thumb": "https://media.githubusercontent.com/media/ddh4r4m/wallpaper-collection/main/collection/thumbnails/pastel/021.jpg"
      },
      "metadata": {
        "dimensions": {
          "width": 1080,
          "height": 1920
        },
        "file_size": 300993,
        "format": "JPEG",
        "added_at": "2025-07-17T00:04:37.061598",
        "hash": "1eece7a7bf2b4405677375a2fe10c9b2",
        "source": "migrated"
      }
    },
    {
      "id": "pastel_022",
      "category": "pastel",
      "title": "Pastel Wallpaper 022",
      "tags": [
        "pastel",
        "wallpaper",
        "hd",
        "mobile"
      ],
      "urls": {
        "raw": "https://media.githubusercontent.com/media/ddh4r4m/wallpaper-collection/main/collection/wallpapers/pastel/022.jpg",
        "thumb": "https://media.githubusercontent.com/media/ddh4r4m/wallpaper-collection/main/collection/thumbnails/pastel/022.jpg"
      },
      "metadata": {
        "dimensions": {
          "width": 1080,
          "height": 1920
        },
        "file_size": 308733,
        "format": "JPEG",
        "added_at": "2025-07-17T00:04:37.122554",
        "hash": "685b047dd0fe57d7511d539cd52f2942",
        "source": "migrated"
      }
    },
    {
      "id": "pastel_023",
      "category": "pastel",
      "title": "Pastel Wallpaper 023",
      "tags": [
        "pastel",
        "wallpaper",
        "hd",
        "mobile"
      ],
      "urls": {
        "raw": "https://media.githubusercontent.com/media/ddh4r4m/wallpaper-collection/main/collection/wallpapers/pastel/023.jpg",
        "thumb": "https://media.githubusercontent.com/media/ddh4r4m/wallpaper-collection/main/collection/thumbnails/pastel/023.jpg"
      },
      "metadata": {
        "dimensions": {
          "width": 1080,
          "height": 1920
        },
        "file_size": 258793,
        "format": "JPEG",
        "added_at": "2025-07-17T00:04:37.179527",
        "hash": "f26228f79f259e80114101f2378f099e",
        "source": "migrated"
      }
    },
    {
      "id": "pastel_024",
      "category": "pastel",
      "title": "Pastel Wallpaper 024",
      "tags": [
        "pastel",
        "wallpaper",
        "hd",
        "mobile"
      ],
      "urls": {
        "raw": "https://media.githubusercontent.com/media/ddh4r4m/wallpaper-collection/main/collection/wallpapers/pastel/024.jpg",
        "thumb": "https://media.githubusercontent.com/media/ddh4r4m/wallpaper-collection/main/collection/thumbnails/pastel/024.jpg"
      },
      "metadata": {
        "dimensions": {
          "width": 1080,
          "height": 1920
        },
        "file_size": 545710,
        "format": "JPEG",
        "added_at": "2025-07-17T00:04:37.252647",
        "hash": "c49ed1b3b7f68e2a973881ec6344a179",
        "source": "migrated"
      }
    },
    {
      "id": "pastel_025",
      "category": "pastel",
      "title": "Pastel Wallpaper 025",
      "tags": [
        "pastel",
        "wallpaper",
        "hd",
        "mobile"
      ],
      "urls": {
        "raw": "https://media.githubusercontent.com/media/ddh4r4m/wallpaper-collection/main/collection/wallpapers/pastel/025.jpg",
        "thumb": "https://media.githubusercontent.com/media/ddh4r4m/wallpaper-collection/main/collection/thumbnails/pastel/025.jpg"
      },
      "metadata": {
        "dimensions": {
          "width": 1080,
          "height": 1920
        },
        "file_size": 276207,
        "format": "JPEG",
        "added_at": "2025-07-17T00:04:37.309840",
        "hash": "50293f0706c0259551295c901f766205",
        "source": "migrated"
      }
    },
    {
      "id": "pastel_026",
      "category": "pastel",
      "title": "Pastel Wallpaper 026",
      "tags": [
        "pastel",
        "wallpaper",
        "hd",
        "mobile"
      ],
      "urls": {
        "raw": "https://media.githubusercontent.com/media/ddh4r4m/wallpaper-collection/main/collection/wallpapers/pastel/026.jpg",
        "thumb": "https://media.githubusercontent.com/media/ddh4r4m/wallpaper-collection/main/collection/thumbnails/pastel/026.jpg"
      },
      "metadata": {
        "dimensions": {
          "width": 1080,
          "height": 1920
        },
        "file_size": 174364,
        "format": "JPEG",
        "added_at": "2025-07-17T00:04:37.362170",
        "hash": "c0b4e7312e1397805e9a42359f4b340c",
        "source": "migrated"
      }
    },
    {
      "id": "pastel_027",
      "category": "pastel",
      "title": "Pastel Wallpaper 027",
      "tags": [
        "pastel",
        "wallpaper",
        "hd",
        "mobile"
      ],
      "urls": {
        "raw": "https://media.githubusercontent.com/media/ddh4r4m/wallpaper-collection/main/collection/wallpapers/pastel/027.jpg",
        "thumb": "https://media.githubusercontent.com/media/ddh4r4m/wallpaper-collection/main/collection/thumbnails/pastel/027.jpg"
      },
      "metadata": {
        "dimensions": {
          "width": 1080,
          "height": 1920
        },
        "file_size": 485571,
        "format": "JPEG",
        "added_at": "2025-07-17T00:04:37.429974",
        "hash": "06d0055979f4eac00c17c06036eab4e8",
        "source": "migrated"
      }
    },
    {
      "id": "pastel_028",
      "category": "pastel",
      "title": "Pastel Wallpaper 028",
      "tags": [
        "pastel",
        "wallpaper",
        "hd",
        "mobile"
      ],
      "urls": {
        "raw": "https://media.githubusercontent.com/media/ddh4r4m/wallpaper-collection/main/collection/wallpapers/pastel/028.jpg",
        "thumb": "https://media.githubusercontent.com/media/ddh4r4m/wallpaper-collection/main/collection/thumbnails/pastel/028.jpg"
      },
      "metadata": {
        "dimensions": {
          "width": 1080,
          "height": 1920
        },
        "file_size": 351087,
        "format": "JPEG",
        "added_at": "2025-07-17T00:04:37.492908",
        "hash": "f67ca903aef73543ea6dfc8554b017ea",
        "source": "migrated"
      }
    },
    {
      "id": "pastel_029",
      "category": "pastel",
      "title": "Pastel Wallpaper 029",
      "tags": [
        "pastel",
        "wallpaper",
        "hd",
        "mobile"
      ],
      "urls": {
        "raw": "https://media.githubusercontent.com/media/ddh4r4m/wallpaper-collection/main/collection/wallpapers/pastel/029.jpg",
        "thumb": "https://media.githubusercontent.com/media/ddh4r4m/wallpaper-collection/main/collection/thumbnails/pastel/029.jpg"
      },
      "metadata": {
        "dimensions": {
          "width": 1080,
          "height": 1920
        },
        "file_size": 484002,
        "format": "JPEG",
        "added_at": "2025-07-17T00:04:37.561214",
        "hash": "b4d37a4d7c87b07a341e3db7dc12c5b8",
        "source": "migrated"
      }
    },
    {
      "id": "pastel_030",
      "category": "pastel",
      "title": "Pastel Wallpaper 030",
      "tags": [
        "pastel",
        "wallpaper",
        "hd",
        "mobile"
      ],
      "urls": {
        "raw": "https://media.githubusercontent.com/media/ddh4r4m/wallpaper-collection/main/collection/wallpapers/pastel/030.jpg",
        "thumb": "https://media.githubusercontent.com/media/ddh4r4m/wallpaper-collection/main/collection/thumbnails/pastel/030.jpg"
      },
      "metadata": {
        "dimensions": {
          "width": 1080,
          "height": 1920
        },
        "file_size": 346413,
        "format": "JPEG",
        "added_at": "2025-07-17T00:04:37.623660",
        "hash": "d2b02d06d11d95e8f0a495677185ccd2",
        "source": "migrated"
      }
    },
    {
      "id": "pastel_031",
      "category": "pastel",
      "title": "Pastel Wallpaper 031",
      "tags": [
        "pastel",
        "wallpaper",
        "hd",
        "mobile"
      ],
      "urls": {
        "raw": "https://media.githubusercontent.com/media/ddh4r4m/wallpaper-collection/main/collection/wallpapers/pastel/031.jpg",
        "thumb": "https://media.githubusercontent.com/media/ddh4r4m/wallpaper-collection/main/collection/thumbnails/pastel/031.jpg"
      },
      "metadata": {
        "dimensions": {
          "width": 1080,
          "height": 1920
        },
        "file_size": 302685,
        "format": "JPEG",
        "added_at": "2025-07-17T00:04:37.682802",
        "hash": "42305bdcae1e476fd65040d3d3c238b2",
        "source": "migrated"
      }
    },
    {
      "id": "pastel_032",
      "category": "pastel",
      "title": "Pastel Wallpaper 032",
      "tags": [
        "pastel",
        "wallpaper",
        "hd",
        "mobile"
      ],
      "urls": {
        "raw": "https://media.githubusercontent.com/media/ddh4r4m/wallpaper-collection/main/collection/wallpapers/pastel/032.jpg",
        "thumb": "https://media.githubusercontent.com/media/ddh4r4m/wallpaper-collection/main/collection/thumbnails/pastel/032.jpg"
      },
      "metadata": {
        "dimensions": {
          "width": 1080,
          "height": 1920
        },
        "file_size": 506646,
        "format": "JPEG",
        "added_at": "2025-07-17T00:04:37.752105",
        "hash": "b15997cace1ff72e160b489e08656245",
        "source": "migrated"
      }
    },
    {
      "id": "pastel_033",
      "category": "pastel",
      "title": "Pastel Wallpaper 033",
      "tags": [
        "pastel",
        "wallpaper",
        "hd",
        "mobile"
      ],
      "urls": {
        "raw": "https://media.githubusercontent.com/media/ddh4r4m/wallpaper-collection/main/collection/wallpapers/pastel/033.jpg",
        "thumb": "https://media.githubusercontent.com/media/ddh4r4m/wallpaper-collection/main/collection/thumbnails/pastel/033.jpg"
      },
      "metadata": {
        "dimensions": {
          "width": 1080,
          "height": 1920
        },
        "file_size": 147397,
        "format": "JPEG",
        "added_at": "2025-07-17T00:04:37.801258",
        "hash": "7d7e1c62a117f484bb81c851a4a062ef",
        "source": "migrated"
      }
    },
    {
      "id": "pastel_034",
      "category": "pastel",
      "title": "Pastel Wallpaper 034",
      "tags": [
        "pastel",
        "wallpaper",
        "hd",
        "mobile"
      ],
      "urls": {
        "raw": "https://media.githubusercontent.com/media/ddh4r4m/wallpaper-collection/main/collection/wallpapers/pastel/034.jpg",
        "thumb": "https://media.githubusercontent.com/media/ddh4r4m/wallpaper-collection/main/collection/thumbnails/pastel/034.jpg"
      },
      "metadata": {
        "dimensions": {
          "width": 1080,
          "height": 1920
        },
        "file_size": 241506,
        "format": "JPEG",
        "added_at": "2025-07-17T00:04:37.855540",
        "hash": "f75c31fc9516a73baba78051ad7497f5",
        "source": "migrated"
      }
    }
  ]
}