{
  "meta": {
    "version": "1.0",
    "generated_at": "2025-07-28T23:12:02.393375",
    "page": 144,
    "per_page": 15,
    "total_pages": 183,
    "total_count": 2743,
    "count_on_page": 15,
    "categories": 22,
    "has_next": true,
    "has_prev": true,
    "next_page_url": "/api/v1/all/pages/145.json",
    "prev_page_url": "/api/v1/all/pages/143.json"
  },
  "data": [
    {
      "id": "pastel_065",
      "category": "pastel",
      "title": "Pastel Wallpaper",
      "tags": [
        "pastel",
        "unsplash",
        "hd",
        "mobile"
      ],
      "metadata": {
        "dimensions": {
          "width": 1080,
          "height": 720
        },
        "file_size": 46210,
        "format": "JPEG",
        "added_at": "2025-07-18T00:36:37.660376",
        "hash": "0547659ea10b3b443ad1422122611b50",
        "photographer": "Unknown"
      },
      "urls": {
        "raw": "https://media.githubusercontent.com/media/ddh4r4m/wallpaper-collection/main/collection/wallpapers/pastel/065.jpg",
        "thumb": "https://media.githubusercontent.com/media/ddh4r4m/wallpaper-collection/main/collection/thumbnails/pastel/065.jpg"
      }
    },
    {
      "id": "pastel_066",
      "category": "pastel",
      "title": "Pastel Wallpaper",
      "tags": [
        "pastel",
        "unsplash",
        "hd",
        "mobile"
      ],
      "metadata": {
        "dimensions": {
          "width": 1080,
          "height": 1620
        },
        "file_size": 64669,
        "format": "JPEG",
        "added_at": "2025-07-18T00:36:40.043606",
        "hash": "5a09b000a7b853b147109c485661cb5f",
        "photographer": "Unknown"
      },
      "urls": {
        "raw": "https://media.githubusercontent.com/media/ddh4r4m/wallpaper-collection/main/collection/wallpapers/pastel/066.jpg",
        "thumb": "https://media.githubusercontent.com/media/ddh4r4m/wallpaper-collection/main/collection/thumbnails/pastel/066.jpg"
      }
    },
    {
      "id": "pastel_067",
      "category": "pastel",
      "title": "Pastel Wallpaper",
      "tags": [
        "pastel",
        "unsplash",
        "hd",
        "mobile"
      ],
      "metadata": {
        "dimensions": {
          "width": 1080,
          "height": 1620
        },
        "file_size": 139711,
        "format": "JPEG",
        "added_at": "2025-07-18T00:36:43.720128",
        "hash": "12b58afc5a1f7aedc9d7657edce26b6a",
        "photographer": "Unknown"
      },
      "urls": {
        "raw": "https://media.githubusercontent.com/media/ddh4r4m/wallpaper-collection/main/collection/wallpapers/pastel/067.jpg",
        "thumb": "https://media.githubusercontent.com/media/ddh4r4m/wallpaper-collection/main/collection/thumbnails/pastel/067.jpg"
      }
    },
    {
      "id": "pastel_068",
      "category": "pastel",
      "title": "Pastel Wallpaper",
      "tags": [
        "pastel",
        "unsplash",
        "hd",
        "mobile"
      ],
      "metadata": {
        "dimensions": {
          "width": 1080,
          "height": 1623
        },
        "file_size": 40274,
        "format": "JPEG",
        "added_at": "2025-07-18T00:36:46.077919",
        "hash": "9d93b0e60fff6037c3ab0e66e048dfab",
        "photographer": "Unknown"
      },
      "urls": {
        "raw": "https://media.githubusercontent.com/media/ddh4r4m/wallpaper-collection/main/collection/wallpapers/pastel/068.jpg",
        "thumb": "https://media.githubusercontent.com/media/ddh4r4m/wallpaper-collection/main/collection/thumbnails/pastel/068.jpg"
      }
    },
    {
      "id": "pastel_069",
      "category": "pastel",
      "title": "Pastel Wallpaper",
      "tags": [
        "pastel",
        "unsplash",
        "hd",
        "mobile"
      ],
      "metadata": {
        "dimensions": {
          "width": 1080,
          "height": 720
        },
        "file_size": 18730,
        "format": "JPEG",
        "added_at": "2025-07-18T00:36:48.604719",
        "hash": "d9d75f40db4e02adf16600ea1ec38962",
        "photographer": "Unknown"
      },
      "urls": {
        "raw": "https://media.githubusercontent.com/media/ddh4r4m/wallpaper-collection/main/collection/wallpapers/pastel/069.jpg",
        "thumb": "https://media.githubusercontent.com/media/ddh4r4m/wallpaper-collection/main/collection/thumbnails/pastel/069.jpg"
      }
    },
    {
      "id": "patterns_001",
      "category": "patterns",
      "title": "Patterns Wallpaper 001",
      "tags": [
        "patterns"
      ],
      "urls": {
        "raw": "https://media.githubusercontent.com/media/ddh4r4m/wallpaper-collection/main/collection/wallpapers/patterns/001.jpg",
        "thumb": "https://media.githubusercontent.com/media/ddh4r4m/wallpaper-collection/main/collection/thumbnails/patterns/001.jpg"
      },
      "metadata": {
        "added_at": "2025-07-28T22:29:38.993114",
        "file_size": 169909,
        "dimensions": {
          "width": 1080,
          "height": 1920
        }
      }
    },
    {
      "id": "patterns_002",
      "category": "patterns",
      "title": "Patterns Wallpaper 002",
      "tags": [
        "patterns"
      ],
      "urls": {
        "raw": "https://media.githubusercontent.com/media/ddh4r4m/wallpaper-collection/main/collection/wallpapers/patterns/002.jpg",
        "thumb": "https://media.githubusercontent.com/media/ddh4r4m/wallpaper-collection/main/collection/thumbnails/patterns/002.jpg"
      },
      "metadata": {
        "added_at": "2025-07-28T22:29:41.533101",
        "file_size": 684504,
        "dimensions": {
          "width": 1500,
          "height": 3000
        }
      }
    },
    {
      "id": "patterns_003",
      "category": "patterns",
      "title": "Patterns Wallpaper 003",
      "tags": [
        "patterns"
      ],
      "urls": {
        "raw": "https://media.githubusercontent.com/media/ddh4r4m/wallpaper-collection/main/collection/wallpapers/patterns/003.jpg",
        "thumb": "https://media.githubusercontent.com/media/ddh4r4m/wallpaper-collection/main/collection/thumbnails/patterns/003.jpg"
      },
      "metadata": {
        "added_at": "2025-07-28T22:29:43.940997",
        "file_size": 361251,
        "dimensions": {
          "width": 1080,
          "height": 1920
        }
      }
    },
    {
      "id": "patterns_004",
      "category": "patterns",
      "title": "Patterns Wallpaper 004",
      "tags": [
        "patterns"
      ],
      "urls": {
        "raw": "https://media.githubusercontent.com/media/ddh4r4m/wallpaper-collection/main/collection/wallpapers/patterns/004.jpg",
        "thumb": "https://media.githubusercontent.com/media/ddh4r4m/wallpaper-collection/main/collection/thumbnails/patterns/004.jpg"
      },
      "metadata": {
        "added_at": "2025-07-28T22:29:47.722177",
        "file_size": 218665,
        "dimensions": {
          "width": 1080,
          "height": 1920
        }
      }
    },
    {
      "id": "patterns_005",
      "category": "patterns",
      "title": "Patterns Wallpaper 005",
      "tags": [
        "patterns"
      ],
      "urls": {
        "raw": "https://media.githubusercontent.com/media/ddh4r4m/wallpaper-collection/main/collection/wallpapers/patterns/005.jpg",
        "thumb": "https://media.githubusercontent.com/media/ddh4r4m/wallpaper-collection/main/collection/thumbnails/patterns/005.jpg"
      },
      "metadata": {
        "added_at": "2025-07-28T22:29:49.715744",
        "file_size": 303690,
        "dimensions": {
          "width": 1080,
          "height": 2160
        }
      }
    },
    {
      "id": "patterns_006",
      "category": "patterns",
      "title": "Patterns Wallpaper 006",
      "tags": [
        "patterns"
      ],
      "urls": {
        "raw": "https://media.githubusercontent.com/media/ddh4r4m/wallpaper-collection/main/collection/wallpapers/patterns/006.jpg",
        "thumb": "https://media.githubusercontent.com/media/ddh4r4m/wallpaper-collection/main/collection/thumbnails/patterns/006.jpg"
      },
      "metadata": {
        "added_at": "2025-07-28T22:29:52.565216",
        "file_size": 251618,
        "dimensions": {
          "width": 1080,
          "height": 1920
        }
      }
    },
    {
      "id": "patterns_007",
      "category": "patterns",
      "title": "Patterns Wallpaper 007",
      "tags": [
        "patterns"
      ],
      "urls": {
        "raw": "https://media.githubusercontent.com/media/ddh4r4m/wallpaper-collection/main/collection/wallpapers/patterns/007.jpg",
        "thumb": "https://media.githubusercontent.com/media/ddh4r4m/wallpaper-collection/main/collection/thumbnails/patterns/007.jpg"
      },
      "metadata": {
        "added_at": "2025-07-28T22:29:54.991355",
        "file_size": 289076,
        "dimensions": {
          "width": 1080,
          "height": 1920
        }
      }
    },
    {
      "id": "patterns_008",
      "category": "patterns",
      "title": "Patterns Wallpaper 008",
      "tags": [
        "patterns"
      ],
      "urls": {
        "raw": "https://media.githubusercontent.com/media/ddh4r4m/wallpaper-collection/main/collection/wallpapers/patterns/008.jpg",
        "thumb": "https://media.githubusercontent.com/media/ddh4r4m/wallpaper-collection/main/collection/thumbnails/patterns/008.jpg"
      },
      "metadata": {
        "added_at": "2025-07-28T22:29:57.580823",
        "file_size": 118692,
        "dimensions": {
          "width": 1080,
          "height": 1920
        }
      }
    },
    {
      "id": "patterns_009",
      "category": "patterns",
      "title": "Patterns Wallpaper 009",
      "tags": [
        "patterns"
      ],
      "urls": {
        "raw": "https://media.githubusercontent.com/media/ddh4r4m/wallpaper-collection/main/collection/wallpapers/patterns/009.jpg",
        "thumb": "https://media.githubusercontent.com/media/ddh4r4m/wallpaper-collection/main/collection/thumbnails/patterns/009.jpg"
      },
      "metadata": {
        "added_at": "2025-07-28T22:30:04.515395",
        "file_size": 126002,
        "dimensions": {
          "width": 1080,
          "height": 1920
        }
      }
    },
    {
      "id": "patterns_010",
      "category": "patterns",
      "title": "Patterns Wallpaper 010",
      "tags": [
        "patterns"
      ],
      "urls": {
        "raw": "https://media.githubusercontent.com/media/ddh4r4m/wallpaper-collection/main/collection/wallpapers/patterns/010.jpg",
        "thumb": "https://media.githubusercontent.com/media/ddh4r4m/wallpaper-collection/main/collection/thumbnails/patterns/010.jpg"
      },
      "metadata": {
        "added_at": "2025-07-28T22:30:06.413771",
        "file_size": 62012,
        "dimensions": {
          "width": 1080,
          "height": 1920
        }
      }
    }
  ]
}