{
  "meta": {
    "version": "1.0",
    "generated_at": "2025-07-28T23:12:02.393375",
    "page": 145,
    "per_page": 15,
    "total_pages": 183,
    "total_count": 2743,
    "count_on_page": 15,
    "categories": 22,
    "has_next": true,
    "has_prev": true,
    "next_page_url": "/api/v1/all/pages/146.json",
    "prev_page_url": "/api/v1/all/pages/144.json"
  },
  "data": [
    {
      "id": "patterns_011",
      "category": "patterns",
      "title": "Patterns Wallpaper 011",
      "tags": [
        "patterns"
      ],
      "urls": {
        "raw": "https://media.githubusercontent.com/media/ddh4r4m/wallpaper-collection/main/collection/wallpapers/patterns/011.jpg",
        "thumb": "https://media.githubusercontent.com/media/ddh4r4m/wallpaper-collection/main/collection/thumbnails/patterns/011.jpg"
      },
      "metadata": {
        "added_at": "2025-07-28T22:30:08.906670",
        "file_size": 509766,
        "dimensions": {
          "width": 960,
          "height": 1878
        }
      }
    },
    {
      "id": "patterns_012",
      "category": "patterns",
      "title": "Patterns Wallpaper 012",
      "tags": [
        "patterns"
      ],
      "urls": {
        "raw": "https://media.githubusercontent.com/media/ddh4r4m/wallpaper-collection/main/collection/wallpapers/patterns/012.jpg",
        "thumb": "https://media.githubusercontent.com/media/ddh4r4m/wallpaper-collection/main/collection/thumbnails/patterns/012.jpg"
      },
      "metadata": {
        "added_at": "2025-07-28T22:30:15.236096",
        "file_size": 220901,
        "dimensions": {
          "width": 1024,
          "height": 2048
        }
      }
    },
    {
      "id": "patterns_013",
      "category": "patterns",
      "title": "Patterns Wallpaper 013",
      "tags": [
        "patterns"
      ],
      "urls": {
        "raw": "https://media.githubusercontent.com/media/ddh4r4m/wallpaper-collection/main/collection/wallpapers/patterns/013.jpg",
        "thumb": "https://media.githubusercontent.com/media/ddh4r4m/wallpaper-collection/main/collection/thumbnails/patterns/013.jpg"
      },
      "metadata": {
        "added_at": "2025-07-28T22:30:17.434956",
        "file_size": 474824,
        "dimensions": {
          "width": 841,
          "height": 1280
        }
      }
    },
    {
      "id": "patterns_014",
      "category": "patterns",
      "title": "Patterns Wallpaper 014",
      "tags": [
        "patterns"
      ],
      "urls": {
        "raw": "https://media.githubusercontent.com/media/ddh4r4m/wallpaper-collection/main/collection/wallpapers/patterns/014.jpg",
        "thumb": "https://media.githubusercontent.com/media/ddh4r4m/wallpaper-collection/main/collection/thumbnails/patterns/014.jpg"
      },
      "metadata": {
        "added_at": "2025-07-28T22:30:20.179548",
        "file_size": 204141,
        "dimensions": {
          "width": 1000,
          "height": 1500
        }
      }
    },
    {
      "id": "patterns_015",
      "category": "patterns",
      "title": "Patterns Wallpaper 015",
      "tags": [
        "patterns"
      ],
      "urls": {
        "raw": "https://media.githubusercontent.com/media/ddh4r4m/wallpaper-collection/main/collection/wallpapers/patterns/015.jpg",
        "thumb": "https://media.githubusercontent.com/media/ddh4r4m/wallpaper-collection/main/collection/thumbnails/patterns/015.jpg"
      },
      "metadata": {
        "added_at": "2025-07-28T22:30:21.772112",
        "file_size": 245643,
        "dimensions": {
          "width": 1080,
          "height": 1920
        }
      }
    },
    {
      "id": "patterns_016",
      "category": "patterns",
      "title": "Patterns Wallpaper 016",
      "tags": [
        "patterns"
      ],
      "urls": {
        "raw": "https://media.githubusercontent.com/media/ddh4r4m/wallpaper-collection/main/collection/wallpapers/patterns/016.jpg",
        "thumb": "https://media.githubusercontent.com/media/ddh4r4m/wallpaper-collection/main/collection/thumbnails/patterns/016.jpg"
      },
      "metadata": {
        "added_at": "2025-07-28T22:30:23.720224",
        "file_size": 292215,
        "dimensions": {
          "width": 900,
          "height": 1600
        }
      }
    },
    {
      "id": "patterns_017",
      "category": "patterns",
      "title": "Patterns Wallpaper 017",
      "tags": [
        "patterns"
      ],
      "urls": {
        "raw": "https://media.githubusercontent.com/media/ddh4r4m/wallpaper-collection/main/collection/wallpapers/patterns/017.jpg",
        "thumb": "https://media.githubusercontent.com/media/ddh4r4m/wallpaper-collection/main/collection/thumbnails/patterns/017.jpg"
      },
      "metadata": {
        "added_at": "2025-07-28T22:30:26.506931",
        "file_size": 391168,
        "dimensions": {
          "width": 1080,
          "height": 1920
        }
      }
    },
    {
      "id": "patterns_018",
      "category": "patterns",
      "title": "Patterns Wallpaper 018",
      "tags": [
        "patterns"
      ],
      "urls": {
        "raw": "https://media.githubusercontent.com/media/ddh4r4m/wallpaper-collection/main/collection/wallpapers/patterns/018.jpg",
        "thumb": "https://media.githubusercontent.com/media/ddh4r4m/wallpaper-collection/main/collection/thumbnails/patterns/018.jpg"
      },
      "metadata": {
        "added_at": "2025-07-28T22:30:29.470813",
        "file_size": 2807830,
        "dimensions": {
          "width": 3750,
          "height": 7500
        }
      }
    },
    {
      "id": "patterns_019",
      "category": "patterns",
      "title": "Patterns Wallpaper 019",
      "tags": [
        "patterns"
      ],
      "urls": {
        "raw": "https://media.githubusercontent.com/media/ddh4r4m/wallpaper-collection/main/collection/wallpapers/patterns/019.jpg",
        "thumb": "https://media.githubusercontent.com/media/ddh4r4m/wallpaper-collection/main/collection/thumbnails/patterns/019.jpg"
      },
      "metadata": {
        "added_at": "2025-07-28T22:30:32.283563",
        "file_size": 234238,
        "dimensions": {
          "width": 1000,
          "height": 1500
        }
      }
    },
    {
      "id": "patterns_020",
      "category": "patterns",
      "title": "Patterns Wallpaper 020",
      "tags": [
        "patterns"
      ],
      "urls": {
        "raw": "https://media.githubusercontent.com/media/ddh4r4m/wallpaper-collection/main/collection/wallpapers/patterns/020.jpg",
        "thumb": "https://media.githubusercontent.com/media/ddh4r4m/wallpaper-collection/main/collection/thumbnails/patterns/020.jpg"
      },
      "metadata": {
        "added_at": "2025-07-28T22:30:34.340857",
        "file_size": 113302,
        "dimensions": {
          "width": 1170,
          "height": 2340
        }
      }
    },
    {
      "id": "patterns_021",
      "category": "patterns",
      "title": "Patterns Wallpaper 021",
      "tags": [
        "patterns"
      ],
      "urls": {
        "raw": "https://media.githubusercontent.com/media/ddh4r4m/wallpaper-collection/main/collection/wallpapers/patterns/021.jpg",
        "thumb": "https://media.githubusercontent.com/media/ddh4r4m/wallpaper-collection/main/collection/thumbnails/patterns/021.jpg"
      },
      "metadata": {
        "added_at": "2025-07-28T22:34:44.670032",
        "file_size": 333594,
        "dimensions": {
          "width": 980,
          "height": 1742
        }
      }
    },
    {
      "id": "patterns_022",
      "category": "patterns",
      "title": "Patterns Wallpaper 022",
      "tags": [
        "patterns"
      ],
      "urls": {
        "raw": "https://media.githubusercontent.com/media/ddh4r4m/wallpaper-collection/main/collection/wallpapers/patterns/022.jpg",
        "thumb": "https://media.githubusercontent.com/media/ddh4r4m/wallpaper-collection/main/collection/thumbnails/patterns/022.jpg"
      },
      "metadata": {
        "added_at": "2025-07-28T22:34:46.324214",
        "file_size": 684504,
        "dimensions": {
          "width": 1500,
          "height": 3000
        }
      }
    },
    {
      "id": "patterns_023",
      "category": "patterns",
      "title": "Patterns Wallpaper 023",
      "tags": [
        "patterns"
      ],
      "urls": {
        "raw": "https://media.githubusercontent.com/media/ddh4r4m/wallpaper-collection/main/collection/wallpapers/patterns/023.jpg",
        "thumb": "https://media.githubusercontent.com/media/ddh4r4m/wallpaper-collection/main/collection/thumbnails/patterns/023.jpg"
      },
      "metadata": {
        "added_at": "2025-07-28T22:34:48.317593",
        "file_size": 200948,
        "dimensions": {
          "width": 850,
          "height": 1500
        }
      }
    },
    {
      "id": "patterns_024",
      "category": "patterns",
      "title": "Patterns Wallpaper 024",
      "tags": [
        "patterns"
      ],
      "urls": {
        "raw": "https://media.githubusercontent.com/media/ddh4r4m/wallpaper-collection/main/collection/wallpapers/patterns/024.jpg",
        "thumb": "https://media.githubusercontent.com/media/ddh4r4m/wallpaper-collection/main/collection/thumbnails/patterns/024.jpg"
      },
      "metadata": {
        "added_at": "2025-07-28T22:34:50.593219",
        "file_size": 929499,
        "dimensions": {
          "width": 2296,
          "height": 4096
        }
      }
    },
    {
      "id": "patterns_025",
      "category": "patterns",
      "title": "Patterns Wallpaper 025",
      "tags": [
        "patterns"
      ],
      "urls": {
        "raw": "https://media.githubusercontent.com/media/ddh4r4m/wallpaper-collection/main/collection/wallpapers/patterns/025.jpg",
        "thumb": "https://media.githubusercontent.com/media/ddh4r4m/wallpaper-collection/main/collection/thumbnails/patterns/025.jpg"
      },
      "metadata": {
        "added_at": "2025-07-28T22:34:53.115795",
        "file_size": 284369,
        "dimensions": {
          "width": 816,
          "height": 1456
        }
      }
    }
  ]
}