{
  "meta": {
    "version": "1.0",
    "generated_at": "2025-07-28T23:12:02.393375",
    "page": 146,
    "per_page": 15,
    "total_pages": 183,
    "total_count": 2743,
    "count_on_page": 15,
    "categories": 22,
    "has_next": true,
    "has_prev": true,
    "next_page_url": "/api/v1/all/pages/147.json",
    "prev_page_url": "/api/v1/all/pages/145.json"
  },
  "data": [
    {
      "id": "patterns_026",
      "category": "patterns",
      "title": "Patterns Wallpaper 026",
      "tags": [
        "patterns"
      ],
      "urls": {
        "raw": "https://media.githubusercontent.com/media/ddh4r4m/wallpaper-collection/main/collection/wallpapers/patterns/026.jpg",
        "thumb": "https://media.githubusercontent.com/media/ddh4r4m/wallpaper-collection/main/collection/thumbnails/patterns/026.jpg"
      },
      "metadata": {
        "added_at": "2025-07-28T22:34:55.086281",
        "file_size": 363932,
        "dimensions": {
          "width": 1200,
          "height": 2133
        }
      }
    },
    {
      "id": "patterns_027",
      "category": "patterns",
      "title": "Patterns Wallpaper 027",
      "tags": [
        "patterns"
      ],
      "urls": {
        "raw": "https://media.githubusercontent.com/media/ddh4r4m/wallpaper-collection/main/collection/wallpapers/patterns/027.jpg",
        "thumb": "https://media.githubusercontent.com/media/ddh4r4m/wallpaper-collection/main/collection/thumbnails/patterns/027.jpg"
      },
      "metadata": {
        "added_at": "2025-07-28T22:34:57.021838",
        "file_size": 226500,
        "dimensions": {
          "width": 1080,
          "height": 1919
        }
      }
    },
    {
      "id": "patterns_028",
      "category": "patterns",
      "title": "Patterns Wallpaper 028",
      "tags": [
        "patterns"
      ],
      "urls": {
        "raw": "https://media.githubusercontent.com/media/ddh4r4m/wallpaper-collection/main/collection/wallpapers/patterns/028.jpg",
        "thumb": "https://media.githubusercontent.com/media/ddh4r4m/wallpaper-collection/main/collection/thumbnails/patterns/028.jpg"
      },
      "metadata": {
        "added_at": "2025-07-28T22:34:59.579256",
        "file_size": 489339,
        "dimensions": {
          "width": 1080,
          "height": 1920
        }
      }
    },
    {
      "id": "patterns_029",
      "category": "patterns",
      "title": "Patterns Wallpaper 029",
      "tags": [
        "patterns"
      ],
      "urls": {
        "raw": "https://media.githubusercontent.com/media/ddh4r4m/wallpaper-collection/main/collection/wallpapers/patterns/029.jpg",
        "thumb": "https://media.githubusercontent.com/media/ddh4r4m/wallpaper-collection/main/collection/thumbnails/patterns/029.jpg"
      },
      "metadata": {
        "added_at": "2025-07-28T22:35:01.320259",
        "file_size": 431862,
        "dimensions": {
          "width": 2000,
          "height": 3000
        }
      }
    },
    {
      "id": "patterns_030",
      "category": "patterns",
      "title": "Patterns Wallpaper 030",
      "tags": [
        "patterns"
      ],
      "urls": {
        "raw": "https://media.githubusercontent.com/media/ddh4r4m/wallpaper-collection/main/collection/wallpapers/patterns/030.jpg",
        "thumb": "https://media.githubusercontent.com/media/ddh4r4m/wallpaper-collection/main/collection/thumbnails/patterns/030.jpg"
      },
      "metadata": {
        "added_at": "2025-07-28T22:35:04.212506",
        "file_size": 273360,
        "dimensions": {
          "width": 1024,
          "height": 2048
        }
      }
    },
    {
      "id": "patterns_031",
      "category": "patterns",
      "title": "Patterns Wallpaper 031",
      "tags": [
        "patterns"
      ],
      "urls": {
        "raw": "https://media.githubusercontent.com/media/ddh4r4m/wallpaper-collection/main/collection/wallpapers/patterns/031.jpg",
        "thumb": "https://media.githubusercontent.com/media/ddh4r4m/wallpaper-collection/main/collection/thumbnails/patterns/031.jpg"
      },
      "metadata": {
        "added_at": "2025-07-28T22:35:06.118025",
        "file_size": 295745,
        "dimensions": {
          "width": 1080,
          "height": 1920
        }
      }
    },
    {
      "id": "patterns_032",
      "category": "patterns",
      "title": "Patterns Wallpaper 032",
      "tags": [
        "patterns"
      ],
      "urls": {
        "raw": "https://media.githubusercontent.com/media/ddh4r4m/wallpaper-collection/main/collection/wallpapers/patterns/032.jpg",
        "thumb": "https://media.githubusercontent.com/media/ddh4r4m/wallpaper-collection/main/collection/thumbnails/patterns/032.jpg"
      },
      "metadata": {
        "added_at": "2025-07-28T22:35:08.318901",
        "file_size": 436643,
        "dimensions": {
          "width": 2304,
          "height": 4096
        }
      }
    },
    {
      "id": "patterns_033",
      "category": "patterns",
      "title": "Patterns Wallpaper 033",
      "tags": [
        "patterns"
      ],
      "urls": {
        "raw": "https://media.githubusercontent.com/media/ddh4r4m/wallpaper-collection/main/collection/wallpapers/patterns/033.jpg",
        "thumb": "https://media.githubusercontent.com/media/ddh4r4m/wallpaper-collection/main/collection/thumbnails/patterns/033.jpg"
      },
      "metadata": {
        "added_at": "2025-07-28T22:35:10.306642",
        "file_size": 103540,
        "dimensions": {
          "width": 1080,
          "height": 1427
        }
      }
    },
    {
      "id": "patterns_034",
      "category": "patterns",
      "title": "Patterns Wallpaper 034",
      "tags": [
        "patterns"
      ],
      "urls": {
        "raw": "https://media.githubusercontent.com/media/ddh4r4m/wallpaper-collection/main/collection/wallpapers/patterns/034.jpg",
        "thumb": "https://media.githubusercontent.com/media/ddh4r4m/wallpaper-collection/main/collection/thumbnails/patterns/034.jpg"
      },
      "metadata": {
        "added_at": "2025-07-28T22:35:12.744721",
        "file_size": 224157,
        "dimensions": {
          "width": 1080,
          "height": 1920
        }
      }
    },
    {
      "id": "patterns_035",
      "category": "patterns",
      "title": "Patterns Wallpaper 035",
      "tags": [
        "patterns"
      ],
      "urls": {
        "raw": "https://media.githubusercontent.com/media/ddh4r4m/wallpaper-collection/main/collection/wallpapers/patterns/035.jpg",
        "thumb": "https://media.githubusercontent.com/media/ddh4r4m/wallpaper-collection/main/collection/thumbnails/patterns/035.jpg"
      },
      "metadata": {
        "added_at": "2025-07-28T22:35:14.611044",
        "file_size": 234116,
        "dimensions": {
          "width": 1417,
          "height": 2523
        }
      }
    },
    {
      "id": "patterns_036",
      "category": "patterns",
      "title": "Patterns Wallpaper 036",
      "tags": [
        "patterns"
      ],
      "urls": {
        "raw": "https://media.githubusercontent.com/media/ddh4r4m/wallpaper-collection/main/collection/wallpapers/patterns/036.jpg",
        "thumb": "https://media.githubusercontent.com/media/ddh4r4m/wallpaper-collection/main/collection/thumbnails/patterns/036.jpg"
      },
      "metadata": {
        "added_at": "2025-07-28T22:35:16.632068",
        "file_size": 1145392,
        "dimensions": {
          "width": 4167,
          "height": 6251
        }
      }
    },
    {
      "id": "patterns_037",
      "category": "patterns",
      "title": "Patterns Wallpaper 037",
      "tags": [
        "patterns"
      ],
      "urls": {
        "raw": "https://media.githubusercontent.com/media/ddh4r4m/wallpaper-collection/main/collection/wallpapers/patterns/037.jpg",
        "thumb": "https://media.githubusercontent.com/media/ddh4r4m/wallpaper-collection/main/collection/thumbnails/patterns/037.jpg"
      },
      "metadata": {
        "added_at": "2025-07-28T22:35:18.798906",
        "file_size": 242754,
        "dimensions": {
          "width": 1024,
          "height": 2048
        }
      }
    },
    {
      "id": "patterns_038",
      "category": "patterns",
      "title": "Patterns Wallpaper 038",
      "tags": [
        "patterns"
      ],
      "urls": {
        "raw": "https://media.githubusercontent.com/media/ddh4r4m/wallpaper-collection/main/collection/wallpapers/patterns/038.jpg",
        "thumb": "https://media.githubusercontent.com/media/ddh4r4m/wallpaper-collection/main/collection/thumbnails/patterns/038.jpg"
      },
      "metadata": {
        "added_at": "2025-07-28T22:35:20.858701",
        "file_size": 264091,
        "dimensions": {
          "width": 1080,
          "height": 1920
        }
      }
    },
    {
      "id": "patterns_039",
      "category": "patterns",
      "title": "Patterns Wallpaper 039",
      "tags": [
        "patterns"
      ],
      "urls": {
        "raw": "https://media.githubusercontent.com/media/ddh4r4m/wallpaper-collection/main/collection/wallpapers/patterns/039.jpg",
        "thumb": "https://media.githubusercontent.com/media/ddh4r4m/wallpaper-collection/main/collection/thumbnails/patterns/039.jpg"
      },
      "metadata": {
        "added_at": "2025-07-28T22:35:23.593780",
        "file_size": 987796,
        "dimensions": {
          "width": 1632,
          "height": 2912
        }
      }
    },
    {
      "id": "patterns_040",
      "category": "patterns",
      "title": "Patterns Wallpaper 040",
      "tags": [
        "patterns"
      ],
      "urls": {
        "raw": "https://media.githubusercontent.com/media/ddh4r4m/wallpaper-collection/main/collection/wallpapers/patterns/040.jpg",
        "thumb": "https://media.githubusercontent.com/media/ddh4r4m/wallpaper-collection/main/collection/thumbnails/patterns/040.jpg"
      },
      "metadata": {
        "added_at": "2025-07-28T22:36:29.940482",
        "file_size": 306916,
        "dimensions": {
          "width": 816,
          "height": 1451
        }
      }
    }
  ]
}