{
  "meta": {
    "version": "1.0",
    "generated_at": "2025-07-28T23:12:02.393375",
    "page": 147,
    "per_page": 15,
    "total_pages": 183,
    "total_count": 2743,
    "count_on_page": 15,
    "categories": 22,
    "has_next": true,
    "has_prev": true,
    "next_page_url": "/api/v1/all/pages/148.json",
    "prev_page_url": "/api/v1/all/pages/146.json"
  },
  "data": [
    {
      "id": "patterns_041",
      "category": "patterns",
      "title": "Patterns Wallpaper 041",
      "tags": [
        "patterns"
      ],
      "urls": {
        "raw": "https://media.githubusercontent.com/media/ddh4r4m/wallpaper-collection/main/collection/wallpapers/patterns/041.jpg",
        "thumb": "https://media.githubusercontent.com/media/ddh4r4m/wallpaper-collection/main/collection/thumbnails/patterns/041.jpg"
      },
      "metadata": {
        "added_at": "2025-07-28T22:36:32.471822",
        "file_size": 254033,
        "dimensions": {
          "width": 885,
          "height": 1350
        }
      }
    },
    {
      "id": "patterns_042",
      "category": "patterns",
      "title": "Patterns Wallpaper 042",
      "tags": [
        "patterns"
      ],
      "urls": {
        "raw": "https://media.githubusercontent.com/media/ddh4r4m/wallpaper-collection/main/collection/wallpapers/patterns/042.jpg",
        "thumb": "https://media.githubusercontent.com/media/ddh4r4m/wallpaper-collection/main/collection/thumbnails/patterns/042.jpg"
      },
      "metadata": {
        "added_at": "2025-07-28T22:36:34.585740",
        "file_size": 366904,
        "dimensions": {
          "width": 1080,
          "height": 1920
        }
      }
    },
    {
      "id": "patterns_043",
      "category": "patterns",
      "title": "Patterns Wallpaper 043",
      "tags": [
        "patterns"
      ],
      "urls": {
        "raw": "https://media.githubusercontent.com/media/ddh4r4m/wallpaper-collection/main/collection/wallpapers/patterns/043.jpg",
        "thumb": "https://media.githubusercontent.com/media/ddh4r4m/wallpaper-collection/main/collection/thumbnails/patterns/043.jpg"
      },
      "metadata": {
        "added_at": "2025-07-28T22:36:36.289174",
        "file_size": 410019,
        "dimensions": {
          "width": 2411,
          "height": 4381
        }
      }
    },
    {
      "id": "patterns_044",
      "category": "patterns",
      "title": "Patterns Wallpaper 044",
      "tags": [
        "patterns"
      ],
      "urls": {
        "raw": "https://media.githubusercontent.com/media/ddh4r4m/wallpaper-collection/main/collection/wallpapers/patterns/044.jpg",
        "thumb": "https://media.githubusercontent.com/media/ddh4r4m/wallpaper-collection/main/collection/thumbnails/patterns/044.jpg"
      },
      "metadata": {
        "added_at": "2025-07-28T22:36:38.537859",
        "file_size": 149926,
        "dimensions": {
          "width": 800,
          "height": 1200
        }
      }
    },
    {
      "id": "patterns_045",
      "category": "patterns",
      "title": "Patterns Wallpaper 045",
      "tags": [
        "patterns"
      ],
      "urls": {
        "raw": "https://media.githubusercontent.com/media/ddh4r4m/wallpaper-collection/main/collection/wallpapers/patterns/045.jpg",
        "thumb": "https://media.githubusercontent.com/media/ddh4r4m/wallpaper-collection/main/collection/thumbnails/patterns/045.jpg"
      },
      "metadata": {
        "added_at": "2025-07-28T22:36:40.112122",
        "file_size": 496215,
        "dimensions": {
          "width": 994,
          "height": 1767
        }
      }
    },
    {
      "id": "patterns_046",
      "category": "patterns",
      "title": "Patterns Wallpaper 046",
      "tags": [
        "patterns"
      ],
      "urls": {
        "raw": "https://media.githubusercontent.com/media/ddh4r4m/wallpaper-collection/main/collection/wallpapers/patterns/046.jpg",
        "thumb": "https://media.githubusercontent.com/media/ddh4r4m/wallpaper-collection/main/collection/thumbnails/patterns/046.jpg"
      },
      "metadata": {
        "added_at": "2025-07-28T22:36:41.723780",
        "file_size": 561411,
        "dimensions": {
          "width": 1080,
          "height": 1920
        }
      }
    },
    {
      "id": "patterns_047",
      "category": "patterns",
      "title": "Patterns Wallpaper 047",
      "tags": [
        "patterns"
      ],
      "urls": {
        "raw": "https://media.githubusercontent.com/media/ddh4r4m/wallpaper-collection/main/collection/wallpapers/patterns/047.jpg",
        "thumb": "https://media.githubusercontent.com/media/ddh4r4m/wallpaper-collection/main/collection/thumbnails/patterns/047.jpg"
      },
      "metadata": {
        "added_at": "2025-07-28T22:36:43.361249",
        "file_size": 895422,
        "dimensions": {
          "width": 2048,
          "height": 4096
        }
      }
    },
    {
      "id": "patterns_048",
      "category": "patterns",
      "title": "Patterns Wallpaper 048",
      "tags": [
        "patterns"
      ],
      "urls": {
        "raw": "https://media.githubusercontent.com/media/ddh4r4m/wallpaper-collection/main/collection/wallpapers/patterns/048.jpg",
        "thumb": "https://media.githubusercontent.com/media/ddh4r4m/wallpaper-collection/main/collection/thumbnails/patterns/048.jpg"
      },
      "metadata": {
        "added_at": "2025-07-28T22:36:45.030929",
        "file_size": 1350845,
        "dimensions": {
          "width": 2296,
          "height": 4096
        }
      }
    },
    {
      "id": "patterns_049",
      "category": "patterns",
      "title": "Patterns Wallpaper 049",
      "tags": [
        "patterns"
      ],
      "urls": {
        "raw": "https://media.githubusercontent.com/media/ddh4r4m/wallpaper-collection/main/collection/wallpapers/patterns/049.jpg",
        "thumb": "https://media.githubusercontent.com/media/ddh4r4m/wallpaper-collection/main/collection/thumbnails/patterns/049.jpg"
      },
      "metadata": {
        "added_at": "2025-07-28T22:36:47.019938",
        "file_size": 258010,
        "dimensions": {
          "width": 816,
          "height": 1451
        }
      }
    },
    {
      "id": "patterns_050",
      "category": "patterns",
      "title": "Patterns Wallpaper 050",
      "tags": [
        "patterns"
      ],
      "urls": {
        "raw": "https://media.githubusercontent.com/media/ddh4r4m/wallpaper-collection/main/collection/wallpapers/patterns/050.jpg",
        "thumb": "https://media.githubusercontent.com/media/ddh4r4m/wallpaper-collection/main/collection/thumbnails/patterns/050.jpg"
      },
      "metadata": {
        "added_at": "2025-07-28T22:36:48.599300",
        "file_size": 294329,
        "dimensions": {
          "width": 816,
          "height": 1455
        }
      }
    },
    {
      "id": "patterns_051",
      "category": "patterns",
      "title": "Patterns Wallpaper 051",
      "tags": [
        "patterns"
      ],
      "urls": {
        "raw": "https://media.githubusercontent.com/media/ddh4r4m/wallpaper-collection/main/collection/wallpapers/patterns/051.jpg",
        "thumb": "https://media.githubusercontent.com/media/ddh4r4m/wallpaper-collection/main/collection/thumbnails/patterns/051.jpg"
      },
      "metadata": {
        "added_at": "2025-07-28T22:36:50.881756",
        "file_size": 509766,
        "dimensions": {
          "width": 960,
          "height": 1878
        }
      }
    },
    {
      "id": "patterns_052",
      "category": "patterns",
      "title": "Patterns Wallpaper 052",
      "tags": [
        "patterns"
      ],
      "urls": {
        "raw": "https://media.githubusercontent.com/media/ddh4r4m/wallpaper-collection/main/collection/wallpapers/patterns/052.jpg",
        "thumb": "https://media.githubusercontent.com/media/ddh4r4m/wallpaper-collection/main/collection/thumbnails/patterns/052.jpg"
      },
      "metadata": {
        "added_at": "2025-07-28T22:36:52.472935",
        "file_size": 328428,
        "dimensions": {
          "width": 1079,
          "height": 2025
        }
      }
    },
    {
      "id": "patterns_053",
      "category": "patterns",
      "title": "Patterns Wallpaper 053",
      "tags": [
        "patterns"
      ],
      "urls": {
        "raw": "https://media.githubusercontent.com/media/ddh4r4m/wallpaper-collection/main/collection/wallpapers/patterns/053.jpg",
        "thumb": "https://media.githubusercontent.com/media/ddh4r4m/wallpaper-collection/main/collection/thumbnails/patterns/053.jpg"
      },
      "metadata": {
        "added_at": "2025-07-28T22:36:54.059991",
        "file_size": 726028,
        "dimensions": {
          "width": 1620,
          "height": 2880
        }
      }
    },
    {
      "id": "patterns_054",
      "category": "patterns",
      "title": "Patterns Wallpaper 054",
      "tags": [
        "patterns"
      ],
      "urls": {
        "raw": "https://media.githubusercontent.com/media/ddh4r4m/wallpaper-collection/main/collection/wallpapers/patterns/054.jpg",
        "thumb": "https://media.githubusercontent.com/media/ddh4r4m/wallpaper-collection/main/collection/thumbnails/patterns/054.jpg"
      },
      "metadata": {
        "added_at": "2025-07-28T22:36:56.189194",
        "file_size": 384728,
        "dimensions": {
          "width": 1080,
          "height": 1920
        }
      }
    },
    {
      "id": "patterns_055",
      "category": "patterns",
      "title": "Patterns Wallpaper 055",
      "tags": [
        "patterns"
      ],
      "urls": {
        "raw": "https://media.githubusercontent.com/media/ddh4r4m/wallpaper-collection/main/collection/wallpapers/patterns/055.jpg",
        "thumb": "https://media.githubusercontent.com/media/ddh4r4m/wallpaper-collection/main/collection/thumbnails/patterns/055.jpg"
      },
      "metadata": {
        "added_at": "2025-07-28T22:36:59.602285",
        "file_size": 425760,
        "dimensions": {
          "width": 1080,
          "height": 1920
        }
      }
    }
  ]
}