{
  "meta": {
    "version": "1.0",
    "generated_at": "2025-07-28T23:12:02.393375",
    "page": 148,
    "per_page": 15,
    "total_pages": 183,
    "total_count": 2743,
    "count_on_page": 15,
    "categories": 22,
    "has_next": true,
    "has_prev": true,
    "next_page_url": "/api/v1/all/pages/149.json",
    "prev_page_url": "/api/v1/all/pages/147.json"
  },
  "data": [
    {
      "id": "patterns_056",
      "category": "patterns",
      "title": "Patterns Wallpaper 056",
      "tags": [
        "patterns"
      ],
      "urls": {
        "raw": "https://media.githubusercontent.com/media/ddh4r4m/wallpaper-collection/main/collection/wallpapers/patterns/056.jpg",
        "thumb": "https://media.githubusercontent.com/media/ddh4r4m/wallpaper-collection/main/collection/thumbnails/patterns/056.jpg"
      },
      "metadata": {
        "added_at": "2025-07-28T22:37:01.627204",
        "file_size": 342875,
        "dimensions": {
          "width": 1200,
          "height": 2133
        }
      }
    },
    {
      "id": "patterns_057",
      "category": "patterns",
      "title": "Patterns Wallpaper 057",
      "tags": [
        "patterns"
      ],
      "urls": {
        "raw": "https://media.githubusercontent.com/media/ddh4r4m/wallpaper-collection/main/collection/wallpapers/patterns/057.jpg",
        "thumb": "https://media.githubusercontent.com/media/ddh4r4m/wallpaper-collection/main/collection/thumbnails/patterns/057.jpg"
      },
      "metadata": {
        "added_at": "2025-07-28T22:37:03.984991",
        "file_size": 410142,
        "dimensions": {
          "width": 1080,
          "height": 1920
        }
      }
    },
    {
      "id": "patterns_058",
      "category": "patterns",
      "title": "Patterns Wallpaper 058",
      "tags": [
        "patterns"
      ],
      "urls": {
        "raw": "https://media.githubusercontent.com/media/ddh4r4m/wallpaper-collection/main/collection/wallpapers/patterns/058.jpg",
        "thumb": "https://media.githubusercontent.com/media/ddh4r4m/wallpaper-collection/main/collection/thumbnails/patterns/058.jpg"
      },
      "metadata": {
        "added_at": "2025-07-28T22:37:06.293052",
        "file_size": 448595,
        "dimensions": {
          "width": 1080,
          "height": 1364
        }
      }
    },
    {
      "id": "patterns_059",
      "category": "patterns",
      "title": "Patterns Wallpaper 059",
      "tags": [
        "patterns"
      ],
      "urls": {
        "raw": "https://media.githubusercontent.com/media/ddh4r4m/wallpaper-collection/main/collection/wallpapers/patterns/059.jpg",
        "thumb": "https://media.githubusercontent.com/media/ddh4r4m/wallpaper-collection/main/collection/thumbnails/patterns/059.jpg"
      },
      "metadata": {
        "added_at": "2025-07-28T22:37:07.884458",
        "file_size": 248357,
        "dimensions": {
          "width": 873,
          "height": 1583
        }
      }
    },
    {
      "id": "patterns_060",
      "category": "patterns",
      "title": "Patterns Wallpaper 060",
      "tags": [
        "patterns"
      ],
      "urls": {
        "raw": "https://media.githubusercontent.com/media/ddh4r4m/wallpaper-collection/main/collection/wallpapers/patterns/060.jpg",
        "thumb": "https://media.githubusercontent.com/media/ddh4r4m/wallpaper-collection/main/collection/thumbnails/patterns/060.jpg"
      },
      "metadata": {
        "added_at": "2025-07-28T22:37:09.731524",
        "file_size": 129620,
        "dimensions": {
          "width": 816,
          "height": 1440
        }
      }
    },
    {
      "id": "patterns_061",
      "category": "patterns",
      "title": "Patterns Wallpaper 061",
      "tags": [
        "patterns"
      ],
      "urls": {
        "raw": "https://media.githubusercontent.com/media/ddh4r4m/wallpaper-collection/main/collection/wallpapers/patterns/061.jpg",
        "thumb": "https://media.githubusercontent.com/media/ddh4r4m/wallpaper-collection/main/collection/thumbnails/patterns/061.jpg"
      },
      "metadata": {
        "added_at": "2025-07-28T22:37:12.286176",
        "file_size": 252082,
        "dimensions": {
          "width": 960,
          "height": 1280
        }
      }
    },
    {
      "id": "patterns_062",
      "category": "patterns",
      "title": "Patterns Wallpaper 062",
      "tags": [
        "patterns"
      ],
      "urls": {
        "raw": "https://media.githubusercontent.com/media/ddh4r4m/wallpaper-collection/main/collection/wallpapers/patterns/062.jpg",
        "thumb": "https://media.githubusercontent.com/media/ddh4r4m/wallpaper-collection/main/collection/thumbnails/patterns/062.jpg"
      },
      "metadata": {
        "added_at": "2025-07-28T22:37:14.252881",
        "file_size": 327881,
        "dimensions": {
          "width": 816,
          "height": 1451
        }
      }
    },
    {
      "id": "patterns_063",
      "category": "patterns",
      "title": "Patterns Wallpaper 063",
      "tags": [
        "patterns"
      ],
      "urls": {
        "raw": "https://media.githubusercontent.com/media/ddh4r4m/wallpaper-collection/main/collection/wallpapers/patterns/063.jpg",
        "thumb": "https://media.githubusercontent.com/media/ddh4r4m/wallpaper-collection/main/collection/thumbnails/patterns/063.jpg"
      },
      "metadata": {
        "added_at": "2025-07-28T22:37:16.562459",
        "file_size": 222088,
        "dimensions": {
          "width": 1080,
          "height": 1920
        }
      }
    },
    {
      "id": "patterns_064",
      "category": "patterns",
      "title": "Patterns Wallpaper 064",
      "tags": [
        "patterns"
      ],
      "urls": {
        "raw": "https://media.githubusercontent.com/media/ddh4r4m/wallpaper-collection/main/collection/wallpapers/patterns/064.jpg",
        "thumb": "https://media.githubusercontent.com/media/ddh4r4m/wallpaper-collection/main/collection/thumbnails/patterns/064.jpg"
      },
      "metadata": {
        "added_at": "2025-07-28T22:37:18.177345",
        "file_size": 455388,
        "dimensions": {
          "width": 1080,
          "height": 1883
        }
      }
    },
    {
      "id": "patterns_065",
      "category": "patterns",
      "title": "Patterns Wallpaper 065",
      "tags": [
        "patterns"
      ],
      "urls": {
        "raw": "https://media.githubusercontent.com/media/ddh4r4m/wallpaper-collection/main/collection/wallpapers/patterns/065.jpg",
        "thumb": "https://media.githubusercontent.com/media/ddh4r4m/wallpaper-collection/main/collection/thumbnails/patterns/065.jpg"
      },
      "metadata": {
        "added_at": "2025-07-28T22:37:20.138197",
        "file_size": 236615,
        "dimensions": {
          "width": 1080,
          "height": 1920
        }
      }
    },
    {
      "id": "patterns_066",
      "category": "patterns",
      "title": "Patterns Wallpaper 066",
      "tags": [
        "patterns"
      ],
      "urls": {
        "raw": "https://media.githubusercontent.com/media/ddh4r4m/wallpaper-collection/main/collection/wallpapers/patterns/066.jpg",
        "thumb": "https://media.githubusercontent.com/media/ddh4r4m/wallpaper-collection/main/collection/thumbnails/patterns/066.jpg"
      },
      "metadata": {
        "added_at": "2025-07-28T22:37:22.502427",
        "file_size": 383346,
        "dimensions": {
          "width": 1080,
          "height": 1920
        }
      }
    },
    {
      "id": "patterns_067",
      "category": "patterns",
      "title": "Patterns Wallpaper 067",
      "tags": [
        "patterns"
      ],
      "urls": {
        "raw": "https://media.githubusercontent.com/media/ddh4r4m/wallpaper-collection/main/collection/wallpapers/patterns/067.jpg",
        "thumb": "https://media.githubusercontent.com/media/ddh4r4m/wallpaper-collection/main/collection/thumbnails/patterns/067.jpg"
      },
      "metadata": {
        "added_at": "2025-07-28T22:37:24.579689",
        "file_size": 356048,
        "dimensions": {
          "width": 1080,
          "height": 1920
        }
      }
    },
    {
      "id": "patterns_068",
      "category": "patterns",
      "title": "Patterns Wallpaper 068",
      "tags": [
        "patterns"
      ],
      "urls": {
        "raw": "https://media.githubusercontent.com/media/ddh4r4m/wallpaper-collection/main/collection/wallpapers/patterns/068.jpg",
        "thumb": "https://media.githubusercontent.com/media/ddh4r4m/wallpaper-collection/main/collection/thumbnails/patterns/068.jpg"
      },
      "metadata": {
        "added_at": "2025-07-28T22:37:31.817944",
        "file_size": 375352,
        "dimensions": {
          "width": 1080,
          "height": 1920
        }
      }
    },
    {
      "id": "patterns_069",
      "category": "patterns",
      "title": "Patterns Wallpaper 069",
      "tags": [
        "patterns"
      ],
      "urls": {
        "raw": "https://media.githubusercontent.com/media/ddh4r4m/wallpaper-collection/main/collection/wallpapers/patterns/069.jpg",
        "thumb": "https://media.githubusercontent.com/media/ddh4r4m/wallpaper-collection/main/collection/thumbnails/patterns/069.jpg"
      },
      "metadata": {
        "added_at": "2025-07-28T22:37:34.960097",
        "file_size": 945771,
        "dimensions": {
          "width": 1536,
          "height": 3072
        }
      }
    },
    {
      "id": "patterns_070",
      "category": "patterns",
      "title": "Patterns Wallpaper 070",
      "tags": [
        "patterns"
      ],
      "urls": {
        "raw": "https://media.githubusercontent.com/media/ddh4r4m/wallpaper-collection/main/collection/wallpapers/patterns/070.jpg",
        "thumb": "https://media.githubusercontent.com/media/ddh4r4m/wallpaper-collection/main/collection/thumbnails/patterns/070.jpg"
      },
      "metadata": {
        "added_at": "2025-07-28T22:37:37.323127",
        "file_size": 320801,
        "dimensions": {
          "width": 896,
          "height": 1344
        }
      }
    }
  ]
}