{
  "meta": {
    "version": "1.0",
    "generated_at": "2025-07-28T22:48:38.208699",
    "page": 149,
    "per_page": 15,
    "total_pages": 183,
    "total_count": 2737,
    "count_on_page": 15,
    "categories": 22,
    "has_next": true,
    "has_prev": true,
    "next_page_url": "/api/v1/all/pages/150.json",
    "prev_page_url": "/api/v1/all/pages/148.json"
  },
  "data": [
    {
      "id": "patterns_077",
      "category": "patterns",
      "title": "Patterns Wallpaper 077",
      "tags": [
        "patterns"
      ],
      "urls": {
        "raw": "https://media.githubusercontent.com/media/ddh4r4m/wallpaper-collection/main/collection/wallpapers/patterns/077.jpg",
        "thumb": "https://media.githubusercontent.com/media/ddh4r4m/wallpaper-collection/main/collection/thumbnails/patterns/077.jpg"
      },
      "metadata": {
        "added_at": "2025-07-28T22:37:53.657747",
        "file_size": 304659,
        "dimensions": {
          "width": 1080,
          "height": 1920
        }
      }
    },
    {
      "id": "patterns_078",
      "category": "patterns",
      "title": "Patterns Wallpaper 078",
      "tags": [
        "patterns"
      ],
      "urls": {
        "raw": "https://media.githubusercontent.com/media/ddh4r4m/wallpaper-collection/main/collection/wallpapers/patterns/078.jpg",
        "thumb": "https://media.githubusercontent.com/media/ddh4r4m/wallpaper-collection/main/collection/thumbnails/patterns/078.jpg"
      },
      "metadata": {
        "added_at": "2025-07-28T22:37:55.241896",
        "file_size": 288315,
        "dimensions": {
          "width": 1080,
          "height": 1920
        }
      }
    },
    {
      "id": "patterns_079",
      "category": "patterns",
      "title": "Patterns Wallpaper 079",
      "tags": [
        "patterns"
      ],
      "urls": {
        "raw": "https://media.githubusercontent.com/media/ddh4r4m/wallpaper-collection/main/collection/wallpapers/patterns/079.jpg",
        "thumb": "https://media.githubusercontent.com/media/ddh4r4m/wallpaper-collection/main/collection/thumbnails/patterns/079.jpg"
      },
      "metadata": {
        "added_at": "2025-07-28T22:37:57.161233",
        "file_size": 568269,
        "dimensions": {
          "width": 1080,
          "height": 2160
        }
      }
    },
    {
      "id": "patterns_080",
      "category": "patterns",
      "title": "Patterns Wallpaper 080",
      "tags": [
        "patterns"
      ],
      "urls": {
        "raw": "https://media.githubusercontent.com/media/ddh4r4m/wallpaper-collection/main/collection/wallpapers/patterns/080.jpg",
        "thumb": "https://media.githubusercontent.com/media/ddh4r4m/wallpaper-collection/main/collection/thumbnails/patterns/080.jpg"
      },
      "metadata": {
        "added_at": "2025-07-28T22:37:59.184459",
        "file_size": 393973,
        "dimensions": {
          "width": 1080,
          "height": 1920
        }
      }
    },
    {
      "id": "patterns_081",
      "category": "patterns",
      "title": "Patterns Wallpaper 081",
      "tags": [
        "patterns"
      ],
      "urls": {
        "raw": "https://media.githubusercontent.com/media/ddh4r4m/wallpaper-collection/main/collection/wallpapers/patterns/081.jpg",
        "thumb": "https://media.githubusercontent.com/media/ddh4r4m/wallpaper-collection/main/collection/thumbnails/patterns/081.jpg"
      },
      "metadata": {
        "added_at": "2025-07-28T22:38:01.016300",
        "file_size": 284282,
        "dimensions": {
          "width": 1080,
          "height": 1920
        }
      }
    },
    {
      "id": "seasonal_001",
      "category": "seasonal",
      "title": "Seasonal Wallpaper 001",
      "tags": [
        "seasonal",
        "wallpaper",
        "hd",
        "mobile"
      ],
      "urls": {
        "raw": "https://media.githubusercontent.com/media/ddh4r4m/wallpaper-collection/main/collection/wallpapers/seasonal/001.jpg",
        "thumb": "https://media.githubusercontent.com/media/ddh4r4m/wallpaper-collection/main/collection/thumbnails/seasonal/001.jpg"
      },
      "metadata": {
        "dimensions": {
          "width": 1080,
          "height": 1920
        },
        "file_size": 390400,
        "format": "JPEG",
        "added_at": "2025-07-17T00:04:38.760586",
        "hash": "2cdf4e81f0509c07c245fee8a4b434d4",
        "source": "migrated"
      }
    },
    {
      "id": "seasonal_002",
      "category": "seasonal",
      "title": "Seasonal Wallpaper 002",
      "tags": [
        "seasonal",
        "wallpaper",
        "hd",
        "mobile"
      ],
      "urls": {
        "raw": "https://media.githubusercontent.com/media/ddh4r4m/wallpaper-collection/main/collection/wallpapers/seasonal/002.jpg",
        "thumb": "https://media.githubusercontent.com/media/ddh4r4m/wallpaper-collection/main/collection/thumbnails/seasonal/002.jpg"
      },
      "metadata": {
        "dimensions": {
          "width": 1080,
          "height": 1920
        },
        "file_size": 362535,
        "format": "JPEG",
        "added_at": "2025-07-17T00:04:38.823224",
        "hash": "067799eec80847f41d5158c708070e1e",
        "source": "migrated"
      }
    },
    {
      "id": "seasonal_003",
      "category": "seasonal",
      "title": "Seasonal Wallpaper 003",
      "tags": [
        "seasonal",
        "wallpaper",
        "hd",
        "mobile"
      ],
      "urls": {
        "raw": "https://media.githubusercontent.com/media/ddh4r4m/wallpaper-collection/main/collection/wallpapers/seasonal/003.jpg",
        "thumb": "https://media.githubusercontent.com/media/ddh4r4m/wallpaper-collection/main/collection/thumbnails/seasonal/003.jpg"
      },
      "metadata": {
        "dimensions": {
          "width": 1080,
          "height": 1920
        },
        "file_size": 240703,
        "format": "JPEG",
        "added_at": "2025-07-17T00:04:38.884237",
        "hash": "780250f272ad3d1498caf737c53926d0",
        "source": "migrated"
      }
    },
    {
      "id": "seasonal_004",
      "category": "seasonal",
      "title": "Seasonal Wallpaper 004",
      "tags": [
        "seasonal",
        "wallpaper",
        "hd",
        "mobile"
      ],
      "urls": {
        "raw": "https://media.githubusercontent.com/media/ddh4r4m/wallpaper-collection/main/collection/wallpapers/seasonal/004.jpg",
        "thumb": "https://media.githubusercontent.com/media/ddh4r4m/wallpaper-collection/main/collection/thumbnails/seasonal/004.jpg"
      },
      "metadata": {
        "dimensions": {
          "width": 1080,
          "height": 1920
        },
        "file_size": 236227,
        "format": "JPEG",
        "added_at": "2025-07-17T00:04:38.939845",
        "hash": "dc4724c0e5810d918aa2ffbef166452e",
        "source": "migrated"
      }
    },
    {
      "id": "seasonal_005",
      "category": "seasonal",
      "title": "Seasonal Wallpaper 005",
      "tags": [
        "seasonal",
        "wallpaper",
        "hd",
        "mobile"
      ],
      "urls": {
        "raw": "https://media.githubusercontent.com/media/ddh4r4m/wallpaper-collection/main/collection/wallpapers/seasonal/005.jpg",
        "thumb": "https://media.githubusercontent.com/media/ddh4r4m/wallpaper-collection/main/collection/thumbnails/seasonal/005.jpg"
      },
      "metadata": {
        "dimensions": {
          "width": 1080,
          "height": 1920
        },
        "file_size": 498776,
        "format": "JPEG",
        "added_at": "2025-07-17T00:04:39.011830",
        "hash": "59b3c9d1acc6490f47d40a40176b7eda",
        "source": "migrated"
      }
    },
    {
      "id": "seasonal_006",
      "category": "seasonal",
      "title": "Seasonal Wallpaper 006",
      "tags": [
        "seasonal",
        "wallpaper",
        "hd",
        "mobile"
      ],
      "urls": {
        "raw": "https://media.githubusercontent.com/media/ddh4r4m/wallpaper-collection/main/collection/wallpapers/seasonal/006.jpg",
        "thumb": "https://media.githubusercontent.com/media/ddh4r4m/wallpaper-collection/main/collection/thumbnails/seasonal/006.jpg"
      },
      "metadata": {
        "dimensions": {
          "width": 1080,
          "height": 1920
        },
        "file_size": 427221,
        "format": "JPEG",
        "added_at": "2025-07-17T00:04:39.078223",
        "hash": "64f374d90ba72aa03577490df3979c8e",
        "source": "migrated"
      }
    },
    {
      "id": "seasonal_007",
      "category": "seasonal",
      "title": "Seasonal Wallpaper 007",
      "tags": [
        "seasonal",
        "wallpaper",
        "hd",
        "mobile"
      ],
      "urls": {
        "raw": "https://media.githubusercontent.com/media/ddh4r4m/wallpaper-collection/main/collection/wallpapers/seasonal/007.jpg",
        "thumb": "https://media.githubusercontent.com/media/ddh4r4m/wallpaper-collection/main/collection/thumbnails/seasonal/007.jpg"
      },
      "metadata": {
        "dimensions": {
          "width": 1080,
          "height": 1920
        },
        "file_size": 191440,
        "format": "JPEG",
        "added_at": "2025-07-17T00:04:39.133257",
        "hash": "9f6a44087fe22c2998080d8ffa290c79",
        "source": "migrated"
      }
    },
    {
      "id": "seasonal_008",
      "category": "seasonal",
      "title": "Seasonal Wallpaper 008",
      "tags": [
        "seasonal",
        "wallpaper",
        "hd",
        "mobile"
      ],
      "urls": {
        "raw": "https://media.githubusercontent.com/media/ddh4r4m/wallpaper-collection/main/collection/wallpapers/seasonal/008.jpg",
        "thumb": "https://media.githubusercontent.com/media/ddh4r4m/wallpaper-collection/main/collection/thumbnails/seasonal/008.jpg"
      },
      "metadata": {
        "dimensions": {
          "width": 1080,
          "height": 1920
        },
        "file_size": 397823,
        "format": "JPEG",
        "added_at": "2025-07-17T00:04:39.196565",
        "hash": "06e714df93495bd89b5e9b99ddacea07",
        "source": "migrated"
      }
    },
    {
      "id": "seasonal_009",
      "category": "seasonal",
      "title": "Seasonal Wallpaper 009",
      "tags": [
        "seasonal",
        "wallpaper",
        "hd",
        "mobile"
      ],
      "urls": {
        "raw": "https://media.githubusercontent.com/media/ddh4r4m/wallpaper-collection/main/collection/wallpapers/seasonal/009.jpg",
        "thumb": "https://media.githubusercontent.com/media/ddh4r4m/wallpaper-collection/main/collection/thumbnails/seasonal/009.jpg"
      },
      "metadata": {
        "dimensions": {
          "width": 1080,
          "height": 1920
        },
        "file_size": 284894,
        "format": "JPEG",
        "added_at": "2025-07-17T00:04:39.253009",
        "hash": "78f6781d06380604c3ba600a5b249279",
        "source": "migrated"
      }
    },
    {
      "id": "seasonal_010",
      "category": "seasonal",
      "title": "Seasonal Wallpaper 010",
      "tags": [
        "seasonal",
        "wallpaper",
        "hd",
        "mobile"
      ],
      "urls": {
        "raw": "https://media.githubusercontent.com/media/ddh4r4m/wallpaper-collection/main/collection/wallpapers/seasonal/010.jpg",
        "thumb": "https://media.githubusercontent.com/media/ddh4r4m/wallpaper-collection/main/collection/thumbnails/seasonal/010.jpg"
      },
      "metadata": {
        "dimensions": {
          "width": 1080,
          "height": 1920
        },
        "file_size": 318623,
        "format": "JPEG",
        "added_at": "2025-07-17T00:04:39.312739",
        "hash": "a5e1eaa5aaccdb17a00328571d2c3984",
        "source": "migrated"
      }
    }
  ]
}