{
  "meta": {
    "version": "1.0",
    "generated_at": "2025-07-19T12:26:57.111378",
    "page": 15,
    "per_page": 15,
    "total_pages": 160,
    "total_count": 2387,
    "count_on_page": 15,
    "categories": 19,
    "has_next": true,
    "has_prev": true,
    "next_page_url": "/api/v1/all/pages/16.json",
    "prev_page_url": "/api/v1/all/pages/14.json"
  },
  "data": [
    {
      "id": "abstract_011",
      "category": "abstract",
      "title": "Abstract Wallpaper 011",
      "tags": [
        "abstract",
        "wallpaper",
        "hd",
        "mobile"
      ],
      "urls": {
        "raw": "https://media.githubusercontent.com/media/ddh4r4m/wallpaper-collection/main/collection/wallpapers/abstract/011.jpg",
        "thumb": "https://media.githubusercontent.com/media/ddh4r4m/wallpaper-collection/main/collection/thumbnails/abstract/011.jpg"
      },
      "metadata": {
        "dimensions": {
          "width": 1080,
          "height": 1920
        },
        "file_size": 344235,
        "format": "JPEG",
        "added_at": "2025-07-17T00:02:12.980278",
        "hash": "5010048f54049fffcf82d8d43596b221",
        "source": "migrated"
      }
    },
    {
      "id": "abstract_012",
      "category": "abstract",
      "title": "Abstract Wallpaper 012",
      "tags": [
        "abstract",
        "wallpaper",
        "hd",
        "mobile"
      ],
      "urls": {
        "raw": "https://media.githubusercontent.com/media/ddh4r4m/wallpaper-collection/main/collection/wallpapers/abstract/012.jpg",
        "thumb": "https://media.githubusercontent.com/media/ddh4r4m/wallpaper-collection/main/collection/thumbnails/abstract/012.jpg"
      },
      "metadata": {
        "dimensions": {
          "width": 1080,
          "height": 1920
        },
        "file_size": 473772,
        "format": "JPEG",
        "added_at": "2025-07-17T00:02:13.050990",
        "hash": "d21dee3e2d8de348241787b1a64d5ed2",
        "source": "migrated"
      }
    },
    {
      "id": "abstract_013",
      "category": "abstract",
      "title": "Abstract Wallpaper 013",
      "tags": [
        "abstract",
        "wallpaper",
        "hd",
        "mobile"
      ],
      "urls": {
        "raw": "https://media.githubusercontent.com/media/ddh4r4m/wallpaper-collection/main/collection/wallpapers/abstract/013.jpg",
        "thumb": "https://media.githubusercontent.com/media/ddh4r4m/wallpaper-collection/main/collection/thumbnails/abstract/013.jpg"
      },
      "metadata": {
        "dimensions": {
          "width": 1080,
          "height": 1920
        },
        "file_size": 450330,
        "format": "JPEG",
        "added_at": "2025-07-17T00:02:13.118407",
        "hash": "29d5bf1cf2f6b2d6496669e8ee9cfb6a",
        "source": "migrated"
      }
    },
    {
      "id": "abstract_014",
      "category": "abstract",
      "title": "Abstract Wallpaper 014",
      "tags": [
        "abstract",
        "wallpaper",
        "hd",
        "mobile"
      ],
      "urls": {
        "raw": "https://media.githubusercontent.com/media/ddh4r4m/wallpaper-collection/main/collection/wallpapers/abstract/014.jpg",
        "thumb": "https://media.githubusercontent.com/media/ddh4r4m/wallpaper-collection/main/collection/thumbnails/abstract/014.jpg"
      },
      "metadata": {
        "dimensions": {
          "width": 1080,
          "height": 1920
        },
        "file_size": 551464,
        "format": "JPEG",
        "added_at": "2025-07-17T00:02:13.191023",
        "hash": "5644d5e3c0f3c337242797aa68517e00",
        "source": "migrated"
      }
    },
    {
      "id": "abstract_015",
      "category": "abstract",
      "title": "Abstract Wallpaper 015",
      "tags": [
        "abstract",
        "wallpaper",
        "hd",
        "mobile"
      ],
      "urls": {
        "raw": "https://media.githubusercontent.com/media/ddh4r4m/wallpaper-collection/main/collection/wallpapers/abstract/015.jpg",
        "thumb": "https://media.githubusercontent.com/media/ddh4r4m/wallpaper-collection/main/collection/thumbnails/abstract/015.jpg"
      },
      "metadata": {
        "dimensions": {
          "width": 1080,
          "height": 1920
        },
        "file_size": 513104,
        "format": "JPEG",
        "added_at": "2025-07-17T00:02:13.269158",
        "hash": "676100d2c8bd6a50720b6680160343a3",
        "source": "migrated"
      }
    },
    {
      "id": "abstract_016",
      "category": "abstract",
      "title": "Abstract Wallpaper 016",
      "tags": [
        "abstract",
        "wallpaper",
        "hd",
        "mobile"
      ],
      "urls": {
        "raw": "https://media.githubusercontent.com/media/ddh4r4m/wallpaper-collection/main/collection/wallpapers/abstract/016.jpg",
        "thumb": "https://media.githubusercontent.com/media/ddh4r4m/wallpaper-collection/main/collection/thumbnails/abstract/016.jpg"
      },
      "metadata": {
        "dimensions": {
          "width": 1080,
          "height": 1920
        },
        "file_size": 407503,
        "format": "JPEG",
        "added_at": "2025-07-17T00:02:13.338415",
        "hash": "600d4f560c5f75c2457c751cc46b77c8",
        "source": "migrated"
      }
    },
    {
      "id": "abstract_017",
      "category": "abstract",
      "title": "Abstract Wallpaper 017",
      "tags": [
        "abstract",
        "wallpaper",
        "hd",
        "mobile"
      ],
      "urls": {
        "raw": "https://media.githubusercontent.com/media/ddh4r4m/wallpaper-collection/main/collection/wallpapers/abstract/017.jpg",
        "thumb": "https://media.githubusercontent.com/media/ddh4r4m/wallpaper-collection/main/collection/thumbnails/abstract/017.jpg"
      },
      "metadata": {
        "dimensions": {
          "width": 1080,
          "height": 1920
        },
        "file_size": 338467,
        "format": "JPEG",
        "added_at": "2025-07-17T00:02:13.401470",
        "hash": "1684cef780ab959eebcdd4be7bfbae29",
        "source": "migrated"
      }
    },
    {
      "id": "abstract_018",
      "category": "abstract",
      "title": "Abstract Wallpaper 018",
      "tags": [
        "abstract",
        "wallpaper",
        "hd",
        "mobile"
      ],
      "urls": {
        "raw": "https://media.githubusercontent.com/media/ddh4r4m/wallpaper-collection/main/collection/wallpapers/abstract/018.jpg",
        "thumb": "https://media.githubusercontent.com/media/ddh4r4m/wallpaper-collection/main/collection/thumbnails/abstract/018.jpg"
      },
      "metadata": {
        "dimensions": {
          "width": 1080,
          "height": 1920
        },
        "file_size": 566535,
        "format": "JPEG",
        "added_at": "2025-07-17T00:02:13.476881",
        "hash": "610a307c3896023a8e95383680ac3981",
        "source": "migrated"
      }
    },
    {
      "id": "abstract_019",
      "category": "abstract",
      "title": "Abstract Wallpaper 019",
      "tags": [
        "abstract",
        "wallpaper",
        "hd",
        "mobile"
      ],
      "urls": {
        "raw": "https://media.githubusercontent.com/media/ddh4r4m/wallpaper-collection/main/collection/wallpapers/abstract/019.jpg",
        "thumb": "https://media.githubusercontent.com/media/ddh4r4m/wallpaper-collection/main/collection/thumbnails/abstract/019.jpg"
      },
      "metadata": {
        "dimensions": {
          "width": 1080,
          "height": 1920
        },
        "file_size": 423975,
        "format": "JPEG",
        "added_at": "2025-07-17T00:02:13.542094",
        "hash": "e2c1916c5d38967601ea3b64d703999e",
        "source": "migrated"
      }
    },
    {
      "id": "abstract_020",
      "category": "abstract",
      "title": "Abstract Wallpaper 020",
      "tags": [
        "abstract",
        "wallpaper",
        "hd",
        "mobile"
      ],
      "urls": {
        "raw": "https://media.githubusercontent.com/media/ddh4r4m/wallpaper-collection/main/collection/wallpapers/abstract/020.jpg",
        "thumb": "https://media.githubusercontent.com/media/ddh4r4m/wallpaper-collection/main/collection/thumbnails/abstract/020.jpg"
      },
      "metadata": {
        "dimensions": {
          "width": 1080,
          "height": 1920
        },
        "file_size": 395868,
        "format": "JPEG",
        "added_at": "2025-07-17T00:02:13.605043",
        "hash": "6f26dbd72a338fa7aa0b7e1b6f42e4cc",
        "source": "migrated"
      }
    },
    {
      "id": "abstract_021",
      "category": "abstract",
      "title": "Abstract Wallpaper 021",
      "tags": [
        "abstract",
        "wallpaper",
        "hd",
        "mobile"
      ],
      "urls": {
        "raw": "https://media.githubusercontent.com/media/ddh4r4m/wallpaper-collection/main/collection/wallpapers/abstract/021.jpg",
        "thumb": "https://media.githubusercontent.com/media/ddh4r4m/wallpaper-collection/main/collection/thumbnails/abstract/021.jpg"
      },
      "metadata": {
        "dimensions": {
          "width": 1080,
          "height": 1920
        },
        "file_size": 666515,
        "format": "JPEG",
        "added_at": "2025-07-17T00:02:13.680867",
        "hash": "78836362e09e8108c93ce4e653ac5051",
        "source": "migrated"
      }
    },
    {
      "id": "abstract_022",
      "category": "abstract",
      "title": "Abstract Wallpaper 022",
      "tags": [
        "abstract",
        "wallpaper",
        "hd",
        "mobile"
      ],
      "urls": {
        "raw": "https://media.githubusercontent.com/media/ddh4r4m/wallpaper-collection/main/collection/wallpapers/abstract/022.jpg",
        "thumb": "https://media.githubusercontent.com/media/ddh4r4m/wallpaper-collection/main/collection/thumbnails/abstract/022.jpg"
      },
      "metadata": {
        "dimensions": {
          "width": 1080,
          "height": 1920
        },
        "file_size": 390983,
        "format": "JPEG",
        "added_at": "2025-07-17T00:02:13.746411",
        "hash": "4f34dae0da0c21eaf262170de55da2e6",
        "source": "migrated"
      }
    },
    {
      "id": "abstract_023",
      "category": "abstract",
      "title": "Abstract Wallpaper 023",
      "tags": [
        "abstract",
        "wallpaper",
        "hd",
        "mobile"
      ],
      "urls": {
        "raw": "https://media.githubusercontent.com/media/ddh4r4m/wallpaper-collection/main/collection/wallpapers/abstract/023.jpg",
        "thumb": "https://media.githubusercontent.com/media/ddh4r4m/wallpaper-collection/main/collection/thumbnails/abstract/023.jpg"
      },
      "metadata": {
        "dimensions": {
          "width": 1080,
          "height": 1920
        },
        "file_size": 552907,
        "format": "JPEG",
        "added_at": "2025-07-17T00:02:13.817681",
        "hash": "47977f5a78f7ff53e5c12afdb1b9e7ef",
        "source": "migrated"
      }
    },
    {
      "id": "abstract_024",
      "category": "abstract",
      "title": "Abstract Wallpaper 024",
      "tags": [
        "abstract",
        "wallpaper",
        "hd",
        "mobile"
      ],
      "urls": {
        "raw": "https://media.githubusercontent.com/media/ddh4r4m/wallpaper-collection/main/collection/wallpapers/abstract/024.jpg",
        "thumb": "https://media.githubusercontent.com/media/ddh4r4m/wallpaper-collection/main/collection/thumbnails/abstract/024.jpg"
      },
      "metadata": {
        "dimensions": {
          "width": 1080,
          "height": 1920
        },
        "file_size": 524613,
        "format": "JPEG",
        "added_at": "2025-07-17T00:02:13.888752",
        "hash": "92708b7e78ce56f8cd6db579a26f9a20",
        "source": "migrated"
      }
    },
    {
      "id": "abstract_025",
      "category": "abstract",
      "title": "Abstract Wallpaper 025",
      "tags": [
        "abstract",
        "wallpaper",
        "hd",
        "mobile"
      ],
      "urls": {
        "raw": "https://media.githubusercontent.com/media/ddh4r4m/wallpaper-collection/main/collection/wallpapers/abstract/025.jpg",
        "thumb": "https://media.githubusercontent.com/media/ddh4r4m/wallpaper-collection/main/collection/thumbnails/abstract/025.jpg"
      },
      "metadata": {
        "dimensions": {
          "width": 1080,
          "height": 1920
        },
        "file_size": 685128,
        "format": "JPEG",
        "added_at": "2025-07-17T00:02:13.968409",
        "hash": "6d727461a473ba37fcbe897e129422cc",
        "source": "migrated"
      }
    }
  ]
}