{
  "meta": {
    "version": "1.0",
    "generated_at": "2025-07-28T21:27:34.814586",
    "page": 150,
    "per_page": 15,
    "total_pages": 177,
    "total_count": 2647,
    "count_on_page": 15,
    "categories": 21,
    "has_next": true,
    "has_prev": true,
    "next_page_url": "/api/v1/all/pages/151.json",
    "prev_page_url": "/api/v1/all/pages/149.json"
  },
  "data": [
    {
      "id": "space_008",
      "category": "space",
      "title": "Space Wallpaper 008",
      "tags": [
        "space",
        "wallpaper",
        "hd",
        "mobile"
      ],
      "urls": {
        "raw": "https://media.githubusercontent.com/media/ddh4r4m/wallpaper-collection/main/collection/wallpapers/space/008.jpg",
        "thumb": "https://media.githubusercontent.com/media/ddh4r4m/wallpaper-collection/main/collection/thumbnails/space/008.jpg"
      },
      "metadata": {
        "dimensions": {
          "width": 1080,
          "height": 1920
        },
        "file_size": 373081,
        "format": "JPEG",
        "added_at": "2025-07-17T00:04:44.409368",
        "hash": "4f2b6cf779552fbbd620fc44cd519184",
        "source": "migrated"
      }
    },
    {
      "id": "space_009",
      "category": "space",
      "title": "Space Wallpaper 009",
      "tags": [
        "space",
        "wallpaper",
        "hd",
        "mobile"
      ],
      "urls": {
        "raw": "https://media.githubusercontent.com/media/ddh4r4m/wallpaper-collection/main/collection/wallpapers/space/009.jpg",
        "thumb": "https://media.githubusercontent.com/media/ddh4r4m/wallpaper-collection/main/collection/thumbnails/space/009.jpg"
      },
      "metadata": {
        "dimensions": {
          "width": 1080,
          "height": 1920
        },
        "file_size": 163915,
        "format": "JPEG",
        "added_at": "2025-07-17T00:04:44.458347",
        "hash": "4ce189c30381d63ff65e01b0b48bd624",
        "source": "migrated"
      }
    },
    {
      "id": "space_010",
      "category": "space",
      "title": "Space Wallpaper 010",
      "tags": [
        "space",
        "wallpaper",
        "hd",
        "mobile"
      ],
      "urls": {
        "raw": "https://media.githubusercontent.com/media/ddh4r4m/wallpaper-collection/main/collection/wallpapers/space/010.jpg",
        "thumb": "https://media.githubusercontent.com/media/ddh4r4m/wallpaper-collection/main/collection/thumbnails/space/010.jpg"
      },
      "metadata": {
        "dimensions": {
          "width": 1080,
          "height": 1920
        },
        "file_size": 75994,
        "format": "JPEG",
        "added_at": "2025-07-17T00:04:44.502288",
        "hash": "24227f7865022d6145155eab92dfb1ba",
        "source": "migrated"
      }
    },
    {
      "id": "space_011",
      "category": "space",
      "title": "Space Wallpaper 011",
      "tags": [
        "space",
        "wallpaper",
        "hd",
        "mobile"
      ],
      "urls": {
        "raw": "https://media.githubusercontent.com/media/ddh4r4m/wallpaper-collection/main/collection/wallpapers/space/011.jpg",
        "thumb": "https://media.githubusercontent.com/media/ddh4r4m/wallpaper-collection/main/collection/thumbnails/space/011.jpg"
      },
      "metadata": {
        "dimensions": {
          "width": 1080,
          "height": 1920
        },
        "file_size": 112755,
        "format": "JPEG",
        "added_at": "2025-07-17T00:04:44.548792",
        "hash": "d4a1b4fecc6b909e1a95046c7c38aeae",
        "source": "migrated"
      }
    },
    {
      "id": "space_012",
      "category": "space",
      "title": "Space Wallpaper 012",
      "tags": [
        "space",
        "wallpaper",
        "hd",
        "mobile"
      ],
      "urls": {
        "raw": "https://media.githubusercontent.com/media/ddh4r4m/wallpaper-collection/main/collection/wallpapers/space/012.jpg",
        "thumb": "https://media.githubusercontent.com/media/ddh4r4m/wallpaper-collection/main/collection/thumbnails/space/012.jpg"
      },
      "metadata": {
        "dimensions": {
          "width": 1080,
          "height": 1920
        },
        "file_size": 410957,
        "format": "JPEG",
        "added_at": "2025-07-17T00:04:44.612620",
        "hash": "29033f3fb931a7dc87d1fbf4e065b22e",
        "source": "migrated"
      }
    },
    {
      "id": "space_013",
      "category": "space",
      "title": "Space Wallpaper 013",
      "tags": [
        "space",
        "wallpaper",
        "hd",
        "mobile"
      ],
      "urls": {
        "raw": "https://media.githubusercontent.com/media/ddh4r4m/wallpaper-collection/main/collection/wallpapers/space/013.jpg",
        "thumb": "https://media.githubusercontent.com/media/ddh4r4m/wallpaper-collection/main/collection/thumbnails/space/013.jpg"
      },
      "metadata": {
        "dimensions": {
          "width": 1080,
          "height": 1920
        },
        "file_size": 648968,
        "format": "JPEG",
        "added_at": "2025-07-17T00:04:44.689053",
        "hash": "5b90190299f8a8f246a9ec4f62375b07",
        "source": "migrated"
      }
    },
    {
      "id": "space_014",
      "category": "space",
      "title": "Space Wallpaper 014",
      "tags": [
        "space",
        "wallpaper",
        "hd",
        "mobile"
      ],
      "urls": {
        "raw": "https://media.githubusercontent.com/media/ddh4r4m/wallpaper-collection/main/collection/wallpapers/space/014.jpg",
        "thumb": "https://media.githubusercontent.com/media/ddh4r4m/wallpaper-collection/main/collection/thumbnails/space/014.jpg"
      },
      "metadata": {
        "dimensions": {
          "width": 1080,
          "height": 1920
        },
        "file_size": 284086,
        "format": "JPEG",
        "added_at": "2025-07-17T00:04:44.744491",
        "hash": "d208ec1cb93a7d432c82e34a404362f4",
        "source": "migrated"
      }
    },
    {
      "id": "space_015",
      "category": "space",
      "title": "Space Wallpaper 015",
      "tags": [
        "space",
        "wallpaper",
        "hd",
        "mobile"
      ],
      "urls": {
        "raw": "https://media.githubusercontent.com/media/ddh4r4m/wallpaper-collection/main/collection/wallpapers/space/015.jpg",
        "thumb": "https://media.githubusercontent.com/media/ddh4r4m/wallpaper-collection/main/collection/thumbnails/space/015.jpg"
      },
      "metadata": {
        "dimensions": {
          "width": 1080,
          "height": 1920
        },
        "file_size": 497728,
        "format": "JPEG",
        "added_at": "2025-07-17T00:04:44.811165",
        "hash": "bc76d3f8a28e510fde33ec59ee37498f",
        "source": "migrated"
      }
    },
    {
      "id": "space_016",
      "category": "space",
      "title": "Space Wallpaper 016",
      "tags": [
        "space",
        "wallpaper",
        "hd",
        "mobile"
      ],
      "urls": {
        "raw": "https://media.githubusercontent.com/media/ddh4r4m/wallpaper-collection/main/collection/wallpapers/space/016.jpg",
        "thumb": "https://media.githubusercontent.com/media/ddh4r4m/wallpaper-collection/main/collection/thumbnails/space/016.jpg"
      },
      "metadata": {
        "dimensions": {
          "width": 1080,
          "height": 1920
        },
        "file_size": 909050,
        "format": "JPEG",
        "added_at": "2025-07-17T00:04:44.900537",
        "hash": "ef0abd5593b16deb9ea512554ed06062",
        "source": "migrated"
      }
    },
    {
      "id": "space_017",
      "category": "space",
      "title": "Space Wallpaper 017",
      "tags": [
        "space",
        "wallpaper",
        "hd",
        "mobile"
      ],
      "urls": {
        "raw": "https://media.githubusercontent.com/media/ddh4r4m/wallpaper-collection/main/collection/wallpapers/space/017.jpg",
        "thumb": "https://media.githubusercontent.com/media/ddh4r4m/wallpaper-collection/main/collection/thumbnails/space/017.jpg"
      },
      "metadata": {
        "dimensions": {
          "width": 1080,
          "height": 1920
        },
        "file_size": 80118,
        "format": "JPEG",
        "added_at": "2025-07-17T00:04:44.944892",
        "hash": "6558a0c3b894e65e240a629b4bba74aa",
        "source": "migrated"
      }
    },
    {
      "id": "space_018",
      "category": "space",
      "title": "Space Wallpaper 018",
      "tags": [
        "space",
        "wallpaper",
        "hd",
        "mobile"
      ],
      "urls": {
        "raw": "https://media.githubusercontent.com/media/ddh4r4m/wallpaper-collection/main/collection/wallpapers/space/018.jpg",
        "thumb": "https://media.githubusercontent.com/media/ddh4r4m/wallpaper-collection/main/collection/thumbnails/space/018.jpg"
      },
      "metadata": {
        "dimensions": {
          "width": 1080,
          "height": 1920
        },
        "file_size": 319377,
        "format": "JPEG",
        "added_at": "2025-07-17T00:04:45.005324",
        "hash": "b8db031f836fe326adf0448c429833f6",
        "source": "migrated"
      }
    },
    {
      "id": "space_019",
      "category": "space",
      "title": "Space Wallpaper 019",
      "tags": [
        "space",
        "wallpaper",
        "hd",
        "mobile"
      ],
      "urls": {
        "raw": "https://media.githubusercontent.com/media/ddh4r4m/wallpaper-collection/main/collection/wallpapers/space/019.jpg",
        "thumb": "https://media.githubusercontent.com/media/ddh4r4m/wallpaper-collection/main/collection/thumbnails/space/019.jpg"
      },
      "metadata": {
        "dimensions": {
          "width": 1080,
          "height": 1920
        },
        "file_size": 680860,
        "format": "JPEG",
        "added_at": "2025-07-17T00:04:45.084151",
        "hash": "b8a6352e7ab1cc2328731532e614903c",
        "source": "migrated"
      }
    },
    {
      "id": "space_020",
      "category": "space",
      "title": "Space Wallpaper 020",
      "tags": [
        "space",
        "wallpaper",
        "hd",
        "mobile"
      ],
      "urls": {
        "raw": "https://media.githubusercontent.com/media/ddh4r4m/wallpaper-collection/main/collection/wallpapers/space/020.jpg",
        "thumb": "https://media.githubusercontent.com/media/ddh4r4m/wallpaper-collection/main/collection/thumbnails/space/020.jpg"
      },
      "metadata": {
        "dimensions": {
          "width": 1080,
          "height": 1920
        },
        "file_size": 721383,
        "format": "JPEG",
        "added_at": "2025-07-17T00:04:45.166459",
        "hash": "ffb36a3c6b7404522b11f7a4f25829f7",
        "source": "migrated"
      }
    },
    {
      "id": "space_021",
      "category": "space",
      "title": "Space Wallpaper 021",
      "tags": [
        "space",
        "wallpaper",
        "hd",
        "mobile"
      ],
      "urls": {
        "raw": "https://media.githubusercontent.com/media/ddh4r4m/wallpaper-collection/main/collection/wallpapers/space/021.jpg",
        "thumb": "https://media.githubusercontent.com/media/ddh4r4m/wallpaper-collection/main/collection/thumbnails/space/021.jpg"
      },
      "metadata": {
        "dimensions": {
          "width": 1080,
          "height": 1920
        },
        "file_size": 721383,
        "format": "JPEG",
        "added_at": "2025-07-17T00:04:45.243805",
        "hash": "ffb36a3c6b7404522b11f7a4f25829f7",
        "source": "migrated"
      }
    },
    {
      "id": "space_022",
      "category": "space",
      "title": "Space Wallpaper 022",
      "tags": [
        "space",
        "wallpaper",
        "hd",
        "mobile"
      ],
      "urls": {
        "raw": "https://media.githubusercontent.com/media/ddh4r4m/wallpaper-collection/main/collection/wallpapers/space/022.jpg",
        "thumb": "https://media.githubusercontent.com/media/ddh4r4m/wallpaper-collection/main/collection/thumbnails/space/022.jpg"
      },
      "metadata": {
        "dimensions": {
          "width": 1080,
          "height": 1920
        },
        "file_size": 378588,
        "format": "JPEG",
        "added_at": "2025-07-17T00:04:45.304875",
        "hash": "01f89c5d11811b69da21894529a30b15",
        "source": "migrated"
      }
    }
  ]
}