{
  "meta": {
    "version": "1.0",
    "generated_at": "2025-07-28T22:48:38.208699",
    "page": 151,
    "per_page": 15,
    "total_pages": 183,
    "total_count": 2737,
    "count_on_page": 15,
    "categories": 22,
    "has_next": true,
    "has_prev": true,
    "next_page_url": "/api/v1/all/pages/152.json",
    "prev_page_url": "/api/v1/all/pages/150.json"
  },
  "data": [
    {
      "id": "seasonal_026",
      "category": "seasonal",
      "title": "Seasonal Wallpaper 026",
      "tags": [
        "seasonal",
        "wallpaper",
        "hd",
        "mobile"
      ],
      "urls": {
        "raw": "https://media.githubusercontent.com/media/ddh4r4m/wallpaper-collection/main/collection/wallpapers/seasonal/026.jpg",
        "thumb": "https://media.githubusercontent.com/media/ddh4r4m/wallpaper-collection/main/collection/thumbnails/seasonal/026.jpg"
      },
      "metadata": {
        "dimensions": {
          "width": 1080,
          "height": 1920
        },
        "file_size": 471878,
        "format": "JPEG",
        "added_at": "2025-07-17T00:04:40.275461",
        "hash": "7198eba9965cd2de8c94c1efb918d15c",
        "source": "migrated"
      }
    },
    {
      "id": "seasonal_027",
      "category": "seasonal",
      "title": "Seasonal Wallpaper 027",
      "tags": [
        "seasonal",
        "wallpaper",
        "hd",
        "mobile"
      ],
      "urls": {
        "raw": "https://media.githubusercontent.com/media/ddh4r4m/wallpaper-collection/main/collection/wallpapers/seasonal/027.jpg",
        "thumb": "https://media.githubusercontent.com/media/ddh4r4m/wallpaper-collection/main/collection/thumbnails/seasonal/027.jpg"
      },
      "metadata": {
        "dimensions": {
          "width": 1080,
          "height": 1920
        },
        "file_size": 392685,
        "format": "JPEG",
        "added_at": "2025-07-17T00:04:40.336356",
        "hash": "2ca6b807f3089e68ec18c89ee4192e4e",
        "source": "migrated"
      }
    },
    {
      "id": "seasonal_028",
      "category": "seasonal",
      "title": "Seasonal Wallpaper 028",
      "tags": [
        "seasonal",
        "wallpaper",
        "hd",
        "mobile"
      ],
      "urls": {
        "raw": "https://media.githubusercontent.com/media/ddh4r4m/wallpaper-collection/main/collection/wallpapers/seasonal/028.jpg",
        "thumb": "https://media.githubusercontent.com/media/ddh4r4m/wallpaper-collection/main/collection/thumbnails/seasonal/028.jpg"
      },
      "metadata": {
        "dimensions": {
          "width": 1080,
          "height": 1920
        },
        "file_size": 588573,
        "format": "JPEG",
        "added_at": "2025-07-17T00:04:40.406615",
        "hash": "3f54ab6db81eb06651605dc363a0ec98",
        "source": "migrated"
      }
    },
    {
      "id": "seasonal_029",
      "category": "seasonal",
      "title": "Seasonal Wallpaper 029",
      "tags": [
        "seasonal",
        "wallpaper",
        "hd",
        "mobile"
      ],
      "urls": {
        "raw": "https://media.githubusercontent.com/media/ddh4r4m/wallpaper-collection/main/collection/wallpapers/seasonal/029.jpg",
        "thumb": "https://media.githubusercontent.com/media/ddh4r4m/wallpaper-collection/main/collection/thumbnails/seasonal/029.jpg"
      },
      "metadata": {
        "dimensions": {
          "width": 1080,
          "height": 1920
        },
        "file_size": 485691,
        "format": "JPEG",
        "added_at": "2025-07-17T00:04:40.471677",
        "hash": "1fda0f2c0ad6b434345a13fd1aea1edc",
        "source": "migrated"
      }
    },
    {
      "id": "seasonal_030",
      "category": "seasonal",
      "title": "Seasonal Wallpaper 030",
      "tags": [
        "seasonal",
        "wallpaper",
        "hd",
        "mobile"
      ],
      "urls": {
        "raw": "https://media.githubusercontent.com/media/ddh4r4m/wallpaper-collection/main/collection/wallpapers/seasonal/030.jpg",
        "thumb": "https://media.githubusercontent.com/media/ddh4r4m/wallpaper-collection/main/collection/thumbnails/seasonal/030.jpg"
      },
      "metadata": {
        "dimensions": {
          "width": 1080,
          "height": 1920
        },
        "file_size": 257706,
        "format": "JPEG",
        "added_at": "2025-07-17T00:04:40.526944",
        "hash": "65d4a90808610123162a04218fb4648c",
        "source": "migrated"
      }
    },
    {
      "id": "seasonal_031",
      "category": "seasonal",
      "title": "Seasonal Wallpaper 031",
      "tags": [
        "seasonal",
        "wallpaper",
        "hd",
        "mobile"
      ],
      "urls": {
        "raw": "https://media.githubusercontent.com/media/ddh4r4m/wallpaper-collection/main/collection/wallpapers/seasonal/031.jpg",
        "thumb": "https://media.githubusercontent.com/media/ddh4r4m/wallpaper-collection/main/collection/thumbnails/seasonal/031.jpg"
      },
      "metadata": {
        "dimensions": {
          "width": 1080,
          "height": 1920
        },
        "file_size": 352722,
        "format": "JPEG",
        "added_at": "2025-07-17T00:04:40.586146",
        "hash": "af51f6d9db4a0673b58542804c3caec3",
        "source": "migrated"
      }
    },
    {
      "id": "seasonal_032",
      "category": "seasonal",
      "title": "Seasonal Wallpaper 032",
      "tags": [
        "seasonal",
        "wallpaper",
        "hd",
        "mobile"
      ],
      "urls": {
        "raw": "https://media.githubusercontent.com/media/ddh4r4m/wallpaper-collection/main/collection/wallpapers/seasonal/032.jpg",
        "thumb": "https://media.githubusercontent.com/media/ddh4r4m/wallpaper-collection/main/collection/thumbnails/seasonal/032.jpg"
      },
      "metadata": {
        "dimensions": {
          "width": 1080,
          "height": 1920
        },
        "file_size": 394050,
        "format": "JPEG",
        "added_at": "2025-07-17T00:04:40.646601",
        "hash": "56004886be12a028a46db4bc3d4a521b",
        "source": "migrated"
      }
    },
    {
      "id": "seasonal_033",
      "category": "seasonal",
      "title": "Seasonal Wallpaper 033",
      "tags": [
        "seasonal",
        "wallpaper",
        "hd",
        "mobile"
      ],
      "urls": {
        "raw": "https://media.githubusercontent.com/media/ddh4r4m/wallpaper-collection/main/collection/wallpapers/seasonal/033.jpg",
        "thumb": "https://media.githubusercontent.com/media/ddh4r4m/wallpaper-collection/main/collection/thumbnails/seasonal/033.jpg"
      },
      "metadata": {
        "dimensions": {
          "width": 1080,
          "height": 1920
        },
        "file_size": 119757,
        "format": "JPEG",
        "added_at": "2025-07-17T00:04:40.695959",
        "hash": "feb8a724c49d45237e1094dc4a4c5396",
        "source": "migrated"
      }
    },
    {
      "id": "seasonal_034",
      "category": "seasonal",
      "title": "Seasonal Wallpaper 034",
      "tags": [
        "seasonal",
        "wallpaper",
        "hd",
        "mobile"
      ],
      "urls": {
        "raw": "https://media.githubusercontent.com/media/ddh4r4m/wallpaper-collection/main/collection/wallpapers/seasonal/034.jpg",
        "thumb": "https://media.githubusercontent.com/media/ddh4r4m/wallpaper-collection/main/collection/thumbnails/seasonal/034.jpg"
      },
      "metadata": {
        "dimensions": {
          "width": 1080,
          "height": 1920
        },
        "file_size": 257300,
        "format": "JPEG",
        "added_at": "2025-07-17T00:04:40.749744",
        "hash": "b815eb1a62ff13350784d9cb66f8de0e",
        "source": "migrated"
      }
    },
    {
      "id": "seasonal_035",
      "category": "seasonal",
      "title": "Seasonal Wallpaper 035",
      "tags": [
        "seasonal",
        "wallpaper",
        "hd",
        "mobile"
      ],
      "urls": {
        "raw": "https://media.githubusercontent.com/media/ddh4r4m/wallpaper-collection/main/collection/wallpapers/seasonal/035.jpg",
        "thumb": "https://media.githubusercontent.com/media/ddh4r4m/wallpaper-collection/main/collection/thumbnails/seasonal/035.jpg"
      },
      "metadata": {
        "dimensions": {
          "width": 1080,
          "height": 1920
        },
        "file_size": 364676,
        "format": "JPEG",
        "added_at": "2025-07-17T00:04:40.810790",
        "hash": "9fe901b993e1a2775c3951f46a4cf1c1",
        "source": "migrated"
      }
    },
    {
      "id": "seasonal_036",
      "category": "seasonal",
      "title": "Seasonal Wallpaper 036",
      "tags": [
        "seasonal",
        "wallpaper",
        "hd",
        "mobile"
      ],
      "urls": {
        "raw": "https://media.githubusercontent.com/media/ddh4r4m/wallpaper-collection/main/collection/wallpapers/seasonal/036.jpg",
        "thumb": "https://media.githubusercontent.com/media/ddh4r4m/wallpaper-collection/main/collection/thumbnails/seasonal/036.jpg"
      },
      "metadata": {
        "dimensions": {
          "width": 1080,
          "height": 1920
        },
        "file_size": 501125,
        "format": "JPEG",
        "added_at": "2025-07-17T00:04:40.879638",
        "hash": "c8baafe08dff4acc46b350cff60cd644",
        "source": "migrated"
      }
    },
    {
      "id": "seasonal_037",
      "category": "seasonal",
      "title": "Seasonal Wallpaper 037",
      "tags": [
        "seasonal",
        "wallpaper",
        "hd",
        "mobile"
      ],
      "urls": {
        "raw": "https://media.githubusercontent.com/media/ddh4r4m/wallpaper-collection/main/collection/wallpapers/seasonal/037.jpg",
        "thumb": "https://media.githubusercontent.com/media/ddh4r4m/wallpaper-collection/main/collection/thumbnails/seasonal/037.jpg"
      },
      "metadata": {
        "dimensions": {
          "width": 1080,
          "height": 1920
        },
        "file_size": 394188,
        "format": "JPEG",
        "added_at": "2025-07-17T00:04:40.941998",
        "hash": "970996c7bcc444eb93a26b084d5daa00",
        "source": "migrated"
      }
    },
    {
      "id": "seasonal_038",
      "category": "seasonal",
      "title": "Seasonal Wallpaper 038",
      "tags": [
        "seasonal",
        "wallpaper",
        "hd",
        "mobile"
      ],
      "urls": {
        "raw": "https://media.githubusercontent.com/media/ddh4r4m/wallpaper-collection/main/collection/wallpapers/seasonal/038.jpg",
        "thumb": "https://media.githubusercontent.com/media/ddh4r4m/wallpaper-collection/main/collection/thumbnails/seasonal/038.jpg"
      },
      "metadata": {
        "dimensions": {
          "width": 1080,
          "height": 1920
        },
        "file_size": 263283,
        "format": "JPEG",
        "added_at": "2025-07-17T00:04:40.998324",
        "hash": "7c51cc36449c061ba56707130e5a48c4",
        "source": "migrated"
      }
    },
    {
      "id": "seasonal_039",
      "category": "seasonal",
      "title": "Seasonal Wallpaper 039",
      "tags": [
        "seasonal",
        "wallpaper",
        "hd",
        "mobile"
      ],
      "urls": {
        "raw": "https://media.githubusercontent.com/media/ddh4r4m/wallpaper-collection/main/collection/wallpapers/seasonal/039.jpg",
        "thumb": "https://media.githubusercontent.com/media/ddh4r4m/wallpaper-collection/main/collection/thumbnails/seasonal/039.jpg"
      },
      "metadata": {
        "dimensions": {
          "width": 1080,
          "height": 1920
        },
        "file_size": 424801,
        "format": "JPEG",
        "added_at": "2025-07-17T00:04:41.062381",
        "hash": "91020b81b0e8e660f002b463bf2e743d",
        "source": "migrated"
      }
    },
    {
      "id": "seasonal_040",
      "category": "seasonal",
      "title": "Seasonal Wallpaper 040",
      "tags": [
        "seasonal",
        "wallpaper",
        "hd",
        "mobile"
      ],
      "urls": {
        "raw": "https://media.githubusercontent.com/media/ddh4r4m/wallpaper-collection/main/collection/wallpapers/seasonal/040.jpg",
        "thumb": "https://media.githubusercontent.com/media/ddh4r4m/wallpaper-collection/main/collection/thumbnails/seasonal/040.jpg"
      },
      "metadata": {
        "dimensions": {
          "width": 1080,
          "height": 1920
        },
        "file_size": 289987,
        "format": "JPEG",
        "added_at": "2025-07-17T00:04:41.120150",
        "hash": "5b0ed9d49cc1740058420d0b4c83c0cd",
        "source": "migrated"
      }
    }
  ]
}