{
  "meta": {
    "version": "1.0",
    "generated_at": "2025-07-28T21:27:34.814586",
    "page": 152,
    "per_page": 15,
    "total_pages": 177,
    "total_count": 2647,
    "count_on_page": 15,
    "categories": 21,
    "has_next": true,
    "has_prev": true,
    "next_page_url": "/api/v1/all/pages/153.json",
    "prev_page_url": "/api/v1/all/pages/151.json"
  },
  "data": [
    {
      "id": "space_038",
      "category": "space",
      "title": "Space Wallpaper 038",
      "tags": [
        "space",
        "wallpaper",
        "hd",
        "mobile"
      ],
      "urls": {
        "raw": "https://media.githubusercontent.com/media/ddh4r4m/wallpaper-collection/main/collection/wallpapers/space/038.jpg",
        "thumb": "https://media.githubusercontent.com/media/ddh4r4m/wallpaper-collection/main/collection/thumbnails/space/038.jpg"
      },
      "metadata": {
        "dimensions": {
          "width": 1080,
          "height": 1920
        },
        "file_size": 648968,
        "format": "JPEG",
        "added_at": "2025-07-17T00:04:46.330798",
        "hash": "5b90190299f8a8f246a9ec4f62375b07",
        "source": "migrated"
      }
    },
    {
      "id": "space_039",
      "category": "space",
      "title": "Space Wallpaper 039",
      "tags": [
        "space",
        "wallpaper",
        "hd",
        "mobile"
      ],
      "urls": {
        "raw": "https://media.githubusercontent.com/media/ddh4r4m/wallpaper-collection/main/collection/wallpapers/space/039.jpg",
        "thumb": "https://media.githubusercontent.com/media/ddh4r4m/wallpaper-collection/main/collection/thumbnails/space/039.jpg"
      },
      "metadata": {
        "dimensions": {
          "width": 1080,
          "height": 1920
        },
        "file_size": 321550,
        "format": "JPEG",
        "added_at": "2025-07-17T00:04:46.387843",
        "hash": "dd3af6d6518df1ebfa6ecec5ef1e6155",
        "source": "migrated"
      }
    },
    {
      "id": "space_040",
      "category": "space",
      "title": "Space Wallpaper 040",
      "tags": [
        "space",
        "wallpaper",
        "hd",
        "mobile"
      ],
      "urls": {
        "raw": "https://media.githubusercontent.com/media/ddh4r4m/wallpaper-collection/main/collection/wallpapers/space/040.jpg",
        "thumb": "https://media.githubusercontent.com/media/ddh4r4m/wallpaper-collection/main/collection/thumbnails/space/040.jpg"
      },
      "metadata": {
        "dimensions": {
          "width": 1080,
          "height": 1920
        },
        "file_size": 221953,
        "format": "JPEG",
        "added_at": "2025-07-17T00:04:46.439425",
        "hash": "4a51f115298cddbe81592d0500efa728",
        "source": "migrated"
      }
    },
    {
      "id": "space_041",
      "category": "space",
      "title": "Space Wallpaper 041",
      "tags": [
        "space",
        "wallpaper",
        "hd",
        "mobile"
      ],
      "urls": {
        "raw": "https://media.githubusercontent.com/media/ddh4r4m/wallpaper-collection/main/collection/wallpapers/space/041.jpg",
        "thumb": "https://media.githubusercontent.com/media/ddh4r4m/wallpaper-collection/main/collection/thumbnails/space/041.jpg"
      },
      "metadata": {
        "dimensions": {
          "width": 1080,
          "height": 1920
        },
        "file_size": 604470,
        "format": "JPEG",
        "added_at": "2025-07-17T00:04:46.514171",
        "hash": "3702b917a7e1653ae90a3b1250b5df5e",
        "source": "migrated"
      }
    },
    {
      "id": "space_042",
      "category": "space",
      "title": "Space Wallpaper 042",
      "tags": [
        "space",
        "wallpaper",
        "hd",
        "mobile"
      ],
      "urls": {
        "raw": "https://media.githubusercontent.com/media/ddh4r4m/wallpaper-collection/main/collection/wallpapers/space/042.jpg",
        "thumb": "https://media.githubusercontent.com/media/ddh4r4m/wallpaper-collection/main/collection/thumbnails/space/042.jpg"
      },
      "metadata": {
        "dimensions": {
          "width": 1080,
          "height": 1920
        },
        "file_size": 543258,
        "format": "JPEG",
        "added_at": "2025-07-17T00:04:46.585096",
        "hash": "497fe05b568421e3049dd26490a8d4b0",
        "source": "migrated"
      }
    },
    {
      "id": "space_043",
      "category": "space",
      "title": "Space Wallpaper 043",
      "tags": [
        "space",
        "wallpaper",
        "hd",
        "mobile"
      ],
      "urls": {
        "raw": "https://media.githubusercontent.com/media/ddh4r4m/wallpaper-collection/main/collection/wallpapers/space/043.jpg",
        "thumb": "https://media.githubusercontent.com/media/ddh4r4m/wallpaper-collection/main/collection/thumbnails/space/043.jpg"
      },
      "metadata": {
        "dimensions": {
          "width": 1080,
          "height": 1920
        },
        "file_size": 527205,
        "format": "JPEG",
        "added_at": "2025-07-17T00:04:46.653523",
        "hash": "65217073dc35dd70cfe42930ebd0215b",
        "source": "migrated"
      }
    },
    {
      "id": "space_044",
      "category": "space",
      "title": "Space Wallpaper 044",
      "tags": [
        "space",
        "wallpaper",
        "hd",
        "mobile"
      ],
      "urls": {
        "raw": "https://media.githubusercontent.com/media/ddh4r4m/wallpaper-collection/main/collection/wallpapers/space/044.jpg",
        "thumb": "https://media.githubusercontent.com/media/ddh4r4m/wallpaper-collection/main/collection/thumbnails/space/044.jpg"
      },
      "metadata": {
        "dimensions": {
          "width": 1080,
          "height": 1920
        },
        "file_size": 162212,
        "format": "JPEG",
        "added_at": "2025-07-17T00:04:46.703546",
        "hash": "3fcd50bceee3338114e9a4fefa3eb69b",
        "source": "migrated"
      }
    },
    {
      "id": "space_045",
      "category": "space",
      "title": "Space Wallpaper 045",
      "tags": [
        "space",
        "wallpaper",
        "hd",
        "mobile"
      ],
      "urls": {
        "raw": "https://media.githubusercontent.com/media/ddh4r4m/wallpaper-collection/main/collection/wallpapers/space/045.jpg",
        "thumb": "https://media.githubusercontent.com/media/ddh4r4m/wallpaper-collection/main/collection/thumbnails/space/045.jpg"
      },
      "metadata": {
        "dimensions": {
          "width": 1080,
          "height": 1920
        },
        "file_size": 398454,
        "format": "JPEG",
        "added_at": "2025-07-17T00:04:46.766003",
        "hash": "ba8dbb865cd0d75a687913b9dcd5b7bc",
        "source": "migrated"
      }
    },
    {
      "id": "space_046",
      "category": "space",
      "title": "Space Wallpaper 046",
      "tags": [
        "space",
        "wallpaper",
        "hd",
        "mobile"
      ],
      "urls": {
        "raw": "https://media.githubusercontent.com/media/ddh4r4m/wallpaper-collection/main/collection/wallpapers/space/046.jpg",
        "thumb": "https://media.githubusercontent.com/media/ddh4r4m/wallpaper-collection/main/collection/thumbnails/space/046.jpg"
      },
      "metadata": {
        "dimensions": {
          "width": 1080,
          "height": 1920
        },
        "file_size": 315617,
        "format": "JPEG",
        "added_at": "2025-07-17T00:04:46.823671",
        "hash": "ccb4f3264944b7cbcafd28fedd9ea581",
        "source": "migrated"
      }
    },
    {
      "id": "space_047",
      "category": "space",
      "title": "Space Wallpaper 047",
      "tags": [
        "space",
        "wallpaper",
        "hd",
        "mobile"
      ],
      "urls": {
        "raw": "https://media.githubusercontent.com/media/ddh4r4m/wallpaper-collection/main/collection/wallpapers/space/047.jpg",
        "thumb": "https://media.githubusercontent.com/media/ddh4r4m/wallpaper-collection/main/collection/thumbnails/space/047.jpg"
      },
      "metadata": {
        "dimensions": {
          "width": 1080,
          "height": 1920
        },
        "file_size": 722876,
        "format": "JPEG",
        "added_at": "2025-07-17T00:04:46.902548",
        "hash": "a43d29922516869f38bfeb73c8ae4a65",
        "source": "migrated"
      }
    },
    {
      "id": "space_048",
      "category": "space",
      "title": "Space Wallpaper 048",
      "tags": [
        "space",
        "wallpaper",
        "hd",
        "mobile"
      ],
      "urls": {
        "raw": "https://media.githubusercontent.com/media/ddh4r4m/wallpaper-collection/main/collection/wallpapers/space/048.jpg",
        "thumb": "https://media.githubusercontent.com/media/ddh4r4m/wallpaper-collection/main/collection/thumbnails/space/048.jpg"
      },
      "metadata": {
        "dimensions": {
          "width": 1080,
          "height": 1920
        },
        "file_size": 368963,
        "format": "JPEG",
        "added_at": "2025-07-17T00:04:46.965422",
        "hash": "4c50bf9d8f7b6d3e4ea39a0ffdeb7a39",
        "source": "migrated"
      }
    },
    {
      "id": "space_049",
      "category": "space",
      "title": "Space Wallpaper 049",
      "tags": [
        "space",
        "wallpaper",
        "hd",
        "mobile"
      ],
      "urls": {
        "raw": "https://media.githubusercontent.com/media/ddh4r4m/wallpaper-collection/main/collection/wallpapers/space/049.jpg",
        "thumb": "https://media.githubusercontent.com/media/ddh4r4m/wallpaper-collection/main/collection/thumbnails/space/049.jpg"
      },
      "metadata": {
        "dimensions": {
          "width": 1080,
          "height": 1920
        },
        "file_size": 244401,
        "format": "JPEG",
        "added_at": "2025-07-17T00:04:47.022119",
        "hash": "448afaa2893b8a1003e9fb1a15b0e478",
        "source": "migrated"
      }
    },
    {
      "id": "space_050",
      "category": "space",
      "title": "Space Wallpaper 050",
      "tags": [
        "space",
        "wallpaper",
        "hd",
        "mobile"
      ],
      "urls": {
        "raw": "https://media.githubusercontent.com/media/ddh4r4m/wallpaper-collection/main/collection/wallpapers/space/050.jpg",
        "thumb": "https://media.githubusercontent.com/media/ddh4r4m/wallpaper-collection/main/collection/thumbnails/space/050.jpg"
      },
      "metadata": {
        "dimensions": {
          "width": 1080,
          "height": 1920
        },
        "file_size": 315617,
        "format": "JPEG",
        "added_at": "2025-07-17T00:04:47.081603",
        "hash": "ccb4f3264944b7cbcafd28fedd9ea581",
        "source": "migrated"
      }
    },
    {
      "id": "space_051",
      "category": "space",
      "title": "Space Wallpaper 051",
      "tags": [
        "space",
        "wallpaper",
        "hd",
        "mobile"
      ],
      "urls": {
        "raw": "https://media.githubusercontent.com/media/ddh4r4m/wallpaper-collection/main/collection/wallpapers/space/051.jpg",
        "thumb": "https://media.githubusercontent.com/media/ddh4r4m/wallpaper-collection/main/collection/thumbnails/space/051.jpg"
      },
      "metadata": {
        "dimensions": {
          "width": 1080,
          "height": 1920
        },
        "file_size": 611117,
        "format": "JPEG",
        "added_at": "2025-07-17T00:04:47.153591",
        "hash": "6d8832c21fcd89b9da6266242a3d539a",
        "source": "migrated"
      }
    },
    {
      "id": "space_052",
      "category": "space",
      "title": "Space Wallpaper 052",
      "tags": [
        "space",
        "wallpaper",
        "hd",
        "mobile"
      ],
      "urls": {
        "raw": "https://media.githubusercontent.com/media/ddh4r4m/wallpaper-collection/main/collection/wallpapers/space/052.jpg",
        "thumb": "https://media.githubusercontent.com/media/ddh4r4m/wallpaper-collection/main/collection/thumbnails/space/052.jpg"
      },
      "metadata": {
        "dimensions": {
          "width": 1080,
          "height": 1920
        },
        "file_size": 64281,
        "format": "JPEG",
        "added_at": "2025-07-17T00:04:47.195745",
        "hash": "e2a24f08c892b8726f34e3ec78da29a9",
        "source": "migrated"
      }
    }
  ]
}