{
  "meta": {
    "version": "1.0",
    "generated_at": "2025-07-28T22:48:38.208699",
    "page": 153,
    "per_page": 15,
    "total_pages": 183,
    "total_count": 2737,
    "count_on_page": 15,
    "categories": 22,
    "has_next": true,
    "has_prev": true,
    "next_page_url": "/api/v1/all/pages/154.json",
    "prev_page_url": "/api/v1/all/pages/152.json"
  },
  "data": [
    {
      "id": "seasonal_056",
      "category": "seasonal",
      "title": "Seasonal Wallpaper 056",
      "tags": [
        "seasonal",
        "wallpaper",
        "hd",
        "mobile"
      ],
      "urls": {
        "raw": "https://media.githubusercontent.com/media/ddh4r4m/wallpaper-collection/main/collection/wallpapers/seasonal/056.jpg",
        "thumb": "https://media.githubusercontent.com/media/ddh4r4m/wallpaper-collection/main/collection/thumbnails/seasonal/056.jpg"
      },
      "metadata": {
        "dimensions": {
          "width": 1080,
          "height": 1920
        },
        "file_size": 161575,
        "format": "JPEG",
        "added_at": "2025-07-17T00:04:42.073239",
        "hash": "b447ff33b7e0a79dc778ae89b1ace64a",
        "source": "migrated"
      }
    },
    {
      "id": "seasonal_057",
      "category": "seasonal",
      "title": "Seasonal Wallpaper 057",
      "tags": [
        "seasonal",
        "wallpaper",
        "hd",
        "mobile"
      ],
      "urls": {
        "raw": "https://media.githubusercontent.com/media/ddh4r4m/wallpaper-collection/main/collection/wallpapers/seasonal/057.jpg",
        "thumb": "https://media.githubusercontent.com/media/ddh4r4m/wallpaper-collection/main/collection/thumbnails/seasonal/057.jpg"
      },
      "metadata": {
        "dimensions": {
          "width": 1080,
          "height": 1920
        },
        "file_size": 511512,
        "format": "JPEG",
        "added_at": "2025-07-17T00:04:42.139072",
        "hash": "d70c8858197c7eb19ec037e2d80cd5f5",
        "source": "migrated"
      }
    },
    {
      "id": "seasonal_058",
      "category": "seasonal",
      "title": "Seasonal Wallpaper 058",
      "tags": [
        "seasonal",
        "wallpaper",
        "hd",
        "mobile"
      ],
      "urls": {
        "raw": "https://media.githubusercontent.com/media/ddh4r4m/wallpaper-collection/main/collection/wallpapers/seasonal/058.jpg",
        "thumb": "https://media.githubusercontent.com/media/ddh4r4m/wallpaper-collection/main/collection/thumbnails/seasonal/058.jpg"
      },
      "metadata": {
        "dimensions": {
          "width": 1080,
          "height": 1920
        },
        "file_size": 429535,
        "format": "JPEG",
        "added_at": "2025-07-17T00:04:42.202359",
        "hash": "4affdc61fdce87f83741a164d223cbd3",
        "source": "migrated"
      }
    },
    {
      "id": "seasonal_059",
      "category": "seasonal",
      "title": "Seasonal Wallpaper 059",
      "tags": [
        "seasonal",
        "wallpaper",
        "hd",
        "mobile"
      ],
      "urls": {
        "raw": "https://media.githubusercontent.com/media/ddh4r4m/wallpaper-collection/main/collection/wallpapers/seasonal/059.jpg",
        "thumb": "https://media.githubusercontent.com/media/ddh4r4m/wallpaper-collection/main/collection/thumbnails/seasonal/059.jpg"
      },
      "metadata": {
        "dimensions": {
          "width": 1080,
          "height": 1920
        },
        "file_size": 332851,
        "format": "JPEG",
        "added_at": "2025-07-17T00:04:42.261412",
        "hash": "78de3c84c3aa85cf8800064299746183",
        "source": "migrated"
      }
    },
    {
      "id": "seasonal_060",
      "category": "seasonal",
      "title": "Seasonal Wallpaper 060",
      "tags": [
        "seasonal",
        "wallpaper",
        "hd",
        "mobile"
      ],
      "urls": {
        "raw": "https://media.githubusercontent.com/media/ddh4r4m/wallpaper-collection/main/collection/wallpapers/seasonal/060.jpg",
        "thumb": "https://media.githubusercontent.com/media/ddh4r4m/wallpaper-collection/main/collection/thumbnails/seasonal/060.jpg"
      },
      "metadata": {
        "dimensions": {
          "width": 1080,
          "height": 1920
        },
        "file_size": 547437,
        "format": "JPEG",
        "added_at": "2025-07-17T00:04:42.331572",
        "hash": "701f65bef12ae1fdc01245c7d36fd187",
        "source": "migrated"
      }
    },
    {
      "id": "seasonal_061",
      "category": "seasonal",
      "title": "Seasonal Wallpaper 061",
      "tags": [
        "seasonal",
        "wallpaper",
        "hd",
        "mobile"
      ],
      "urls": {
        "raw": "https://media.githubusercontent.com/media/ddh4r4m/wallpaper-collection/main/collection/wallpapers/seasonal/061.jpg",
        "thumb": "https://media.githubusercontent.com/media/ddh4r4m/wallpaper-collection/main/collection/thumbnails/seasonal/061.jpg"
      },
      "metadata": {
        "dimensions": {
          "width": 1080,
          "height": 1920
        },
        "file_size": 216493,
        "format": "JPEG",
        "added_at": "2025-07-17T00:04:42.386459",
        "hash": "213143a8e8abcedebe45f3fb863a9f7b",
        "source": "migrated"
      }
    },
    {
      "id": "seasonal_062",
      "category": "seasonal",
      "title": "Seasonal Wallpaper 062",
      "tags": [
        "seasonal",
        "wallpaper",
        "hd",
        "mobile"
      ],
      "urls": {
        "raw": "https://media.githubusercontent.com/media/ddh4r4m/wallpaper-collection/main/collection/wallpapers/seasonal/062.jpg",
        "thumb": "https://media.githubusercontent.com/media/ddh4r4m/wallpaper-collection/main/collection/thumbnails/seasonal/062.jpg"
      },
      "metadata": {
        "dimensions": {
          "width": 1080,
          "height": 1920
        },
        "file_size": 236013,
        "format": "JPEG",
        "added_at": "2025-07-17T00:04:42.439687",
        "hash": "d3d2fdb8b0ff337fb047673b228de817",
        "source": "migrated"
      }
    },
    {
      "id": "seasonal_063",
      "category": "seasonal",
      "title": "Seasonal Wallpaper 063",
      "tags": [
        "seasonal",
        "wallpaper",
        "hd",
        "mobile"
      ],
      "urls": {
        "raw": "https://media.githubusercontent.com/media/ddh4r4m/wallpaper-collection/main/collection/wallpapers/seasonal/063.jpg",
        "thumb": "https://media.githubusercontent.com/media/ddh4r4m/wallpaper-collection/main/collection/thumbnails/seasonal/063.jpg"
      },
      "metadata": {
        "dimensions": {
          "width": 1080,
          "height": 1920
        },
        "file_size": 511942,
        "format": "JPEG",
        "added_at": "2025-07-17T00:04:42.507088",
        "hash": "e5ff78a3275dcf6d55264cca908d8416",
        "source": "migrated"
      }
    },
    {
      "id": "seasonal_064",
      "category": "seasonal",
      "title": "Seasonal Wallpaper 064",
      "tags": [
        "seasonal",
        "wallpaper",
        "hd",
        "mobile"
      ],
      "urls": {
        "raw": "https://media.githubusercontent.com/media/ddh4r4m/wallpaper-collection/main/collection/wallpapers/seasonal/064.jpg",
        "thumb": "https://media.githubusercontent.com/media/ddh4r4m/wallpaper-collection/main/collection/thumbnails/seasonal/064.jpg"
      },
      "metadata": {
        "dimensions": {
          "width": 1080,
          "height": 1920
        },
        "file_size": 396641,
        "format": "JPEG",
        "added_at": "2025-07-17T00:04:42.570748",
        "hash": "6b5e10cef20963b6896c6d2585673921",
        "source": "migrated"
      }
    },
    {
      "id": "seasonal_065",
      "category": "seasonal",
      "title": "Seasonal Wallpaper 065",
      "tags": [
        "seasonal",
        "wallpaper",
        "hd",
        "mobile"
      ],
      "urls": {
        "raw": "https://media.githubusercontent.com/media/ddh4r4m/wallpaper-collection/main/collection/wallpapers/seasonal/065.jpg",
        "thumb": "https://media.githubusercontent.com/media/ddh4r4m/wallpaper-collection/main/collection/thumbnails/seasonal/065.jpg"
      },
      "metadata": {
        "dimensions": {
          "width": 1080,
          "height": 1920
        },
        "file_size": 154387,
        "format": "JPEG",
        "added_at": "2025-07-17T00:04:42.619217",
        "hash": "c10fa2f3eb0b3c086bd32deba3b8d1b1",
        "source": "migrated"
      }
    },
    {
      "id": "seasonal_066",
      "category": "seasonal",
      "title": "Seasonal Wallpaper 066",
      "tags": [
        "seasonal",
        "wallpaper",
        "hd",
        "mobile"
      ],
      "urls": {
        "raw": "https://media.githubusercontent.com/media/ddh4r4m/wallpaper-collection/main/collection/wallpapers/seasonal/066.jpg",
        "thumb": "https://media.githubusercontent.com/media/ddh4r4m/wallpaper-collection/main/collection/thumbnails/seasonal/066.jpg"
      },
      "metadata": {
        "dimensions": {
          "width": 1080,
          "height": 1920
        },
        "file_size": 361051,
        "format": "JPEG",
        "added_at": "2025-07-17T00:04:42.679811",
        "hash": "c7fe4342ef7694d4a13f4917a4723f77",
        "source": "migrated"
      }
    },
    {
      "id": "seasonal_067",
      "category": "seasonal",
      "title": "Seasonal Wallpaper 067",
      "tags": [
        "seasonal",
        "wallpaper",
        "hd",
        "mobile"
      ],
      "urls": {
        "raw": "https://media.githubusercontent.com/media/ddh4r4m/wallpaper-collection/main/collection/wallpapers/seasonal/067.jpg",
        "thumb": "https://media.githubusercontent.com/media/ddh4r4m/wallpaper-collection/main/collection/thumbnails/seasonal/067.jpg"
      },
      "metadata": {
        "dimensions": {
          "width": 1080,
          "height": 1920
        },
        "file_size": 278572,
        "format": "JPEG",
        "added_at": "2025-07-17T00:04:42.734820",
        "hash": "63536eedecc5e7ca1a23f200717b99ce",
        "source": "migrated"
      }
    },
    {
      "id": "seasonal_068",
      "category": "seasonal",
      "title": "Seasonal Wallpaper 068",
      "tags": [
        "seasonal",
        "wallpaper",
        "hd",
        "mobile"
      ],
      "urls": {
        "raw": "https://media.githubusercontent.com/media/ddh4r4m/wallpaper-collection/main/collection/wallpapers/seasonal/068.jpg",
        "thumb": "https://media.githubusercontent.com/media/ddh4r4m/wallpaper-collection/main/collection/thumbnails/seasonal/068.jpg"
      },
      "metadata": {
        "dimensions": {
          "width": 1080,
          "height": 1920
        },
        "file_size": 372795,
        "format": "JPEG",
        "added_at": "2025-07-17T00:04:42.799031",
        "hash": "6f9b9da6462940a4320c8eeda4f4c7f7",
        "source": "migrated"
      }
    },
    {
      "id": "seasonal_069",
      "category": "seasonal",
      "title": "Seasonal Wallpaper 069",
      "tags": [
        "seasonal",
        "wallpaper",
        "hd",
        "mobile"
      ],
      "urls": {
        "raw": "https://media.githubusercontent.com/media/ddh4r4m/wallpaper-collection/main/collection/wallpapers/seasonal/069.jpg",
        "thumb": "https://media.githubusercontent.com/media/ddh4r4m/wallpaper-collection/main/collection/thumbnails/seasonal/069.jpg"
      },
      "metadata": {
        "dimensions": {
          "width": 1080,
          "height": 1920
        },
        "file_size": 514653,
        "format": "JPEG",
        "added_at": "2025-07-17T00:04:42.868513",
        "hash": "c7f60c8bc7657f4ab1370e7ac932532a",
        "source": "migrated"
      }
    },
    {
      "id": "seasonal_070",
      "category": "seasonal",
      "title": "Seasonal Wallpaper 070",
      "tags": [
        "seasonal",
        "wallpaper",
        "hd",
        "mobile"
      ],
      "urls": {
        "raw": "https://media.githubusercontent.com/media/ddh4r4m/wallpaper-collection/main/collection/wallpapers/seasonal/070.jpg",
        "thumb": "https://media.githubusercontent.com/media/ddh4r4m/wallpaper-collection/main/collection/thumbnails/seasonal/070.jpg"
      },
      "metadata": {
        "dimensions": {
          "width": 1080,
          "height": 1920
        },
        "file_size": 587718,
        "format": "JPEG",
        "added_at": "2025-07-17T00:04:42.947004",
        "hash": "6a0fda42a9232314ee1d28f51f6deb5f",
        "source": "migrated"
      }
    }
  ]
}