{
  "meta": {
    "version": "1.0",
    "generated_at": "2025-07-28T22:48:38.208699",
    "page": 155,
    "per_page": 15,
    "total_pages": 183,
    "total_count": 2737,
    "count_on_page": 15,
    "categories": 22,
    "has_next": true,
    "has_prev": true,
    "next_page_url": "/api/v1/all/pages/156.json",
    "prev_page_url": "/api/v1/all/pages/154.json"
  },
  "data": [
    {
      "id": "seasonal_086",
      "category": "seasonal",
      "title": "Seasonal Wallpaper",
      "tags": [
        "seasonal",
        "unsplash",
        "hd",
        "mobile"
      ],
      "metadata": {
        "dimensions": {
          "width": 1080,
          "height": 1620
        },
        "file_size": 240025,
        "format": "JPEG",
        "added_at": "2025-07-18T00:35:02.981424",
        "hash": "205d6f1bb7fe4ffb5501bd3e8429d248",
        "photographer": "Unknown"
      },
      "urls": {
        "raw": "https://media.githubusercontent.com/media/ddh4r4m/wallpaper-collection/main/collection/wallpapers/seasonal/086.jpg",
        "thumb": "https://media.githubusercontent.com/media/ddh4r4m/wallpaper-collection/main/collection/thumbnails/seasonal/086.jpg"
      }
    },
    {
      "id": "seasonal_087",
      "category": "seasonal",
      "title": "Seasonal Wallpaper",
      "tags": [
        "seasonal",
        "unsplash",
        "hd",
        "mobile"
      ],
      "metadata": {
        "dimensions": {
          "width": 1080,
          "height": 810
        },
        "file_size": 90619,
        "format": "JPEG",
        "added_at": "2025-07-18T00:35:07.475308",
        "hash": "e1862769d47cb5b85ae8c348016e3512",
        "photographer": "Unknown"
      },
      "urls": {
        "raw": "https://media.githubusercontent.com/media/ddh4r4m/wallpaper-collection/main/collection/wallpapers/seasonal/087.jpg",
        "thumb": "https://media.githubusercontent.com/media/ddh4r4m/wallpaper-collection/main/collection/thumbnails/seasonal/087.jpg"
      }
    },
    {
      "id": "seasonal_088",
      "category": "seasonal",
      "title": "Seasonal Wallpaper",
      "tags": [
        "seasonal",
        "unsplash",
        "hd",
        "mobile"
      ],
      "metadata": {
        "dimensions": {
          "width": 1080,
          "height": 720
        },
        "file_size": 86747,
        "format": "JPEG",
        "added_at": "2025-07-18T00:35:10.951193",
        "hash": "371323372fc838d36e9b49ff3e7c9d06",
        "photographer": "Unknown"
      },
      "urls": {
        "raw": "https://media.githubusercontent.com/media/ddh4r4m/wallpaper-collection/main/collection/wallpapers/seasonal/088.jpg",
        "thumb": "https://media.githubusercontent.com/media/ddh4r4m/wallpaper-collection/main/collection/thumbnails/seasonal/088.jpg"
      }
    },
    {
      "id": "seasonal_089",
      "category": "seasonal",
      "title": "Seasonal Wallpaper",
      "tags": [
        "seasonal",
        "unsplash",
        "hd",
        "mobile"
      ],
      "metadata": {
        "dimensions": {
          "width": 1080,
          "height": 816
        },
        "file_size": 149697,
        "format": "JPEG",
        "added_at": "2025-07-18T00:35:15.160670",
        "hash": "216016940e1e3b065178f2e2d7389ed8",
        "photographer": "Unknown"
      },
      "urls": {
        "raw": "https://media.githubusercontent.com/media/ddh4r4m/wallpaper-collection/main/collection/wallpapers/seasonal/089.jpg",
        "thumb": "https://media.githubusercontent.com/media/ddh4r4m/wallpaper-collection/main/collection/thumbnails/seasonal/089.jpg"
      }
    },
    {
      "id": "seasonal_090",
      "category": "seasonal",
      "title": "Seasonal Wallpaper",
      "tags": [
        "seasonal",
        "unsplash",
        "hd",
        "mobile"
      ],
      "metadata": {
        "dimensions": {
          "width": 1080,
          "height": 1598
        },
        "file_size": 764810,
        "format": "JPEG",
        "added_at": "2025-07-18T00:35:20.850115",
        "hash": "f467bbce949372f927c36a8f328d8ee1",
        "photographer": "Unknown"
      },
      "urls": {
        "raw": "https://media.githubusercontent.com/media/ddh4r4m/wallpaper-collection/main/collection/wallpapers/seasonal/090.jpg",
        "thumb": "https://media.githubusercontent.com/media/ddh4r4m/wallpaper-collection/main/collection/thumbnails/seasonal/090.jpg"
      }
    },
    {
      "id": "space_001",
      "category": "space",
      "title": "Space Wallpaper 001",
      "tags": [
        "space",
        "wallpaper",
        "hd",
        "mobile"
      ],
      "urls": {
        "raw": "https://media.githubusercontent.com/media/ddh4r4m/wallpaper-collection/main/collection/wallpapers/space/001.jpg",
        "thumb": "https://media.githubusercontent.com/media/ddh4r4m/wallpaper-collection/main/collection/thumbnails/space/001.jpg"
      },
      "metadata": {
        "dimensions": {
          "width": 1080,
          "height": 1920
        },
        "file_size": 618663,
        "format": "JPEG",
        "added_at": "2025-07-17T00:04:43.972500",
        "hash": "30401a78a49c8264f402d1e105d5f699",
        "source": "migrated"
      }
    },
    {
      "id": "space_002",
      "category": "space",
      "title": "Space Wallpaper 002",
      "tags": [
        "space",
        "wallpaper",
        "hd",
        "mobile"
      ],
      "urls": {
        "raw": "https://media.githubusercontent.com/media/ddh4r4m/wallpaper-collection/main/collection/wallpapers/space/002.jpg",
        "thumb": "https://media.githubusercontent.com/media/ddh4r4m/wallpaper-collection/main/collection/thumbnails/space/002.jpg"
      },
      "metadata": {
        "dimensions": {
          "width": 1080,
          "height": 1920
        },
        "file_size": 465502,
        "format": "JPEG",
        "added_at": "2025-07-17T00:04:44.041712",
        "hash": "a5e6fc27e476a8054982ceb891ea267c",
        "source": "migrated"
      }
    },
    {
      "id": "space_003",
      "category": "space",
      "title": "Space Wallpaper 003",
      "tags": [
        "space",
        "wallpaper",
        "hd",
        "mobile"
      ],
      "urls": {
        "raw": "https://media.githubusercontent.com/media/ddh4r4m/wallpaper-collection/main/collection/wallpapers/space/003.jpg",
        "thumb": "https://media.githubusercontent.com/media/ddh4r4m/wallpaper-collection/main/collection/thumbnails/space/003.jpg"
      },
      "metadata": {
        "dimensions": {
          "width": 1080,
          "height": 1920
        },
        "file_size": 675867,
        "format": "JPEG",
        "added_at": "2025-07-17T00:04:44.117083",
        "hash": "5fca8784192831f18d781421ca5a85e2",
        "source": "migrated"
      }
    },
    {
      "id": "space_004",
      "category": "space",
      "title": "Space Wallpaper 004",
      "tags": [
        "space",
        "wallpaper",
        "hd",
        "mobile"
      ],
      "urls": {
        "raw": "https://media.githubusercontent.com/media/ddh4r4m/wallpaper-collection/main/collection/wallpapers/space/004.jpg",
        "thumb": "https://media.githubusercontent.com/media/ddh4r4m/wallpaper-collection/main/collection/thumbnails/space/004.jpg"
      },
      "metadata": {
        "dimensions": {
          "width": 1080,
          "height": 1920
        },
        "file_size": 323514,
        "format": "JPEG",
        "added_at": "2025-07-17T00:04:44.173767",
        "hash": "becb7bd1b3289f28d3f10016655ccdb1",
        "source": "migrated"
      }
    },
    {
      "id": "space_005",
      "category": "space",
      "title": "Space Wallpaper 005",
      "tags": [
        "space",
        "wallpaper",
        "hd",
        "mobile"
      ],
      "urls": {
        "raw": "https://media.githubusercontent.com/media/ddh4r4m/wallpaper-collection/main/collection/wallpapers/space/005.jpg",
        "thumb": "https://media.githubusercontent.com/media/ddh4r4m/wallpaper-collection/main/collection/thumbnails/space/005.jpg"
      },
      "metadata": {
        "dimensions": {
          "width": 1080,
          "height": 1920
        },
        "file_size": 686584,
        "format": "JPEG",
        "added_at": "2025-07-17T00:04:44.253228",
        "hash": "c0b5a1e4a3e724f72be8d45d4e3035e2",
        "source": "migrated"
      }
    },
    {
      "id": "space_006",
      "category": "space",
      "title": "Space Wallpaper 006",
      "tags": [
        "space",
        "wallpaper",
        "hd",
        "mobile"
      ],
      "urls": {
        "raw": "https://media.githubusercontent.com/media/ddh4r4m/wallpaper-collection/main/collection/wallpapers/space/006.jpg",
        "thumb": "https://media.githubusercontent.com/media/ddh4r4m/wallpaper-collection/main/collection/thumbnails/space/006.jpg"
      },
      "metadata": {
        "dimensions": {
          "width": 1080,
          "height": 1920
        },
        "file_size": 64815,
        "format": "JPEG",
        "added_at": "2025-07-17T00:04:44.299196",
        "hash": "e24a550530e2f5b50d6aec96399c491a",
        "source": "migrated"
      }
    },
    {
      "id": "space_007",
      "category": "space",
      "title": "Space Wallpaper 007",
      "tags": [
        "space",
        "wallpaper",
        "hd",
        "mobile"
      ],
      "urls": {
        "raw": "https://media.githubusercontent.com/media/ddh4r4m/wallpaper-collection/main/collection/wallpapers/space/007.jpg",
        "thumb": "https://media.githubusercontent.com/media/ddh4r4m/wallpaper-collection/main/collection/thumbnails/space/007.jpg"
      },
      "metadata": {
        "dimensions": {
          "width": 1080,
          "height": 1920
        },
        "file_size": 109965,
        "format": "JPEG",
        "added_at": "2025-07-17T00:04:44.346736",
        "hash": "32f2495932fd65f571664c8ab45f1369",
        "source": "migrated"
      }
    },
    {
      "id": "space_008",
      "category": "space",
      "title": "Space Wallpaper 008",
      "tags": [
        "space",
        "wallpaper",
        "hd",
        "mobile"
      ],
      "urls": {
        "raw": "https://media.githubusercontent.com/media/ddh4r4m/wallpaper-collection/main/collection/wallpapers/space/008.jpg",
        "thumb": "https://media.githubusercontent.com/media/ddh4r4m/wallpaper-collection/main/collection/thumbnails/space/008.jpg"
      },
      "metadata": {
        "dimensions": {
          "width": 1080,
          "height": 1920
        },
        "file_size": 373081,
        "format": "JPEG",
        "added_at": "2025-07-17T00:04:44.409368",
        "hash": "4f2b6cf779552fbbd620fc44cd519184",
        "source": "migrated"
      }
    },
    {
      "id": "space_009",
      "category": "space",
      "title": "Space Wallpaper 009",
      "tags": [
        "space",
        "wallpaper",
        "hd",
        "mobile"
      ],
      "urls": {
        "raw": "https://media.githubusercontent.com/media/ddh4r4m/wallpaper-collection/main/collection/wallpapers/space/009.jpg",
        "thumb": "https://media.githubusercontent.com/media/ddh4r4m/wallpaper-collection/main/collection/thumbnails/space/009.jpg"
      },
      "metadata": {
        "dimensions": {
          "width": 1080,
          "height": 1920
        },
        "file_size": 163915,
        "format": "JPEG",
        "added_at": "2025-07-17T00:04:44.458347",
        "hash": "4ce189c30381d63ff65e01b0b48bd624",
        "source": "migrated"
      }
    },
    {
      "id": "space_010",
      "category": "space",
      "title": "Space Wallpaper 010",
      "tags": [
        "space",
        "wallpaper",
        "hd",
        "mobile"
      ],
      "urls": {
        "raw": "https://media.githubusercontent.com/media/ddh4r4m/wallpaper-collection/main/collection/wallpapers/space/010.jpg",
        "thumb": "https://media.githubusercontent.com/media/ddh4r4m/wallpaper-collection/main/collection/thumbnails/space/010.jpg"
      },
      "metadata": {
        "dimensions": {
          "width": 1080,
          "height": 1920
        },
        "file_size": 75994,
        "format": "JPEG",
        "added_at": "2025-07-17T00:04:44.502288",
        "hash": "24227f7865022d6145155eab92dfb1ba",
        "source": "migrated"
      }
    }
  ]
}