{
  "meta": {
    "version": "1.0",
    "generated_at": "2025-07-28T23:12:02.393375",
    "page": 157,
    "per_page": 15,
    "total_pages": 183,
    "total_count": 2743,
    "count_on_page": 15,
    "categories": 22,
    "has_next": true,
    "has_prev": true,
    "next_page_url": "/api/v1/all/pages/158.json",
    "prev_page_url": "/api/v1/all/pages/156.json"
  },
  "data": [
    {
      "id": "space_020",
      "category": "space",
      "title": "Space Wallpaper 020",
      "tags": [
        "space",
        "wallpaper",
        "hd",
        "mobile"
      ],
      "urls": {
        "raw": "https://media.githubusercontent.com/media/ddh4r4m/wallpaper-collection/main/collection/wallpapers/space/020.jpg",
        "thumb": "https://media.githubusercontent.com/media/ddh4r4m/wallpaper-collection/main/collection/thumbnails/space/020.jpg"
      },
      "metadata": {
        "dimensions": {
          "width": 1080,
          "height": 1920
        },
        "file_size": 721383,
        "format": "JPEG",
        "added_at": "2025-07-17T00:04:45.166459",
        "hash": "ffb36a3c6b7404522b11f7a4f25829f7",
        "source": "migrated"
      }
    },
    {
      "id": "space_021",
      "category": "space",
      "title": "Space Wallpaper 021",
      "tags": [
        "space",
        "wallpaper",
        "hd",
        "mobile"
      ],
      "urls": {
        "raw": "https://media.githubusercontent.com/media/ddh4r4m/wallpaper-collection/main/collection/wallpapers/space/021.jpg",
        "thumb": "https://media.githubusercontent.com/media/ddh4r4m/wallpaper-collection/main/collection/thumbnails/space/021.jpg"
      },
      "metadata": {
        "dimensions": {
          "width": 1080,
          "height": 1920
        },
        "file_size": 721383,
        "format": "JPEG",
        "added_at": "2025-07-17T00:04:45.243805",
        "hash": "ffb36a3c6b7404522b11f7a4f25829f7",
        "source": "migrated"
      }
    },
    {
      "id": "space_022",
      "category": "space",
      "title": "Space Wallpaper 022",
      "tags": [
        "space",
        "wallpaper",
        "hd",
        "mobile"
      ],
      "urls": {
        "raw": "https://media.githubusercontent.com/media/ddh4r4m/wallpaper-collection/main/collection/wallpapers/space/022.jpg",
        "thumb": "https://media.githubusercontent.com/media/ddh4r4m/wallpaper-collection/main/collection/thumbnails/space/022.jpg"
      },
      "metadata": {
        "dimensions": {
          "width": 1080,
          "height": 1920
        },
        "file_size": 378588,
        "format": "JPEG",
        "added_at": "2025-07-17T00:04:45.304875",
        "hash": "01f89c5d11811b69da21894529a30b15",
        "source": "migrated"
      }
    },
    {
      "id": "space_023",
      "category": "space",
      "title": "Space Wallpaper 023",
      "tags": [
        "space",
        "wallpaper",
        "hd",
        "mobile"
      ],
      "urls": {
        "raw": "https://media.githubusercontent.com/media/ddh4r4m/wallpaper-collection/main/collection/wallpapers/space/023.jpg",
        "thumb": "https://media.githubusercontent.com/media/ddh4r4m/wallpaper-collection/main/collection/thumbnails/space/023.jpg"
      },
      "metadata": {
        "dimensions": {
          "width": 1080,
          "height": 1920
        },
        "file_size": 159841,
        "format": "JPEG",
        "added_at": "2025-07-17T00:04:45.355466",
        "hash": "09b160e66f4bb0fd4ff0168af8526ff9",
        "source": "migrated"
      }
    },
    {
      "id": "space_024",
      "category": "space",
      "title": "Space Wallpaper 024",
      "tags": [
        "space",
        "wallpaper",
        "hd",
        "mobile"
      ],
      "urls": {
        "raw": "https://media.githubusercontent.com/media/ddh4r4m/wallpaper-collection/main/collection/wallpapers/space/024.jpg",
        "thumb": "https://media.githubusercontent.com/media/ddh4r4m/wallpaper-collection/main/collection/thumbnails/space/024.jpg"
      },
      "metadata": {
        "dimensions": {
          "width": 1080,
          "height": 1920
        },
        "file_size": 118855,
        "format": "JPEG",
        "added_at": "2025-07-17T00:04:45.401972",
        "hash": "bfaa740405d8d5604422cc58fc584e00",
        "source": "migrated"
      }
    },
    {
      "id": "space_025",
      "category": "space",
      "title": "Space Wallpaper 025",
      "tags": [
        "space",
        "wallpaper",
        "hd",
        "mobile"
      ],
      "urls": {
        "raw": "https://media.githubusercontent.com/media/ddh4r4m/wallpaper-collection/main/collection/wallpapers/space/025.jpg",
        "thumb": "https://media.githubusercontent.com/media/ddh4r4m/wallpaper-collection/main/collection/thumbnails/space/025.jpg"
      },
      "metadata": {
        "dimensions": {
          "width": 1080,
          "height": 1920
        },
        "file_size": 249176,
        "format": "JPEG",
        "added_at": "2025-07-17T00:04:45.456727",
        "hash": "6d24fab8ac1b5caf69acd4fda438350d",
        "source": "migrated"
      }
    },
    {
      "id": "space_026",
      "category": "space",
      "title": "Space Wallpaper 026",
      "tags": [
        "space",
        "wallpaper",
        "hd",
        "mobile"
      ],
      "urls": {
        "raw": "https://media.githubusercontent.com/media/ddh4r4m/wallpaper-collection/main/collection/wallpapers/space/026.jpg",
        "thumb": "https://media.githubusercontent.com/media/ddh4r4m/wallpaper-collection/main/collection/thumbnails/space/026.jpg"
      },
      "metadata": {
        "dimensions": {
          "width": 1080,
          "height": 1920
        },
        "file_size": 195509,
        "format": "JPEG",
        "added_at": "2025-07-17T00:04:45.509356",
        "hash": "10a3764db7a5e9ccdfd00aa713acd7c4",
        "source": "migrated"
      }
    },
    {
      "id": "space_027",
      "category": "space",
      "title": "Space Wallpaper 027",
      "tags": [
        "space",
        "wallpaper",
        "hd",
        "mobile"
      ],
      "urls": {
        "raw": "https://media.githubusercontent.com/media/ddh4r4m/wallpaper-collection/main/collection/wallpapers/space/027.jpg",
        "thumb": "https://media.githubusercontent.com/media/ddh4r4m/wallpaper-collection/main/collection/thumbnails/space/027.jpg"
      },
      "metadata": {
        "dimensions": {
          "width": 1080,
          "height": 1920
        },
        "file_size": 287280,
        "format": "JPEG",
        "added_at": "2025-07-17T00:04:45.567482",
        "hash": "463010f7b745a63f43017a5ea2484f10",
        "source": "migrated"
      }
    },
    {
      "id": "space_028",
      "category": "space",
      "title": "Space Wallpaper 028",
      "tags": [
        "space",
        "wallpaper",
        "hd",
        "mobile"
      ],
      "urls": {
        "raw": "https://media.githubusercontent.com/media/ddh4r4m/wallpaper-collection/main/collection/wallpapers/space/028.jpg",
        "thumb": "https://media.githubusercontent.com/media/ddh4r4m/wallpaper-collection/main/collection/thumbnails/space/028.jpg"
      },
      "metadata": {
        "dimensions": {
          "width": 1080,
          "height": 1920
        },
        "file_size": 319377,
        "format": "JPEG",
        "added_at": "2025-07-17T00:04:45.627099",
        "hash": "b8db031f836fe326adf0448c429833f6",
        "source": "migrated"
      }
    },
    {
      "id": "space_029",
      "category": "space",
      "title": "Space Wallpaper 029",
      "tags": [
        "space",
        "wallpaper",
        "hd",
        "mobile"
      ],
      "urls": {
        "raw": "https://media.githubusercontent.com/media/ddh4r4m/wallpaper-collection/main/collection/wallpapers/space/029.jpg",
        "thumb": "https://media.githubusercontent.com/media/ddh4r4m/wallpaper-collection/main/collection/thumbnails/space/029.jpg"
      },
      "metadata": {
        "dimensions": {
          "width": 1080,
          "height": 1920
        },
        "file_size": 372823,
        "format": "JPEG",
        "added_at": "2025-07-17T00:04:45.688638",
        "hash": "1b63e167b0b53a6793e5043116ac734e",
        "source": "migrated"
      }
    },
    {
      "id": "space_030",
      "category": "space",
      "title": "Space Wallpaper 030",
      "tags": [
        "space",
        "wallpaper",
        "hd",
        "mobile"
      ],
      "urls": {
        "raw": "https://media.githubusercontent.com/media/ddh4r4m/wallpaper-collection/main/collection/wallpapers/space/030.jpg",
        "thumb": "https://media.githubusercontent.com/media/ddh4r4m/wallpaper-collection/main/collection/thumbnails/space/030.jpg"
      },
      "metadata": {
        "dimensions": {
          "width": 1080,
          "height": 1920
        },
        "file_size": 790529,
        "format": "JPEG",
        "added_at": "2025-07-17T00:04:45.769776",
        "hash": "e69b88c45f1ea3f5791d5be9340c3e6b",
        "source": "migrated"
      }
    },
    {
      "id": "space_031",
      "category": "space",
      "title": "Space Wallpaper 031",
      "tags": [
        "space",
        "wallpaper",
        "hd",
        "mobile"
      ],
      "urls": {
        "raw": "https://media.githubusercontent.com/media/ddh4r4m/wallpaper-collection/main/collection/wallpapers/space/031.jpg",
        "thumb": "https://media.githubusercontent.com/media/ddh4r4m/wallpaper-collection/main/collection/thumbnails/space/031.jpg"
      },
      "metadata": {
        "dimensions": {
          "width": 1080,
          "height": 1920
        },
        "file_size": 107539,
        "format": "JPEG",
        "added_at": "2025-07-17T00:04:45.852115",
        "hash": "99910991c3071ab6c44d0126a5a3da11",
        "source": "migrated"
      }
    },
    {
      "id": "space_032",
      "category": "space",
      "title": "Space Wallpaper 032",
      "tags": [
        "space",
        "wallpaper",
        "hd",
        "mobile"
      ],
      "urls": {
        "raw": "https://media.githubusercontent.com/media/ddh4r4m/wallpaper-collection/main/collection/wallpapers/space/032.jpg",
        "thumb": "https://media.githubusercontent.com/media/ddh4r4m/wallpaper-collection/main/collection/thumbnails/space/032.jpg"
      },
      "metadata": {
        "dimensions": {
          "width": 1080,
          "height": 1920
        },
        "file_size": 482090,
        "format": "JPEG",
        "added_at": "2025-07-17T00:04:45.914823",
        "hash": "06e21a9c93925ac347d46e067018ca59",
        "source": "migrated"
      }
    },
    {
      "id": "space_033",
      "category": "space",
      "title": "Space Wallpaper 033",
      "tags": [
        "space",
        "wallpaper",
        "hd",
        "mobile"
      ],
      "urls": {
        "raw": "https://media.githubusercontent.com/media/ddh4r4m/wallpaper-collection/main/collection/wallpapers/space/033.jpg",
        "thumb": "https://media.githubusercontent.com/media/ddh4r4m/wallpaper-collection/main/collection/thumbnails/space/033.jpg"
      },
      "metadata": {
        "dimensions": {
          "width": 1080,
          "height": 1920
        },
        "file_size": 341728,
        "format": "JPEG",
        "added_at": "2025-07-17T00:04:45.973506",
        "hash": "465b630279dbba7b3e8ed36e2072ba9e",
        "source": "migrated"
      }
    },
    {
      "id": "space_034",
      "category": "space",
      "title": "Space Wallpaper 034",
      "tags": [
        "space",
        "wallpaper",
        "hd",
        "mobile"
      ],
      "urls": {
        "raw": "https://media.githubusercontent.com/media/ddh4r4m/wallpaper-collection/main/collection/wallpapers/space/034.jpg",
        "thumb": "https://media.githubusercontent.com/media/ddh4r4m/wallpaper-collection/main/collection/thumbnails/space/034.jpg"
      },
      "metadata": {
        "dimensions": {
          "width": 1080,
          "height": 1920
        },
        "file_size": 383167,
        "format": "JPEG",
        "added_at": "2025-07-17T00:04:46.035734",
        "hash": "96277f851472bbcbbccab5414f16d17b",
        "source": "migrated"
      }
    }
  ]
}