{
  "meta": {
    "version": "1.0",
    "generated_at": "2025-07-28T22:38:03.579947",
    "page": 158,
    "per_page": 15,
    "total_pages": 178,
    "total_count": 2656,
    "count_on_page": 15,
    "categories": 21,
    "has_next": true,
    "has_prev": true,
    "next_page_url": "/api/v1/all/pages/159.json",
    "prev_page_url": "/api/v1/all/pages/157.json"
  },
  "data": [
    {
      "id": "space_122",
      "category": "space",
      "title": "full length photo, sensual elite woman, - Civitai AI",
      "tags": [
        "space",
        "ai-generated",
        "civitai",
        "stable-diffusion",
        "hd",
        "mobile",
        "community-rated"
      ],
      "metadata": {
        "dimensions": {
          "width": 832,
          "height": 1216
        },
        "file_size": 106142,
        "format": "JPEG",
        "added_at": "2025-07-19T11:59:50.201517",
        "hash": "325ce54d4107a5e2749e59e97eea6cad",
        "ai_source": "civitai",
        "ai_generated": true,
        "source_platform": "civitai.com",
        "ai_prompt": "full length photo, sensual elite woman, sexy attire, photorealistic, glamour photography, artistic photo, seductive adult woman, sensual fashionista woman, sexy long grey hair with dark highlights, go",
        "civitai_stats": {
          "cryCount": 0,
          "laughCount": 3,
          "likeCount": 77,
          "dislikeCount": 0,
          "heartCount": 38,
          "commentCount": 0
        }
      },
      "urls": {
        "raw": "https://media.githubusercontent.com/media/ddh4r4m/wallpaper-collection/main/collection/wallpapers/space/122.jpg",
        "thumb": "https://media.githubusercontent.com/media/ddh4r4m/wallpaper-collection/main/collection/thumbnails/space/122.jpg"
      }
    },
    {
      "id": "space_123",
      "category": "space",
      "title": "Space Wallpaper 123",
      "tags": [
        "space"
      ],
      "urls": {
        "raw": "https://media.githubusercontent.com/media/ddh4r4m/wallpaper-collection/main/collection/wallpapers/space/123.jpg",
        "thumb": "https://media.githubusercontent.com/media/ddh4r4m/wallpaper-collection/main/collection/thumbnails/space/123.jpg"
      },
      "metadata": {
        "added_at": "2025-07-28T22:23:13.706916",
        "file_size": 206590,
        "dimensions": {
          "width": 1080,
          "height": 1920
        }
      }
    },
    {
      "id": "space_124",
      "category": "space",
      "title": "Space Wallpaper 124",
      "tags": [
        "space"
      ],
      "urls": {
        "raw": "https://media.githubusercontent.com/media/ddh4r4m/wallpaper-collection/main/collection/wallpapers/space/124.jpg",
        "thumb": "https://media.githubusercontent.com/media/ddh4r4m/wallpaper-collection/main/collection/thumbnails/space/124.jpg"
      },
      "metadata": {
        "added_at": "2025-07-28T22:23:16.433297",
        "file_size": 229834,
        "dimensions": {
          "width": 1080,
          "height": 1920
        }
      }
    },
    {
      "id": "space_125",
      "category": "space",
      "title": "Space Wallpaper 125",
      "tags": [
        "space"
      ],
      "urls": {
        "raw": "https://media.githubusercontent.com/media/ddh4r4m/wallpaper-collection/main/collection/wallpapers/space/125.jpg",
        "thumb": "https://media.githubusercontent.com/media/ddh4r4m/wallpaper-collection/main/collection/thumbnails/space/125.jpg"
      },
      "metadata": {
        "added_at": "2025-07-28T22:23:18.430243",
        "file_size": 178557,
        "dimensions": {
          "width": 1306,
          "height": 1587
        }
      }
    },
    {
      "id": "sports_001",
      "category": "sports",
      "title": "Sports Wallpaper 001",
      "tags": [
        "sports"
      ],
      "urls": {
        "raw": "https://media.githubusercontent.com/media/ddh4r4m/wallpaper-collection/main/collection/wallpapers/sports/001.jpg",
        "thumb": "https://media.githubusercontent.com/media/ddh4r4m/wallpaper-collection/main/collection/thumbnails/sports/001.jpg"
      },
      "metadata": {
        "added_at": "2025-07-21T01:01:48.684571",
        "file_size": 319206,
        "dimensions": {
          "width": 1080,
          "height": 1920
        }
      }
    },
    {
      "id": "sports_002",
      "category": "sports",
      "title": "Sports Wallpaper 002",
      "tags": [
        "sports"
      ],
      "urls": {
        "raw": "https://media.githubusercontent.com/media/ddh4r4m/wallpaper-collection/main/collection/wallpapers/sports/002.jpg",
        "thumb": "https://media.githubusercontent.com/media/ddh4r4m/wallpaper-collection/main/collection/thumbnails/sports/002.jpg"
      },
      "metadata": {
        "added_at": "2025-07-21T01:01:48.792540",
        "file_size": 292741,
        "dimensions": {
          "width": 1080,
          "height": 1920
        }
      }
    },
    {
      "id": "sports_003",
      "category": "sports",
      "title": "Sports Wallpaper 003",
      "tags": [
        "sports"
      ],
      "urls": {
        "raw": "https://media.githubusercontent.com/media/ddh4r4m/wallpaper-collection/main/collection/wallpapers/sports/003.jpg",
        "thumb": "https://media.githubusercontent.com/media/ddh4r4m/wallpaper-collection/main/collection/thumbnails/sports/003.jpg"
      },
      "metadata": {
        "added_at": "2025-07-21T01:01:48.922003",
        "file_size": 351508,
        "dimensions": {
          "width": 1080,
          "height": 1920
        }
      }
    },
    {
      "id": "sports_004",
      "category": "sports",
      "title": "Sports Wallpaper 004",
      "tags": [
        "sports"
      ],
      "urls": {
        "raw": "https://media.githubusercontent.com/media/ddh4r4m/wallpaper-collection/main/collection/wallpapers/sports/004.jpg",
        "thumb": "https://media.githubusercontent.com/media/ddh4r4m/wallpaper-collection/main/collection/thumbnails/sports/004.jpg"
      },
      "metadata": {
        "added_at": "2025-07-21T01:01:49.223329",
        "file_size": 62938,
        "dimensions": {
          "width": 1080,
          "height": 1920
        }
      }
    },
    {
      "id": "sports_005",
      "category": "sports",
      "title": "Sports Wallpaper 005",
      "tags": [
        "sports"
      ],
      "urls": {
        "raw": "https://media.githubusercontent.com/media/ddh4r4m/wallpaper-collection/main/collection/wallpapers/sports/005.jpg",
        "thumb": "https://media.githubusercontent.com/media/ddh4r4m/wallpaper-collection/main/collection/thumbnails/sports/005.jpg"
      },
      "metadata": {
        "added_at": "2025-07-21T01:01:49.316399",
        "file_size": 125592,
        "dimensions": {
          "width": 1080,
          "height": 1920
        }
      }
    },
    {
      "id": "sports_006",
      "category": "sports",
      "title": "Sports Wallpaper 006",
      "tags": [
        "sports"
      ],
      "urls": {
        "raw": "https://media.githubusercontent.com/media/ddh4r4m/wallpaper-collection/main/collection/wallpapers/sports/006.jpg",
        "thumb": "https://media.githubusercontent.com/media/ddh4r4m/wallpaper-collection/main/collection/thumbnails/sports/006.jpg"
      },
      "metadata": {
        "added_at": "2025-07-21T01:01:49.448833",
        "file_size": 201930,
        "dimensions": {
          "width": 1080,
          "height": 1920
        }
      }
    },
    {
      "id": "sports_007",
      "category": "sports",
      "title": "Sports Wallpaper 007",
      "tags": [
        "sports"
      ],
      "urls": {
        "raw": "https://media.githubusercontent.com/media/ddh4r4m/wallpaper-collection/main/collection/wallpapers/sports/007.jpg",
        "thumb": "https://media.githubusercontent.com/media/ddh4r4m/wallpaper-collection/main/collection/thumbnails/sports/007.jpg"
      },
      "metadata": {
        "added_at": "2025-07-21T01:01:49.580393",
        "file_size": 201930,
        "dimensions": {
          "width": 1080,
          "height": 1920
        }
      }
    },
    {
      "id": "sports_008",
      "category": "sports",
      "title": "Sports Wallpaper 008",
      "tags": [
        "sports"
      ],
      "urls": {
        "raw": "https://media.githubusercontent.com/media/ddh4r4m/wallpaper-collection/main/collection/wallpapers/sports/008.jpg",
        "thumb": "https://media.githubusercontent.com/media/ddh4r4m/wallpaper-collection/main/collection/thumbnails/sports/008.jpg"
      },
      "metadata": {
        "added_at": "2025-07-21T01:01:49.780293",
        "file_size": 225664,
        "dimensions": {
          "width": 1080,
          "height": 1920
        }
      }
    },
    {
      "id": "sports_009",
      "category": "sports",
      "title": "Sports Wallpaper 009",
      "tags": [
        "sports"
      ],
      "urls": {
        "raw": "https://media.githubusercontent.com/media/ddh4r4m/wallpaper-collection/main/collection/wallpapers/sports/009.jpg",
        "thumb": "https://media.githubusercontent.com/media/ddh4r4m/wallpaper-collection/main/collection/thumbnails/sports/009.jpg"
      },
      "metadata": {
        "added_at": "2025-07-21T01:01:49.892609",
        "file_size": 300345,
        "dimensions": {
          "width": 1080,
          "height": 1920
        }
      }
    },
    {
      "id": "sports_010",
      "category": "sports",
      "title": "Sports Wallpaper 010",
      "tags": [
        "sports"
      ],
      "urls": {
        "raw": "https://media.githubusercontent.com/media/ddh4r4m/wallpaper-collection/main/collection/wallpapers/sports/010.jpg",
        "thumb": "https://media.githubusercontent.com/media/ddh4r4m/wallpaper-collection/main/collection/thumbnails/sports/010.jpg"
      },
      "metadata": {
        "added_at": "2025-07-21T01:01:50.030159",
        "file_size": 367161,
        "dimensions": {
          "width": 1080,
          "height": 1920
        }
      }
    },
    {
      "id": "sports_011",
      "category": "sports",
      "title": "Sports Wallpaper 011",
      "tags": [
        "sports"
      ],
      "urls": {
        "raw": "https://media.githubusercontent.com/media/ddh4r4m/wallpaper-collection/main/collection/wallpapers/sports/011.jpg",
        "thumb": "https://media.githubusercontent.com/media/ddh4r4m/wallpaper-collection/main/collection/thumbnails/sports/011.jpg"
      },
      "metadata": {
        "added_at": "2025-07-21T01:01:50.168441",
        "file_size": 451331,
        "dimensions": {
          "width": 1080,
          "height": 1920
        }
      }
    }
  ]
}