{
  "meta": {
    "version": "1.0",
    "generated_at": "2025-07-28T21:27:34.814586",
    "page": 159,
    "per_page": 15,
    "total_pages": 177,
    "total_count": 2647,
    "count_on_page": 15,
    "categories": 21,
    "has_next": true,
    "has_prev": true,
    "next_page_url": "/api/v1/all/pages/160.json",
    "prev_page_url": "/api/v1/all/pages/158.json"
  },
  "data": [
    {
      "id": "sports_021",
      "category": "sports",
      "title": "Sports Wallpaper 021",
      "tags": [
        "sports"
      ],
      "urls": {
        "raw": "https://media.githubusercontent.com/media/ddh4r4m/wallpaper-collection/main/collection/wallpapers/sports/021.jpg",
        "thumb": "https://media.githubusercontent.com/media/ddh4r4m/wallpaper-collection/main/collection/thumbnails/sports/021.jpg"
      },
      "metadata": {
        "added_at": "2025-07-21T01:01:51.587407",
        "file_size": 203223,
        "dimensions": {
          "width": 1080,
          "height": 1920
        }
      }
    },
    {
      "id": "sports_022",
      "category": "sports",
      "title": "Sports Wallpaper 022",
      "tags": [
        "sports"
      ],
      "urls": {
        "raw": "https://media.githubusercontent.com/media/ddh4r4m/wallpaper-collection/main/collection/wallpapers/sports/022.jpg",
        "thumb": "https://media.githubusercontent.com/media/ddh4r4m/wallpaper-collection/main/collection/thumbnails/sports/022.jpg"
      },
      "metadata": {
        "added_at": "2025-07-21T01:01:51.878471",
        "file_size": 62938,
        "dimensions": {
          "width": 1080,
          "height": 1920
        }
      }
    },
    {
      "id": "sports_023",
      "category": "sports",
      "title": "Sports Wallpaper 023",
      "tags": [
        "sports"
      ],
      "urls": {
        "raw": "https://media.githubusercontent.com/media/ddh4r4m/wallpaper-collection/main/collection/wallpapers/sports/023.jpg",
        "thumb": "https://media.githubusercontent.com/media/ddh4r4m/wallpaper-collection/main/collection/thumbnails/sports/023.jpg"
      },
      "metadata": {
        "added_at": "2025-07-21T01:01:52.084766",
        "file_size": 214495,
        "dimensions": {
          "width": 1080,
          "height": 1920
        }
      }
    },
    {
      "id": "sports_024",
      "category": "sports",
      "title": "Sports Wallpaper 024",
      "tags": [
        "sports"
      ],
      "urls": {
        "raw": "https://media.githubusercontent.com/media/ddh4r4m/wallpaper-collection/main/collection/wallpapers/sports/024.jpg",
        "thumb": "https://media.githubusercontent.com/media/ddh4r4m/wallpaper-collection/main/collection/thumbnails/sports/024.jpg"
      },
      "metadata": {
        "added_at": "2025-07-21T01:01:52.205230",
        "file_size": 447410,
        "dimensions": {
          "width": 1080,
          "height": 1920
        }
      }
    },
    {
      "id": "sports_025",
      "category": "sports",
      "title": "Sports Wallpaper 025",
      "tags": [
        "sports"
      ],
      "urls": {
        "raw": "https://media.githubusercontent.com/media/ddh4r4m/wallpaper-collection/main/collection/wallpapers/sports/025.jpg",
        "thumb": "https://media.githubusercontent.com/media/ddh4r4m/wallpaper-collection/main/collection/thumbnails/sports/025.jpg"
      },
      "metadata": {
        "added_at": "2025-07-21T01:01:52.301639",
        "file_size": 156090,
        "dimensions": {
          "width": 1080,
          "height": 1920
        }
      }
    },
    {
      "id": "sports_026",
      "category": "sports",
      "title": "Sports Wallpaper 026",
      "tags": [
        "sports"
      ],
      "urls": {
        "raw": "https://media.githubusercontent.com/media/ddh4r4m/wallpaper-collection/main/collection/wallpapers/sports/026.jpg",
        "thumb": "https://media.githubusercontent.com/media/ddh4r4m/wallpaper-collection/main/collection/thumbnails/sports/026.jpg"
      },
      "metadata": {
        "added_at": "2025-07-21T01:01:52.430045",
        "file_size": 289119,
        "dimensions": {
          "width": 1080,
          "height": 1920
        }
      }
    },
    {
      "id": "sports_027",
      "category": "sports",
      "title": "Sports Wallpaper 027",
      "tags": [
        "sports"
      ],
      "urls": {
        "raw": "https://media.githubusercontent.com/media/ddh4r4m/wallpaper-collection/main/collection/wallpapers/sports/027.jpg",
        "thumb": "https://media.githubusercontent.com/media/ddh4r4m/wallpaper-collection/main/collection/thumbnails/sports/027.jpg"
      },
      "metadata": {
        "added_at": "2025-07-21T01:01:52.635839",
        "file_size": 214495,
        "dimensions": {
          "width": 1080,
          "height": 1920
        }
      }
    },
    {
      "id": "sports_028",
      "category": "sports",
      "title": "Sports Wallpaper 028",
      "tags": [
        "sports"
      ],
      "urls": {
        "raw": "https://media.githubusercontent.com/media/ddh4r4m/wallpaper-collection/main/collection/wallpapers/sports/028.jpg",
        "thumb": "https://media.githubusercontent.com/media/ddh4r4m/wallpaper-collection/main/collection/thumbnails/sports/028.jpg"
      },
      "metadata": {
        "added_at": "2025-07-21T01:01:52.767953",
        "file_size": 351508,
        "dimensions": {
          "width": 1080,
          "height": 1920
        }
      }
    },
    {
      "id": "sports_029",
      "category": "sports",
      "title": "Sports Wallpaper 029",
      "tags": [
        "sports"
      ],
      "urls": {
        "raw": "https://media.githubusercontent.com/media/ddh4r4m/wallpaper-collection/main/collection/wallpapers/sports/029.jpg",
        "thumb": "https://media.githubusercontent.com/media/ddh4r4m/wallpaper-collection/main/collection/thumbnails/sports/029.jpg"
      },
      "metadata": {
        "added_at": "2025-07-21T01:01:52.866060",
        "file_size": 180541,
        "dimensions": {
          "width": 1080,
          "height": 1920
        }
      }
    },
    {
      "id": "sports_030",
      "category": "sports",
      "title": "Sports Wallpaper 030",
      "tags": [
        "sports"
      ],
      "urls": {
        "raw": "https://media.githubusercontent.com/media/ddh4r4m/wallpaper-collection/main/collection/wallpapers/sports/030.jpg",
        "thumb": "https://media.githubusercontent.com/media/ddh4r4m/wallpaper-collection/main/collection/thumbnails/sports/030.jpg"
      },
      "metadata": {
        "added_at": "2025-07-21T01:01:52.987199",
        "file_size": 447410,
        "dimensions": {
          "width": 1080,
          "height": 1920
        }
      }
    },
    {
      "id": "sports_031",
      "category": "sports",
      "title": "Sports Wallpaper 031",
      "tags": [
        "sports"
      ],
      "urls": {
        "raw": "https://media.githubusercontent.com/media/ddh4r4m/wallpaper-collection/main/collection/wallpapers/sports/031.jpg",
        "thumb": "https://media.githubusercontent.com/media/ddh4r4m/wallpaper-collection/main/collection/thumbnails/sports/031.jpg"
      },
      "metadata": {
        "added_at": "2025-07-21T01:01:53.132433",
        "file_size": 255072,
        "dimensions": {
          "width": 1080,
          "height": 1920
        }
      }
    },
    {
      "id": "sports_032",
      "category": "sports",
      "title": "Sports Wallpaper 032",
      "tags": [
        "sports"
      ],
      "urls": {
        "raw": "https://media.githubusercontent.com/media/ddh4r4m/wallpaper-collection/main/collection/wallpapers/sports/032.jpg",
        "thumb": "https://media.githubusercontent.com/media/ddh4r4m/wallpaper-collection/main/collection/thumbnails/sports/032.jpg"
      },
      "metadata": {
        "added_at": "2025-07-21T01:01:53.258927",
        "file_size": 145092,
        "dimensions": {
          "width": 1080,
          "height": 1920
        }
      }
    },
    {
      "id": "sports_033",
      "category": "sports",
      "title": "Sports Wallpaper 033",
      "tags": [
        "sports"
      ],
      "urls": {
        "raw": "https://media.githubusercontent.com/media/ddh4r4m/wallpaper-collection/main/collection/wallpapers/sports/033.jpg",
        "thumb": "https://media.githubusercontent.com/media/ddh4r4m/wallpaper-collection/main/collection/thumbnails/sports/033.jpg"
      },
      "metadata": {
        "added_at": "2025-07-21T01:01:53.386171",
        "file_size": 289119,
        "dimensions": {
          "width": 1080,
          "height": 1920
        }
      }
    },
    {
      "id": "sports_034",
      "category": "sports",
      "title": "Sports Wallpaper 034",
      "tags": [
        "sports"
      ],
      "urls": {
        "raw": "https://media.githubusercontent.com/media/ddh4r4m/wallpaper-collection/main/collection/wallpapers/sports/034.jpg",
        "thumb": "https://media.githubusercontent.com/media/ddh4r4m/wallpaper-collection/main/collection/thumbnails/sports/034.jpg"
      },
      "metadata": {
        "added_at": "2025-07-21T01:01:53.525523",
        "file_size": 491856,
        "dimensions": {
          "width": 1080,
          "height": 1920
        }
      }
    },
    {
      "id": "sports_035",
      "category": "sports",
      "title": "Sports Wallpaper 035",
      "tags": [
        "sports"
      ],
      "urls": {
        "raw": "https://media.githubusercontent.com/media/ddh4r4m/wallpaper-collection/main/collection/wallpapers/sports/035.jpg",
        "thumb": "https://media.githubusercontent.com/media/ddh4r4m/wallpaper-collection/main/collection/thumbnails/sports/035.jpg"
      },
      "metadata": {
        "added_at": "2025-07-21T01:01:53.621964",
        "file_size": 156090,
        "dimensions": {
          "width": 1080,
          "height": 1920
        }
      }
    }
  ]
}