{
  "meta": {
    "version": "1.0",
    "generated_at": "2025-07-28T22:48:38.208699",
    "page": 16,
    "per_page": 15,
    "total_pages": 183,
    "total_count": 2737,
    "count_on_page": 15,
    "categories": 22,
    "has_next": true,
    "has_prev": true,
    "next_page_url": "/api/v1/all/pages/17.json",
    "prev_page_url": "/api/v1/all/pages/15.json"
  },
  "data": [
    {
      "id": "abstract_026",
      "category": "abstract",
      "title": "Abstract Wallpaper 026",
      "tags": [
        "abstract",
        "wallpaper",
        "hd",
        "mobile"
      ],
      "urls": {
        "raw": "https://media.githubusercontent.com/media/ddh4r4m/wallpaper-collection/main/collection/wallpapers/abstract/026.jpg",
        "thumb": "https://media.githubusercontent.com/media/ddh4r4m/wallpaper-collection/main/collection/thumbnails/abstract/026.jpg"
      },
      "metadata": {
        "dimensions": {
          "width": 1080,
          "height": 1920
        },
        "file_size": 271372,
        "format": "JPEG",
        "added_at": "2025-07-17T00:02:14.024762",
        "hash": "2de9c65898617da97bab0adb2cc8bc6a",
        "source": "migrated"
      }
    },
    {
      "id": "abstract_027",
      "category": "abstract",
      "title": "Abstract Wallpaper 027",
      "tags": [
        "abstract",
        "wallpaper",
        "hd",
        "mobile"
      ],
      "urls": {
        "raw": "https://media.githubusercontent.com/media/ddh4r4m/wallpaper-collection/main/collection/wallpapers/abstract/027.jpg",
        "thumb": "https://media.githubusercontent.com/media/ddh4r4m/wallpaper-collection/main/collection/thumbnails/abstract/027.jpg"
      },
      "metadata": {
        "dimensions": {
          "width": 1080,
          "height": 1920
        },
        "file_size": 336807,
        "format": "JPEG",
        "added_at": "2025-07-17T00:02:14.087598",
        "hash": "07d9bdcef5280fa16f51af169ec96de8",
        "source": "migrated"
      }
    },
    {
      "id": "abstract_028",
      "category": "abstract",
      "title": "Abstract Wallpaper 028",
      "tags": [
        "abstract",
        "wallpaper",
        "hd",
        "mobile"
      ],
      "urls": {
        "raw": "https://media.githubusercontent.com/media/ddh4r4m/wallpaper-collection/main/collection/wallpapers/abstract/028.jpg",
        "thumb": "https://media.githubusercontent.com/media/ddh4r4m/wallpaper-collection/main/collection/thumbnails/abstract/028.jpg"
      },
      "metadata": {
        "dimensions": {
          "width": 1080,
          "height": 1920
        },
        "file_size": 403588,
        "format": "JPEG",
        "added_at": "2025-07-17T00:02:14.151176",
        "hash": "518cd1f7535f0a72824232e8f7dcc71b",
        "source": "migrated"
      }
    },
    {
      "id": "abstract_029",
      "category": "abstract",
      "title": "Abstract Wallpaper 029",
      "tags": [
        "abstract",
        "wallpaper",
        "hd",
        "mobile"
      ],
      "urls": {
        "raw": "https://media.githubusercontent.com/media/ddh4r4m/wallpaper-collection/main/collection/wallpapers/abstract/029.jpg",
        "thumb": "https://media.githubusercontent.com/media/ddh4r4m/wallpaper-collection/main/collection/thumbnails/abstract/029.jpg"
      },
      "metadata": {
        "dimensions": {
          "width": 1080,
          "height": 1920
        },
        "file_size": 497387,
        "format": "JPEG",
        "added_at": "2025-07-17T00:02:14.221244",
        "hash": "65046c13c957212898d648de3acd07b1",
        "source": "migrated"
      }
    },
    {
      "id": "abstract_030",
      "category": "abstract",
      "title": "Abstract Wallpaper 030",
      "tags": [
        "abstract",
        "wallpaper",
        "hd",
        "mobile"
      ],
      "urls": {
        "raw": "https://media.githubusercontent.com/media/ddh4r4m/wallpaper-collection/main/collection/wallpapers/abstract/030.jpg",
        "thumb": "https://media.githubusercontent.com/media/ddh4r4m/wallpaper-collection/main/collection/thumbnails/abstract/030.jpg"
      },
      "metadata": {
        "dimensions": {
          "width": 1080,
          "height": 1920
        },
        "file_size": 475507,
        "format": "JPEG",
        "added_at": "2025-07-17T00:02:14.288932",
        "hash": "a0c0f2f4f32a0072a482a4055b45c44d",
        "source": "migrated"
      }
    },
    {
      "id": "abstract_031",
      "category": "abstract",
      "title": "Abstract Wallpaper 031",
      "tags": [
        "abstract",
        "wallpaper",
        "hd",
        "mobile"
      ],
      "urls": {
        "raw": "https://media.githubusercontent.com/media/ddh4r4m/wallpaper-collection/main/collection/wallpapers/abstract/031.jpg",
        "thumb": "https://media.githubusercontent.com/media/ddh4r4m/wallpaper-collection/main/collection/thumbnails/abstract/031.jpg"
      },
      "metadata": {
        "dimensions": {
          "width": 1080,
          "height": 1920
        },
        "file_size": 615054,
        "format": "JPEG",
        "added_at": "2025-07-17T00:02:14.362222",
        "hash": "2b2f20d187e203db17ee0b477ec0e3ca",
        "source": "migrated"
      }
    },
    {
      "id": "abstract_032",
      "category": "abstract",
      "title": "Abstract Wallpaper 032",
      "tags": [
        "abstract",
        "wallpaper",
        "hd",
        "mobile"
      ],
      "urls": {
        "raw": "https://media.githubusercontent.com/media/ddh4r4m/wallpaper-collection/main/collection/wallpapers/abstract/032.jpg",
        "thumb": "https://media.githubusercontent.com/media/ddh4r4m/wallpaper-collection/main/collection/thumbnails/abstract/032.jpg"
      },
      "metadata": {
        "dimensions": {
          "width": 1080,
          "height": 1920
        },
        "file_size": 373349,
        "format": "JPEG",
        "added_at": "2025-07-17T00:02:14.424948",
        "hash": "f76a1c67a3f5fe581ad769da033d4966",
        "source": "migrated"
      }
    },
    {
      "id": "abstract_033",
      "category": "abstract",
      "title": "Abstract Wallpaper 033",
      "tags": [
        "abstract",
        "wallpaper",
        "hd",
        "mobile"
      ],
      "urls": {
        "raw": "https://media.githubusercontent.com/media/ddh4r4m/wallpaper-collection/main/collection/wallpapers/abstract/033.jpg",
        "thumb": "https://media.githubusercontent.com/media/ddh4r4m/wallpaper-collection/main/collection/thumbnails/abstract/033.jpg"
      },
      "metadata": {
        "dimensions": {
          "width": 1080,
          "height": 1920
        },
        "file_size": 146999,
        "format": "JPEG",
        "added_at": "2025-07-17T00:02:14.475556",
        "hash": "e1e0d2a3b2973552731d6b55364c3422",
        "source": "migrated"
      }
    },
    {
      "id": "abstract_034",
      "category": "abstract",
      "title": "Abstract Wallpaper 034",
      "tags": [
        "abstract",
        "wallpaper",
        "hd",
        "mobile"
      ],
      "urls": {
        "raw": "https://media.githubusercontent.com/media/ddh4r4m/wallpaper-collection/main/collection/wallpapers/abstract/034.jpg",
        "thumb": "https://media.githubusercontent.com/media/ddh4r4m/wallpaper-collection/main/collection/thumbnails/abstract/034.jpg"
      },
      "metadata": {
        "dimensions": {
          "width": 1080,
          "height": 1920
        },
        "file_size": 268840,
        "format": "JPEG",
        "added_at": "2025-07-17T00:02:14.535632",
        "hash": "b8866e593da338d8bd98afafbe9fee51",
        "source": "migrated"
      }
    },
    {
      "id": "abstract_035",
      "category": "abstract",
      "title": "Abstract Wallpaper 035",
      "tags": [
        "abstract",
        "wallpaper",
        "hd",
        "mobile"
      ],
      "urls": {
        "raw": "https://media.githubusercontent.com/media/ddh4r4m/wallpaper-collection/main/collection/wallpapers/abstract/035.jpg",
        "thumb": "https://media.githubusercontent.com/media/ddh4r4m/wallpaper-collection/main/collection/thumbnails/abstract/035.jpg"
      },
      "metadata": {
        "dimensions": {
          "width": 1080,
          "height": 1920
        },
        "file_size": 352435,
        "format": "JPEG",
        "added_at": "2025-07-17T00:02:14.598859",
        "hash": "b0bb5be7308ff76f5634318a7577deec",
        "source": "migrated"
      }
    },
    {
      "id": "abstract_036",
      "category": "abstract",
      "title": "Abstract Wallpaper 036",
      "tags": [
        "abstract",
        "wallpaper",
        "hd",
        "mobile"
      ],
      "urls": {
        "raw": "https://media.githubusercontent.com/media/ddh4r4m/wallpaper-collection/main/collection/wallpapers/abstract/036.jpg",
        "thumb": "https://media.githubusercontent.com/media/ddh4r4m/wallpaper-collection/main/collection/thumbnails/abstract/036.jpg"
      },
      "metadata": {
        "dimensions": {
          "width": 1080,
          "height": 1920
        },
        "file_size": 443160,
        "format": "JPEG",
        "added_at": "2025-07-17T00:02:14.665137",
        "hash": "c902ee6cf43425ba9d7cbbd578ebe54f",
        "source": "migrated"
      }
    },
    {
      "id": "abstract_037",
      "category": "abstract",
      "title": "Abstract Wallpaper 037",
      "tags": [
        "abstract",
        "wallpaper",
        "hd",
        "mobile"
      ],
      "urls": {
        "raw": "https://media.githubusercontent.com/media/ddh4r4m/wallpaper-collection/main/collection/wallpapers/abstract/037.jpg",
        "thumb": "https://media.githubusercontent.com/media/ddh4r4m/wallpaper-collection/main/collection/thumbnails/abstract/037.jpg"
      },
      "metadata": {
        "dimensions": {
          "width": 1080,
          "height": 1920
        },
        "file_size": 563772,
        "format": "JPEG",
        "added_at": "2025-07-17T00:02:14.737134",
        "hash": "972b7d236778a38104edc8440cb4920c",
        "source": "migrated"
      }
    },
    {
      "id": "abstract_038",
      "category": "abstract",
      "title": "Abstract Wallpaper 038",
      "tags": [
        "abstract",
        "wallpaper",
        "hd",
        "mobile"
      ],
      "urls": {
        "raw": "https://media.githubusercontent.com/media/ddh4r4m/wallpaper-collection/main/collection/wallpapers/abstract/038.jpg",
        "thumb": "https://media.githubusercontent.com/media/ddh4r4m/wallpaper-collection/main/collection/thumbnails/abstract/038.jpg"
      },
      "metadata": {
        "dimensions": {
          "width": 1080,
          "height": 1920
        },
        "file_size": 380816,
        "format": "JPEG",
        "added_at": "2025-07-17T00:02:14.799694",
        "hash": "280f4bc774880b16392cbf8a0dfbe289",
        "source": "migrated"
      }
    },
    {
      "id": "abstract_039",
      "category": "abstract",
      "title": "Abstract Wallpaper 039",
      "tags": [
        "abstract",
        "wallpaper",
        "hd",
        "mobile"
      ],
      "urls": {
        "raw": "https://media.githubusercontent.com/media/ddh4r4m/wallpaper-collection/main/collection/wallpapers/abstract/039.jpg",
        "thumb": "https://media.githubusercontent.com/media/ddh4r4m/wallpaper-collection/main/collection/thumbnails/abstract/039.jpg"
      },
      "metadata": {
        "dimensions": {
          "width": 1080,
          "height": 1920
        },
        "file_size": 770585,
        "format": "JPEG",
        "added_at": "2025-07-17T00:02:14.882945",
        "hash": "57c602c6a8f8d952d07b397b16fa5f92",
        "source": "migrated"
      }
    },
    {
      "id": "abstract_040",
      "category": "abstract",
      "title": "Abstract Wallpaper 040",
      "tags": [
        "abstract",
        "wallpaper",
        "hd",
        "mobile"
      ],
      "urls": {
        "raw": "https://media.githubusercontent.com/media/ddh4r4m/wallpaper-collection/main/collection/wallpapers/abstract/040.jpg",
        "thumb": "https://media.githubusercontent.com/media/ddh4r4m/wallpaper-collection/main/collection/thumbnails/abstract/040.jpg"
      },
      "metadata": {
        "dimensions": {
          "width": 1080,
          "height": 1920
        },
        "file_size": 419627,
        "format": "JPEG",
        "added_at": "2025-07-17T00:02:14.948250",
        "hash": "32403dc70b653e47d6b0d86ff1da3852",
        "source": "migrated"
      }
    }
  ]
}