{
  "meta": {
    "version": "1.0",
    "generated_at": "2025-07-28T22:38:03.579947",
    "page": 161,
    "per_page": 15,
    "total_pages": 178,
    "total_count": 2656,
    "count_on_page": 15,
    "categories": 21,
    "has_next": true,
    "has_prev": true,
    "next_page_url": "/api/v1/all/pages/162.json",
    "prev_page_url": "/api/v1/all/pages/160.json"
  },
  "data": [
    {
      "id": "sports_042",
      "category": "sports",
      "title": "Sports Wallpaper 042",
      "tags": [
        "sports"
      ],
      "urls": {
        "raw": "https://media.githubusercontent.com/media/ddh4r4m/wallpaper-collection/main/collection/wallpapers/sports/042.jpg",
        "thumb": "https://media.githubusercontent.com/media/ddh4r4m/wallpaper-collection/main/collection/thumbnails/sports/042.jpg"
      },
      "metadata": {
        "added_at": "2025-07-21T01:08:35.402072",
        "file_size": 215030,
        "dimensions": {
          "width": 1080,
          "height": 1920
        }
      }
    },
    {
      "id": "sports_043",
      "category": "sports",
      "title": "Sports Wallpaper 043",
      "tags": [
        "sports"
      ],
      "urls": {
        "raw": "https://media.githubusercontent.com/media/ddh4r4m/wallpaper-collection/main/collection/wallpapers/sports/043.jpg",
        "thumb": "https://media.githubusercontent.com/media/ddh4r4m/wallpaper-collection/main/collection/thumbnails/sports/043.jpg"
      },
      "metadata": {
        "added_at": "2025-07-21T01:08:35.511425",
        "file_size": 286121,
        "dimensions": {
          "width": 1080,
          "height": 1920
        }
      }
    },
    {
      "id": "sports_044",
      "category": "sports",
      "title": "Sports Wallpaper 044",
      "tags": [
        "sports"
      ],
      "urls": {
        "raw": "https://media.githubusercontent.com/media/ddh4r4m/wallpaper-collection/main/collection/wallpapers/sports/044.jpg",
        "thumb": "https://media.githubusercontent.com/media/ddh4r4m/wallpaper-collection/main/collection/thumbnails/sports/044.jpg"
      },
      "metadata": {
        "added_at": "2025-07-21T01:08:35.690635",
        "file_size": 241684,
        "dimensions": {
          "width": 1080,
          "height": 1920
        }
      }
    },
    {
      "id": "sports_045",
      "category": "sports",
      "title": "Sports Wallpaper 045",
      "tags": [
        "sports"
      ],
      "urls": {
        "raw": "https://media.githubusercontent.com/media/ddh4r4m/wallpaper-collection/main/collection/wallpapers/sports/045.jpg",
        "thumb": "https://media.githubusercontent.com/media/ddh4r4m/wallpaper-collection/main/collection/thumbnails/sports/045.jpg"
      },
      "metadata": {
        "added_at": "2025-07-21T01:08:35.803061",
        "file_size": 235507,
        "dimensions": {
          "width": 1080,
          "height": 1920
        }
      }
    },
    {
      "id": "sports_046",
      "category": "sports",
      "title": "Sports Wallpaper 046",
      "tags": [
        "sports"
      ],
      "urls": {
        "raw": "https://media.githubusercontent.com/media/ddh4r4m/wallpaper-collection/main/collection/wallpapers/sports/046.jpg",
        "thumb": "https://media.githubusercontent.com/media/ddh4r4m/wallpaper-collection/main/collection/thumbnails/sports/046.jpg"
      },
      "metadata": {
        "added_at": "2025-07-21T01:08:35.930620",
        "file_size": 451120,
        "dimensions": {
          "width": 1080,
          "height": 1920
        }
      }
    },
    {
      "id": "sports_047",
      "category": "sports",
      "title": "Sports Wallpaper 047",
      "tags": [
        "sports"
      ],
      "urls": {
        "raw": "https://media.githubusercontent.com/media/ddh4r4m/wallpaper-collection/main/collection/wallpapers/sports/047.jpg",
        "thumb": "https://media.githubusercontent.com/media/ddh4r4m/wallpaper-collection/main/collection/thumbnails/sports/047.jpg"
      },
      "metadata": {
        "added_at": "2025-07-21T01:08:36.084953",
        "file_size": 294945,
        "dimensions": {
          "width": 1080,
          "height": 1920
        }
      }
    },
    {
      "id": "sports_048",
      "category": "sports",
      "title": "Sports Wallpaper 048",
      "tags": [
        "sports"
      ],
      "urls": {
        "raw": "https://media.githubusercontent.com/media/ddh4r4m/wallpaper-collection/main/collection/wallpapers/sports/048.jpg",
        "thumb": "https://media.githubusercontent.com/media/ddh4r4m/wallpaper-collection/main/collection/thumbnails/sports/048.jpg"
      },
      "metadata": {
        "added_at": "2025-07-21T01:08:36.398379",
        "file_size": 357441,
        "dimensions": {
          "width": 1080,
          "height": 1920
        }
      }
    },
    {
      "id": "sports_049",
      "category": "sports",
      "title": "Sports Wallpaper 049",
      "tags": [
        "sports"
      ],
      "urls": {
        "raw": "https://media.githubusercontent.com/media/ddh4r4m/wallpaper-collection/main/collection/wallpapers/sports/049.jpg",
        "thumb": "https://media.githubusercontent.com/media/ddh4r4m/wallpaper-collection/main/collection/thumbnails/sports/049.jpg"
      },
      "metadata": {
        "added_at": "2025-07-21T01:08:36.510195",
        "file_size": 240707,
        "dimensions": {
          "width": 1080,
          "height": 1920
        }
      }
    },
    {
      "id": "sports_050",
      "category": "sports",
      "title": "Sports Wallpaper 050",
      "tags": [
        "sports"
      ],
      "urls": {
        "raw": "https://media.githubusercontent.com/media/ddh4r4m/wallpaper-collection/main/collection/wallpapers/sports/050.jpg",
        "thumb": "https://media.githubusercontent.com/media/ddh4r4m/wallpaper-collection/main/collection/thumbnails/sports/050.jpg"
      },
      "metadata": {
        "added_at": "2025-07-21T01:08:36.612176",
        "file_size": 162020,
        "dimensions": {
          "width": 1080,
          "height": 1920
        }
      }
    },
    {
      "id": "sports_051",
      "category": "sports",
      "title": "Sports Wallpaper 051",
      "tags": [
        "sports"
      ],
      "urls": {
        "raw": "https://media.githubusercontent.com/media/ddh4r4m/wallpaper-collection/main/collection/wallpapers/sports/051.jpg",
        "thumb": "https://media.githubusercontent.com/media/ddh4r4m/wallpaper-collection/main/collection/thumbnails/sports/051.jpg"
      },
      "metadata": {
        "added_at": "2025-07-21T01:08:36.737367",
        "file_size": 398633,
        "dimensions": {
          "width": 1080,
          "height": 1920
        }
      }
    },
    {
      "id": "sports_052",
      "category": "sports",
      "title": "Sports Wallpaper 052",
      "tags": [
        "sports"
      ],
      "urls": {
        "raw": "https://media.githubusercontent.com/media/ddh4r4m/wallpaper-collection/main/collection/wallpapers/sports/052.jpg",
        "thumb": "https://media.githubusercontent.com/media/ddh4r4m/wallpaper-collection/main/collection/thumbnails/sports/052.jpg"
      },
      "metadata": {
        "added_at": "2025-07-21T01:08:36.856462",
        "file_size": 353537,
        "dimensions": {
          "width": 1080,
          "height": 1920
        }
      }
    },
    {
      "id": "sports_053",
      "category": "sports",
      "title": "Sports Wallpaper 053",
      "tags": [
        "sports"
      ],
      "urls": {
        "raw": "https://media.githubusercontent.com/media/ddh4r4m/wallpaper-collection/main/collection/wallpapers/sports/053.jpg",
        "thumb": "https://media.githubusercontent.com/media/ddh4r4m/wallpaper-collection/main/collection/thumbnails/sports/053.jpg"
      },
      "metadata": {
        "added_at": "2025-07-21T01:08:37.028753",
        "file_size": 350739,
        "dimensions": {
          "width": 1080,
          "height": 1920
        }
      }
    },
    {
      "id": "sports_054",
      "category": "sports",
      "title": "Sports Wallpaper 054",
      "tags": [
        "sports"
      ],
      "urls": {
        "raw": "https://media.githubusercontent.com/media/ddh4r4m/wallpaper-collection/main/collection/wallpapers/sports/054.jpg",
        "thumb": "https://media.githubusercontent.com/media/ddh4r4m/wallpaper-collection/main/collection/thumbnails/sports/054.jpg"
      },
      "metadata": {
        "added_at": "2025-07-21T01:08:37.135166",
        "file_size": 218309,
        "dimensions": {
          "width": 1080,
          "height": 1920
        }
      }
    },
    {
      "id": "sports_055",
      "category": "sports",
      "title": "Sports Wallpaper 055",
      "tags": [
        "sports"
      ],
      "urls": {
        "raw": "https://media.githubusercontent.com/media/ddh4r4m/wallpaper-collection/main/collection/wallpapers/sports/055.jpg",
        "thumb": "https://media.githubusercontent.com/media/ddh4r4m/wallpaper-collection/main/collection/thumbnails/sports/055.jpg"
      },
      "metadata": {
        "added_at": "2025-07-21T01:08:37.248706",
        "file_size": 277314,
        "dimensions": {
          "width": 1080,
          "height": 1920
        }
      }
    },
    {
      "id": "sports_056",
      "category": "sports",
      "title": "Sports Wallpaper 056",
      "tags": [
        "sports"
      ],
      "urls": {
        "raw": "https://media.githubusercontent.com/media/ddh4r4m/wallpaper-collection/main/collection/wallpapers/sports/056.jpg",
        "thumb": "https://media.githubusercontent.com/media/ddh4r4m/wallpaper-collection/main/collection/thumbnails/sports/056.jpg"
      },
      "metadata": {
        "added_at": "2025-07-21T01:08:37.357322",
        "file_size": 263486,
        "dimensions": {
          "width": 1080,
          "height": 1920
        }
      }
    }
  ]
}