{
  "meta": {
    "version": "1.0",
    "generated_at": "2025-07-28T22:38:03.579947",
    "page": 162,
    "per_page": 15,
    "total_pages": 178,
    "total_count": 2656,
    "count_on_page": 15,
    "categories": 21,
    "has_next": true,
    "has_prev": true,
    "next_page_url": "/api/v1/all/pages/163.json",
    "prev_page_url": "/api/v1/all/pages/161.json"
  },
  "data": [
    {
      "id": "sports_057",
      "category": "sports",
      "title": "Sports Wallpaper 057",
      "tags": [
        "sports"
      ],
      "urls": {
        "raw": "https://media.githubusercontent.com/media/ddh4r4m/wallpaper-collection/main/collection/wallpapers/sports/057.jpg",
        "thumb": "https://media.githubusercontent.com/media/ddh4r4m/wallpaper-collection/main/collection/thumbnails/sports/057.jpg"
      },
      "metadata": {
        "added_at": "2025-07-21T01:08:37.547223",
        "file_size": 134428,
        "dimensions": {
          "width": 1080,
          "height": 1920
        }
      }
    },
    {
      "id": "sports_058",
      "category": "sports",
      "title": "Sports Wallpaper 058",
      "tags": [
        "sports"
      ],
      "urls": {
        "raw": "https://media.githubusercontent.com/media/ddh4r4m/wallpaper-collection/main/collection/wallpapers/sports/058.jpg",
        "thumb": "https://media.githubusercontent.com/media/ddh4r4m/wallpaper-collection/main/collection/thumbnails/sports/058.jpg"
      },
      "metadata": {
        "added_at": "2025-07-21T01:08:37.714151",
        "file_size": 268956,
        "dimensions": {
          "width": 1080,
          "height": 1920
        }
      }
    },
    {
      "id": "sports_059",
      "category": "sports",
      "title": "Sports Wallpaper 059",
      "tags": [
        "sports"
      ],
      "urls": {
        "raw": "https://media.githubusercontent.com/media/ddh4r4m/wallpaper-collection/main/collection/wallpapers/sports/059.jpg",
        "thumb": "https://media.githubusercontent.com/media/ddh4r4m/wallpaper-collection/main/collection/thumbnails/sports/059.jpg"
      },
      "metadata": {
        "added_at": "2025-07-21T01:08:37.870436",
        "file_size": 243928,
        "dimensions": {
          "width": 1080,
          "height": 1920
        }
      }
    },
    {
      "id": "sports_060",
      "category": "sports",
      "title": "Sports Wallpaper 060",
      "tags": [
        "sports"
      ],
      "urls": {
        "raw": "https://media.githubusercontent.com/media/ddh4r4m/wallpaper-collection/main/collection/wallpapers/sports/060.jpg",
        "thumb": "https://media.githubusercontent.com/media/ddh4r4m/wallpaper-collection/main/collection/thumbnails/sports/060.jpg"
      },
      "metadata": {
        "added_at": "2025-07-21T01:08:37.988700",
        "file_size": 349258,
        "dimensions": {
          "width": 1080,
          "height": 1920
        }
      }
    },
    {
      "id": "sports_061",
      "category": "sports",
      "title": "Sports Wallpaper 061",
      "tags": [
        "sports"
      ],
      "urls": {
        "raw": "https://media.githubusercontent.com/media/ddh4r4m/wallpaper-collection/main/collection/wallpapers/sports/061.jpg",
        "thumb": "https://media.githubusercontent.com/media/ddh4r4m/wallpaper-collection/main/collection/thumbnails/sports/061.jpg"
      },
      "metadata": {
        "added_at": "2025-07-21T01:08:38.129056",
        "file_size": 347904,
        "dimensions": {
          "width": 1080,
          "height": 1920
        }
      }
    },
    {
      "id": "sports_062",
      "category": "sports",
      "title": "Sports Wallpaper 062",
      "tags": [
        "sports"
      ],
      "urls": {
        "raw": "https://media.githubusercontent.com/media/ddh4r4m/wallpaper-collection/main/collection/wallpapers/sports/062.jpg",
        "thumb": "https://media.githubusercontent.com/media/ddh4r4m/wallpaper-collection/main/collection/thumbnails/sports/062.jpg"
      },
      "metadata": {
        "added_at": "2025-07-21T01:08:38.237868",
        "file_size": 259466,
        "dimensions": {
          "width": 1080,
          "height": 1920
        }
      }
    },
    {
      "id": "sports_063",
      "category": "sports",
      "title": "Sports Wallpaper 063",
      "tags": [
        "sports"
      ],
      "urls": {
        "raw": "https://media.githubusercontent.com/media/ddh4r4m/wallpaper-collection/main/collection/wallpapers/sports/063.jpg",
        "thumb": "https://media.githubusercontent.com/media/ddh4r4m/wallpaper-collection/main/collection/thumbnails/sports/063.jpg"
      },
      "metadata": {
        "added_at": "2025-07-21T01:08:38.339140",
        "file_size": 186859,
        "dimensions": {
          "width": 1080,
          "height": 1920
        }
      }
    },
    {
      "id": "sports_064",
      "category": "sports",
      "title": "Sports Wallpaper 064",
      "tags": [
        "sports"
      ],
      "urls": {
        "raw": "https://media.githubusercontent.com/media/ddh4r4m/wallpaper-collection/main/collection/wallpapers/sports/064.jpg",
        "thumb": "https://media.githubusercontent.com/media/ddh4r4m/wallpaper-collection/main/collection/thumbnails/sports/064.jpg"
      },
      "metadata": {
        "added_at": "2025-07-21T01:08:38.457479",
        "file_size": 380808,
        "dimensions": {
          "width": 1080,
          "height": 1920
        }
      }
    },
    {
      "id": "sports_065",
      "category": "sports",
      "title": "Sports Wallpaper 065",
      "tags": [
        "sports"
      ],
      "urls": {
        "raw": "https://media.githubusercontent.com/media/ddh4r4m/wallpaper-collection/main/collection/wallpapers/sports/065.jpg",
        "thumb": "https://media.githubusercontent.com/media/ddh4r4m/wallpaper-collection/main/collection/thumbnails/sports/065.jpg"
      },
      "metadata": {
        "added_at": "2025-07-21T01:08:38.680551",
        "file_size": 244601,
        "dimensions": {
          "width": 1080,
          "height": 1920
        }
      }
    },
    {
      "id": "sports_066",
      "category": "sports",
      "title": "Sports Wallpaper 066",
      "tags": [
        "sports"
      ],
      "urls": {
        "raw": "https://media.githubusercontent.com/media/ddh4r4m/wallpaper-collection/main/collection/wallpapers/sports/066.jpg",
        "thumb": "https://media.githubusercontent.com/media/ddh4r4m/wallpaper-collection/main/collection/thumbnails/sports/066.jpg"
      },
      "metadata": {
        "added_at": "2025-07-21T01:08:38.796793",
        "file_size": 285871,
        "dimensions": {
          "width": 1080,
          "height": 1920
        }
      }
    },
    {
      "id": "sports_067",
      "category": "sports",
      "title": "Sports Wallpaper 067",
      "tags": [
        "sports"
      ],
      "urls": {
        "raw": "https://media.githubusercontent.com/media/ddh4r4m/wallpaper-collection/main/collection/wallpapers/sports/067.jpg",
        "thumb": "https://media.githubusercontent.com/media/ddh4r4m/wallpaper-collection/main/collection/thumbnails/sports/067.jpg"
      },
      "metadata": {
        "added_at": "2025-07-21T01:08:38.900062",
        "file_size": 180358,
        "dimensions": {
          "width": 1080,
          "height": 1920
        }
      }
    },
    {
      "id": "sports_068",
      "category": "sports",
      "title": "Sports Wallpaper 068",
      "tags": [
        "sports"
      ],
      "urls": {
        "raw": "https://media.githubusercontent.com/media/ddh4r4m/wallpaper-collection/main/collection/wallpapers/sports/068.jpg",
        "thumb": "https://media.githubusercontent.com/media/ddh4r4m/wallpaper-collection/main/collection/thumbnails/sports/068.jpg"
      },
      "metadata": {
        "added_at": "2025-07-21T01:08:39.003545",
        "file_size": 190424,
        "dimensions": {
          "width": 1080,
          "height": 1920
        }
      }
    },
    {
      "id": "sports_069",
      "category": "sports",
      "title": "Sports Wallpaper 069",
      "tags": [
        "sports"
      ],
      "urls": {
        "raw": "https://media.githubusercontent.com/media/ddh4r4m/wallpaper-collection/main/collection/wallpapers/sports/069.jpg",
        "thumb": "https://media.githubusercontent.com/media/ddh4r4m/wallpaper-collection/main/collection/thumbnails/sports/069.jpg"
      },
      "metadata": {
        "added_at": "2025-07-21T01:08:39.111899",
        "file_size": 241724,
        "dimensions": {
          "width": 1080,
          "height": 1920
        }
      }
    },
    {
      "id": "sports_070",
      "category": "sports",
      "title": "Sports Wallpaper 070",
      "tags": [
        "sports"
      ],
      "urls": {
        "raw": "https://media.githubusercontent.com/media/ddh4r4m/wallpaper-collection/main/collection/wallpapers/sports/070.jpg",
        "thumb": "https://media.githubusercontent.com/media/ddh4r4m/wallpaper-collection/main/collection/thumbnails/sports/070.jpg"
      },
      "metadata": {
        "added_at": "2025-07-21T01:08:39.264365",
        "file_size": 248003,
        "dimensions": {
          "width": 1080,
          "height": 1920
        }
      }
    },
    {
      "id": "sports_071",
      "category": "sports",
      "title": "Sports Wallpaper 071",
      "tags": [
        "sports"
      ],
      "urls": {
        "raw": "https://media.githubusercontent.com/media/ddh4r4m/wallpaper-collection/main/collection/wallpapers/sports/071.jpg",
        "thumb": "https://media.githubusercontent.com/media/ddh4r4m/wallpaper-collection/main/collection/thumbnails/sports/071.jpg"
      },
      "metadata": {
        "added_at": "2025-07-21T01:08:39.364947",
        "file_size": 162020,
        "dimensions": {
          "width": 1080,
          "height": 1920
        }
      }
    }
  ]
}