{
  "meta": {
    "version": "1.0",
    "generated_at": "2025-07-28T22:38:03.579947",
    "page": 163,
    "per_page": 15,
    "total_pages": 178,
    "total_count": 2656,
    "count_on_page": 15,
    "categories": 21,
    "has_next": true,
    "has_prev": true,
    "next_page_url": "/api/v1/all/pages/164.json",
    "prev_page_url": "/api/v1/all/pages/162.json"
  },
  "data": [
    {
      "id": "sports_072",
      "category": "sports",
      "title": "Sports Wallpaper 072",
      "tags": [
        "sports"
      ],
      "urls": {
        "raw": "https://media.githubusercontent.com/media/ddh4r4m/wallpaper-collection/main/collection/wallpapers/sports/072.jpg",
        "thumb": "https://media.githubusercontent.com/media/ddh4r4m/wallpaper-collection/main/collection/thumbnails/sports/072.jpg"
      },
      "metadata": {
        "added_at": "2025-07-21T01:08:39.473996",
        "file_size": 241724,
        "dimensions": {
          "width": 1080,
          "height": 1920
        }
      }
    },
    {
      "id": "sports_073",
      "category": "sports",
      "title": "Sports Wallpaper 073",
      "tags": [
        "sports"
      ],
      "urls": {
        "raw": "https://media.githubusercontent.com/media/ddh4r4m/wallpaper-collection/main/collection/wallpapers/sports/073.jpg",
        "thumb": "https://media.githubusercontent.com/media/ddh4r4m/wallpaper-collection/main/collection/thumbnails/sports/073.jpg"
      },
      "metadata": {
        "added_at": "2025-07-21T01:08:39.601578",
        "file_size": 451120,
        "dimensions": {
          "width": 1080,
          "height": 1920
        }
      }
    },
    {
      "id": "sports_074",
      "category": "sports",
      "title": "Sports Wallpaper 074",
      "tags": [
        "sports"
      ],
      "urls": {
        "raw": "https://media.githubusercontent.com/media/ddh4r4m/wallpaper-collection/main/collection/wallpapers/sports/074.jpg",
        "thumb": "https://media.githubusercontent.com/media/ddh4r4m/wallpaper-collection/main/collection/thumbnails/sports/074.jpg"
      },
      "metadata": {
        "added_at": "2025-07-21T01:08:39.776229",
        "file_size": 220714,
        "dimensions": {
          "width": 1080,
          "height": 1920
        }
      }
    },
    {
      "id": "sports_075",
      "category": "sports",
      "title": "Sports Wallpaper 075",
      "tags": [
        "sports"
      ],
      "urls": {
        "raw": "https://media.githubusercontent.com/media/ddh4r4m/wallpaper-collection/main/collection/wallpapers/sports/075.jpg",
        "thumb": "https://media.githubusercontent.com/media/ddh4r4m/wallpaper-collection/main/collection/thumbnails/sports/075.jpg"
      },
      "metadata": {
        "added_at": "2025-07-21T01:08:39.882883",
        "file_size": 258825,
        "dimensions": {
          "width": 1080,
          "height": 1920
        }
      }
    },
    {
      "id": "sports_076",
      "category": "sports",
      "title": "Sports Wallpaper 076",
      "tags": [
        "sports"
      ],
      "urls": {
        "raw": "https://media.githubusercontent.com/media/ddh4r4m/wallpaper-collection/main/collection/wallpapers/sports/076.jpg",
        "thumb": "https://media.githubusercontent.com/media/ddh4r4m/wallpaper-collection/main/collection/thumbnails/sports/076.jpg"
      },
      "metadata": {
        "added_at": "2025-07-21T01:08:39.993072",
        "file_size": 277314,
        "dimensions": {
          "width": 1080,
          "height": 1920
        }
      }
    },
    {
      "id": "sports_077",
      "category": "sports",
      "title": "Sports Wallpaper 077",
      "tags": [
        "sports"
      ],
      "urls": {
        "raw": "https://media.githubusercontent.com/media/ddh4r4m/wallpaper-collection/main/collection/wallpapers/sports/077.jpg",
        "thumb": "https://media.githubusercontent.com/media/ddh4r4m/wallpaper-collection/main/collection/thumbnails/sports/077.jpg"
      },
      "metadata": {
        "added_at": "2025-07-21T01:08:40.108741",
        "file_size": 339826,
        "dimensions": {
          "width": 1080,
          "height": 1920
        }
      }
    },
    {
      "id": "sports_078",
      "category": "sports",
      "title": "Sports Wallpaper 078",
      "tags": [
        "sports"
      ],
      "urls": {
        "raw": "https://media.githubusercontent.com/media/ddh4r4m/wallpaper-collection/main/collection/wallpapers/sports/078.jpg",
        "thumb": "https://media.githubusercontent.com/media/ddh4r4m/wallpaper-collection/main/collection/thumbnails/sports/078.jpg"
      },
      "metadata": {
        "added_at": "2025-07-21T01:08:40.233886",
        "file_size": 427277,
        "dimensions": {
          "width": 1080,
          "height": 1920
        }
      }
    },
    {
      "id": "sports_079",
      "category": "sports",
      "title": "Sports Wallpaper 079",
      "tags": [
        "sports"
      ],
      "urls": {
        "raw": "https://media.githubusercontent.com/media/ddh4r4m/wallpaper-collection/main/collection/wallpapers/sports/079.jpg",
        "thumb": "https://media.githubusercontent.com/media/ddh4r4m/wallpaper-collection/main/collection/thumbnails/sports/079.jpg"
      },
      "metadata": {
        "added_at": "2025-07-21T01:08:40.342064",
        "file_size": 218309,
        "dimensions": {
          "width": 1080,
          "height": 1920
        }
      }
    },
    {
      "id": "sports_080",
      "category": "sports",
      "title": "Sports Wallpaper 080",
      "tags": [
        "sports"
      ],
      "urls": {
        "raw": "https://media.githubusercontent.com/media/ddh4r4m/wallpaper-collection/main/collection/wallpapers/sports/080.jpg",
        "thumb": "https://media.githubusercontent.com/media/ddh4r4m/wallpaper-collection/main/collection/thumbnails/sports/080.jpg"
      },
      "metadata": {
        "added_at": "2025-07-21T01:08:40.491924",
        "file_size": 181802,
        "dimensions": {
          "width": 1080,
          "height": 1920
        }
      }
    },
    {
      "id": "sports_081",
      "category": "sports",
      "title": "Sports Wallpaper 081",
      "tags": [
        "sports"
      ],
      "urls": {
        "raw": "https://media.githubusercontent.com/media/ddh4r4m/wallpaper-collection/main/collection/wallpapers/sports/081.jpg",
        "thumb": "https://media.githubusercontent.com/media/ddh4r4m/wallpaper-collection/main/collection/thumbnails/sports/081.jpg"
      },
      "metadata": {
        "added_at": "2025-07-21T01:09:14.517634",
        "file_size": 451120,
        "dimensions": {
          "width": 1080,
          "height": 1920
        }
      }
    },
    {
      "id": "sports_082",
      "category": "sports",
      "title": "Sports Wallpaper 082",
      "tags": [
        "sports"
      ],
      "urls": {
        "raw": "https://media.githubusercontent.com/media/ddh4r4m/wallpaper-collection/main/collection/wallpapers/sports/082.jpg",
        "thumb": "https://media.githubusercontent.com/media/ddh4r4m/wallpaper-collection/main/collection/thumbnails/sports/082.jpg"
      },
      "metadata": {
        "added_at": "2025-07-21T01:09:14.634113",
        "file_size": 294945,
        "dimensions": {
          "width": 1080,
          "height": 1920
        }
      }
    },
    {
      "id": "sports_083",
      "category": "sports",
      "title": "Sports Wallpaper 083",
      "tags": [
        "sports"
      ],
      "urls": {
        "raw": "https://media.githubusercontent.com/media/ddh4r4m/wallpaper-collection/main/collection/wallpapers/sports/083.jpg",
        "thumb": "https://media.githubusercontent.com/media/ddh4r4m/wallpaper-collection/main/collection/thumbnails/sports/083.jpg"
      },
      "metadata": {
        "added_at": "2025-07-21T01:09:14.958048",
        "file_size": 357441,
        "dimensions": {
          "width": 1080,
          "height": 1920
        }
      }
    },
    {
      "id": "sports_084",
      "category": "sports",
      "title": "Sports Wallpaper 084",
      "tags": [
        "sports"
      ],
      "urls": {
        "raw": "https://media.githubusercontent.com/media/ddh4r4m/wallpaper-collection/main/collection/wallpapers/sports/084.jpg",
        "thumb": "https://media.githubusercontent.com/media/ddh4r4m/wallpaper-collection/main/collection/thumbnails/sports/084.jpg"
      },
      "metadata": {
        "added_at": "2025-07-21T01:09:15.065974",
        "file_size": 240707,
        "dimensions": {
          "width": 1080,
          "height": 1920
        }
      }
    },
    {
      "id": "sports_085",
      "category": "sports",
      "title": "Sports Wallpaper 085",
      "tags": [
        "sports"
      ],
      "urls": {
        "raw": "https://media.githubusercontent.com/media/ddh4r4m/wallpaper-collection/main/collection/wallpapers/sports/085.jpg",
        "thumb": "https://media.githubusercontent.com/media/ddh4r4m/wallpaper-collection/main/collection/thumbnails/sports/085.jpg"
      },
      "metadata": {
        "added_at": "2025-07-21T01:09:15.165356",
        "file_size": 162020,
        "dimensions": {
          "width": 1080,
          "height": 1920
        }
      }
    },
    {
      "id": "sports_086",
      "category": "sports",
      "title": "Sports Wallpaper 086",
      "tags": [
        "sports"
      ],
      "urls": {
        "raw": "https://media.githubusercontent.com/media/ddh4r4m/wallpaper-collection/main/collection/wallpapers/sports/086.jpg",
        "thumb": "https://media.githubusercontent.com/media/ddh4r4m/wallpaper-collection/main/collection/thumbnails/sports/086.jpg"
      },
      "metadata": {
        "added_at": "2025-07-21T01:09:15.285671",
        "file_size": 398633,
        "dimensions": {
          "width": 1080,
          "height": 1920
        }
      }
    }
  ]
}