{
  "meta": {
    "version": "1.0",
    "generated_at": "2025-07-28T22:38:03.579947",
    "page": 164,
    "per_page": 15,
    "total_pages": 178,
    "total_count": 2656,
    "count_on_page": 15,
    "categories": 21,
    "has_next": true,
    "has_prev": true,
    "next_page_url": "/api/v1/all/pages/165.json",
    "prev_page_url": "/api/v1/all/pages/163.json"
  },
  "data": [
    {
      "id": "sports_087",
      "category": "sports",
      "title": "Sports Wallpaper 087",
      "tags": [
        "sports"
      ],
      "urls": {
        "raw": "https://media.githubusercontent.com/media/ddh4r4m/wallpaper-collection/main/collection/wallpapers/sports/087.jpg",
        "thumb": "https://media.githubusercontent.com/media/ddh4r4m/wallpaper-collection/main/collection/thumbnails/sports/087.jpg"
      },
      "metadata": {
        "added_at": "2025-07-21T01:09:15.404436",
        "file_size": 353537,
        "dimensions": {
          "width": 1080,
          "height": 1920
        }
      }
    },
    {
      "id": "sports_088",
      "category": "sports",
      "title": "Sports Wallpaper 088",
      "tags": [
        "sports"
      ],
      "urls": {
        "raw": "https://media.githubusercontent.com/media/ddh4r4m/wallpaper-collection/main/collection/wallpapers/sports/088.jpg",
        "thumb": "https://media.githubusercontent.com/media/ddh4r4m/wallpaper-collection/main/collection/thumbnails/sports/088.jpg"
      },
      "metadata": {
        "added_at": "2025-07-21T01:09:15.573247",
        "file_size": 350739,
        "dimensions": {
          "width": 1080,
          "height": 1920
        }
      }
    },
    {
      "id": "sports_089",
      "category": "sports",
      "title": "Sports Wallpaper 089",
      "tags": [
        "sports"
      ],
      "urls": {
        "raw": "https://media.githubusercontent.com/media/ddh4r4m/wallpaper-collection/main/collection/wallpapers/sports/089.jpg",
        "thumb": "https://media.githubusercontent.com/media/ddh4r4m/wallpaper-collection/main/collection/thumbnails/sports/089.jpg"
      },
      "metadata": {
        "added_at": "2025-07-21T01:09:15.672389",
        "file_size": 218309,
        "dimensions": {
          "width": 1080,
          "height": 1920
        }
      }
    },
    {
      "id": "sports_090",
      "category": "sports",
      "title": "Sports Wallpaper 090",
      "tags": [
        "sports"
      ],
      "urls": {
        "raw": "https://media.githubusercontent.com/media/ddh4r4m/wallpaper-collection/main/collection/wallpapers/sports/090.jpg",
        "thumb": "https://media.githubusercontent.com/media/ddh4r4m/wallpaper-collection/main/collection/thumbnails/sports/090.jpg"
      },
      "metadata": {
        "added_at": "2025-07-21T01:09:15.779733",
        "file_size": 277314,
        "dimensions": {
          "width": 1080,
          "height": 1920
        }
      }
    },
    {
      "id": "sports_091",
      "category": "sports",
      "title": "Sports Wallpaper 091",
      "tags": [
        "sports"
      ],
      "urls": {
        "raw": "https://media.githubusercontent.com/media/ddh4r4m/wallpaper-collection/main/collection/wallpapers/sports/091.jpg",
        "thumb": "https://media.githubusercontent.com/media/ddh4r4m/wallpaper-collection/main/collection/thumbnails/sports/091.jpg"
      },
      "metadata": {
        "added_at": "2025-07-21T01:09:15.883225",
        "file_size": 263486,
        "dimensions": {
          "width": 1080,
          "height": 1920
        }
      }
    },
    {
      "id": "sports_092",
      "category": "sports",
      "title": "Sports Wallpaper 092",
      "tags": [
        "sports"
      ],
      "urls": {
        "raw": "https://media.githubusercontent.com/media/ddh4r4m/wallpaper-collection/main/collection/wallpapers/sports/092.jpg",
        "thumb": "https://media.githubusercontent.com/media/ddh4r4m/wallpaper-collection/main/collection/thumbnails/sports/092.jpg"
      },
      "metadata": {
        "added_at": "2025-07-21T01:09:16.066577",
        "file_size": 134428,
        "dimensions": {
          "width": 1080,
          "height": 1920
        }
      }
    },
    {
      "id": "sports_093",
      "category": "sports",
      "title": "Sports Wallpaper 093",
      "tags": [
        "sports"
      ],
      "urls": {
        "raw": "https://media.githubusercontent.com/media/ddh4r4m/wallpaper-collection/main/collection/wallpapers/sports/093.jpg",
        "thumb": "https://media.githubusercontent.com/media/ddh4r4m/wallpaper-collection/main/collection/thumbnails/sports/093.jpg"
      },
      "metadata": {
        "added_at": "2025-07-21T01:09:16.228922",
        "file_size": 268956,
        "dimensions": {
          "width": 1080,
          "height": 1920
        }
      }
    },
    {
      "id": "sports_094",
      "category": "sports",
      "title": "Sports Wallpaper 094",
      "tags": [
        "sports"
      ],
      "urls": {
        "raw": "https://media.githubusercontent.com/media/ddh4r4m/wallpaper-collection/main/collection/wallpapers/sports/094.jpg",
        "thumb": "https://media.githubusercontent.com/media/ddh4r4m/wallpaper-collection/main/collection/thumbnails/sports/094.jpg"
      },
      "metadata": {
        "added_at": "2025-07-21T01:09:16.380077",
        "file_size": 243928,
        "dimensions": {
          "width": 1080,
          "height": 1920
        }
      }
    },
    {
      "id": "sports_095",
      "category": "sports",
      "title": "Sports Wallpaper 095",
      "tags": [
        "sports"
      ],
      "urls": {
        "raw": "https://media.githubusercontent.com/media/ddh4r4m/wallpaper-collection/main/collection/wallpapers/sports/095.jpg",
        "thumb": "https://media.githubusercontent.com/media/ddh4r4m/wallpaper-collection/main/collection/thumbnails/sports/095.jpg"
      },
      "metadata": {
        "added_at": "2025-07-21T01:09:16.493043",
        "file_size": 349258,
        "dimensions": {
          "width": 1080,
          "height": 1920
        }
      }
    },
    {
      "id": "sports_096",
      "category": "sports",
      "title": "Sports Wallpaper 096",
      "tags": [
        "sports"
      ],
      "urls": {
        "raw": "https://media.githubusercontent.com/media/ddh4r4m/wallpaper-collection/main/collection/wallpapers/sports/096.jpg",
        "thumb": "https://media.githubusercontent.com/media/ddh4r4m/wallpaper-collection/main/collection/thumbnails/sports/096.jpg"
      },
      "metadata": {
        "added_at": "2025-07-21T01:09:16.628522",
        "file_size": 347904,
        "dimensions": {
          "width": 1080,
          "height": 1920
        }
      }
    },
    {
      "id": "sports_097",
      "category": "sports",
      "title": "Sports Wallpaper 097",
      "tags": [
        "sports"
      ],
      "urls": {
        "raw": "https://media.githubusercontent.com/media/ddh4r4m/wallpaper-collection/main/collection/wallpapers/sports/097.jpg",
        "thumb": "https://media.githubusercontent.com/media/ddh4r4m/wallpaper-collection/main/collection/thumbnails/sports/097.jpg"
      },
      "metadata": {
        "added_at": "2025-07-21T01:09:16.736010",
        "file_size": 259466,
        "dimensions": {
          "width": 1080,
          "height": 1920
        }
      }
    },
    {
      "id": "sports_098",
      "category": "sports",
      "title": "Sports Wallpaper 098",
      "tags": [
        "sports"
      ],
      "urls": {
        "raw": "https://media.githubusercontent.com/media/ddh4r4m/wallpaper-collection/main/collection/wallpapers/sports/098.jpg",
        "thumb": "https://media.githubusercontent.com/media/ddh4r4m/wallpaper-collection/main/collection/thumbnails/sports/098.jpg"
      },
      "metadata": {
        "added_at": "2025-07-21T01:09:16.835289",
        "file_size": 186859,
        "dimensions": {
          "width": 1080,
          "height": 1920
        }
      }
    },
    {
      "id": "sports_099",
      "category": "sports",
      "title": "Sports Wallpaper 099",
      "tags": [
        "sports"
      ],
      "urls": {
        "raw": "https://media.githubusercontent.com/media/ddh4r4m/wallpaper-collection/main/collection/wallpapers/sports/099.jpg",
        "thumb": "https://media.githubusercontent.com/media/ddh4r4m/wallpaper-collection/main/collection/thumbnails/sports/099.jpg"
      },
      "metadata": {
        "added_at": "2025-07-21T01:09:16.954652",
        "file_size": 380808,
        "dimensions": {
          "width": 1080,
          "height": 1920
        }
      }
    },
    {
      "id": "sports_100",
      "category": "sports",
      "title": "Sports Wallpaper 100",
      "tags": [
        "sports"
      ],
      "urls": {
        "raw": "https://media.githubusercontent.com/media/ddh4r4m/wallpaper-collection/main/collection/wallpapers/sports/100.jpg",
        "thumb": "https://media.githubusercontent.com/media/ddh4r4m/wallpaper-collection/main/collection/thumbnails/sports/100.jpg"
      },
      "metadata": {
        "added_at": "2025-07-21T01:09:17.170428",
        "file_size": 244601,
        "dimensions": {
          "width": 1080,
          "height": 1920
        }
      }
    },
    {
      "id": "sports_101",
      "category": "sports",
      "title": "Sports Wallpaper 101",
      "tags": [
        "sports"
      ],
      "urls": {
        "raw": "https://media.githubusercontent.com/media/ddh4r4m/wallpaper-collection/main/collection/wallpapers/sports/101.jpg",
        "thumb": "https://media.githubusercontent.com/media/ddh4r4m/wallpaper-collection/main/collection/thumbnails/sports/101.jpg"
      },
      "metadata": {
        "added_at": "2025-07-21T01:09:17.276422",
        "file_size": 285871,
        "dimensions": {
          "width": 1080,
          "height": 1920
        }
      }
    }
  ]
}