{
  "meta": {
    "version": "1.0",
    "generated_at": "2025-07-28T22:38:03.579947",
    "page": 165,
    "per_page": 15,
    "total_pages": 178,
    "total_count": 2656,
    "count_on_page": 15,
    "categories": 21,
    "has_next": true,
    "has_prev": true,
    "next_page_url": "/api/v1/all/pages/166.json",
    "prev_page_url": "/api/v1/all/pages/164.json"
  },
  "data": [
    {
      "id": "sports_102",
      "category": "sports",
      "title": "Sports Wallpaper 102",
      "tags": [
        "sports"
      ],
      "urls": {
        "raw": "https://media.githubusercontent.com/media/ddh4r4m/wallpaper-collection/main/collection/wallpapers/sports/102.jpg",
        "thumb": "https://media.githubusercontent.com/media/ddh4r4m/wallpaper-collection/main/collection/thumbnails/sports/102.jpg"
      },
      "metadata": {
        "added_at": "2025-07-21T01:09:17.376065",
        "file_size": 180358,
        "dimensions": {
          "width": 1080,
          "height": 1920
        }
      }
    },
    {
      "id": "sports_103",
      "category": "sports",
      "title": "Sports Wallpaper 103",
      "tags": [
        "sports"
      ],
      "urls": {
        "raw": "https://media.githubusercontent.com/media/ddh4r4m/wallpaper-collection/main/collection/wallpapers/sports/103.jpg",
        "thumb": "https://media.githubusercontent.com/media/ddh4r4m/wallpaper-collection/main/collection/thumbnails/sports/103.jpg"
      },
      "metadata": {
        "added_at": "2025-07-21T01:09:17.473706",
        "file_size": 190424,
        "dimensions": {
          "width": 1080,
          "height": 1920
        }
      }
    },
    {
      "id": "sports_104",
      "category": "sports",
      "title": "Sports Wallpaper 104",
      "tags": [
        "sports"
      ],
      "urls": {
        "raw": "https://media.githubusercontent.com/media/ddh4r4m/wallpaper-collection/main/collection/wallpapers/sports/104.jpg",
        "thumb": "https://media.githubusercontent.com/media/ddh4r4m/wallpaper-collection/main/collection/thumbnails/sports/104.jpg"
      },
      "metadata": {
        "added_at": "2025-07-21T01:09:17.579243",
        "file_size": 241724,
        "dimensions": {
          "width": 1080,
          "height": 1920
        }
      }
    },
    {
      "id": "sports_105",
      "category": "sports",
      "title": "Sports Wallpaper 105",
      "tags": [
        "sports"
      ],
      "urls": {
        "raw": "https://media.githubusercontent.com/media/ddh4r4m/wallpaper-collection/main/collection/wallpapers/sports/105.jpg",
        "thumb": "https://media.githubusercontent.com/media/ddh4r4m/wallpaper-collection/main/collection/thumbnails/sports/105.jpg"
      },
      "metadata": {
        "added_at": "2025-07-21T01:09:17.727669",
        "file_size": 248003,
        "dimensions": {
          "width": 1080,
          "height": 1920
        }
      }
    },
    {
      "id": "sports_106",
      "category": "sports",
      "title": "Sports Wallpaper 106",
      "tags": [
        "sports"
      ],
      "urls": {
        "raw": "https://media.githubusercontent.com/media/ddh4r4m/wallpaper-collection/main/collection/wallpapers/sports/106.jpg",
        "thumb": "https://media.githubusercontent.com/media/ddh4r4m/wallpaper-collection/main/collection/thumbnails/sports/106.jpg"
      },
      "metadata": {
        "added_at": "2025-07-21T01:09:17.823444",
        "file_size": 162020,
        "dimensions": {
          "width": 1080,
          "height": 1920
        }
      }
    },
    {
      "id": "sports_107",
      "category": "sports",
      "title": "Sports Wallpaper 107",
      "tags": [
        "sports"
      ],
      "urls": {
        "raw": "https://media.githubusercontent.com/media/ddh4r4m/wallpaper-collection/main/collection/wallpapers/sports/107.jpg",
        "thumb": "https://media.githubusercontent.com/media/ddh4r4m/wallpaper-collection/main/collection/thumbnails/sports/107.jpg"
      },
      "metadata": {
        "added_at": "2025-07-21T01:09:17.927728",
        "file_size": 241724,
        "dimensions": {
          "width": 1080,
          "height": 1920
        }
      }
    },
    {
      "id": "sports_108",
      "category": "sports",
      "title": "Sports Wallpaper 108",
      "tags": [
        "sports"
      ],
      "urls": {
        "raw": "https://media.githubusercontent.com/media/ddh4r4m/wallpaper-collection/main/collection/wallpapers/sports/108.jpg",
        "thumb": "https://media.githubusercontent.com/media/ddh4r4m/wallpaper-collection/main/collection/thumbnails/sports/108.jpg"
      },
      "metadata": {
        "added_at": "2025-07-21T01:09:18.054257",
        "file_size": 451120,
        "dimensions": {
          "width": 1080,
          "height": 1920
        }
      }
    },
    {
      "id": "sports_109",
      "category": "sports",
      "title": "Sports Wallpaper 109",
      "tags": [
        "sports"
      ],
      "urls": {
        "raw": "https://media.githubusercontent.com/media/ddh4r4m/wallpaper-collection/main/collection/wallpapers/sports/109.jpg",
        "thumb": "https://media.githubusercontent.com/media/ddh4r4m/wallpaper-collection/main/collection/thumbnails/sports/109.jpg"
      },
      "metadata": {
        "added_at": "2025-07-21T01:09:18.225335",
        "file_size": 220714,
        "dimensions": {
          "width": 1080,
          "height": 1920
        }
      }
    },
    {
      "id": "sports_110",
      "category": "sports",
      "title": "Sports Wallpaper 110",
      "tags": [
        "sports"
      ],
      "urls": {
        "raw": "https://media.githubusercontent.com/media/ddh4r4m/wallpaper-collection/main/collection/wallpapers/sports/110.jpg",
        "thumb": "https://media.githubusercontent.com/media/ddh4r4m/wallpaper-collection/main/collection/thumbnails/sports/110.jpg"
      },
      "metadata": {
        "added_at": "2025-07-21T01:09:18.332474",
        "file_size": 258825,
        "dimensions": {
          "width": 1080,
          "height": 1920
        }
      }
    },
    {
      "id": "sports_111",
      "category": "sports",
      "title": "Sports Wallpaper 111",
      "tags": [
        "sports"
      ],
      "urls": {
        "raw": "https://media.githubusercontent.com/media/ddh4r4m/wallpaper-collection/main/collection/wallpapers/sports/111.jpg",
        "thumb": "https://media.githubusercontent.com/media/ddh4r4m/wallpaper-collection/main/collection/thumbnails/sports/111.jpg"
      },
      "metadata": {
        "added_at": "2025-07-21T01:09:18.438860",
        "file_size": 277314,
        "dimensions": {
          "width": 1080,
          "height": 1920
        }
      }
    },
    {
      "id": "sports_112",
      "category": "sports",
      "title": "Sports Wallpaper 112",
      "tags": [
        "sports"
      ],
      "urls": {
        "raw": "https://media.githubusercontent.com/media/ddh4r4m/wallpaper-collection/main/collection/wallpapers/sports/112.jpg",
        "thumb": "https://media.githubusercontent.com/media/ddh4r4m/wallpaper-collection/main/collection/thumbnails/sports/112.jpg"
      },
      "metadata": {
        "added_at": "2025-07-21T01:09:18.551617",
        "file_size": 339826,
        "dimensions": {
          "width": 1080,
          "height": 1920
        }
      }
    },
    {
      "id": "sports_113",
      "category": "sports",
      "title": "Sports Wallpaper 113",
      "tags": [
        "sports"
      ],
      "urls": {
        "raw": "https://media.githubusercontent.com/media/ddh4r4m/wallpaper-collection/main/collection/wallpapers/sports/113.jpg",
        "thumb": "https://media.githubusercontent.com/media/ddh4r4m/wallpaper-collection/main/collection/thumbnails/sports/113.jpg"
      },
      "metadata": {
        "added_at": "2025-07-21T01:09:18.675967",
        "file_size": 427277,
        "dimensions": {
          "width": 1080,
          "height": 1920
        }
      }
    },
    {
      "id": "sports_114",
      "category": "sports",
      "title": "Sports Wallpaper 114",
      "tags": [
        "sports"
      ],
      "urls": {
        "raw": "https://media.githubusercontent.com/media/ddh4r4m/wallpaper-collection/main/collection/wallpapers/sports/114.jpg",
        "thumb": "https://media.githubusercontent.com/media/ddh4r4m/wallpaper-collection/main/collection/thumbnails/sports/114.jpg"
      },
      "metadata": {
        "added_at": "2025-07-21T01:09:18.781762",
        "file_size": 218309,
        "dimensions": {
          "width": 1080,
          "height": 1920
        }
      }
    },
    {
      "id": "sports_115",
      "category": "sports",
      "title": "Sports Wallpaper 115",
      "tags": [
        "sports"
      ],
      "urls": {
        "raw": "https://media.githubusercontent.com/media/ddh4r4m/wallpaper-collection/main/collection/wallpapers/sports/115.jpg",
        "thumb": "https://media.githubusercontent.com/media/ddh4r4m/wallpaper-collection/main/collection/thumbnails/sports/115.jpg"
      },
      "metadata": {
        "added_at": "2025-07-21T01:09:18.924527",
        "file_size": 181802,
        "dimensions": {
          "width": 1080,
          "height": 1920
        }
      }
    },
    {
      "id": "technology_001",
      "category": "technology",
      "title": "Technology Wallpaper 001",
      "tags": [
        "technology",
        "wallpaper",
        "hd",
        "mobile"
      ],
      "urls": {
        "raw": "https://media.githubusercontent.com/media/ddh4r4m/wallpaper-collection/main/collection/wallpapers/technology/001.jpg",
        "thumb": "https://media.githubusercontent.com/media/ddh4r4m/wallpaper-collection/main/collection/thumbnails/technology/001.jpg"
      },
      "metadata": {
        "dimensions": {
          "width": 1080,
          "height": 1920
        },
        "file_size": 337241,
        "format": "JPEG",
        "added_at": "2025-07-17T00:04:49.295132",
        "hash": "6eeb8e1a32bfdb038ae1a5c84470d42e",
        "source": "migrated"
      }
    }
  ]
}