{
  "meta": {
    "version": "1.0",
    "generated_at": "2025-07-28T22:48:38.208699",
    "page": 169,
    "per_page": 15,
    "total_pages": 183,
    "total_count": 2737,
    "count_on_page": 15,
    "categories": 22,
    "has_next": true,
    "has_prev": true,
    "next_page_url": "/api/v1/all/pages/170.json",
    "prev_page_url": "/api/v1/all/pages/168.json"
  },
  "data": [
    {
      "id": "sports_081",
      "category": "sports",
      "title": "Sports Wallpaper 081",
      "tags": [
        "sports"
      ],
      "urls": {
        "raw": "https://media.githubusercontent.com/media/ddh4r4m/wallpaper-collection/main/collection/wallpapers/sports/081.jpg",
        "thumb": "https://media.githubusercontent.com/media/ddh4r4m/wallpaper-collection/main/collection/thumbnails/sports/081.jpg"
      },
      "metadata": {
        "added_at": "2025-07-21T01:09:14.517634",
        "file_size": 451120,
        "dimensions": {
          "width": 1080,
          "height": 1920
        }
      }
    },
    {
      "id": "sports_082",
      "category": "sports",
      "title": "Sports Wallpaper 082",
      "tags": [
        "sports"
      ],
      "urls": {
        "raw": "https://media.githubusercontent.com/media/ddh4r4m/wallpaper-collection/main/collection/wallpapers/sports/082.jpg",
        "thumb": "https://media.githubusercontent.com/media/ddh4r4m/wallpaper-collection/main/collection/thumbnails/sports/082.jpg"
      },
      "metadata": {
        "added_at": "2025-07-21T01:09:14.634113",
        "file_size": 294945,
        "dimensions": {
          "width": 1080,
          "height": 1920
        }
      }
    },
    {
      "id": "sports_083",
      "category": "sports",
      "title": "Sports Wallpaper 083",
      "tags": [
        "sports"
      ],
      "urls": {
        "raw": "https://media.githubusercontent.com/media/ddh4r4m/wallpaper-collection/main/collection/wallpapers/sports/083.jpg",
        "thumb": "https://media.githubusercontent.com/media/ddh4r4m/wallpaper-collection/main/collection/thumbnails/sports/083.jpg"
      },
      "metadata": {
        "added_at": "2025-07-21T01:09:14.958048",
        "file_size": 357441,
        "dimensions": {
          "width": 1080,
          "height": 1920
        }
      }
    },
    {
      "id": "sports_084",
      "category": "sports",
      "title": "Sports Wallpaper 084",
      "tags": [
        "sports"
      ],
      "urls": {
        "raw": "https://media.githubusercontent.com/media/ddh4r4m/wallpaper-collection/main/collection/wallpapers/sports/084.jpg",
        "thumb": "https://media.githubusercontent.com/media/ddh4r4m/wallpaper-collection/main/collection/thumbnails/sports/084.jpg"
      },
      "metadata": {
        "added_at": "2025-07-21T01:09:15.065974",
        "file_size": 240707,
        "dimensions": {
          "width": 1080,
          "height": 1920
        }
      }
    },
    {
      "id": "sports_085",
      "category": "sports",
      "title": "Sports Wallpaper 085",
      "tags": [
        "sports"
      ],
      "urls": {
        "raw": "https://media.githubusercontent.com/media/ddh4r4m/wallpaper-collection/main/collection/wallpapers/sports/085.jpg",
        "thumb": "https://media.githubusercontent.com/media/ddh4r4m/wallpaper-collection/main/collection/thumbnails/sports/085.jpg"
      },
      "metadata": {
        "added_at": "2025-07-21T01:09:15.165356",
        "file_size": 162020,
        "dimensions": {
          "width": 1080,
          "height": 1920
        }
      }
    },
    {
      "id": "sports_086",
      "category": "sports",
      "title": "Sports Wallpaper 086",
      "tags": [
        "sports"
      ],
      "urls": {
        "raw": "https://media.githubusercontent.com/media/ddh4r4m/wallpaper-collection/main/collection/wallpapers/sports/086.jpg",
        "thumb": "https://media.githubusercontent.com/media/ddh4r4m/wallpaper-collection/main/collection/thumbnails/sports/086.jpg"
      },
      "metadata": {
        "added_at": "2025-07-21T01:09:15.285671",
        "file_size": 398633,
        "dimensions": {
          "width": 1080,
          "height": 1920
        }
      }
    },
    {
      "id": "sports_087",
      "category": "sports",
      "title": "Sports Wallpaper 087",
      "tags": [
        "sports"
      ],
      "urls": {
        "raw": "https://media.githubusercontent.com/media/ddh4r4m/wallpaper-collection/main/collection/wallpapers/sports/087.jpg",
        "thumb": "https://media.githubusercontent.com/media/ddh4r4m/wallpaper-collection/main/collection/thumbnails/sports/087.jpg"
      },
      "metadata": {
        "added_at": "2025-07-21T01:09:15.404436",
        "file_size": 353537,
        "dimensions": {
          "width": 1080,
          "height": 1920
        }
      }
    },
    {
      "id": "sports_088",
      "category": "sports",
      "title": "Sports Wallpaper 088",
      "tags": [
        "sports"
      ],
      "urls": {
        "raw": "https://media.githubusercontent.com/media/ddh4r4m/wallpaper-collection/main/collection/wallpapers/sports/088.jpg",
        "thumb": "https://media.githubusercontent.com/media/ddh4r4m/wallpaper-collection/main/collection/thumbnails/sports/088.jpg"
      },
      "metadata": {
        "added_at": "2025-07-21T01:09:15.573247",
        "file_size": 350739,
        "dimensions": {
          "width": 1080,
          "height": 1920
        }
      }
    },
    {
      "id": "sports_089",
      "category": "sports",
      "title": "Sports Wallpaper 089",
      "tags": [
        "sports"
      ],
      "urls": {
        "raw": "https://media.githubusercontent.com/media/ddh4r4m/wallpaper-collection/main/collection/wallpapers/sports/089.jpg",
        "thumb": "https://media.githubusercontent.com/media/ddh4r4m/wallpaper-collection/main/collection/thumbnails/sports/089.jpg"
      },
      "metadata": {
        "added_at": "2025-07-21T01:09:15.672389",
        "file_size": 218309,
        "dimensions": {
          "width": 1080,
          "height": 1920
        }
      }
    },
    {
      "id": "sports_090",
      "category": "sports",
      "title": "Sports Wallpaper 090",
      "tags": [
        "sports"
      ],
      "urls": {
        "raw": "https://media.githubusercontent.com/media/ddh4r4m/wallpaper-collection/main/collection/wallpapers/sports/090.jpg",
        "thumb": "https://media.githubusercontent.com/media/ddh4r4m/wallpaper-collection/main/collection/thumbnails/sports/090.jpg"
      },
      "metadata": {
        "added_at": "2025-07-21T01:09:15.779733",
        "file_size": 277314,
        "dimensions": {
          "width": 1080,
          "height": 1920
        }
      }
    },
    {
      "id": "sports_091",
      "category": "sports",
      "title": "Sports Wallpaper 091",
      "tags": [
        "sports"
      ],
      "urls": {
        "raw": "https://media.githubusercontent.com/media/ddh4r4m/wallpaper-collection/main/collection/wallpapers/sports/091.jpg",
        "thumb": "https://media.githubusercontent.com/media/ddh4r4m/wallpaper-collection/main/collection/thumbnails/sports/091.jpg"
      },
      "metadata": {
        "added_at": "2025-07-21T01:09:15.883225",
        "file_size": 263486,
        "dimensions": {
          "width": 1080,
          "height": 1920
        }
      }
    },
    {
      "id": "sports_092",
      "category": "sports",
      "title": "Sports Wallpaper 092",
      "tags": [
        "sports"
      ],
      "urls": {
        "raw": "https://media.githubusercontent.com/media/ddh4r4m/wallpaper-collection/main/collection/wallpapers/sports/092.jpg",
        "thumb": "https://media.githubusercontent.com/media/ddh4r4m/wallpaper-collection/main/collection/thumbnails/sports/092.jpg"
      },
      "metadata": {
        "added_at": "2025-07-21T01:09:16.066577",
        "file_size": 134428,
        "dimensions": {
          "width": 1080,
          "height": 1920
        }
      }
    },
    {
      "id": "sports_093",
      "category": "sports",
      "title": "Sports Wallpaper 093",
      "tags": [
        "sports"
      ],
      "urls": {
        "raw": "https://media.githubusercontent.com/media/ddh4r4m/wallpaper-collection/main/collection/wallpapers/sports/093.jpg",
        "thumb": "https://media.githubusercontent.com/media/ddh4r4m/wallpaper-collection/main/collection/thumbnails/sports/093.jpg"
      },
      "metadata": {
        "added_at": "2025-07-21T01:09:16.228922",
        "file_size": 268956,
        "dimensions": {
          "width": 1080,
          "height": 1920
        }
      }
    },
    {
      "id": "sports_094",
      "category": "sports",
      "title": "Sports Wallpaper 094",
      "tags": [
        "sports"
      ],
      "urls": {
        "raw": "https://media.githubusercontent.com/media/ddh4r4m/wallpaper-collection/main/collection/wallpapers/sports/094.jpg",
        "thumb": "https://media.githubusercontent.com/media/ddh4r4m/wallpaper-collection/main/collection/thumbnails/sports/094.jpg"
      },
      "metadata": {
        "added_at": "2025-07-21T01:09:16.380077",
        "file_size": 243928,
        "dimensions": {
          "width": 1080,
          "height": 1920
        }
      }
    },
    {
      "id": "sports_095",
      "category": "sports",
      "title": "Sports Wallpaper 095",
      "tags": [
        "sports"
      ],
      "urls": {
        "raw": "https://media.githubusercontent.com/media/ddh4r4m/wallpaper-collection/main/collection/wallpapers/sports/095.jpg",
        "thumb": "https://media.githubusercontent.com/media/ddh4r4m/wallpaper-collection/main/collection/thumbnails/sports/095.jpg"
      },
      "metadata": {
        "added_at": "2025-07-21T01:09:16.493043",
        "file_size": 349258,
        "dimensions": {
          "width": 1080,
          "height": 1920
        }
      }
    }
  ]
}