{
  "meta": {
    "version": "1.0",
    "generated_at": "2025-07-28T22:48:38.208699",
    "page": 17,
    "per_page": 15,
    "total_pages": 183,
    "total_count": 2737,
    "count_on_page": 15,
    "categories": 22,
    "has_next": true,
    "has_prev": true,
    "next_page_url": "/api/v1/all/pages/18.json",
    "prev_page_url": "/api/v1/all/pages/16.json"
  },
  "data": [
    {
      "id": "abstract_041",
      "category": "abstract",
      "title": "Abstract Wallpaper 041",
      "tags": [
        "abstract",
        "wallpaper",
        "hd",
        "mobile"
      ],
      "urls": {
        "raw": "https://media.githubusercontent.com/media/ddh4r4m/wallpaper-collection/main/collection/wallpapers/abstract/041.jpg",
        "thumb": "https://media.githubusercontent.com/media/ddh4r4m/wallpaper-collection/main/collection/thumbnails/abstract/041.jpg"
      },
      "metadata": {
        "dimensions": {
          "width": 1080,
          "height": 1920
        },
        "file_size": 546062,
        "format": "JPEG",
        "added_at": "2025-07-17T00:02:15.019027",
        "hash": "3d89067c9843655d7fa23dbc392d8eeb",
        "source": "migrated"
      }
    },
    {
      "id": "abstract_042",
      "category": "abstract",
      "title": "Abstract Wallpaper 042",
      "tags": [
        "abstract",
        "wallpaper",
        "hd",
        "mobile"
      ],
      "urls": {
        "raw": "https://media.githubusercontent.com/media/ddh4r4m/wallpaper-collection/main/collection/wallpapers/abstract/042.jpg",
        "thumb": "https://media.githubusercontent.com/media/ddh4r4m/wallpaper-collection/main/collection/thumbnails/abstract/042.jpg"
      },
      "metadata": {
        "dimensions": {
          "width": 1080,
          "height": 1920
        },
        "file_size": 353612,
        "format": "JPEG",
        "added_at": "2025-07-17T00:02:15.079619",
        "hash": "6a46120118eaaca9421aa60c8bcb2c06",
        "source": "migrated"
      }
    },
    {
      "id": "abstract_043",
      "category": "abstract",
      "title": "Abstract Wallpaper 043",
      "tags": [
        "abstract",
        "wallpaper",
        "hd",
        "mobile"
      ],
      "urls": {
        "raw": "https://media.githubusercontent.com/media/ddh4r4m/wallpaper-collection/main/collection/wallpapers/abstract/043.jpg",
        "thumb": "https://media.githubusercontent.com/media/ddh4r4m/wallpaper-collection/main/collection/thumbnails/abstract/043.jpg"
      },
      "metadata": {
        "dimensions": {
          "width": 1080,
          "height": 1920
        },
        "file_size": 84125,
        "format": "JPEG",
        "added_at": "2025-07-17T00:02:15.125049",
        "hash": "b7bb0ba5a628d6c71014b565db8baa2d",
        "source": "migrated"
      }
    },
    {
      "id": "abstract_044",
      "category": "abstract",
      "title": "Abstract Wallpaper 044",
      "tags": [
        "abstract",
        "wallpaper",
        "hd",
        "mobile"
      ],
      "urls": {
        "raw": "https://media.githubusercontent.com/media/ddh4r4m/wallpaper-collection/main/collection/wallpapers/abstract/044.jpg",
        "thumb": "https://media.githubusercontent.com/media/ddh4r4m/wallpaper-collection/main/collection/thumbnails/abstract/044.jpg"
      },
      "metadata": {
        "dimensions": {
          "width": 1080,
          "height": 1920
        },
        "file_size": 459003,
        "format": "JPEG",
        "added_at": "2025-07-17T00:02:15.196032",
        "hash": "9f71a8afb529bdddef322a219a1645b3",
        "source": "migrated"
      }
    },
    {
      "id": "abstract_045",
      "category": "abstract",
      "title": "Abstract Wallpaper 045",
      "tags": [
        "abstract",
        "wallpaper",
        "hd",
        "mobile"
      ],
      "urls": {
        "raw": "https://media.githubusercontent.com/media/ddh4r4m/wallpaper-collection/main/collection/wallpapers/abstract/045.jpg",
        "thumb": "https://media.githubusercontent.com/media/ddh4r4m/wallpaper-collection/main/collection/thumbnails/abstract/045.jpg"
      },
      "metadata": {
        "dimensions": {
          "width": 1080,
          "height": 1920
        },
        "file_size": 382339,
        "format": "JPEG",
        "added_at": "2025-07-17T00:02:15.261080",
        "hash": "bdbe86f9f4a05802525ed2ac23194b08",
        "source": "migrated"
      }
    },
    {
      "id": "abstract_046",
      "category": "abstract",
      "title": "Abstract Wallpaper 046",
      "tags": [
        "abstract",
        "wallpaper",
        "hd",
        "mobile"
      ],
      "urls": {
        "raw": "https://media.githubusercontent.com/media/ddh4r4m/wallpaper-collection/main/collection/wallpapers/abstract/046.jpg",
        "thumb": "https://media.githubusercontent.com/media/ddh4r4m/wallpaper-collection/main/collection/thumbnails/abstract/046.jpg"
      },
      "metadata": {
        "dimensions": {
          "width": 1080,
          "height": 1920
        },
        "file_size": 317532,
        "format": "JPEG",
        "added_at": "2025-07-17T00:02:15.321105",
        "hash": "8f6700f1f7dba976de1787ca488dfcdd",
        "source": "migrated"
      }
    },
    {
      "id": "abstract_047",
      "category": "abstract",
      "title": "Abstract Wallpaper 047",
      "tags": [
        "abstract",
        "wallpaper",
        "hd",
        "mobile"
      ],
      "urls": {
        "raw": "https://media.githubusercontent.com/media/ddh4r4m/wallpaper-collection/main/collection/wallpapers/abstract/047.jpg",
        "thumb": "https://media.githubusercontent.com/media/ddh4r4m/wallpaper-collection/main/collection/thumbnails/abstract/047.jpg"
      },
      "metadata": {
        "dimensions": {
          "width": 1080,
          "height": 1920
        },
        "file_size": 843822,
        "format": "JPEG",
        "added_at": "2025-07-17T00:02:15.406936",
        "hash": "3648006656d5eeeda4f4dc66fcf7af84",
        "source": "migrated"
      }
    },
    {
      "id": "abstract_048",
      "category": "abstract",
      "title": "Abstract Wallpaper 048",
      "tags": [
        "abstract",
        "wallpaper",
        "hd",
        "mobile"
      ],
      "urls": {
        "raw": "https://media.githubusercontent.com/media/ddh4r4m/wallpaper-collection/main/collection/wallpapers/abstract/048.jpg",
        "thumb": "https://media.githubusercontent.com/media/ddh4r4m/wallpaper-collection/main/collection/thumbnails/abstract/048.jpg"
      },
      "metadata": {
        "dimensions": {
          "width": 1080,
          "height": 1920
        },
        "file_size": 631250,
        "format": "JPEG",
        "added_at": "2025-07-17T00:02:15.481396",
        "hash": "0f70d7a3fe7f7e0babf1ffaeba0babd0",
        "source": "migrated"
      }
    },
    {
      "id": "abstract_049",
      "category": "abstract",
      "title": "Abstract Wallpaper 049",
      "tags": [
        "abstract",
        "wallpaper",
        "hd",
        "mobile"
      ],
      "urls": {
        "raw": "https://media.githubusercontent.com/media/ddh4r4m/wallpaper-collection/main/collection/wallpapers/abstract/049.jpg",
        "thumb": "https://media.githubusercontent.com/media/ddh4r4m/wallpaper-collection/main/collection/thumbnails/abstract/049.jpg"
      },
      "metadata": {
        "dimensions": {
          "width": 1080,
          "height": 1920
        },
        "file_size": 417640,
        "format": "JPEG",
        "added_at": "2025-07-17T00:02:15.545241",
        "hash": "b6b9e33abffff2fe5fdb01d1379ed6e9",
        "source": "migrated"
      }
    },
    {
      "id": "abstract_050",
      "category": "abstract",
      "title": "Abstract Wallpaper 050",
      "tags": [
        "abstract",
        "wallpaper",
        "hd",
        "mobile"
      ],
      "urls": {
        "raw": "https://media.githubusercontent.com/media/ddh4r4m/wallpaper-collection/main/collection/wallpapers/abstract/050.jpg",
        "thumb": "https://media.githubusercontent.com/media/ddh4r4m/wallpaper-collection/main/collection/thumbnails/abstract/050.jpg"
      },
      "metadata": {
        "dimensions": {
          "width": 1080,
          "height": 1920
        },
        "file_size": 503724,
        "format": "JPEG",
        "added_at": "2025-07-17T00:02:15.615530",
        "hash": "75bf9d22c655d5f61c112973ba274f2c",
        "source": "migrated"
      }
    },
    {
      "id": "abstract_051",
      "category": "abstract",
      "title": "Abstract Wallpaper 051",
      "tags": [
        "abstract",
        "wallpaper",
        "hd",
        "mobile"
      ],
      "urls": {
        "raw": "https://media.githubusercontent.com/media/ddh4r4m/wallpaper-collection/main/collection/wallpapers/abstract/051.jpg",
        "thumb": "https://media.githubusercontent.com/media/ddh4r4m/wallpaper-collection/main/collection/thumbnails/abstract/051.jpg"
      },
      "metadata": {
        "dimensions": {
          "width": 1080,
          "height": 1920
        },
        "file_size": 612333,
        "format": "JPEG",
        "added_at": "2025-07-17T00:02:15.693603",
        "hash": "a13523675f94ed9493c5197a412d4740",
        "source": "migrated"
      }
    },
    {
      "id": "abstract_052",
      "category": "abstract",
      "title": "Abstract Wallpaper 052",
      "tags": [
        "abstract",
        "wallpaper",
        "hd",
        "mobile"
      ],
      "urls": {
        "raw": "https://media.githubusercontent.com/media/ddh4r4m/wallpaper-collection/main/collection/wallpapers/abstract/052.jpg",
        "thumb": "https://media.githubusercontent.com/media/ddh4r4m/wallpaper-collection/main/collection/thumbnails/abstract/052.jpg"
      },
      "metadata": {
        "dimensions": {
          "width": 1080,
          "height": 1920
        },
        "file_size": 557432,
        "format": "JPEG",
        "added_at": "2025-07-17T00:02:15.769255",
        "hash": "7439f82ef6bbe00143ab02fd16f076c7",
        "source": "migrated"
      }
    },
    {
      "id": "abstract_053",
      "category": "abstract",
      "title": "Abstract Wallpaper 053",
      "tags": [
        "abstract",
        "wallpaper",
        "hd",
        "mobile"
      ],
      "urls": {
        "raw": "https://media.githubusercontent.com/media/ddh4r4m/wallpaper-collection/main/collection/wallpapers/abstract/053.jpg",
        "thumb": "https://media.githubusercontent.com/media/ddh4r4m/wallpaper-collection/main/collection/thumbnails/abstract/053.jpg"
      },
      "metadata": {
        "dimensions": {
          "width": 1080,
          "height": 1920
        },
        "file_size": 540864,
        "format": "JPEG",
        "added_at": "2025-07-17T00:02:15.841461",
        "hash": "c1d503802192bb485d78765a57865a33",
        "source": "migrated"
      }
    },
    {
      "id": "abstract_054",
      "category": "abstract",
      "title": "Abstract Wallpaper 054",
      "tags": [
        "abstract",
        "wallpaper",
        "hd",
        "mobile"
      ],
      "urls": {
        "raw": "https://media.githubusercontent.com/media/ddh4r4m/wallpaper-collection/main/collection/wallpapers/abstract/054.jpg",
        "thumb": "https://media.githubusercontent.com/media/ddh4r4m/wallpaper-collection/main/collection/thumbnails/abstract/054.jpg"
      },
      "metadata": {
        "dimensions": {
          "width": 1080,
          "height": 1920
        },
        "file_size": 490249,
        "format": "JPEG",
        "added_at": "2025-07-17T00:02:15.913548",
        "hash": "6ddd1efafcb2f6cf26571bf26fa8b172",
        "source": "migrated"
      }
    },
    {
      "id": "abstract_055",
      "category": "abstract",
      "title": "Abstract Wallpaper 055",
      "tags": [
        "abstract",
        "wallpaper",
        "hd",
        "mobile"
      ],
      "urls": {
        "raw": "https://media.githubusercontent.com/media/ddh4r4m/wallpaper-collection/main/collection/wallpapers/abstract/055.jpg",
        "thumb": "https://media.githubusercontent.com/media/ddh4r4m/wallpaper-collection/main/collection/thumbnails/abstract/055.jpg"
      },
      "metadata": {
        "dimensions": {
          "width": 1080,
          "height": 1920
        },
        "file_size": 132141,
        "format": "JPEG",
        "added_at": "2025-07-17T00:02:15.961543",
        "hash": "0bfb920729479b506a361b245a65f8e6",
        "source": "migrated"
      }
    }
  ]
}