{
  "meta": {
    "version": "1.0",
    "generated_at": "2025-07-28T23:12:02.393375",
    "page": 171,
    "per_page": 15,
    "total_pages": 183,
    "total_count": 2743,
    "count_on_page": 15,
    "categories": 22,
    "has_next": true,
    "has_prev": true,
    "next_page_url": "/api/v1/all/pages/172.json",
    "prev_page_url": "/api/v1/all/pages/170.json"
  },
  "data": [
    {
      "id": "sports_105",
      "category": "sports",
      "title": "Sports Wallpaper 105",
      "tags": [
        "sports"
      ],
      "urls": {
        "raw": "https://media.githubusercontent.com/media/ddh4r4m/wallpaper-collection/main/collection/wallpapers/sports/105.jpg",
        "thumb": "https://media.githubusercontent.com/media/ddh4r4m/wallpaper-collection/main/collection/thumbnails/sports/105.jpg"
      },
      "metadata": {
        "added_at": "2025-07-21T01:09:17.727669",
        "file_size": 248003,
        "dimensions": {
          "width": 1080,
          "height": 1920
        }
      }
    },
    {
      "id": "sports_106",
      "category": "sports",
      "title": "Sports Wallpaper 106",
      "tags": [
        "sports"
      ],
      "urls": {
        "raw": "https://media.githubusercontent.com/media/ddh4r4m/wallpaper-collection/main/collection/wallpapers/sports/106.jpg",
        "thumb": "https://media.githubusercontent.com/media/ddh4r4m/wallpaper-collection/main/collection/thumbnails/sports/106.jpg"
      },
      "metadata": {
        "added_at": "2025-07-21T01:09:17.823444",
        "file_size": 162020,
        "dimensions": {
          "width": 1080,
          "height": 1920
        }
      }
    },
    {
      "id": "sports_107",
      "category": "sports",
      "title": "Sports Wallpaper 107",
      "tags": [
        "sports"
      ],
      "urls": {
        "raw": "https://media.githubusercontent.com/media/ddh4r4m/wallpaper-collection/main/collection/wallpapers/sports/107.jpg",
        "thumb": "https://media.githubusercontent.com/media/ddh4r4m/wallpaper-collection/main/collection/thumbnails/sports/107.jpg"
      },
      "metadata": {
        "added_at": "2025-07-21T01:09:17.927728",
        "file_size": 241724,
        "dimensions": {
          "width": 1080,
          "height": 1920
        }
      }
    },
    {
      "id": "sports_108",
      "category": "sports",
      "title": "Sports Wallpaper 108",
      "tags": [
        "sports"
      ],
      "urls": {
        "raw": "https://media.githubusercontent.com/media/ddh4r4m/wallpaper-collection/main/collection/wallpapers/sports/108.jpg",
        "thumb": "https://media.githubusercontent.com/media/ddh4r4m/wallpaper-collection/main/collection/thumbnails/sports/108.jpg"
      },
      "metadata": {
        "added_at": "2025-07-21T01:09:18.054257",
        "file_size": 451120,
        "dimensions": {
          "width": 1080,
          "height": 1920
        }
      }
    },
    {
      "id": "sports_109",
      "category": "sports",
      "title": "Sports Wallpaper 109",
      "tags": [
        "sports"
      ],
      "urls": {
        "raw": "https://media.githubusercontent.com/media/ddh4r4m/wallpaper-collection/main/collection/wallpapers/sports/109.jpg",
        "thumb": "https://media.githubusercontent.com/media/ddh4r4m/wallpaper-collection/main/collection/thumbnails/sports/109.jpg"
      },
      "metadata": {
        "added_at": "2025-07-21T01:09:18.225335",
        "file_size": 220714,
        "dimensions": {
          "width": 1080,
          "height": 1920
        }
      }
    },
    {
      "id": "sports_110",
      "category": "sports",
      "title": "Sports Wallpaper 110",
      "tags": [
        "sports"
      ],
      "urls": {
        "raw": "https://media.githubusercontent.com/media/ddh4r4m/wallpaper-collection/main/collection/wallpapers/sports/110.jpg",
        "thumb": "https://media.githubusercontent.com/media/ddh4r4m/wallpaper-collection/main/collection/thumbnails/sports/110.jpg"
      },
      "metadata": {
        "added_at": "2025-07-21T01:09:18.332474",
        "file_size": 258825,
        "dimensions": {
          "width": 1080,
          "height": 1920
        }
      }
    },
    {
      "id": "sports_111",
      "category": "sports",
      "title": "Sports Wallpaper 111",
      "tags": [
        "sports"
      ],
      "urls": {
        "raw": "https://media.githubusercontent.com/media/ddh4r4m/wallpaper-collection/main/collection/wallpapers/sports/111.jpg",
        "thumb": "https://media.githubusercontent.com/media/ddh4r4m/wallpaper-collection/main/collection/thumbnails/sports/111.jpg"
      },
      "metadata": {
        "added_at": "2025-07-21T01:09:18.438860",
        "file_size": 277314,
        "dimensions": {
          "width": 1080,
          "height": 1920
        }
      }
    },
    {
      "id": "sports_112",
      "category": "sports",
      "title": "Sports Wallpaper 112",
      "tags": [
        "sports"
      ],
      "urls": {
        "raw": "https://media.githubusercontent.com/media/ddh4r4m/wallpaper-collection/main/collection/wallpapers/sports/112.jpg",
        "thumb": "https://media.githubusercontent.com/media/ddh4r4m/wallpaper-collection/main/collection/thumbnails/sports/112.jpg"
      },
      "metadata": {
        "added_at": "2025-07-21T01:09:18.551617",
        "file_size": 339826,
        "dimensions": {
          "width": 1080,
          "height": 1920
        }
      }
    },
    {
      "id": "sports_113",
      "category": "sports",
      "title": "Sports Wallpaper 113",
      "tags": [
        "sports"
      ],
      "urls": {
        "raw": "https://media.githubusercontent.com/media/ddh4r4m/wallpaper-collection/main/collection/wallpapers/sports/113.jpg",
        "thumb": "https://media.githubusercontent.com/media/ddh4r4m/wallpaper-collection/main/collection/thumbnails/sports/113.jpg"
      },
      "metadata": {
        "added_at": "2025-07-21T01:09:18.675967",
        "file_size": 427277,
        "dimensions": {
          "width": 1080,
          "height": 1920
        }
      }
    },
    {
      "id": "sports_114",
      "category": "sports",
      "title": "Sports Wallpaper 114",
      "tags": [
        "sports"
      ],
      "urls": {
        "raw": "https://media.githubusercontent.com/media/ddh4r4m/wallpaper-collection/main/collection/wallpapers/sports/114.jpg",
        "thumb": "https://media.githubusercontent.com/media/ddh4r4m/wallpaper-collection/main/collection/thumbnails/sports/114.jpg"
      },
      "metadata": {
        "added_at": "2025-07-21T01:09:18.781762",
        "file_size": 218309,
        "dimensions": {
          "width": 1080,
          "height": 1920
        }
      }
    },
    {
      "id": "sports_115",
      "category": "sports",
      "title": "Sports Wallpaper 115",
      "tags": [
        "sports"
      ],
      "urls": {
        "raw": "https://media.githubusercontent.com/media/ddh4r4m/wallpaper-collection/main/collection/wallpapers/sports/115.jpg",
        "thumb": "https://media.githubusercontent.com/media/ddh4r4m/wallpaper-collection/main/collection/thumbnails/sports/115.jpg"
      },
      "metadata": {
        "added_at": "2025-07-21T01:09:18.924527",
        "file_size": 181802,
        "dimensions": {
          "width": 1080,
          "height": 1920
        }
      }
    },
    {
      "id": "technology_001",
      "category": "technology",
      "title": "Technology Wallpaper 001",
      "tags": [
        "technology",
        "wallpaper",
        "hd",
        "mobile"
      ],
      "urls": {
        "raw": "https://media.githubusercontent.com/media/ddh4r4m/wallpaper-collection/main/collection/wallpapers/technology/001.jpg",
        "thumb": "https://media.githubusercontent.com/media/ddh4r4m/wallpaper-collection/main/collection/thumbnails/technology/001.jpg"
      },
      "metadata": {
        "dimensions": {
          "width": 1080,
          "height": 1920
        },
        "file_size": 337241,
        "format": "JPEG",
        "added_at": "2025-07-17T00:04:49.295132",
        "hash": "6eeb8e1a32bfdb038ae1a5c84470d42e",
        "source": "migrated"
      }
    },
    {
      "id": "technology_002",
      "category": "technology",
      "title": "Technology Wallpaper 002",
      "tags": [
        "technology",
        "wallpaper",
        "hd",
        "mobile"
      ],
      "urls": {
        "raw": "https://media.githubusercontent.com/media/ddh4r4m/wallpaper-collection/main/collection/wallpapers/technology/002.jpg",
        "thumb": "https://media.githubusercontent.com/media/ddh4r4m/wallpaper-collection/main/collection/thumbnails/technology/002.jpg"
      },
      "metadata": {
        "dimensions": {
          "width": 1080,
          "height": 1920
        },
        "file_size": 326064,
        "format": "JPEG",
        "added_at": "2025-07-17T00:04:49.351692",
        "hash": "d8443cb4ae87a96d942eb3e1ece7498e",
        "source": "migrated"
      }
    },
    {
      "id": "technology_003",
      "category": "technology",
      "title": "Technology Wallpaper 003",
      "tags": [
        "technology",
        "wallpaper",
        "hd",
        "mobile"
      ],
      "urls": {
        "raw": "https://media.githubusercontent.com/media/ddh4r4m/wallpaper-collection/main/collection/wallpapers/technology/003.jpg",
        "thumb": "https://media.githubusercontent.com/media/ddh4r4m/wallpaper-collection/main/collection/thumbnails/technology/003.jpg"
      },
      "metadata": {
        "dimensions": {
          "width": 1080,
          "height": 1920
        },
        "file_size": 337241,
        "format": "JPEG",
        "added_at": "2025-07-17T00:04:49.409880",
        "hash": "6eeb8e1a32bfdb038ae1a5c84470d42e",
        "source": "migrated"
      }
    },
    {
      "id": "technology_004",
      "category": "technology",
      "title": "Technology Wallpaper 004",
      "tags": [
        "technology",
        "wallpaper",
        "hd",
        "mobile"
      ],
      "urls": {
        "raw": "https://media.githubusercontent.com/media/ddh4r4m/wallpaper-collection/main/collection/wallpapers/technology/004.jpg",
        "thumb": "https://media.githubusercontent.com/media/ddh4r4m/wallpaper-collection/main/collection/thumbnails/technology/004.jpg"
      },
      "metadata": {
        "dimensions": {
          "width": 1080,
          "height": 1920
        },
        "file_size": 393048,
        "format": "JPEG",
        "added_at": "2025-07-17T00:04:49.474426",
        "hash": "cb518cb0b329f889e15eb6d8b13fa79f",
        "source": "migrated"
      }
    }
  ]
}