{
  "meta": {
    "version": "1.0",
    "generated_at": "2025-07-28T22:48:38.208699",
    "page": 172,
    "per_page": 15,
    "total_pages": 183,
    "total_count": 2737,
    "count_on_page": 15,
    "categories": 22,
    "has_next": true,
    "has_prev": true,
    "next_page_url": "/api/v1/all/pages/173.json",
    "prev_page_url": "/api/v1/all/pages/171.json"
  },
  "data": [
    {
      "id": "technology_011",
      "category": "technology",
      "title": "Technology Wallpaper",
      "tags": [
        "technology",
        "unsplash",
        "hd",
        "mobile"
      ],
      "metadata": {
        "dimensions": {
          "width": 1080,
          "height": 720
        },
        "file_size": 135581,
        "format": "JPEG",
        "added_at": "2025-07-17T21:55:50.813137",
        "hash": "5c1b6341ad7b17b20e376ecdf128472b",
        "photographer": "Unknown"
      },
      "urls": {
        "raw": "https://media.githubusercontent.com/media/ddh4r4m/wallpaper-collection/main/collection/wallpapers/technology/011.jpg",
        "thumb": "https://media.githubusercontent.com/media/ddh4r4m/wallpaper-collection/main/collection/thumbnails/technology/011.jpg"
      }
    },
    {
      "id": "technology_012",
      "category": "technology",
      "title": "Technology Wallpaper",
      "tags": [
        "technology",
        "unsplash",
        "hd",
        "mobile"
      ],
      "metadata": {
        "dimensions": {
          "width": 1080,
          "height": 1350
        },
        "file_size": 143794,
        "format": "JPEG",
        "added_at": "2025-07-17T21:55:55.457108",
        "hash": "d21d9ce47e1e4702bb403aa0093e8427",
        "photographer": "Unknown"
      },
      "urls": {
        "raw": "https://media.githubusercontent.com/media/ddh4r4m/wallpaper-collection/main/collection/wallpapers/technology/012.jpg",
        "thumb": "https://media.githubusercontent.com/media/ddh4r4m/wallpaper-collection/main/collection/thumbnails/technology/012.jpg"
      }
    },
    {
      "id": "technology_013",
      "category": "technology",
      "title": "Technology Wallpaper",
      "tags": [
        "technology",
        "unsplash",
        "hd",
        "mobile"
      ],
      "metadata": {
        "dimensions": {
          "width": 1080,
          "height": 720
        },
        "file_size": 58483,
        "format": "JPEG",
        "added_at": "2025-07-17T21:55:58.778563",
        "hash": "b1b2111e9c7f76e6e9c8fbe6138e8fda",
        "photographer": "Unknown"
      },
      "urls": {
        "raw": "https://media.githubusercontent.com/media/ddh4r4m/wallpaper-collection/main/collection/wallpapers/technology/013.jpg",
        "thumb": "https://media.githubusercontent.com/media/ddh4r4m/wallpaper-collection/main/collection/thumbnails/technology/013.jpg"
      }
    },
    {
      "id": "technology_014",
      "category": "technology",
      "title": "Technology Wallpaper",
      "tags": [
        "technology",
        "unsplash",
        "hd",
        "mobile"
      ],
      "metadata": {
        "dimensions": {
          "width": 1080,
          "height": 720
        },
        "file_size": 39206,
        "format": "JPEG",
        "added_at": "2025-07-17T21:56:04.228049",
        "hash": "4d8050634deae851a9491d46b4fbac01",
        "photographer": "Unknown"
      },
      "urls": {
        "raw": "https://media.githubusercontent.com/media/ddh4r4m/wallpaper-collection/main/collection/wallpapers/technology/014.jpg",
        "thumb": "https://media.githubusercontent.com/media/ddh4r4m/wallpaper-collection/main/collection/thumbnails/technology/014.jpg"
      }
    },
    {
      "id": "technology_015",
      "category": "technology",
      "title": "Technology Wallpaper",
      "tags": [
        "technology",
        "unsplash",
        "hd",
        "mobile"
      ],
      "metadata": {
        "dimensions": {
          "width": 1080,
          "height": 719
        },
        "file_size": 40720,
        "format": "JPEG",
        "added_at": "2025-07-17T21:56:08.154704",
        "hash": "8cbabf0a6f6620c84355fdca02c1e73d",
        "photographer": "Unknown"
      },
      "urls": {
        "raw": "https://media.githubusercontent.com/media/ddh4r4m/wallpaper-collection/main/collection/wallpapers/technology/015.jpg",
        "thumb": "https://media.githubusercontent.com/media/ddh4r4m/wallpaper-collection/main/collection/thumbnails/technology/015.jpg"
      }
    },
    {
      "id": "technology_016",
      "category": "technology",
      "title": "Technology Wallpaper",
      "tags": [
        "technology",
        "unsplash",
        "hd",
        "mobile"
      ],
      "metadata": {
        "dimensions": {
          "width": 1080,
          "height": 720
        },
        "file_size": 90437,
        "format": "JPEG",
        "added_at": "2025-07-17T21:57:26.953024",
        "hash": "0f3bd8c7af9258a6d7f644e61122d927",
        "photographer": "Unknown"
      },
      "urls": {
        "raw": "https://media.githubusercontent.com/media/ddh4r4m/wallpaper-collection/main/collection/wallpapers/technology/016.jpg",
        "thumb": "https://media.githubusercontent.com/media/ddh4r4m/wallpaper-collection/main/collection/thumbnails/technology/016.jpg"
      }
    },
    {
      "id": "technology_017",
      "category": "technology",
      "title": "Technology Wallpaper",
      "tags": [
        "technology",
        "unsplash",
        "hd",
        "mobile"
      ],
      "metadata": {
        "dimensions": {
          "width": 1080,
          "height": 720
        },
        "file_size": 58483,
        "format": "JPEG",
        "added_at": "2025-07-17T21:57:31.277874",
        "hash": "b1b2111e9c7f76e6e9c8fbe6138e8fda",
        "photographer": "Unknown"
      },
      "urls": {
        "raw": "https://media.githubusercontent.com/media/ddh4r4m/wallpaper-collection/main/collection/wallpapers/technology/017.jpg",
        "thumb": "https://media.githubusercontent.com/media/ddh4r4m/wallpaper-collection/main/collection/thumbnails/technology/017.jpg"
      }
    },
    {
      "id": "technology_018",
      "category": "technology",
      "title": "Technology Wallpaper",
      "tags": [
        "technology",
        "unsplash",
        "hd",
        "mobile"
      ],
      "metadata": {
        "dimensions": {
          "width": 1080,
          "height": 720
        },
        "file_size": 90437,
        "format": "JPEG",
        "added_at": "2025-07-17T21:58:33.586113",
        "hash": "0f3bd8c7af9258a6d7f644e61122d927",
        "photographer": "Unknown"
      },
      "urls": {
        "raw": "https://media.githubusercontent.com/media/ddh4r4m/wallpaper-collection/main/collection/wallpapers/technology/018.jpg",
        "thumb": "https://media.githubusercontent.com/media/ddh4r4m/wallpaper-collection/main/collection/thumbnails/technology/018.jpg"
      }
    },
    {
      "id": "technology_019",
      "category": "technology",
      "title": "Technology Wallpaper",
      "tags": [
        "technology",
        "unsplash",
        "hd",
        "mobile"
      ],
      "metadata": {
        "dimensions": {
          "width": 1080,
          "height": 765
        },
        "file_size": 33419,
        "format": "JPEG",
        "added_at": "2025-07-17T21:58:36.907145",
        "hash": "36dd938f95be45722b5451f8f5cb25ba",
        "photographer": "Unknown"
      },
      "urls": {
        "raw": "https://media.githubusercontent.com/media/ddh4r4m/wallpaper-collection/main/collection/wallpapers/technology/019.jpg",
        "thumb": "https://media.githubusercontent.com/media/ddh4r4m/wallpaper-collection/main/collection/thumbnails/technology/019.jpg"
      }
    },
    {
      "id": "technology_020",
      "category": "technology",
      "title": "Technology Wallpaper",
      "tags": [
        "technology",
        "unsplash",
        "hd",
        "mobile"
      ],
      "metadata": {
        "dimensions": {
          "width": 1080,
          "height": 720
        },
        "file_size": 86301,
        "format": "JPEG",
        "added_at": "2025-07-17T21:58:39.088042",
        "hash": "67e24cbfeaa9202006805ac7962e8ca9",
        "photographer": "Unknown"
      },
      "urls": {
        "raw": "https://media.githubusercontent.com/media/ddh4r4m/wallpaper-collection/main/collection/wallpapers/technology/020.jpg",
        "thumb": "https://media.githubusercontent.com/media/ddh4r4m/wallpaper-collection/main/collection/thumbnails/technology/020.jpg"
      }
    },
    {
      "id": "technology_021",
      "category": "technology",
      "title": "Technology Wallpaper",
      "tags": [
        "technology",
        "unsplash",
        "hd",
        "mobile"
      ],
      "metadata": {
        "dimensions": {
          "width": 1080,
          "height": 720
        },
        "file_size": 145145,
        "format": "JPEG",
        "added_at": "2025-07-17T21:58:41.413047",
        "hash": "4a4c8004a7c941a81f3d4b04bb0697d8",
        "photographer": "Unknown"
      },
      "urls": {
        "raw": "https://media.githubusercontent.com/media/ddh4r4m/wallpaper-collection/main/collection/wallpapers/technology/021.jpg",
        "thumb": "https://media.githubusercontent.com/media/ddh4r4m/wallpaper-collection/main/collection/thumbnails/technology/021.jpg"
      }
    },
    {
      "id": "technology_022",
      "category": "technology",
      "title": "Technology Wallpaper",
      "tags": [
        "technology",
        "unsplash",
        "hd",
        "mobile"
      ],
      "metadata": {
        "dimensions": {
          "width": 1080,
          "height": 720
        },
        "file_size": 154821,
        "format": "JPEG",
        "added_at": "2025-07-17T21:58:43.652864",
        "hash": "54732510c2caa2b642f9c44d08d2b454",
        "photographer": "Unknown"
      },
      "urls": {
        "raw": "https://media.githubusercontent.com/media/ddh4r4m/wallpaper-collection/main/collection/wallpapers/technology/022.jpg",
        "thumb": "https://media.githubusercontent.com/media/ddh4r4m/wallpaper-collection/main/collection/thumbnails/technology/022.jpg"
      }
    },
    {
      "id": "technology_023",
      "category": "technology",
      "title": "Technology Wallpaper",
      "tags": [
        "technology",
        "unsplash",
        "hd",
        "mobile"
      ],
      "metadata": {
        "dimensions": {
          "width": 1080,
          "height": 720
        },
        "file_size": 135581,
        "format": "JPEG",
        "added_at": "2025-07-17T21:58:44.840069",
        "hash": "5c1b6341ad7b17b20e376ecdf128472b",
        "photographer": "Unknown"
      },
      "urls": {
        "raw": "https://media.githubusercontent.com/media/ddh4r4m/wallpaper-collection/main/collection/wallpapers/technology/023.jpg",
        "thumb": "https://media.githubusercontent.com/media/ddh4r4m/wallpaper-collection/main/collection/thumbnails/technology/023.jpg"
      }
    },
    {
      "id": "technology_024",
      "category": "technology",
      "title": "Technology Wallpaper",
      "tags": [
        "technology",
        "unsplash",
        "hd",
        "mobile"
      ],
      "metadata": {
        "dimensions": {
          "width": 1080,
          "height": 719
        },
        "file_size": 99747,
        "format": "JPEG",
        "added_at": "2025-07-17T21:58:47.014591",
        "hash": "09e3e394986fdc1e33501e1e67d1eb35",
        "photographer": "Unknown"
      },
      "urls": {
        "raw": "https://media.githubusercontent.com/media/ddh4r4m/wallpaper-collection/main/collection/wallpapers/technology/024.jpg",
        "thumb": "https://media.githubusercontent.com/media/ddh4r4m/wallpaper-collection/main/collection/thumbnails/technology/024.jpg"
      }
    },
    {
      "id": "technology_025",
      "category": "technology",
      "title": "Technology Wallpaper",
      "tags": [
        "technology",
        "unsplash",
        "hd",
        "mobile"
      ],
      "metadata": {
        "dimensions": {
          "width": 1080,
          "height": 1350
        },
        "file_size": 143794,
        "format": "JPEG",
        "added_at": "2025-07-17T21:58:50.404762",
        "hash": "d21d9ce47e1e4702bb403aa0093e8427",
        "photographer": "Unknown"
      },
      "urls": {
        "raw": "https://media.githubusercontent.com/media/ddh4r4m/wallpaper-collection/main/collection/wallpapers/technology/025.jpg",
        "thumb": "https://media.githubusercontent.com/media/ddh4r4m/wallpaper-collection/main/collection/thumbnails/technology/025.jpg"
      }
    }
  ]
}