{
  "meta": {
    "version": "1.0",
    "generated_at": "2025-07-28T23:12:02.393375",
    "page": 173,
    "per_page": 15,
    "total_pages": 183,
    "total_count": 2743,
    "count_on_page": 15,
    "categories": 22,
    "has_next": true,
    "has_prev": true,
    "next_page_url": "/api/v1/all/pages/174.json",
    "prev_page_url": "/api/v1/all/pages/172.json"
  },
  "data": [
    {
      "id": "technology_020",
      "category": "technology",
      "title": "Technology Wallpaper",
      "tags": [
        "technology",
        "unsplash",
        "hd",
        "mobile"
      ],
      "metadata": {
        "dimensions": {
          "width": 1080,
          "height": 720
        },
        "file_size": 86301,
        "format": "JPEG",
        "added_at": "2025-07-17T21:58:39.088042",
        "hash": "67e24cbfeaa9202006805ac7962e8ca9",
        "photographer": "Unknown"
      },
      "urls": {
        "raw": "https://media.githubusercontent.com/media/ddh4r4m/wallpaper-collection/main/collection/wallpapers/technology/020.jpg",
        "thumb": "https://media.githubusercontent.com/media/ddh4r4m/wallpaper-collection/main/collection/thumbnails/technology/020.jpg"
      }
    },
    {
      "id": "technology_021",
      "category": "technology",
      "title": "Technology Wallpaper",
      "tags": [
        "technology",
        "unsplash",
        "hd",
        "mobile"
      ],
      "metadata": {
        "dimensions": {
          "width": 1080,
          "height": 720
        },
        "file_size": 145145,
        "format": "JPEG",
        "added_at": "2025-07-17T21:58:41.413047",
        "hash": "4a4c8004a7c941a81f3d4b04bb0697d8",
        "photographer": "Unknown"
      },
      "urls": {
        "raw": "https://media.githubusercontent.com/media/ddh4r4m/wallpaper-collection/main/collection/wallpapers/technology/021.jpg",
        "thumb": "https://media.githubusercontent.com/media/ddh4r4m/wallpaper-collection/main/collection/thumbnails/technology/021.jpg"
      }
    },
    {
      "id": "technology_022",
      "category": "technology",
      "title": "Technology Wallpaper",
      "tags": [
        "technology",
        "unsplash",
        "hd",
        "mobile"
      ],
      "metadata": {
        "dimensions": {
          "width": 1080,
          "height": 720
        },
        "file_size": 154821,
        "format": "JPEG",
        "added_at": "2025-07-17T21:58:43.652864",
        "hash": "54732510c2caa2b642f9c44d08d2b454",
        "photographer": "Unknown"
      },
      "urls": {
        "raw": "https://media.githubusercontent.com/media/ddh4r4m/wallpaper-collection/main/collection/wallpapers/technology/022.jpg",
        "thumb": "https://media.githubusercontent.com/media/ddh4r4m/wallpaper-collection/main/collection/thumbnails/technology/022.jpg"
      }
    },
    {
      "id": "technology_023",
      "category": "technology",
      "title": "Technology Wallpaper",
      "tags": [
        "technology",
        "unsplash",
        "hd",
        "mobile"
      ],
      "metadata": {
        "dimensions": {
          "width": 1080,
          "height": 720
        },
        "file_size": 135581,
        "format": "JPEG",
        "added_at": "2025-07-17T21:58:44.840069",
        "hash": "5c1b6341ad7b17b20e376ecdf128472b",
        "photographer": "Unknown"
      },
      "urls": {
        "raw": "https://media.githubusercontent.com/media/ddh4r4m/wallpaper-collection/main/collection/wallpapers/technology/023.jpg",
        "thumb": "https://media.githubusercontent.com/media/ddh4r4m/wallpaper-collection/main/collection/thumbnails/technology/023.jpg"
      }
    },
    {
      "id": "technology_024",
      "category": "technology",
      "title": "Technology Wallpaper",
      "tags": [
        "technology",
        "unsplash",
        "hd",
        "mobile"
      ],
      "metadata": {
        "dimensions": {
          "width": 1080,
          "height": 719
        },
        "file_size": 99747,
        "format": "JPEG",
        "added_at": "2025-07-17T21:58:47.014591",
        "hash": "09e3e394986fdc1e33501e1e67d1eb35",
        "photographer": "Unknown"
      },
      "urls": {
        "raw": "https://media.githubusercontent.com/media/ddh4r4m/wallpaper-collection/main/collection/wallpapers/technology/024.jpg",
        "thumb": "https://media.githubusercontent.com/media/ddh4r4m/wallpaper-collection/main/collection/thumbnails/technology/024.jpg"
      }
    },
    {
      "id": "technology_025",
      "category": "technology",
      "title": "Technology Wallpaper",
      "tags": [
        "technology",
        "unsplash",
        "hd",
        "mobile"
      ],
      "metadata": {
        "dimensions": {
          "width": 1080,
          "height": 1350
        },
        "file_size": 143794,
        "format": "JPEG",
        "added_at": "2025-07-17T21:58:50.404762",
        "hash": "d21d9ce47e1e4702bb403aa0093e8427",
        "photographer": "Unknown"
      },
      "urls": {
        "raw": "https://media.githubusercontent.com/media/ddh4r4m/wallpaper-collection/main/collection/wallpapers/technology/025.jpg",
        "thumb": "https://media.githubusercontent.com/media/ddh4r4m/wallpaper-collection/main/collection/thumbnails/technology/025.jpg"
      }
    },
    {
      "id": "technology_026",
      "category": "technology",
      "title": "Technology Wallpaper",
      "tags": [
        "technology",
        "unsplash",
        "hd",
        "mobile"
      ],
      "metadata": {
        "dimensions": {
          "width": 1080,
          "height": 720
        },
        "file_size": 64557,
        "format": "JPEG",
        "added_at": "2025-07-17T21:58:52.573315",
        "hash": "960653863506b302c44421f59bae4d71",
        "photographer": "Unknown"
      },
      "urls": {
        "raw": "https://media.githubusercontent.com/media/ddh4r4m/wallpaper-collection/main/collection/wallpapers/technology/026.jpg",
        "thumb": "https://media.githubusercontent.com/media/ddh4r4m/wallpaper-collection/main/collection/thumbnails/technology/026.jpg"
      }
    },
    {
      "id": "technology_027",
      "category": "technology",
      "title": "Technology Wallpaper",
      "tags": [
        "technology",
        "unsplash",
        "hd",
        "mobile"
      ],
      "metadata": {
        "dimensions": {
          "width": 1080,
          "height": 720
        },
        "file_size": 98957,
        "format": "JPEG",
        "added_at": "2025-07-17T21:58:54.784564",
        "hash": "afa6ea8313f9c14a91908ef820f602c6",
        "photographer": "Unknown"
      },
      "urls": {
        "raw": "https://media.githubusercontent.com/media/ddh4r4m/wallpaper-collection/main/collection/wallpapers/technology/027.jpg",
        "thumb": "https://media.githubusercontent.com/media/ddh4r4m/wallpaper-collection/main/collection/thumbnails/technology/027.jpg"
      }
    },
    {
      "id": "technology_028",
      "category": "technology",
      "title": "Technology Wallpaper",
      "tags": [
        "technology",
        "unsplash",
        "hd",
        "mobile"
      ],
      "metadata": {
        "dimensions": {
          "width": 1080,
          "height": 720
        },
        "file_size": 100991,
        "format": "JPEG",
        "added_at": "2025-07-17T21:58:58.031910",
        "hash": "0595c686aebba0e11ee488f37eee1829",
        "photographer": "Unknown"
      },
      "urls": {
        "raw": "https://media.githubusercontent.com/media/ddh4r4m/wallpaper-collection/main/collection/wallpapers/technology/028.jpg",
        "thumb": "https://media.githubusercontent.com/media/ddh4r4m/wallpaper-collection/main/collection/thumbnails/technology/028.jpg"
      }
    },
    {
      "id": "technology_029",
      "category": "technology",
      "title": "Technology Wallpaper",
      "tags": [
        "technology",
        "unsplash",
        "hd",
        "mobile"
      ],
      "metadata": {
        "dimensions": {
          "width": 1080,
          "height": 719
        },
        "file_size": 101331,
        "format": "JPEG",
        "added_at": "2025-07-17T21:59:00.221354",
        "hash": "8a31eaf1159e159c757bba06702a4a52",
        "photographer": "Unknown"
      },
      "urls": {
        "raw": "https://media.githubusercontent.com/media/ddh4r4m/wallpaper-collection/main/collection/wallpapers/technology/029.jpg",
        "thumb": "https://media.githubusercontent.com/media/ddh4r4m/wallpaper-collection/main/collection/thumbnails/technology/029.jpg"
      }
    },
    {
      "id": "technology_030",
      "category": "technology",
      "title": "Technology Wallpaper",
      "tags": [
        "technology",
        "unsplash",
        "hd",
        "mobile"
      ],
      "metadata": {
        "dimensions": {
          "width": 1080,
          "height": 810
        },
        "file_size": 97754,
        "format": "JPEG",
        "added_at": "2025-07-17T21:59:02.400200",
        "hash": "c445246ff53ba31c74f84b7d1593c81e",
        "photographer": "Unknown"
      },
      "urls": {
        "raw": "https://media.githubusercontent.com/media/ddh4r4m/wallpaper-collection/main/collection/wallpapers/technology/030.jpg",
        "thumb": "https://media.githubusercontent.com/media/ddh4r4m/wallpaper-collection/main/collection/thumbnails/technology/030.jpg"
      }
    },
    {
      "id": "technology_031",
      "category": "technology",
      "title": "Technology Wallpaper",
      "tags": [
        "technology",
        "unsplash",
        "hd",
        "mobile"
      ],
      "metadata": {
        "dimensions": {
          "width": 1080,
          "height": 718
        },
        "file_size": 117640,
        "format": "JPEG",
        "added_at": "2025-07-17T21:59:05.629219",
        "hash": "7018c1394a43b1533ffa94322e8fa46a",
        "photographer": "Unknown"
      },
      "urls": {
        "raw": "https://media.githubusercontent.com/media/ddh4r4m/wallpaper-collection/main/collection/wallpapers/technology/031.jpg",
        "thumb": "https://media.githubusercontent.com/media/ddh4r4m/wallpaper-collection/main/collection/thumbnails/technology/031.jpg"
      }
    },
    {
      "id": "technology_032",
      "category": "technology",
      "title": "Technology Wallpaper",
      "tags": [
        "technology",
        "unsplash",
        "hd",
        "mobile"
      ],
      "metadata": {
        "dimensions": {
          "width": 1080,
          "height": 720
        },
        "file_size": 58483,
        "format": "JPEG",
        "added_at": "2025-07-17T21:59:08.866119",
        "hash": "b1b2111e9c7f76e6e9c8fbe6138e8fda",
        "photographer": "Unknown"
      },
      "urls": {
        "raw": "https://media.githubusercontent.com/media/ddh4r4m/wallpaper-collection/main/collection/wallpapers/technology/032.jpg",
        "thumb": "https://media.githubusercontent.com/media/ddh4r4m/wallpaper-collection/main/collection/thumbnails/technology/032.jpg"
      }
    },
    {
      "id": "technology_033",
      "category": "technology",
      "title": "Technology Wallpaper",
      "tags": [
        "technology",
        "unsplash",
        "hd",
        "mobile"
      ],
      "metadata": {
        "dimensions": {
          "width": 1080,
          "height": 720
        },
        "file_size": 139953,
        "format": "JPEG",
        "added_at": "2025-07-17T21:59:11.110831",
        "hash": "95da5f760ce19d177e914fc40da3d750",
        "photographer": "Unknown"
      },
      "urls": {
        "raw": "https://media.githubusercontent.com/media/ddh4r4m/wallpaper-collection/main/collection/wallpapers/technology/033.jpg",
        "thumb": "https://media.githubusercontent.com/media/ddh4r4m/wallpaper-collection/main/collection/thumbnails/technology/033.jpg"
      }
    },
    {
      "id": "technology_034",
      "category": "technology",
      "title": "Technology Wallpaper",
      "tags": [
        "technology",
        "unsplash",
        "hd",
        "mobile"
      ],
      "metadata": {
        "dimensions": {
          "width": 1080,
          "height": 720
        },
        "file_size": 78488,
        "format": "JPEG",
        "added_at": "2025-07-17T21:59:13.551881",
        "hash": "e71025b155b10d37c648f7d3250ba257",
        "photographer": "Unknown"
      },
      "urls": {
        "raw": "https://media.githubusercontent.com/media/ddh4r4m/wallpaper-collection/main/collection/wallpapers/technology/034.jpg",
        "thumb": "https://media.githubusercontent.com/media/ddh4r4m/wallpaper-collection/main/collection/thumbnails/technology/034.jpg"
      }
    }
  ]
}