{
  "meta": {
    "version": "1.0",
    "generated_at": "2025-07-28T23:12:02.393375",
    "page": 174,
    "per_page": 15,
    "total_pages": 183,
    "total_count": 2743,
    "count_on_page": 15,
    "categories": 22,
    "has_next": true,
    "has_prev": true,
    "next_page_url": "/api/v1/all/pages/175.json",
    "prev_page_url": "/api/v1/all/pages/173.json"
  },
  "data": [
    {
      "id": "technology_035",
      "category": "technology",
      "title": "Technology Wallpaper",
      "tags": [
        "technology",
        "unsplash",
        "hd",
        "mobile"
      ],
      "metadata": {
        "dimensions": {
          "width": 1080,
          "height": 719
        },
        "file_size": 99747,
        "format": "JPEG",
        "added_at": "2025-07-17T21:59:15.880366",
        "hash": "09e3e394986fdc1e33501e1e67d1eb35",
        "photographer": "Unknown"
      },
      "urls": {
        "raw": "https://media.githubusercontent.com/media/ddh4r4m/wallpaper-collection/main/collection/wallpapers/technology/035.jpg",
        "thumb": "https://media.githubusercontent.com/media/ddh4r4m/wallpaper-collection/main/collection/thumbnails/technology/035.jpg"
      }
    },
    {
      "id": "technology_036",
      "category": "technology",
      "title": "Technology Wallpaper",
      "tags": [
        "technology",
        "unsplash",
        "hd",
        "mobile"
      ],
      "metadata": {
        "dimensions": {
          "width": 1080,
          "height": 720
        },
        "file_size": 154821,
        "format": "JPEG",
        "added_at": "2025-07-17T21:59:17.056940",
        "hash": "54732510c2caa2b642f9c44d08d2b454",
        "photographer": "Unknown"
      },
      "urls": {
        "raw": "https://media.githubusercontent.com/media/ddh4r4m/wallpaper-collection/main/collection/wallpapers/technology/036.jpg",
        "thumb": "https://media.githubusercontent.com/media/ddh4r4m/wallpaper-collection/main/collection/thumbnails/technology/036.jpg"
      }
    },
    {
      "id": "technology_037",
      "category": "technology",
      "title": "Technology Wallpaper",
      "tags": [
        "technology",
        "unsplash",
        "hd",
        "mobile"
      ],
      "metadata": {
        "dimensions": {
          "width": 1080,
          "height": 721
        },
        "file_size": 381528,
        "format": "JPEG",
        "added_at": "2025-07-17T21:59:19.347214",
        "hash": "f577f005c4c677d5c02d7c3899ed82a0",
        "photographer": "Unknown"
      },
      "urls": {
        "raw": "https://media.githubusercontent.com/media/ddh4r4m/wallpaper-collection/main/collection/wallpapers/technology/037.jpg",
        "thumb": "https://media.githubusercontent.com/media/ddh4r4m/wallpaper-collection/main/collection/thumbnails/technology/037.jpg"
      }
    },
    {
      "id": "technology_038",
      "category": "technology",
      "title": "Technology Wallpaper",
      "tags": [
        "technology",
        "unsplash",
        "hd",
        "mobile"
      ],
      "metadata": {
        "dimensions": {
          "width": 1080,
          "height": 720
        },
        "file_size": 51991,
        "format": "JPEG",
        "added_at": "2025-07-17T21:59:22.805267",
        "hash": "ec4e94cf5b93affee07c2ad3b17aaa00",
        "photographer": "Unknown"
      },
      "urls": {
        "raw": "https://media.githubusercontent.com/media/ddh4r4m/wallpaper-collection/main/collection/wallpapers/technology/038.jpg",
        "thumb": "https://media.githubusercontent.com/media/ddh4r4m/wallpaper-collection/main/collection/thumbnails/technology/038.jpg"
      }
    },
    {
      "id": "technology_039",
      "category": "technology",
      "title": "Technology Wallpaper",
      "tags": [
        "technology",
        "unsplash",
        "hd",
        "mobile"
      ],
      "metadata": {
        "dimensions": {
          "width": 1080,
          "height": 720
        },
        "file_size": 39206,
        "format": "JPEG",
        "added_at": "2025-07-17T21:59:26.260523",
        "hash": "4d8050634deae851a9491d46b4fbac01",
        "photographer": "Unknown"
      },
      "urls": {
        "raw": "https://media.githubusercontent.com/media/ddh4r4m/wallpaper-collection/main/collection/wallpapers/technology/039.jpg",
        "thumb": "https://media.githubusercontent.com/media/ddh4r4m/wallpaper-collection/main/collection/thumbnails/technology/039.jpg"
      }
    },
    {
      "id": "technology_040",
      "category": "technology",
      "title": "Technology Wallpaper",
      "tags": [
        "technology",
        "unsplash",
        "hd",
        "mobile"
      ],
      "metadata": {
        "dimensions": {
          "width": 1080,
          "height": 720
        },
        "file_size": 106334,
        "format": "JPEG",
        "added_at": "2025-07-17T21:59:28.579442",
        "hash": "0b6a7c1b4c838375d3bb302173b7d5b3",
        "photographer": "Unknown"
      },
      "urls": {
        "raw": "https://media.githubusercontent.com/media/ddh4r4m/wallpaper-collection/main/collection/wallpapers/technology/040.jpg",
        "thumb": "https://media.githubusercontent.com/media/ddh4r4m/wallpaper-collection/main/collection/thumbnails/technology/040.jpg"
      }
    },
    {
      "id": "technology_041",
      "category": "technology",
      "title": "Technology Wallpaper",
      "tags": [
        "technology",
        "unsplash",
        "hd",
        "mobile"
      ],
      "metadata": {
        "dimensions": {
          "width": 1080,
          "height": 720
        },
        "file_size": 228056,
        "format": "JPEG",
        "added_at": "2025-07-17T21:59:30.905150",
        "hash": "63e6c374569f9da6ab4a00eadc0e3bf7",
        "photographer": "Unknown"
      },
      "urls": {
        "raw": "https://media.githubusercontent.com/media/ddh4r4m/wallpaper-collection/main/collection/wallpapers/technology/041.jpg",
        "thumb": "https://media.githubusercontent.com/media/ddh4r4m/wallpaper-collection/main/collection/thumbnails/technology/041.jpg"
      }
    },
    {
      "id": "technology_042",
      "category": "technology",
      "title": "Technology Wallpaper",
      "tags": [
        "technology",
        "unsplash",
        "hd",
        "mobile"
      ],
      "metadata": {
        "dimensions": {
          "width": 1080,
          "height": 720
        },
        "file_size": 145145,
        "format": "JPEG",
        "added_at": "2025-07-17T21:59:32.100412",
        "hash": "4a4c8004a7c941a81f3d4b04bb0697d8",
        "photographer": "Unknown"
      },
      "urls": {
        "raw": "https://media.githubusercontent.com/media/ddh4r4m/wallpaper-collection/main/collection/wallpapers/technology/042.jpg",
        "thumb": "https://media.githubusercontent.com/media/ddh4r4m/wallpaper-collection/main/collection/thumbnails/technology/042.jpg"
      }
    },
    {
      "id": "technology_043",
      "category": "technology",
      "title": "Technology Wallpaper",
      "tags": [
        "technology",
        "unsplash",
        "hd",
        "mobile"
      ],
      "metadata": {
        "dimensions": {
          "width": 1080,
          "height": 696
        },
        "file_size": 97562,
        "format": "JPEG",
        "added_at": "2025-07-17T21:59:34.786337",
        "hash": "5ce4e71b35212909d2a43c73b10e8902",
        "photographer": "Unknown"
      },
      "urls": {
        "raw": "https://media.githubusercontent.com/media/ddh4r4m/wallpaper-collection/main/collection/wallpapers/technology/043.jpg",
        "thumb": "https://media.githubusercontent.com/media/ddh4r4m/wallpaper-collection/main/collection/thumbnails/technology/043.jpg"
      }
    },
    {
      "id": "technology_044",
      "category": "technology",
      "title": "Technology Wallpaper",
      "tags": [
        "technology",
        "unsplash",
        "hd",
        "mobile"
      ],
      "metadata": {
        "dimensions": {
          "width": 1080,
          "height": 720
        },
        "file_size": 33402,
        "format": "JPEG",
        "added_at": "2025-07-17T21:59:37.160824",
        "hash": "941fc85ea26601fe297fdf0ea5c7066e",
        "photographer": "Unknown"
      },
      "urls": {
        "raw": "https://media.githubusercontent.com/media/ddh4r4m/wallpaper-collection/main/collection/wallpapers/technology/044.jpg",
        "thumb": "https://media.githubusercontent.com/media/ddh4r4m/wallpaper-collection/main/collection/thumbnails/technology/044.jpg"
      }
    },
    {
      "id": "technology_045",
      "category": "technology",
      "title": "Technology Wallpaper",
      "tags": [
        "technology",
        "unsplash",
        "hd",
        "mobile"
      ],
      "metadata": {
        "dimensions": {
          "width": 1080,
          "height": 1620
        },
        "file_size": 332156,
        "format": "JPEG",
        "added_at": "2025-07-17T21:59:39.882030",
        "hash": "cf45fc3abda2a87edfaf2889fb93113f",
        "photographer": "Unknown"
      },
      "urls": {
        "raw": "https://media.githubusercontent.com/media/ddh4r4m/wallpaper-collection/main/collection/wallpapers/technology/045.jpg",
        "thumb": "https://media.githubusercontent.com/media/ddh4r4m/wallpaper-collection/main/collection/thumbnails/technology/045.jpg"
      }
    },
    {
      "id": "technology_046",
      "category": "technology",
      "title": "Technology Wallpaper",
      "tags": [
        "technology",
        "unsplash",
        "hd",
        "mobile"
      ],
      "metadata": {
        "dimensions": {
          "width": 1080,
          "height": 719
        },
        "file_size": 40720,
        "format": "JPEG",
        "added_at": "2025-07-17T21:59:43.177351",
        "hash": "8cbabf0a6f6620c84355fdca02c1e73d",
        "photographer": "Unknown"
      },
      "urls": {
        "raw": "https://media.githubusercontent.com/media/ddh4r4m/wallpaper-collection/main/collection/wallpapers/technology/046.jpg",
        "thumb": "https://media.githubusercontent.com/media/ddh4r4m/wallpaper-collection/main/collection/thumbnails/technology/046.jpg"
      }
    },
    {
      "id": "technology_047",
      "category": "technology",
      "title": "Technology Wallpaper",
      "tags": [
        "technology",
        "unsplash",
        "hd",
        "mobile"
      ],
      "metadata": {
        "dimensions": {
          "width": 1080,
          "height": 675
        },
        "file_size": 91079,
        "format": "JPEG",
        "added_at": "2025-07-17T21:59:45.617308",
        "hash": "f99c631a479c706905b788ba7b83ecfd",
        "photographer": "Unknown"
      },
      "urls": {
        "raw": "https://media.githubusercontent.com/media/ddh4r4m/wallpaper-collection/main/collection/wallpapers/technology/047.jpg",
        "thumb": "https://media.githubusercontent.com/media/ddh4r4m/wallpaper-collection/main/collection/thumbnails/technology/047.jpg"
      }
    },
    {
      "id": "technology_048",
      "category": "technology",
      "title": "Technology Wallpaper",
      "tags": [
        "technology",
        "unsplash",
        "hd",
        "mobile"
      ],
      "metadata": {
        "dimensions": {
          "width": 1080,
          "height": 1351
        },
        "file_size": 253562,
        "format": "JPEG",
        "added_at": "2025-07-17T21:59:48.312104",
        "hash": "89b89a4832de6716c3abe69da10946a6",
        "photographer": "Unknown"
      },
      "urls": {
        "raw": "https://media.githubusercontent.com/media/ddh4r4m/wallpaper-collection/main/collection/wallpapers/technology/048.jpg",
        "thumb": "https://media.githubusercontent.com/media/ddh4r4m/wallpaper-collection/main/collection/thumbnails/technology/048.jpg"
      }
    },
    {
      "id": "technology_049",
      "category": "technology",
      "title": "Technology Wallpaper",
      "tags": [
        "technology",
        "unsplash",
        "hd",
        "mobile"
      ],
      "metadata": {
        "dimensions": {
          "width": 1080,
          "height": 720
        },
        "file_size": 90437,
        "format": "JPEG",
        "added_at": "2025-07-17T22:26:09.173624",
        "hash": "0f3bd8c7af9258a6d7f644e61122d927",
        "photographer": "Unknown"
      },
      "urls": {
        "raw": "https://media.githubusercontent.com/media/ddh4r4m/wallpaper-collection/main/collection/wallpapers/technology/049.jpg",
        "thumb": "https://media.githubusercontent.com/media/ddh4r4m/wallpaper-collection/main/collection/thumbnails/technology/049.jpg"
      }
    }
  ]
}