{
  "meta": {
    "version": "1.0",
    "generated_at": "2025-07-28T22:38:03.579947",
    "page": 176,
    "per_page": 15,
    "total_pages": 178,
    "total_count": 2656,
    "count_on_page": 15,
    "categories": 21,
    "has_next": true,
    "has_prev": true,
    "next_page_url": "/api/v1/all/pages/177.json",
    "prev_page_url": "/api/v1/all/pages/175.json"
  },
  "data": [
    {
      "id": "vintage_069",
      "category": "vintage",
      "title": "Vintage Wallpaper",
      "tags": [
        "vintage",
        "unsplash",
        "hd",
        "mobile"
      ],
      "metadata": {
        "dimensions": {
          "width": 1080,
          "height": 771
        },
        "file_size": 112767,
        "format": "JPEG",
        "added_at": "2025-07-17T22:05:45.963140",
        "hash": "d209645572dc832506e4dbe545533106",
        "photographer": "Unknown"
      },
      "urls": {
        "raw": "https://media.githubusercontent.com/media/ddh4r4m/wallpaper-collection/main/collection/wallpapers/vintage/069.jpg",
        "thumb": "https://media.githubusercontent.com/media/ddh4r4m/wallpaper-collection/main/collection/thumbnails/vintage/069.jpg"
      }
    },
    {
      "id": "vintage_070",
      "category": "vintage",
      "title": "Vintage Wallpaper",
      "tags": [
        "vintage",
        "unsplash",
        "hd",
        "mobile"
      ],
      "metadata": {
        "dimensions": {
          "width": 1080,
          "height": 1620
        },
        "file_size": 216431,
        "format": "JPEG",
        "added_at": "2025-07-17T22:05:48.608972",
        "hash": "9482da4947dcdd3d7b7cc56a4f82f4d5",
        "photographer": "Unknown"
      },
      "urls": {
        "raw": "https://media.githubusercontent.com/media/ddh4r4m/wallpaper-collection/main/collection/wallpapers/vintage/070.jpg",
        "thumb": "https://media.githubusercontent.com/media/ddh4r4m/wallpaper-collection/main/collection/thumbnails/vintage/070.jpg"
      }
    },
    {
      "id": "vintage_071",
      "category": "vintage",
      "title": "Vintage Wallpaper",
      "tags": [
        "vintage",
        "unsplash",
        "hd",
        "mobile"
      ],
      "metadata": {
        "dimensions": {
          "width": 1080,
          "height": 810
        },
        "file_size": 76721,
        "format": "JPEG",
        "added_at": "2025-07-17T22:05:49.815898",
        "hash": "c4c42c3542c916a23c6a5a83f6b63b43",
        "photographer": "Unknown"
      },
      "urls": {
        "raw": "https://media.githubusercontent.com/media/ddh4r4m/wallpaper-collection/main/collection/wallpapers/vintage/071.jpg",
        "thumb": "https://media.githubusercontent.com/media/ddh4r4m/wallpaper-collection/main/collection/thumbnails/vintage/071.jpg"
      }
    },
    {
      "id": "vintage_072",
      "category": "vintage",
      "title": "Vintage Wallpaper",
      "tags": [
        "vintage",
        "unsplash",
        "hd",
        "mobile"
      ],
      "metadata": {
        "dimensions": {
          "width": 1080,
          "height": 717
        },
        "file_size": 143681,
        "format": "JPEG",
        "added_at": "2025-07-17T22:05:53.269131",
        "hash": "00d6c33e040f1b41797b42e218b5f0fb",
        "photographer": "Unknown"
      },
      "urls": {
        "raw": "https://media.githubusercontent.com/media/ddh4r4m/wallpaper-collection/main/collection/wallpapers/vintage/072.jpg",
        "thumb": "https://media.githubusercontent.com/media/ddh4r4m/wallpaper-collection/main/collection/thumbnails/vintage/072.jpg"
      }
    },
    {
      "id": "vintage_073",
      "category": "vintage",
      "title": "Vintage Wallpaper",
      "tags": [
        "vintage",
        "unsplash",
        "hd",
        "mobile"
      ],
      "metadata": {
        "dimensions": {
          "width": 1080,
          "height": 1620
        },
        "file_size": 234699,
        "format": "JPEG",
        "added_at": "2025-07-17T22:05:56.000386",
        "hash": "1794c6d301d530334256074c9a01ab77",
        "photographer": "Unknown"
      },
      "urls": {
        "raw": "https://media.githubusercontent.com/media/ddh4r4m/wallpaper-collection/main/collection/wallpapers/vintage/073.jpg",
        "thumb": "https://media.githubusercontent.com/media/ddh4r4m/wallpaper-collection/main/collection/thumbnails/vintage/073.jpg"
      }
    },
    {
      "id": "vintage_074",
      "category": "vintage",
      "title": "Vintage Wallpaper",
      "tags": [
        "vintage",
        "unsplash",
        "hd",
        "mobile"
      ],
      "metadata": {
        "dimensions": {
          "width": 1080,
          "height": 1814
        },
        "file_size": 171099,
        "format": "JPEG",
        "added_at": "2025-07-17T22:05:58.413683",
        "hash": "ea51d20c741e0a1d298a7ed2f003135b",
        "photographer": "Unknown"
      },
      "urls": {
        "raw": "https://media.githubusercontent.com/media/ddh4r4m/wallpaper-collection/main/collection/wallpapers/vintage/074.jpg",
        "thumb": "https://media.githubusercontent.com/media/ddh4r4m/wallpaper-collection/main/collection/thumbnails/vintage/074.jpg"
      }
    },
    {
      "id": "vintage_075",
      "category": "vintage",
      "title": "Vintage Wallpaper",
      "tags": [
        "vintage",
        "unsplash",
        "hd",
        "mobile"
      ],
      "metadata": {
        "dimensions": {
          "width": 1080,
          "height": 1512
        },
        "file_size": 378282,
        "format": "JPEG",
        "added_at": "2025-07-17T22:06:02.292467",
        "hash": "1ecd9e9c6d6720e2b68de67f8fb16d5c",
        "photographer": "Unknown"
      },
      "urls": {
        "raw": "https://media.githubusercontent.com/media/ddh4r4m/wallpaper-collection/main/collection/wallpapers/vintage/075.jpg",
        "thumb": "https://media.githubusercontent.com/media/ddh4r4m/wallpaper-collection/main/collection/thumbnails/vintage/075.jpg"
      }
    },
    {
      "id": "vintage_076",
      "category": "vintage",
      "title": "Vintage Wallpaper",
      "tags": [
        "vintage",
        "unsplash",
        "hd",
        "mobile"
      ],
      "metadata": {
        "dimensions": {
          "width": 1080,
          "height": 723
        },
        "file_size": 93997,
        "format": "JPEG",
        "added_at": "2025-07-17T22:06:04.530154",
        "hash": "6b7c654fa155e8787f3e8193dcc7be95",
        "photographer": "Unknown"
      },
      "urls": {
        "raw": "https://media.githubusercontent.com/media/ddh4r4m/wallpaper-collection/main/collection/wallpapers/vintage/076.jpg",
        "thumb": "https://media.githubusercontent.com/media/ddh4r4m/wallpaper-collection/main/collection/thumbnails/vintage/076.jpg"
      }
    },
    {
      "id": "vintage_077",
      "category": "vintage",
      "title": "Vintage Wallpaper",
      "tags": [
        "vintage",
        "unsplash",
        "hd",
        "mobile"
      ],
      "metadata": {
        "dimensions": {
          "width": 1080,
          "height": 1041
        },
        "file_size": 260392,
        "format": "JPEG",
        "added_at": "2025-07-17T22:06:07.128565",
        "hash": "3ffa0798ee73072d90606d969a543582",
        "photographer": "Unknown"
      },
      "urls": {
        "raw": "https://media.githubusercontent.com/media/ddh4r4m/wallpaper-collection/main/collection/wallpapers/vintage/077.jpg",
        "thumb": "https://media.githubusercontent.com/media/ddh4r4m/wallpaper-collection/main/collection/thumbnails/vintage/077.jpg"
      }
    },
    {
      "id": "vintage_078",
      "category": "vintage",
      "title": "Vintage Wallpaper",
      "tags": [
        "vintage",
        "unsplash",
        "hd",
        "mobile"
      ],
      "metadata": {
        "dimensions": {
          "width": 1080,
          "height": 1445
        },
        "file_size": 201091,
        "format": "JPEG",
        "added_at": "2025-07-17T22:06:09.701691",
        "hash": "4bdd6950742a07047485b44697e59f45",
        "photographer": "Unknown"
      },
      "urls": {
        "raw": "https://media.githubusercontent.com/media/ddh4r4m/wallpaper-collection/main/collection/wallpapers/vintage/078.jpg",
        "thumb": "https://media.githubusercontent.com/media/ddh4r4m/wallpaper-collection/main/collection/thumbnails/vintage/078.jpg"
      }
    },
    {
      "id": "vintage_079",
      "category": "vintage",
      "title": "Vintage Wallpaper",
      "tags": [
        "vintage",
        "unsplash",
        "hd",
        "mobile"
      ],
      "metadata": {
        "dimensions": {
          "width": 1080,
          "height": 743
        },
        "file_size": 201134,
        "format": "JPEG",
        "added_at": "2025-07-17T22:06:12.140494",
        "hash": "b7755bf64551265352d0e0d5a6d95cfb",
        "photographer": "Unknown"
      },
      "urls": {
        "raw": "https://media.githubusercontent.com/media/ddh4r4m/wallpaper-collection/main/collection/wallpapers/vintage/079.jpg",
        "thumb": "https://media.githubusercontent.com/media/ddh4r4m/wallpaper-collection/main/collection/thumbnails/vintage/079.jpg"
      }
    },
    {
      "id": "vintage_080",
      "category": "vintage",
      "title": "Vintage Wallpaper",
      "tags": [
        "vintage",
        "unsplash",
        "hd",
        "mobile"
      ],
      "metadata": {
        "dimensions": {
          "width": 1080,
          "height": 708
        },
        "file_size": 97921,
        "format": "JPEG",
        "added_at": "2025-07-17T22:06:14.664439",
        "hash": "e35f1513e77a8189d5ef8f7f6be76128",
        "photographer": "Unknown"
      },
      "urls": {
        "raw": "https://media.githubusercontent.com/media/ddh4r4m/wallpaper-collection/main/collection/wallpapers/vintage/080.jpg",
        "thumb": "https://media.githubusercontent.com/media/ddh4r4m/wallpaper-collection/main/collection/thumbnails/vintage/080.jpg"
      }
    },
    {
      "id": "vintage_081",
      "category": "vintage",
      "title": "Vintage Wallpaper",
      "tags": [
        "vintage",
        "unsplash",
        "hd",
        "mobile"
      ],
      "metadata": {
        "dimensions": {
          "width": 1080,
          "height": 1350
        },
        "file_size": 231714,
        "format": "JPEG",
        "added_at": "2025-07-17T22:06:17.300798",
        "hash": "17d68e79152fb3eb64a11b599908731f",
        "photographer": "Unknown"
      },
      "urls": {
        "raw": "https://media.githubusercontent.com/media/ddh4r4m/wallpaper-collection/main/collection/wallpapers/vintage/081.jpg",
        "thumb": "https://media.githubusercontent.com/media/ddh4r4m/wallpaper-collection/main/collection/thumbnails/vintage/081.jpg"
      }
    },
    {
      "id": "vintage_082",
      "category": "vintage",
      "title": "Vintage Wallpaper",
      "tags": [
        "vintage",
        "unsplash",
        "hd",
        "mobile"
      ],
      "metadata": {
        "dimensions": {
          "width": 1080,
          "height": 810
        },
        "file_size": 211098,
        "format": "JPEG",
        "added_at": "2025-07-17T22:06:19.723676",
        "hash": "48afe3c1cdb675fa6f2520ef9983fa82",
        "photographer": "Unknown"
      },
      "urls": {
        "raw": "https://media.githubusercontent.com/media/ddh4r4m/wallpaper-collection/main/collection/wallpapers/vintage/082.jpg",
        "thumb": "https://media.githubusercontent.com/media/ddh4r4m/wallpaper-collection/main/collection/thumbnails/vintage/082.jpg"
      }
    },
    {
      "id": "vintage_083",
      "category": "vintage",
      "title": "Vintage Wallpaper",
      "tags": [
        "vintage",
        "unsplash",
        "hd",
        "mobile"
      ],
      "metadata": {
        "dimensions": {
          "width": 1080,
          "height": 1584
        },
        "file_size": 116381,
        "format": "JPEG",
        "added_at": "2025-07-17T22:06:21.017373",
        "hash": "ea3536dffb4ab45f843b608e0c6537ed",
        "photographer": "Unknown"
      },
      "urls": {
        "raw": "https://media.githubusercontent.com/media/ddh4r4m/wallpaper-collection/main/collection/wallpapers/vintage/083.jpg",
        "thumb": "https://media.githubusercontent.com/media/ddh4r4m/wallpaper-collection/main/collection/thumbnails/vintage/083.jpg"
      }
    }
  ]
}