{
  "meta": {
    "version": "1.0",
    "generated_at": "2025-07-28T23:12:02.393375",
    "page": 177,
    "per_page": 15,
    "total_pages": 183,
    "total_count": 2743,
    "count_on_page": 15,
    "categories": 22,
    "has_next": true,
    "has_prev": true,
    "next_page_url": "/api/v1/all/pages/178.json",
    "prev_page_url": "/api/v1/all/pages/176.json"
  },
  "data": [
    {
      "id": "technology_080",
      "category": "technology",
      "title": "Technology Wallpaper",
      "tags": [
        "technology",
        "unsplash",
        "hd",
        "mobile"
      ],
      "metadata": {
        "dimensions": {
          "width": 1080,
          "height": 720
        },
        "file_size": 39206,
        "format": "JPEG",
        "added_at": "2025-07-18T00:37:53.662100",
        "hash": "4d8050634deae851a9491d46b4fbac01",
        "photographer": "Unknown"
      },
      "urls": {
        "raw": "https://media.githubusercontent.com/media/ddh4r4m/wallpaper-collection/main/collection/wallpapers/technology/080.jpg",
        "thumb": "https://media.githubusercontent.com/media/ddh4r4m/wallpaper-collection/main/collection/thumbnails/technology/080.jpg"
      }
    },
    {
      "id": "technology_081",
      "category": "technology",
      "title": "Technology Wallpaper",
      "tags": [
        "technology",
        "unsplash",
        "hd",
        "mobile"
      ],
      "metadata": {
        "dimensions": {
          "width": 1080,
          "height": 720
        },
        "file_size": 106334,
        "format": "JPEG",
        "added_at": "2025-07-18T00:37:55.907849",
        "hash": "0b6a7c1b4c838375d3bb302173b7d5b3",
        "photographer": "Unknown"
      },
      "urls": {
        "raw": "https://media.githubusercontent.com/media/ddh4r4m/wallpaper-collection/main/collection/wallpapers/technology/081.jpg",
        "thumb": "https://media.githubusercontent.com/media/ddh4r4m/wallpaper-collection/main/collection/thumbnails/technology/081.jpg"
      }
    },
    {
      "id": "technology_082",
      "category": "technology",
      "title": "Technology Wallpaper",
      "tags": [
        "technology",
        "unsplash",
        "hd",
        "mobile"
      ],
      "metadata": {
        "dimensions": {
          "width": 1080,
          "height": 719
        },
        "file_size": 40720,
        "format": "JPEG",
        "added_at": "2025-07-18T00:37:59.240088",
        "hash": "8cbabf0a6f6620c84355fdca02c1e73d",
        "photographer": "Unknown"
      },
      "urls": {
        "raw": "https://media.githubusercontent.com/media/ddh4r4m/wallpaper-collection/main/collection/wallpapers/technology/082.jpg",
        "thumb": "https://media.githubusercontent.com/media/ddh4r4m/wallpaper-collection/main/collection/thumbnails/technology/082.jpg"
      }
    },
    {
      "id": "technology_083",
      "category": "technology",
      "title": "Technology Wallpaper",
      "tags": [
        "technology",
        "unsplash",
        "hd",
        "mobile"
      ],
      "metadata": {
        "dimensions": {
          "width": 1080,
          "height": 675
        },
        "file_size": 91079,
        "format": "JPEG",
        "added_at": "2025-07-18T00:38:01.472401",
        "hash": "f99c631a479c706905b788ba7b83ecfd",
        "photographer": "Unknown"
      },
      "urls": {
        "raw": "https://media.githubusercontent.com/media/ddh4r4m/wallpaper-collection/main/collection/wallpapers/technology/083.jpg",
        "thumb": "https://media.githubusercontent.com/media/ddh4r4m/wallpaper-collection/main/collection/thumbnails/technology/083.jpg"
      }
    },
    {
      "id": "vintage_001",
      "category": "vintage",
      "title": "Vintage Wallpaper 001",
      "tags": [
        "vintage",
        "wallpaper",
        "hd",
        "mobile"
      ],
      "urls": {
        "raw": "https://media.githubusercontent.com/media/ddh4r4m/wallpaper-collection/main/collection/wallpapers/vintage/001.jpg",
        "thumb": "https://media.githubusercontent.com/media/ddh4r4m/wallpaper-collection/main/collection/thumbnails/vintage/001.jpg"
      },
      "metadata": {
        "dimensions": {
          "width": 1080,
          "height": 1920
        },
        "file_size": 213286,
        "format": "JPEG",
        "added_at": "2025-07-17T00:04:49.900251",
        "hash": "923144fbf876f7c59f47fd2432bc0c98",
        "source": "migrated"
      }
    },
    {
      "id": "vintage_002",
      "category": "vintage",
      "title": "Vintage Wallpaper 002",
      "tags": [
        "vintage",
        "wallpaper",
        "hd",
        "mobile"
      ],
      "urls": {
        "raw": "https://media.githubusercontent.com/media/ddh4r4m/wallpaper-collection/main/collection/wallpapers/vintage/002.jpg",
        "thumb": "https://media.githubusercontent.com/media/ddh4r4m/wallpaper-collection/main/collection/thumbnails/vintage/002.jpg"
      },
      "metadata": {
        "dimensions": {
          "width": 1080,
          "height": 1920
        },
        "file_size": 746552,
        "format": "JPEG",
        "added_at": "2025-07-17T00:04:49.977804",
        "hash": "04511a77ca07bf887e2aeb7d59651383",
        "source": "migrated"
      }
    },
    {
      "id": "vintage_003",
      "category": "vintage",
      "title": "Vintage Wallpaper 003",
      "tags": [
        "vintage",
        "wallpaper",
        "hd",
        "mobile"
      ],
      "urls": {
        "raw": "https://media.githubusercontent.com/media/ddh4r4m/wallpaper-collection/main/collection/wallpapers/vintage/003.jpg",
        "thumb": "https://media.githubusercontent.com/media/ddh4r4m/wallpaper-collection/main/collection/thumbnails/vintage/003.jpg"
      },
      "metadata": {
        "dimensions": {
          "width": 1080,
          "height": 1920
        },
        "file_size": 216610,
        "format": "JPEG",
        "added_at": "2025-07-17T00:04:50.030591",
        "hash": "7c8588632edd9b6d8de53158a9ac8f51",
        "source": "migrated"
      }
    },
    {
      "id": "vintage_004",
      "category": "vintage",
      "title": "Vintage Wallpaper 004",
      "tags": [
        "vintage",
        "wallpaper",
        "hd",
        "mobile"
      ],
      "urls": {
        "raw": "https://media.githubusercontent.com/media/ddh4r4m/wallpaper-collection/main/collection/wallpapers/vintage/004.jpg",
        "thumb": "https://media.githubusercontent.com/media/ddh4r4m/wallpaper-collection/main/collection/thumbnails/vintage/004.jpg"
      },
      "metadata": {
        "dimensions": {
          "width": 1080,
          "height": 1920
        },
        "file_size": 253776,
        "format": "JPEG",
        "added_at": "2025-07-17T00:04:50.084573",
        "hash": "23ede91a0a9a331c59066af1d1095e30",
        "source": "migrated"
      }
    },
    {
      "id": "vintage_005",
      "category": "vintage",
      "title": "Vintage Wallpaper 005",
      "tags": [
        "vintage",
        "wallpaper",
        "hd",
        "mobile"
      ],
      "urls": {
        "raw": "https://media.githubusercontent.com/media/ddh4r4m/wallpaper-collection/main/collection/wallpapers/vintage/005.jpg",
        "thumb": "https://media.githubusercontent.com/media/ddh4r4m/wallpaper-collection/main/collection/thumbnails/vintage/005.jpg"
      },
      "metadata": {
        "dimensions": {
          "width": 1080,
          "height": 1920
        },
        "file_size": 188899,
        "format": "JPEG",
        "added_at": "2025-07-17T00:04:50.142750",
        "hash": "da8f5a976a42e39bbdbe41b529b1be33",
        "source": "migrated"
      }
    },
    {
      "id": "vintage_006",
      "category": "vintage",
      "title": "Vintage Wallpaper 006",
      "tags": [
        "vintage",
        "wallpaper",
        "hd",
        "mobile"
      ],
      "urls": {
        "raw": "https://media.githubusercontent.com/media/ddh4r4m/wallpaper-collection/main/collection/wallpapers/vintage/006.jpg",
        "thumb": "https://media.githubusercontent.com/media/ddh4r4m/wallpaper-collection/main/collection/thumbnails/vintage/006.jpg"
      },
      "metadata": {
        "dimensions": {
          "width": 1080,
          "height": 1920
        },
        "file_size": 360590,
        "format": "JPEG",
        "added_at": "2025-07-17T00:04:50.202100",
        "hash": "c3678921fb0ff5bf4c5c1b30b2a7261d",
        "source": "migrated"
      }
    },
    {
      "id": "vintage_007",
      "category": "vintage",
      "title": "Vintage Wallpaper 007",
      "tags": [
        "vintage",
        "wallpaper",
        "hd",
        "mobile"
      ],
      "urls": {
        "raw": "https://media.githubusercontent.com/media/ddh4r4m/wallpaper-collection/main/collection/wallpapers/vintage/007.jpg",
        "thumb": "https://media.githubusercontent.com/media/ddh4r4m/wallpaper-collection/main/collection/thumbnails/vintage/007.jpg"
      },
      "metadata": {
        "dimensions": {
          "width": 1080,
          "height": 1920
        },
        "file_size": 224015,
        "format": "JPEG",
        "added_at": "2025-07-17T00:04:50.254306",
        "hash": "b4f373ce835c08141f187ebb2567ad8d",
        "source": "migrated"
      }
    },
    {
      "id": "vintage_008",
      "category": "vintage",
      "title": "Vintage Wallpaper 008",
      "tags": [
        "vintage",
        "wallpaper",
        "hd",
        "mobile"
      ],
      "urls": {
        "raw": "https://media.githubusercontent.com/media/ddh4r4m/wallpaper-collection/main/collection/wallpapers/vintage/008.jpg",
        "thumb": "https://media.githubusercontent.com/media/ddh4r4m/wallpaper-collection/main/collection/thumbnails/vintage/008.jpg"
      },
      "metadata": {
        "dimensions": {
          "width": 1080,
          "height": 1920
        },
        "file_size": 300181,
        "format": "JPEG",
        "added_at": "2025-07-17T00:04:50.310237",
        "hash": "ca1afe634ba2b267d941a10ee59fd7f3",
        "source": "migrated"
      }
    },
    {
      "id": "vintage_009",
      "category": "vintage",
      "title": "Vintage Wallpaper 009",
      "tags": [
        "vintage",
        "wallpaper",
        "hd",
        "mobile"
      ],
      "urls": {
        "raw": "https://media.githubusercontent.com/media/ddh4r4m/wallpaper-collection/main/collection/wallpapers/vintage/009.jpg",
        "thumb": "https://media.githubusercontent.com/media/ddh4r4m/wallpaper-collection/main/collection/thumbnails/vintage/009.jpg"
      },
      "metadata": {
        "dimensions": {
          "width": 1080,
          "height": 1920
        },
        "file_size": 283179,
        "format": "JPEG",
        "added_at": "2025-07-17T00:04:50.366200",
        "hash": "60728b95435fca6819e721a5c1b24fcb",
        "source": "migrated"
      }
    },
    {
      "id": "vintage_010",
      "category": "vintage",
      "title": "Vintage Wallpaper 010",
      "tags": [
        "vintage",
        "wallpaper",
        "hd",
        "mobile"
      ],
      "urls": {
        "raw": "https://media.githubusercontent.com/media/ddh4r4m/wallpaper-collection/main/collection/wallpapers/vintage/010.jpg",
        "thumb": "https://media.githubusercontent.com/media/ddh4r4m/wallpaper-collection/main/collection/thumbnails/vintage/010.jpg"
      },
      "metadata": {
        "dimensions": {
          "width": 1080,
          "height": 1920
        },
        "file_size": 240603,
        "format": "JPEG",
        "added_at": "2025-07-17T00:04:50.418616",
        "hash": "ab27347080213730f8fe6a6690b95232",
        "source": "migrated"
      }
    },
    {
      "id": "vintage_011",
      "category": "vintage",
      "title": "Vintage Wallpaper 011",
      "tags": [
        "vintage",
        "wallpaper",
        "hd",
        "mobile"
      ],
      "urls": {
        "raw": "https://media.githubusercontent.com/media/ddh4r4m/wallpaper-collection/main/collection/wallpapers/vintage/011.jpg",
        "thumb": "https://media.githubusercontent.com/media/ddh4r4m/wallpaper-collection/main/collection/thumbnails/vintage/011.jpg"
      },
      "metadata": {
        "dimensions": {
          "width": 1080,
          "height": 1920
        },
        "file_size": 499182,
        "format": "JPEG",
        "added_at": "2025-07-17T00:04:50.485262",
        "hash": "bb0473b3b42f20cbe1c1ae0edfa9c3a0",
        "source": "migrated"
      }
    }
  ]
}