{
  "meta": {
    "version": "1.0",
    "generated_at": "2025-07-17T00:06:19.072196",
    "page": 18,
    "per_page": 15,
    "total_pages": 117,
    "total_count": 1751,
    "count_on_page": 15,
    "categories": 17,
    "has_next": true,
    "has_prev": true,
    "next_page_url": "/api/v1/all/pages/19.json",
    "prev_page_url": "/api/v1/all/pages/17.json"
  },
  "data": [
    {
      "id": "abstract_056",
      "category": "abstract",
      "title": "Abstract Wallpaper 056",
      "tags": [
        "abstract",
        "wallpaper",
        "hd",
        "mobile"
      ],
      "urls": {
        "raw": "https://raw.githubusercontent.com/ddh4r4m/wallpaper-collection/main/collection/wallpapers/abstract/056.jpg",
        "thumb": "https://raw.githubusercontent.com/ddh4r4m/wallpaper-collection/main/collection/thumbnails/abstract/056.jpg"
      },
      "metadata": {
        "dimensions": {
          "width": 1080,
          "height": 1920
        },
        "file_size": 387764,
        "format": "JPEG",
        "added_at": "2025-07-17T00:02:16.028203",
        "hash": "c5b5e17753ca6c85e880158c70d58be5",
        "source": "migrated"
      }
    },
    {
      "id": "abstract_057",
      "category": "abstract",
      "title": "Abstract Wallpaper 057",
      "tags": [
        "abstract",
        "wallpaper",
        "hd",
        "mobile"
      ],
      "urls": {
        "raw": "https://raw.githubusercontent.com/ddh4r4m/wallpaper-collection/main/collection/wallpapers/abstract/057.jpg",
        "thumb": "https://raw.githubusercontent.com/ddh4r4m/wallpaper-collection/main/collection/thumbnails/abstract/057.jpg"
      },
      "metadata": {
        "dimensions": {
          "width": 1080,
          "height": 1920
        },
        "file_size": 446483,
        "format": "JPEG",
        "added_at": "2025-07-17T00:02:16.095373",
        "hash": "39cb0900f1ab61ef12ae8223eb09813c",
        "source": "migrated"
      }
    },
    {
      "id": "abstract_058",
      "category": "abstract",
      "title": "Abstract Wallpaper 058",
      "tags": [
        "abstract",
        "wallpaper",
        "hd",
        "mobile"
      ],
      "urls": {
        "raw": "https://raw.githubusercontent.com/ddh4r4m/wallpaper-collection/main/collection/wallpapers/abstract/058.jpg",
        "thumb": "https://raw.githubusercontent.com/ddh4r4m/wallpaper-collection/main/collection/thumbnails/abstract/058.jpg"
      },
      "metadata": {
        "dimensions": {
          "width": 1080,
          "height": 1920
        },
        "file_size": 521788,
        "format": "JPEG",
        "added_at": "2025-07-17T00:02:16.168592",
        "hash": "225b1727ee8923e7d2f104bb2292185d",
        "source": "migrated"
      }
    },
    {
      "id": "abstract_059",
      "category": "abstract",
      "title": "Abstract Wallpaper 059",
      "tags": [
        "abstract",
        "wallpaper",
        "hd",
        "mobile"
      ],
      "urls": {
        "raw": "https://raw.githubusercontent.com/ddh4r4m/wallpaper-collection/main/collection/wallpapers/abstract/059.jpg",
        "thumb": "https://raw.githubusercontent.com/ddh4r4m/wallpaper-collection/main/collection/thumbnails/abstract/059.jpg"
      },
      "metadata": {
        "dimensions": {
          "width": 1080,
          "height": 1920
        },
        "file_size": 397693,
        "format": "JPEG",
        "added_at": "2025-07-17T00:02:16.232329",
        "hash": "388e38b28b98c0cc98169fbef133bb93",
        "source": "migrated"
      }
    },
    {
      "id": "abstract_060",
      "category": "abstract",
      "title": "Abstract Wallpaper 060",
      "tags": [
        "abstract",
        "wallpaper",
        "hd",
        "mobile"
      ],
      "urls": {
        "raw": "https://raw.githubusercontent.com/ddh4r4m/wallpaper-collection/main/collection/wallpapers/abstract/060.jpg",
        "thumb": "https://raw.githubusercontent.com/ddh4r4m/wallpaper-collection/main/collection/thumbnails/abstract/060.jpg"
      },
      "metadata": {
        "dimensions": {
          "width": 1080,
          "height": 1920
        },
        "file_size": 457228,
        "format": "JPEG",
        "added_at": "2025-07-17T00:02:16.299179",
        "hash": "99c9816dbbd3a616c0da00e1255d5abb",
        "source": "migrated"
      }
    },
    {
      "id": "abstract_061",
      "category": "abstract",
      "title": "Abstract Wallpaper 061",
      "tags": [
        "abstract",
        "wallpaper",
        "hd",
        "mobile"
      ],
      "urls": {
        "raw": "https://raw.githubusercontent.com/ddh4r4m/wallpaper-collection/main/collection/wallpapers/abstract/061.jpg",
        "thumb": "https://raw.githubusercontent.com/ddh4r4m/wallpaper-collection/main/collection/thumbnails/abstract/061.jpg"
      },
      "metadata": {
        "dimensions": {
          "width": 1080,
          "height": 1920
        },
        "file_size": 504030,
        "format": "JPEG",
        "added_at": "2025-07-17T00:02:16.369761",
        "hash": "b47ed285b33fb371d81f209413406ab5",
        "source": "migrated"
      }
    },
    {
      "id": "abstract_062",
      "category": "abstract",
      "title": "Abstract Wallpaper 062",
      "tags": [
        "abstract",
        "wallpaper",
        "hd",
        "mobile"
      ],
      "urls": {
        "raw": "https://raw.githubusercontent.com/ddh4r4m/wallpaper-collection/main/collection/wallpapers/abstract/062.jpg",
        "thumb": "https://raw.githubusercontent.com/ddh4r4m/wallpaper-collection/main/collection/thumbnails/abstract/062.jpg"
      },
      "metadata": {
        "dimensions": {
          "width": 1080,
          "height": 1920
        },
        "file_size": 565227,
        "format": "JPEG",
        "added_at": "2025-07-17T00:02:16.444185",
        "hash": "3308d340f2ac169a760d753fc6621943",
        "source": "migrated"
      }
    },
    {
      "id": "abstract_063",
      "category": "abstract",
      "title": "Abstract Wallpaper 063",
      "tags": [
        "abstract",
        "wallpaper",
        "hd",
        "mobile"
      ],
      "urls": {
        "raw": "https://raw.githubusercontent.com/ddh4r4m/wallpaper-collection/main/collection/wallpapers/abstract/063.jpg",
        "thumb": "https://raw.githubusercontent.com/ddh4r4m/wallpaper-collection/main/collection/thumbnails/abstract/063.jpg"
      },
      "metadata": {
        "dimensions": {
          "width": 1080,
          "height": 1920
        },
        "file_size": 395491,
        "format": "JPEG",
        "added_at": "2025-07-17T00:02:16.507843",
        "hash": "44203ecd5469d8cb9c0d54e91d308d45",
        "source": "migrated"
      }
    },
    {
      "id": "abstract_064",
      "category": "abstract",
      "title": "Abstract Wallpaper 064",
      "tags": [
        "abstract",
        "wallpaper",
        "hd",
        "mobile"
      ],
      "urls": {
        "raw": "https://raw.githubusercontent.com/ddh4r4m/wallpaper-collection/main/collection/wallpapers/abstract/064.jpg",
        "thumb": "https://raw.githubusercontent.com/ddh4r4m/wallpaper-collection/main/collection/thumbnails/abstract/064.jpg"
      },
      "metadata": {
        "dimensions": {
          "width": 1080,
          "height": 1920
        },
        "file_size": 492471,
        "format": "JPEG",
        "added_at": "2025-07-17T00:02:16.577285",
        "hash": "703786ef38ec72459c3868d09fe818f0",
        "source": "migrated"
      }
    },
    {
      "id": "abstract_065",
      "category": "abstract",
      "title": "Abstract Wallpaper 065",
      "tags": [
        "abstract",
        "wallpaper",
        "hd",
        "mobile"
      ],
      "urls": {
        "raw": "https://raw.githubusercontent.com/ddh4r4m/wallpaper-collection/main/collection/wallpapers/abstract/065.jpg",
        "thumb": "https://raw.githubusercontent.com/ddh4r4m/wallpaper-collection/main/collection/thumbnails/abstract/065.jpg"
      },
      "metadata": {
        "dimensions": {
          "width": 1080,
          "height": 1920
        },
        "file_size": 568456,
        "format": "JPEG",
        "added_at": "2025-07-17T00:02:16.654342",
        "hash": "c1f07e3d5f1b6176e7c1edf777b8bd4c",
        "source": "migrated"
      }
    },
    {
      "id": "abstract_066",
      "category": "abstract",
      "title": "Abstract Wallpaper 066",
      "tags": [
        "abstract",
        "wallpaper",
        "hd",
        "mobile"
      ],
      "urls": {
        "raw": "https://raw.githubusercontent.com/ddh4r4m/wallpaper-collection/main/collection/wallpapers/abstract/066.jpg",
        "thumb": "https://raw.githubusercontent.com/ddh4r4m/wallpaper-collection/main/collection/thumbnails/abstract/066.jpg"
      },
      "metadata": {
        "dimensions": {
          "width": 1080,
          "height": 1920
        },
        "file_size": 507686,
        "format": "JPEG",
        "added_at": "2025-07-17T00:02:16.729385",
        "hash": "5decb8b7685750c8d21d3e1b32dfeac1",
        "source": "migrated"
      }
    },
    {
      "id": "abstract_067",
      "category": "abstract",
      "title": "Abstract Wallpaper 067",
      "tags": [
        "abstract",
        "wallpaper",
        "hd",
        "mobile"
      ],
      "urls": {
        "raw": "https://raw.githubusercontent.com/ddh4r4m/wallpaper-collection/main/collection/wallpapers/abstract/067.jpg",
        "thumb": "https://raw.githubusercontent.com/ddh4r4m/wallpaper-collection/main/collection/thumbnails/abstract/067.jpg"
      },
      "metadata": {
        "dimensions": {
          "width": 1080,
          "height": 1920
        },
        "file_size": 588244,
        "format": "JPEG",
        "added_at": "2025-07-17T00:02:16.800648",
        "hash": "ed49acd0acfe739299b91d5ca7614a39",
        "source": "migrated"
      }
    },
    {
      "id": "abstract_068",
      "category": "abstract",
      "title": "Abstract Wallpaper 068",
      "tags": [
        "abstract",
        "wallpaper",
        "hd",
        "mobile"
      ],
      "urls": {
        "raw": "https://raw.githubusercontent.com/ddh4r4m/wallpaper-collection/main/collection/wallpapers/abstract/068.jpg",
        "thumb": "https://raw.githubusercontent.com/ddh4r4m/wallpaper-collection/main/collection/thumbnails/abstract/068.jpg"
      },
      "metadata": {
        "dimensions": {
          "width": 1080,
          "height": 1920
        },
        "file_size": 95604,
        "format": "JPEG",
        "added_at": "2025-07-17T00:02:16.847339",
        "hash": "aa8b9bd11b154204fa5f92e0ee2912f7",
        "source": "migrated"
      }
    },
    {
      "id": "abstract_069",
      "category": "abstract",
      "title": "Abstract Wallpaper 069",
      "tags": [
        "abstract",
        "wallpaper",
        "hd",
        "mobile"
      ],
      "urls": {
        "raw": "https://raw.githubusercontent.com/ddh4r4m/wallpaper-collection/main/collection/wallpapers/abstract/069.jpg",
        "thumb": "https://raw.githubusercontent.com/ddh4r4m/wallpaper-collection/main/collection/thumbnails/abstract/069.jpg"
      },
      "metadata": {
        "dimensions": {
          "width": 1080,
          "height": 1920
        },
        "file_size": 500143,
        "format": "JPEG",
        "added_at": "2025-07-17T00:02:16.917426",
        "hash": "a2f7b7eb97a91b1e26e9b65d89958bd4",
        "source": "migrated"
      }
    },
    {
      "id": "abstract_070",
      "category": "abstract",
      "title": "Abstract Wallpaper 070",
      "tags": [
        "abstract",
        "wallpaper",
        "hd",
        "mobile"
      ],
      "urls": {
        "raw": "https://raw.githubusercontent.com/ddh4r4m/wallpaper-collection/main/collection/wallpapers/abstract/070.jpg",
        "thumb": "https://raw.githubusercontent.com/ddh4r4m/wallpaper-collection/main/collection/thumbnails/abstract/070.jpg"
      },
      "metadata": {
        "dimensions": {
          "width": 1080,
          "height": 1920
        },
        "file_size": 890648,
        "format": "JPEG",
        "added_at": "2025-07-17T00:02:17.006444",
        "hash": "a51bde76ce0ceb99dfd4ccfbc5cdd56a",
        "source": "migrated"
      }
    }
  ]
}