{
  "meta": {
    "version": "1.0",
    "generated_at": "2025-07-19T12:26:57.111378",
    "page": 19,
    "per_page": 15,
    "total_pages": 160,
    "total_count": 2387,
    "count_on_page": 15,
    "categories": 19,
    "has_next": true,
    "has_prev": true,
    "next_page_url": "/api/v1/all/pages/20.json",
    "prev_page_url": "/api/v1/all/pages/18.json"
  },
  "data": [
    {
      "id": "abstract_071",
      "category": "abstract",
      "title": "Abstract Wallpaper 071",
      "tags": [
        "abstract",
        "wallpaper",
        "hd",
        "mobile"
      ],
      "urls": {
        "raw": "https://media.githubusercontent.com/media/ddh4r4m/wallpaper-collection/main/collection/wallpapers/abstract/071.jpg",
        "thumb": "https://media.githubusercontent.com/media/ddh4r4m/wallpaper-collection/main/collection/thumbnails/abstract/071.jpg"
      },
      "metadata": {
        "dimensions": {
          "width": 1080,
          "height": 1920
        },
        "file_size": 223014,
        "format": "JPEG",
        "added_at": "2025-07-17T00:02:17.061403",
        "hash": "f552d5d6a93524da2b46ea3d5465e88e",
        "source": "migrated"
      }
    },
    {
      "id": "abstract_072",
      "category": "abstract",
      "title": "Abstract Wallpaper 072",
      "tags": [
        "abstract",
        "wallpaper",
        "hd",
        "mobile"
      ],
      "urls": {
        "raw": "https://media.githubusercontent.com/media/ddh4r4m/wallpaper-collection/main/collection/wallpapers/abstract/072.jpg",
        "thumb": "https://media.githubusercontent.com/media/ddh4r4m/wallpaper-collection/main/collection/thumbnails/abstract/072.jpg"
      },
      "metadata": {
        "dimensions": {
          "width": 1080,
          "height": 1920
        },
        "file_size": 359768,
        "format": "JPEG",
        "added_at": "2025-07-17T00:02:17.123035",
        "hash": "db4b3345ca1a56655d9a5f38379619f7",
        "source": "migrated"
      }
    },
    {
      "id": "abstract_073",
      "category": "abstract",
      "title": "Abstract Wallpaper 073",
      "tags": [
        "abstract",
        "wallpaper",
        "hd",
        "mobile"
      ],
      "urls": {
        "raw": "https://media.githubusercontent.com/media/ddh4r4m/wallpaper-collection/main/collection/wallpapers/abstract/073.jpg",
        "thumb": "https://media.githubusercontent.com/media/ddh4r4m/wallpaper-collection/main/collection/thumbnails/abstract/073.jpg"
      },
      "metadata": {
        "dimensions": {
          "width": 1080,
          "height": 1920
        },
        "file_size": 477193,
        "format": "JPEG",
        "added_at": "2025-07-17T00:02:17.192423",
        "hash": "0b7ded18842c8661a5675bf956787a70",
        "source": "migrated"
      }
    },
    {
      "id": "abstract_074",
      "category": "abstract",
      "title": "Abstract Wallpaper 074",
      "tags": [
        "abstract",
        "wallpaper",
        "hd",
        "mobile"
      ],
      "urls": {
        "raw": "https://media.githubusercontent.com/media/ddh4r4m/wallpaper-collection/main/collection/wallpapers/abstract/074.jpg",
        "thumb": "https://media.githubusercontent.com/media/ddh4r4m/wallpaper-collection/main/collection/thumbnails/abstract/074.jpg"
      },
      "metadata": {
        "dimensions": {
          "width": 1080,
          "height": 1920
        },
        "file_size": 181322,
        "format": "JPEG",
        "added_at": "2025-07-17T00:02:17.241623",
        "hash": "cb6b8e6bec0dd08f612797a9be4b6983",
        "source": "migrated"
      }
    },
    {
      "id": "abstract_075",
      "category": "abstract",
      "title": "Abstract Wallpaper 075",
      "tags": [
        "abstract",
        "wallpaper",
        "hd",
        "mobile"
      ],
      "urls": {
        "raw": "https://media.githubusercontent.com/media/ddh4r4m/wallpaper-collection/main/collection/wallpapers/abstract/075.jpg",
        "thumb": "https://media.githubusercontent.com/media/ddh4r4m/wallpaper-collection/main/collection/thumbnails/abstract/075.jpg"
      },
      "metadata": {
        "dimensions": {
          "width": 1080,
          "height": 1920
        },
        "file_size": 430151,
        "format": "JPEG",
        "added_at": "2025-07-17T00:02:17.310116",
        "hash": "cec951aa51bdb58f54d03cf7b90d7ac5",
        "source": "migrated"
      }
    },
    {
      "id": "abstract_076",
      "category": "abstract",
      "title": "Abstract Wallpaper 076",
      "tags": [
        "abstract",
        "wallpaper",
        "hd",
        "mobile"
      ],
      "urls": {
        "raw": "https://media.githubusercontent.com/media/ddh4r4m/wallpaper-collection/main/collection/wallpapers/abstract/076.jpg",
        "thumb": "https://media.githubusercontent.com/media/ddh4r4m/wallpaper-collection/main/collection/thumbnails/abstract/076.jpg"
      },
      "metadata": {
        "dimensions": {
          "width": 1080,
          "height": 1920
        },
        "file_size": 718348,
        "format": "JPEG",
        "added_at": "2025-07-17T00:02:17.391459",
        "hash": "e1de4d57dc4e5a3157f66e1fca8f37de",
        "source": "migrated"
      }
    },
    {
      "id": "abstract_077",
      "category": "abstract",
      "title": "Abstract Wallpaper 077",
      "tags": [
        "abstract",
        "wallpaper",
        "hd",
        "mobile"
      ],
      "urls": {
        "raw": "https://media.githubusercontent.com/media/ddh4r4m/wallpaper-collection/main/collection/wallpapers/abstract/077.jpg",
        "thumb": "https://media.githubusercontent.com/media/ddh4r4m/wallpaper-collection/main/collection/thumbnails/abstract/077.jpg"
      },
      "metadata": {
        "dimensions": {
          "width": 1080,
          "height": 1920
        },
        "file_size": 381340,
        "format": "JPEG",
        "added_at": "2025-07-17T00:02:17.455412",
        "hash": "57db09ece2543ec63ae51bc9be749051",
        "source": "migrated"
      }
    },
    {
      "id": "abstract_078",
      "category": "abstract",
      "title": "Abstract Wallpaper 078",
      "tags": [
        "abstract",
        "wallpaper",
        "hd",
        "mobile"
      ],
      "urls": {
        "raw": "https://media.githubusercontent.com/media/ddh4r4m/wallpaper-collection/main/collection/wallpapers/abstract/078.jpg",
        "thumb": "https://media.githubusercontent.com/media/ddh4r4m/wallpaper-collection/main/collection/thumbnails/abstract/078.jpg"
      },
      "metadata": {
        "dimensions": {
          "width": 1080,
          "height": 1920
        },
        "file_size": 141194,
        "format": "JPEG",
        "added_at": "2025-07-17T00:02:17.507515",
        "hash": "e28710a94618ae846a0830fbd1c96034",
        "source": "migrated"
      }
    },
    {
      "id": "abstract_079",
      "category": "abstract",
      "title": "Abstract Wallpaper 079",
      "tags": [
        "abstract",
        "wallpaper",
        "hd",
        "mobile"
      ],
      "urls": {
        "raw": "https://media.githubusercontent.com/media/ddh4r4m/wallpaper-collection/main/collection/wallpapers/abstract/079.jpg",
        "thumb": "https://media.githubusercontent.com/media/ddh4r4m/wallpaper-collection/main/collection/thumbnails/abstract/079.jpg"
      },
      "metadata": {
        "dimensions": {
          "width": 1080,
          "height": 1920
        },
        "file_size": 106907,
        "format": "JPEG",
        "added_at": "2025-07-17T00:02:17.555562",
        "hash": "7a558163632946c03805dfe86ca05074",
        "source": "migrated"
      }
    },
    {
      "id": "abstract_080",
      "category": "abstract",
      "title": "Abstract Wallpaper 080",
      "tags": [
        "abstract",
        "wallpaper",
        "hd",
        "mobile"
      ],
      "urls": {
        "raw": "https://media.githubusercontent.com/media/ddh4r4m/wallpaper-collection/main/collection/wallpapers/abstract/080.jpg",
        "thumb": "https://media.githubusercontent.com/media/ddh4r4m/wallpaper-collection/main/collection/thumbnails/abstract/080.jpg"
      },
      "metadata": {
        "dimensions": {
          "width": 1080,
          "height": 1920
        },
        "file_size": 338467,
        "format": "JPEG",
        "added_at": "2025-07-17T00:02:17.616571",
        "hash": "1684cef780ab959eebcdd4be7bfbae29",
        "source": "migrated"
      }
    },
    {
      "id": "abstract_081",
      "category": "abstract",
      "title": "Abstract Wallpaper 081",
      "tags": [
        "abstract",
        "wallpaper",
        "hd",
        "mobile"
      ],
      "urls": {
        "raw": "https://media.githubusercontent.com/media/ddh4r4m/wallpaper-collection/main/collection/wallpapers/abstract/081.jpg",
        "thumb": "https://media.githubusercontent.com/media/ddh4r4m/wallpaper-collection/main/collection/thumbnails/abstract/081.jpg"
      },
      "metadata": {
        "dimensions": {
          "width": 1080,
          "height": 1920
        },
        "file_size": 313728,
        "format": "JPEG",
        "added_at": "2025-07-17T00:02:17.675310",
        "hash": "fd4a21d75df8797a6ae5674d7f0b6e69",
        "source": "migrated"
      }
    },
    {
      "id": "abstract_082",
      "category": "abstract",
      "title": "Abstract Wallpaper 082",
      "tags": [
        "abstract",
        "wallpaper",
        "hd",
        "mobile"
      ],
      "urls": {
        "raw": "https://media.githubusercontent.com/media/ddh4r4m/wallpaper-collection/main/collection/wallpapers/abstract/082.jpg",
        "thumb": "https://media.githubusercontent.com/media/ddh4r4m/wallpaper-collection/main/collection/thumbnails/abstract/082.jpg"
      },
      "metadata": {
        "dimensions": {
          "width": 1080,
          "height": 1920
        },
        "file_size": 722093,
        "format": "JPEG",
        "added_at": "2025-07-17T00:02:17.756009",
        "hash": "d68f17126935d6230838ed20cd845f25",
        "source": "migrated"
      }
    },
    {
      "id": "abstract_083",
      "category": "abstract",
      "title": "Abstract Wallpaper 083",
      "tags": [
        "abstract",
        "wallpaper",
        "hd",
        "mobile"
      ],
      "urls": {
        "raw": "https://media.githubusercontent.com/media/ddh4r4m/wallpaper-collection/main/collection/wallpapers/abstract/083.jpg",
        "thumb": "https://media.githubusercontent.com/media/ddh4r4m/wallpaper-collection/main/collection/thumbnails/abstract/083.jpg"
      },
      "metadata": {
        "dimensions": {
          "width": 1080,
          "height": 1920
        },
        "file_size": 476161,
        "format": "JPEG",
        "added_at": "2025-07-17T00:02:17.823984",
        "hash": "03c4e8a6c9a8b9e60cd8e95c1818c112",
        "source": "migrated"
      }
    },
    {
      "id": "abstract_084",
      "category": "abstract",
      "title": "Abstract Wallpaper 084",
      "tags": [
        "abstract",
        "wallpaper",
        "hd",
        "mobile"
      ],
      "urls": {
        "raw": "https://media.githubusercontent.com/media/ddh4r4m/wallpaper-collection/main/collection/wallpapers/abstract/084.jpg",
        "thumb": "https://media.githubusercontent.com/media/ddh4r4m/wallpaper-collection/main/collection/thumbnails/abstract/084.jpg"
      },
      "metadata": {
        "dimensions": {
          "width": 1080,
          "height": 1920
        },
        "file_size": 412730,
        "format": "JPEG",
        "added_at": "2025-07-17T00:02:17.888836",
        "hash": "1dcbbe1ea1f3f8ad8bbbc04efb0d5b2f",
        "source": "migrated"
      }
    },
    {
      "id": "abstract_085",
      "category": "abstract",
      "title": "Abstract Wallpaper 085",
      "tags": [
        "abstract",
        "wallpaper",
        "hd",
        "mobile"
      ],
      "urls": {
        "raw": "https://media.githubusercontent.com/media/ddh4r4m/wallpaper-collection/main/collection/wallpapers/abstract/085.jpg",
        "thumb": "https://media.githubusercontent.com/media/ddh4r4m/wallpaper-collection/main/collection/thumbnails/abstract/085.jpg"
      },
      "metadata": {
        "dimensions": {
          "width": 1080,
          "height": 1920
        },
        "file_size": 555342,
        "format": "JPEG",
        "added_at": "2025-07-17T00:02:17.962153",
        "hash": "46f23f4d68b37b1546485d71690321ff",
        "source": "migrated"
      }
    }
  ]
}