{
  "meta": {
    "version": "1.0",
    "generated_at": "2025-07-17T00:06:19.072196",
    "page": 20,
    "per_page": 15,
    "total_pages": 117,
    "total_count": 1751,
    "count_on_page": 15,
    "categories": 17,
    "has_next": true,
    "has_prev": true,
    "next_page_url": "/api/v1/all/pages/21.json",
    "prev_page_url": "/api/v1/all/pages/19.json"
  },
  "data": [
    {
      "id": "abstract_086",
      "category": "abstract",
      "title": "Abstract Wallpaper 086",
      "tags": [
        "abstract",
        "wallpaper",
        "hd",
        "mobile"
      ],
      "urls": {
        "raw": "https://raw.githubusercontent.com/ddh4r4m/wallpaper-collection/main/collection/wallpapers/abstract/086.jpg",
        "thumb": "https://raw.githubusercontent.com/ddh4r4m/wallpaper-collection/main/collection/thumbnails/abstract/086.jpg"
      },
      "metadata": {
        "dimensions": {
          "width": 1080,
          "height": 1920
        },
        "file_size": 820399,
        "format": "JPEG",
        "added_at": "2025-07-17T00:02:18.047838",
        "hash": "afa6ace0e17a8f302386c84d6ec70d71",
        "source": "migrated"
      }
    },
    {
      "id": "abstract_087",
      "category": "abstract",
      "title": "Abstract Wallpaper 087",
      "tags": [
        "abstract",
        "wallpaper",
        "hd",
        "mobile"
      ],
      "urls": {
        "raw": "https://raw.githubusercontent.com/ddh4r4m/wallpaper-collection/main/collection/wallpapers/abstract/087.jpg",
        "thumb": "https://raw.githubusercontent.com/ddh4r4m/wallpaper-collection/main/collection/thumbnails/abstract/087.jpg"
      },
      "metadata": {
        "dimensions": {
          "width": 1080,
          "height": 1920
        },
        "file_size": 667967,
        "format": "JPEG",
        "added_at": "2025-07-17T00:02:18.124876",
        "hash": "f0b73c7eac98058d2afd5d686ce3ad2f",
        "source": "migrated"
      }
    },
    {
      "id": "abstract_088",
      "category": "abstract",
      "title": "Abstract Wallpaper 088",
      "tags": [
        "abstract",
        "wallpaper",
        "hd",
        "mobile"
      ],
      "urls": {
        "raw": "https://raw.githubusercontent.com/ddh4r4m/wallpaper-collection/main/collection/wallpapers/abstract/088.jpg",
        "thumb": "https://raw.githubusercontent.com/ddh4r4m/wallpaper-collection/main/collection/thumbnails/abstract/088.jpg"
      },
      "metadata": {
        "dimensions": {
          "width": 1080,
          "height": 1920
        },
        "file_size": 514422,
        "format": "JPEG",
        "added_at": "2025-07-17T00:02:18.194133",
        "hash": "8f9111d1afec22a3898f77ecf2c86458",
        "source": "migrated"
      }
    },
    {
      "id": "abstract_089",
      "category": "abstract",
      "title": "Abstract Wallpaper 089",
      "tags": [
        "abstract",
        "wallpaper",
        "hd",
        "mobile"
      ],
      "urls": {
        "raw": "https://raw.githubusercontent.com/ddh4r4m/wallpaper-collection/main/collection/wallpapers/abstract/089.jpg",
        "thumb": "https://raw.githubusercontent.com/ddh4r4m/wallpaper-collection/main/collection/thumbnails/abstract/089.jpg"
      },
      "metadata": {
        "dimensions": {
          "width": 1080,
          "height": 1920
        },
        "file_size": 402813,
        "format": "JPEG",
        "added_at": "2025-07-17T00:02:18.256560",
        "hash": "1f64df5fe78a6a05f05bf3ef55c3facd",
        "source": "migrated"
      }
    },
    {
      "id": "abstract_090",
      "category": "abstract",
      "title": "Abstract Wallpaper 090",
      "tags": [
        "abstract",
        "wallpaper",
        "hd",
        "mobile"
      ],
      "urls": {
        "raw": "https://raw.githubusercontent.com/ddh4r4m/wallpaper-collection/main/collection/wallpapers/abstract/090.jpg",
        "thumb": "https://raw.githubusercontent.com/ddh4r4m/wallpaper-collection/main/collection/thumbnails/abstract/090.jpg"
      },
      "metadata": {
        "dimensions": {
          "width": 1080,
          "height": 1920
        },
        "file_size": 474661,
        "format": "JPEG",
        "added_at": "2025-07-17T00:02:18.324946",
        "hash": "7eaed3918541e7a6043d5b34fc6efabd",
        "source": "migrated"
      }
    },
    {
      "id": "abstract_091",
      "category": "abstract",
      "title": "Abstract Wallpaper 091",
      "tags": [
        "abstract",
        "wallpaper",
        "hd",
        "mobile"
      ],
      "urls": {
        "raw": "https://raw.githubusercontent.com/ddh4r4m/wallpaper-collection/main/collection/wallpapers/abstract/091.jpg",
        "thumb": "https://raw.githubusercontent.com/ddh4r4m/wallpaper-collection/main/collection/thumbnails/abstract/091.jpg"
      },
      "metadata": {
        "dimensions": {
          "width": 1080,
          "height": 1920
        },
        "file_size": 479410,
        "format": "JPEG",
        "added_at": "2025-07-17T00:02:18.395705",
        "hash": "bc37bcdc0e4172a33815ada94f0d5ea9",
        "source": "migrated"
      }
    },
    {
      "id": "abstract_092",
      "category": "abstract",
      "title": "Abstract Wallpaper 092",
      "tags": [
        "abstract",
        "wallpaper",
        "hd",
        "mobile"
      ],
      "urls": {
        "raw": "https://raw.githubusercontent.com/ddh4r4m/wallpaper-collection/main/collection/wallpapers/abstract/092.jpg",
        "thumb": "https://raw.githubusercontent.com/ddh4r4m/wallpaper-collection/main/collection/thumbnails/abstract/092.jpg"
      },
      "metadata": {
        "dimensions": {
          "width": 1080,
          "height": 1920
        },
        "file_size": 341364,
        "format": "JPEG",
        "added_at": "2025-07-17T00:02:18.456671",
        "hash": "f927ba84a0a1c98aff8e9b0162686536",
        "source": "migrated"
      }
    },
    {
      "id": "abstract_093",
      "category": "abstract",
      "title": "Abstract Wallpaper 093",
      "tags": [
        "abstract",
        "wallpaper",
        "hd",
        "mobile"
      ],
      "urls": {
        "raw": "https://raw.githubusercontent.com/ddh4r4m/wallpaper-collection/main/collection/wallpapers/abstract/093.jpg",
        "thumb": "https://raw.githubusercontent.com/ddh4r4m/wallpaper-collection/main/collection/thumbnails/abstract/093.jpg"
      },
      "metadata": {
        "dimensions": {
          "width": 1080,
          "height": 1920
        },
        "file_size": 660814,
        "format": "JPEG",
        "added_at": "2025-07-17T00:02:18.536310",
        "hash": "41683e9ea1aeddc9967b4aaa959fc42a",
        "source": "migrated"
      }
    },
    {
      "id": "abstract_094",
      "category": "abstract",
      "title": "Abstract Wallpaper 094",
      "tags": [
        "abstract",
        "wallpaper",
        "hd",
        "mobile"
      ],
      "urls": {
        "raw": "https://raw.githubusercontent.com/ddh4r4m/wallpaper-collection/main/collection/wallpapers/abstract/094.jpg",
        "thumb": "https://raw.githubusercontent.com/ddh4r4m/wallpaper-collection/main/collection/thumbnails/abstract/094.jpg"
      },
      "metadata": {
        "dimensions": {
          "width": 1080,
          "height": 1920
        },
        "file_size": 611713,
        "format": "JPEG",
        "added_at": "2025-07-17T00:02:18.614678",
        "hash": "a8a8f889f0df701a802356541e46ca07",
        "source": "migrated"
      }
    },
    {
      "id": "abstract_095",
      "category": "abstract",
      "title": "Abstract Wallpaper 095",
      "tags": [
        "abstract",
        "wallpaper",
        "hd",
        "mobile"
      ],
      "urls": {
        "raw": "https://raw.githubusercontent.com/ddh4r4m/wallpaper-collection/main/collection/wallpapers/abstract/095.jpg",
        "thumb": "https://raw.githubusercontent.com/ddh4r4m/wallpaper-collection/main/collection/thumbnails/abstract/095.jpg"
      },
      "metadata": {
        "dimensions": {
          "width": 1080,
          "height": 1920
        },
        "file_size": 306228,
        "format": "JPEG",
        "added_at": "2025-07-17T00:02:18.676123",
        "hash": "177e095e793e8d4fa0eab6167cd0c133",
        "source": "migrated"
      }
    },
    {
      "id": "abstract_096",
      "category": "abstract",
      "title": "Abstract Wallpaper 096",
      "tags": [
        "abstract",
        "wallpaper",
        "hd",
        "mobile"
      ],
      "urls": {
        "raw": "https://raw.githubusercontent.com/ddh4r4m/wallpaper-collection/main/collection/wallpapers/abstract/096.jpg",
        "thumb": "https://raw.githubusercontent.com/ddh4r4m/wallpaper-collection/main/collection/thumbnails/abstract/096.jpg"
      },
      "metadata": {
        "dimensions": {
          "width": 1080,
          "height": 1920
        },
        "file_size": 401803,
        "format": "JPEG",
        "added_at": "2025-07-17T00:02:18.742077",
        "hash": "e11fa1ad48e1f0a357af78f77144870c",
        "source": "migrated"
      }
    },
    {
      "id": "abstract_097",
      "category": "abstract",
      "title": "Abstract Wallpaper 097",
      "tags": [
        "abstract",
        "wallpaper",
        "hd",
        "mobile"
      ],
      "urls": {
        "raw": "https://raw.githubusercontent.com/ddh4r4m/wallpaper-collection/main/collection/wallpapers/abstract/097.jpg",
        "thumb": "https://raw.githubusercontent.com/ddh4r4m/wallpaper-collection/main/collection/thumbnails/abstract/097.jpg"
      },
      "metadata": {
        "dimensions": {
          "width": 1080,
          "height": 1920
        },
        "file_size": 940282,
        "format": "JPEG",
        "added_at": "2025-07-17T00:02:18.832474",
        "hash": "84ff7312a81a9cc7aadc3b66ad58aa0f",
        "source": "migrated"
      }
    },
    {
      "id": "abstract_098",
      "category": "abstract",
      "title": "Abstract Wallpaper 098",
      "tags": [
        "abstract",
        "wallpaper",
        "hd",
        "mobile"
      ],
      "urls": {
        "raw": "https://raw.githubusercontent.com/ddh4r4m/wallpaper-collection/main/collection/wallpapers/abstract/098.jpg",
        "thumb": "https://raw.githubusercontent.com/ddh4r4m/wallpaper-collection/main/collection/thumbnails/abstract/098.jpg"
      },
      "metadata": {
        "dimensions": {
          "width": 1080,
          "height": 1920
        },
        "file_size": 142809,
        "format": "JPEG",
        "added_at": "2025-07-17T00:02:18.919764",
        "hash": "abf3e6dd40e401c45b9dba886974d9be",
        "source": "migrated"
      }
    },
    {
      "id": "abstract_099",
      "category": "abstract",
      "title": "Abstract Wallpaper 099",
      "tags": [
        "abstract",
        "wallpaper",
        "hd",
        "mobile"
      ],
      "urls": {
        "raw": "https://raw.githubusercontent.com/ddh4r4m/wallpaper-collection/main/collection/wallpapers/abstract/099.jpg",
        "thumb": "https://raw.githubusercontent.com/ddh4r4m/wallpaper-collection/main/collection/thumbnails/abstract/099.jpg"
      },
      "metadata": {
        "dimensions": {
          "width": 1080,
          "height": 1920
        },
        "file_size": 580407,
        "format": "JPEG",
        "added_at": "2025-07-17T00:02:18.993721",
        "hash": "e575d20b8d823a2c782b5c4e5db0d7d4",
        "source": "migrated"
      }
    },
    {
      "id": "abstract_100",
      "category": "abstract",
      "title": "Abstract Wallpaper 100",
      "tags": [
        "abstract",
        "wallpaper",
        "hd",
        "mobile"
      ],
      "urls": {
        "raw": "https://raw.githubusercontent.com/ddh4r4m/wallpaper-collection/main/collection/wallpapers/abstract/100.jpg",
        "thumb": "https://raw.githubusercontent.com/ddh4r4m/wallpaper-collection/main/collection/thumbnails/abstract/100.jpg"
      },
      "metadata": {
        "dimensions": {
          "width": 1080,
          "height": 1920
        },
        "file_size": 306043,
        "format": "JPEG",
        "added_at": "2025-07-17T00:02:19.054800",
        "hash": "99f5e6daca124be50e8326d2ec1cbeb9",
        "source": "migrated"
      }
    }
  ]
}