{
  "meta": {
    "version": "1.0",
    "generated_at": "2025-07-19T12:26:57.111378",
    "page": 23,
    "per_page": 15,
    "total_pages": 160,
    "total_count": 2387,
    "count_on_page": 15,
    "categories": 19,
    "has_next": true,
    "has_prev": true,
    "next_page_url": "/api/v1/all/pages/24.json",
    "prev_page_url": "/api/v1/all/pages/22.json"
  },
  "data": [
    {
      "id": "abstract_131",
      "category": "abstract",
      "title": "Abstract Wallpaper 131",
      "tags": [
        "abstract",
        "wallpaper",
        "hd",
        "mobile"
      ],
      "urls": {
        "raw": "https://media.githubusercontent.com/media/ddh4r4m/wallpaper-collection/main/collection/wallpapers/abstract/131.jpg",
        "thumb": "https://media.githubusercontent.com/media/ddh4r4m/wallpaper-collection/main/collection/thumbnails/abstract/131.jpg"
      },
      "metadata": {
        "dimensions": {
          "width": 1080,
          "height": 1920
        },
        "file_size": 505179,
        "format": "JPEG",
        "added_at": "2025-07-17T00:02:21.184951",
        "hash": "b45abdeee142bea4580f1609fccc533b",
        "source": "migrated"
      }
    },
    {
      "id": "abstract_132",
      "category": "abstract",
      "title": "Abstract Wallpaper 132",
      "tags": [
        "abstract",
        "wallpaper",
        "hd",
        "mobile"
      ],
      "urls": {
        "raw": "https://media.githubusercontent.com/media/ddh4r4m/wallpaper-collection/main/collection/wallpapers/abstract/132.jpg",
        "thumb": "https://media.githubusercontent.com/media/ddh4r4m/wallpaper-collection/main/collection/thumbnails/abstract/132.jpg"
      },
      "metadata": {
        "dimensions": {
          "width": 1080,
          "height": 1920
        },
        "file_size": 221940,
        "format": "JPEG",
        "added_at": "2025-07-17T00:02:21.238625",
        "hash": "34a0ab88000abd899f8c0e1b243bc118",
        "source": "migrated"
      }
    },
    {
      "id": "abstract_133",
      "category": "abstract",
      "title": "Abstract Wallpaper 133",
      "tags": [
        "abstract",
        "wallpaper",
        "hd",
        "mobile"
      ],
      "urls": {
        "raw": "https://media.githubusercontent.com/media/ddh4r4m/wallpaper-collection/main/collection/wallpapers/abstract/133.jpg",
        "thumb": "https://media.githubusercontent.com/media/ddh4r4m/wallpaper-collection/main/collection/thumbnails/abstract/133.jpg"
      },
      "metadata": {
        "dimensions": {
          "width": 1080,
          "height": 1920
        },
        "file_size": 378696,
        "format": "JPEG",
        "added_at": "2025-07-17T00:02:21.302023",
        "hash": "4266cd197ce12eb00294e06ab3716f4b",
        "source": "migrated"
      }
    },
    {
      "id": "abstract_134",
      "category": "abstract",
      "title": "Abstract Wallpaper 134",
      "tags": [
        "abstract",
        "wallpaper",
        "hd",
        "mobile"
      ],
      "urls": {
        "raw": "https://media.githubusercontent.com/media/ddh4r4m/wallpaper-collection/main/collection/wallpapers/abstract/134.jpg",
        "thumb": "https://media.githubusercontent.com/media/ddh4r4m/wallpaper-collection/main/collection/thumbnails/abstract/134.jpg"
      },
      "metadata": {
        "dimensions": {
          "width": 1080,
          "height": 1920
        },
        "file_size": 132748,
        "format": "JPEG",
        "added_at": "2025-07-17T00:02:21.350182",
        "hash": "f54fd9b6b4626b19f281608ff79f900d",
        "source": "migrated"
      }
    },
    {
      "id": "abstract_135",
      "category": "abstract",
      "title": "Abstract Wallpaper 135",
      "tags": [
        "abstract",
        "wallpaper",
        "hd",
        "mobile"
      ],
      "urls": {
        "raw": "https://media.githubusercontent.com/media/ddh4r4m/wallpaper-collection/main/collection/wallpapers/abstract/135.jpg",
        "thumb": "https://media.githubusercontent.com/media/ddh4r4m/wallpaper-collection/main/collection/thumbnails/abstract/135.jpg"
      },
      "metadata": {
        "dimensions": {
          "width": 1080,
          "height": 1920
        },
        "file_size": 509002,
        "format": "JPEG",
        "added_at": "2025-07-17T00:02:21.420197",
        "hash": "aad0547ddc7f7e15c1239be7d846c487",
        "source": "migrated"
      }
    },
    {
      "id": "abstract_136",
      "category": "abstract",
      "title": "Abstract Wallpaper 136",
      "tags": [
        "abstract",
        "wallpaper",
        "hd",
        "mobile"
      ],
      "urls": {
        "raw": "https://media.githubusercontent.com/media/ddh4r4m/wallpaper-collection/main/collection/wallpapers/abstract/136.jpg",
        "thumb": "https://media.githubusercontent.com/media/ddh4r4m/wallpaper-collection/main/collection/thumbnails/abstract/136.jpg"
      },
      "metadata": {
        "dimensions": {
          "width": 1080,
          "height": 1920
        },
        "file_size": 194905,
        "format": "JPEG",
        "added_at": "2025-07-17T00:02:21.471677",
        "hash": "76ed1beddbe33b899e56a35c02cf6f38",
        "source": "migrated"
      }
    },
    {
      "id": "abstract_137",
      "category": "abstract",
      "title": "Abstract Wallpaper 137",
      "tags": [
        "abstract",
        "wallpaper",
        "hd",
        "mobile"
      ],
      "urls": {
        "raw": "https://media.githubusercontent.com/media/ddh4r4m/wallpaper-collection/main/collection/wallpapers/abstract/137.jpg",
        "thumb": "https://media.githubusercontent.com/media/ddh4r4m/wallpaper-collection/main/collection/thumbnails/abstract/137.jpg"
      },
      "metadata": {
        "dimensions": {
          "width": 1080,
          "height": 1920
        },
        "file_size": 514672,
        "format": "JPEG",
        "added_at": "2025-07-17T00:02:21.540922",
        "hash": "dcbc30d3ae053c1be8df3db5049dec41",
        "source": "migrated"
      }
    },
    {
      "id": "abstract_138",
      "category": "abstract",
      "title": "Abstract Wallpaper 138",
      "tags": [
        "abstract",
        "wallpaper",
        "hd",
        "mobile"
      ],
      "urls": {
        "raw": "https://media.githubusercontent.com/media/ddh4r4m/wallpaper-collection/main/collection/wallpapers/abstract/138.jpg",
        "thumb": "https://media.githubusercontent.com/media/ddh4r4m/wallpaper-collection/main/collection/thumbnails/abstract/138.jpg"
      },
      "metadata": {
        "dimensions": {
          "width": 1080,
          "height": 1920
        },
        "file_size": 319498,
        "format": "JPEG",
        "added_at": "2025-07-17T00:02:21.601361",
        "hash": "1564ad0a657364f4f57aab6685f47b9a",
        "source": "migrated"
      }
    },
    {
      "id": "abstract_139",
      "category": "abstract",
      "title": "Abstract Wallpaper 139",
      "tags": [
        "abstract",
        "wallpaper",
        "hd",
        "mobile"
      ],
      "urls": {
        "raw": "https://media.githubusercontent.com/media/ddh4r4m/wallpaper-collection/main/collection/wallpapers/abstract/139.jpg",
        "thumb": "https://media.githubusercontent.com/media/ddh4r4m/wallpaper-collection/main/collection/thumbnails/abstract/139.jpg"
      },
      "metadata": {
        "dimensions": {
          "width": 1080,
          "height": 1920
        },
        "file_size": 235462,
        "format": "JPEG",
        "added_at": "2025-07-17T00:02:21.654623",
        "hash": "21cda66b28423ed2e94e68d7b82a7850",
        "source": "migrated"
      }
    },
    {
      "id": "abstract_140",
      "category": "abstract",
      "title": "Abstract Wallpaper 140",
      "tags": [
        "abstract",
        "wallpaper",
        "hd",
        "mobile"
      ],
      "urls": {
        "raw": "https://media.githubusercontent.com/media/ddh4r4m/wallpaper-collection/main/collection/wallpapers/abstract/140.jpg",
        "thumb": "https://media.githubusercontent.com/media/ddh4r4m/wallpaper-collection/main/collection/thumbnails/abstract/140.jpg"
      },
      "metadata": {
        "dimensions": {
          "width": 1080,
          "height": 1920
        },
        "file_size": 600960,
        "format": "JPEG",
        "added_at": "2025-07-17T00:02:21.728846",
        "hash": "e59626b783ebf889706fd39feb56c5f8",
        "source": "migrated"
      }
    },
    {
      "id": "abstract_141",
      "category": "abstract",
      "title": "Abstract Wallpaper 141",
      "tags": [
        "abstract",
        "wallpaper",
        "hd",
        "mobile"
      ],
      "urls": {
        "raw": "https://media.githubusercontent.com/media/ddh4r4m/wallpaper-collection/main/collection/wallpapers/abstract/141.jpg",
        "thumb": "https://media.githubusercontent.com/media/ddh4r4m/wallpaper-collection/main/collection/thumbnails/abstract/141.jpg"
      },
      "metadata": {
        "dimensions": {
          "width": 1080,
          "height": 1920
        },
        "file_size": 643517,
        "format": "JPEG",
        "added_at": "2025-07-17T00:02:21.803079",
        "hash": "0154fb0f59e7d3ffaf19f603aa189bea",
        "source": "migrated"
      }
    },
    {
      "id": "abstract_142",
      "category": "abstract",
      "title": "Abstract Wallpaper 142",
      "tags": [
        "abstract",
        "wallpaper",
        "hd",
        "mobile"
      ],
      "urls": {
        "raw": "https://media.githubusercontent.com/media/ddh4r4m/wallpaper-collection/main/collection/wallpapers/abstract/142.jpg",
        "thumb": "https://media.githubusercontent.com/media/ddh4r4m/wallpaper-collection/main/collection/thumbnails/abstract/142.jpg"
      },
      "metadata": {
        "dimensions": {
          "width": 1080,
          "height": 1920
        },
        "file_size": 364065,
        "format": "JPEG",
        "added_at": "2025-07-17T00:02:21.865115",
        "hash": "7fd6959c21116eaaa93f43d59d20effb",
        "source": "migrated"
      }
    },
    {
      "id": "abstract_143",
      "category": "abstract",
      "title": "Abstract Wallpaper 143",
      "tags": [
        "abstract",
        "wallpaper",
        "hd",
        "mobile"
      ],
      "urls": {
        "raw": "https://media.githubusercontent.com/media/ddh4r4m/wallpaper-collection/main/collection/wallpapers/abstract/143.jpg",
        "thumb": "https://media.githubusercontent.com/media/ddh4r4m/wallpaper-collection/main/collection/thumbnails/abstract/143.jpg"
      },
      "metadata": {
        "dimensions": {
          "width": 1080,
          "height": 1920
        },
        "file_size": 157432,
        "format": "JPEG",
        "added_at": "2025-07-17T00:02:21.916150",
        "hash": "1b6b8d8ae97b73da309754c5715900df",
        "source": "migrated"
      }
    },
    {
      "id": "abstract_144",
      "category": "abstract",
      "title": "Abstract Wallpaper 144",
      "tags": [
        "abstract",
        "wallpaper",
        "hd",
        "mobile"
      ],
      "urls": {
        "raw": "https://media.githubusercontent.com/media/ddh4r4m/wallpaper-collection/main/collection/wallpapers/abstract/144.jpg",
        "thumb": "https://media.githubusercontent.com/media/ddh4r4m/wallpaper-collection/main/collection/thumbnails/abstract/144.jpg"
      },
      "metadata": {
        "dimensions": {
          "width": 1080,
          "height": 1920
        },
        "file_size": 541931,
        "format": "JPEG",
        "added_at": "2025-07-17T00:02:21.988530",
        "hash": "2250150eb3e2b1fc910fbbd83c7b644c",
        "source": "migrated"
      }
    },
    {
      "id": "abstract_145",
      "category": "abstract",
      "title": "Abstract Wallpaper 145",
      "tags": [
        "abstract",
        "wallpaper",
        "hd",
        "mobile"
      ],
      "urls": {
        "raw": "https://media.githubusercontent.com/media/ddh4r4m/wallpaper-collection/main/collection/wallpapers/abstract/145.jpg",
        "thumb": "https://media.githubusercontent.com/media/ddh4r4m/wallpaper-collection/main/collection/thumbnails/abstract/145.jpg"
      },
      "metadata": {
        "dimensions": {
          "width": 1080,
          "height": 1920
        },
        "file_size": 562101,
        "format": "JPEG",
        "added_at": "2025-07-17T00:02:22.060001",
        "hash": "41b6d89a5534f42328b2d1f1fbe3baea",
        "source": "migrated"
      }
    }
  ]
}