{
  "meta": {
    "version": "1.0",
    "generated_at": "2025-07-19T12:26:57.111378",
    "page": 24,
    "per_page": 15,
    "total_pages": 160,
    "total_count": 2387,
    "count_on_page": 15,
    "categories": 19,
    "has_next": true,
    "has_prev": true,
    "next_page_url": "/api/v1/all/pages/25.json",
    "prev_page_url": "/api/v1/all/pages/23.json"
  },
  "data": [
    {
      "id": "abstract_146",
      "category": "abstract",
      "title": "Abstract Wallpaper 146",
      "tags": [
        "abstract",
        "wallpaper",
        "hd",
        "mobile"
      ],
      "urls": {
        "raw": "https://media.githubusercontent.com/media/ddh4r4m/wallpaper-collection/main/collection/wallpapers/abstract/146.jpg",
        "thumb": "https://media.githubusercontent.com/media/ddh4r4m/wallpaper-collection/main/collection/thumbnails/abstract/146.jpg"
      },
      "metadata": {
        "dimensions": {
          "width": 1080,
          "height": 1920
        },
        "file_size": 402342,
        "format": "JPEG",
        "added_at": "2025-07-17T00:02:22.124583",
        "hash": "147a0c3041c07decffab0a15434fbf0e",
        "source": "migrated"
      }
    },
    {
      "id": "abstract_147",
      "category": "abstract",
      "title": "Abstract Wallpaper 147",
      "tags": [
        "abstract",
        "wallpaper",
        "hd",
        "mobile"
      ],
      "urls": {
        "raw": "https://media.githubusercontent.com/media/ddh4r4m/wallpaper-collection/main/collection/wallpapers/abstract/147.jpg",
        "thumb": "https://media.githubusercontent.com/media/ddh4r4m/wallpaper-collection/main/collection/thumbnails/abstract/147.jpg"
      },
      "metadata": {
        "dimensions": {
          "width": 1080,
          "height": 1920
        },
        "file_size": 313307,
        "format": "JPEG",
        "added_at": "2025-07-17T00:02:22.184344",
        "hash": "1ade62b74c9def1ff5ba9d3206f249e0",
        "source": "migrated"
      }
    },
    {
      "id": "abstract_148",
      "category": "abstract",
      "title": "Abstract Wallpaper 148",
      "tags": [
        "abstract",
        "wallpaper",
        "hd",
        "mobile"
      ],
      "urls": {
        "raw": "https://media.githubusercontent.com/media/ddh4r4m/wallpaper-collection/main/collection/wallpapers/abstract/148.jpg",
        "thumb": "https://media.githubusercontent.com/media/ddh4r4m/wallpaper-collection/main/collection/thumbnails/abstract/148.jpg"
      },
      "metadata": {
        "dimensions": {
          "width": 1080,
          "height": 1920
        },
        "file_size": 720429,
        "format": "JPEG",
        "added_at": "2025-07-17T00:02:22.267333",
        "hash": "93f922e0a0a6d37185257c61760e22bd",
        "source": "migrated"
      }
    },
    {
      "id": "abstract_149",
      "category": "abstract",
      "title": "Abstract Wallpaper 149",
      "tags": [
        "abstract",
        "wallpaper",
        "hd",
        "mobile"
      ],
      "urls": {
        "raw": "https://media.githubusercontent.com/media/ddh4r4m/wallpaper-collection/main/collection/wallpapers/abstract/149.jpg",
        "thumb": "https://media.githubusercontent.com/media/ddh4r4m/wallpaper-collection/main/collection/thumbnails/abstract/149.jpg"
      },
      "metadata": {
        "dimensions": {
          "width": 1080,
          "height": 1920
        },
        "file_size": 752526,
        "format": "JPEG",
        "added_at": "2025-07-17T00:02:22.346818",
        "hash": "0838eafb2f2cd17213a7745d8983aa68",
        "source": "migrated"
      }
    },
    {
      "id": "abstract_150",
      "category": "abstract",
      "title": "Abstract Wallpaper 150",
      "tags": [
        "abstract",
        "wallpaper",
        "hd",
        "mobile"
      ],
      "urls": {
        "raw": "https://media.githubusercontent.com/media/ddh4r4m/wallpaper-collection/main/collection/wallpapers/abstract/150.jpg",
        "thumb": "https://media.githubusercontent.com/media/ddh4r4m/wallpaper-collection/main/collection/thumbnails/abstract/150.jpg"
      },
      "metadata": {
        "dimensions": {
          "width": 1080,
          "height": 1920
        },
        "file_size": 342510,
        "format": "JPEG",
        "added_at": "2025-07-17T00:02:22.409359",
        "hash": "9c2c0109e41ea84190159dc500d97d0d",
        "source": "migrated"
      }
    },
    {
      "id": "abstract_151",
      "category": "abstract",
      "title": "Abstract Wallpaper 151",
      "tags": [
        "abstract",
        "wallpaper",
        "hd",
        "mobile"
      ],
      "urls": {
        "raw": "https://media.githubusercontent.com/media/ddh4r4m/wallpaper-collection/main/collection/wallpapers/abstract/151.jpg",
        "thumb": "https://media.githubusercontent.com/media/ddh4r4m/wallpaper-collection/main/collection/thumbnails/abstract/151.jpg"
      },
      "metadata": {
        "dimensions": {
          "width": 1080,
          "height": 1920
        },
        "file_size": 531214,
        "format": "JPEG",
        "added_at": "2025-07-17T00:02:22.481081",
        "hash": "10040659edd6c1d23f81aa6ea8e33137",
        "source": "migrated"
      }
    },
    {
      "id": "abstract_152",
      "category": "abstract",
      "title": "Abstract Wallpaper 152",
      "tags": [
        "abstract",
        "wallpaper",
        "hd",
        "mobile"
      ],
      "urls": {
        "raw": "https://media.githubusercontent.com/media/ddh4r4m/wallpaper-collection/main/collection/wallpapers/abstract/152.jpg",
        "thumb": "https://media.githubusercontent.com/media/ddh4r4m/wallpaper-collection/main/collection/thumbnails/abstract/152.jpg"
      },
      "metadata": {
        "dimensions": {
          "width": 1080,
          "height": 1920
        },
        "file_size": 338513,
        "format": "JPEG",
        "added_at": "2025-07-17T00:02:22.542800",
        "hash": "73a311f150c7c90bafdf9de927b40a9b",
        "source": "migrated"
      }
    },
    {
      "id": "abstract_153",
      "category": "abstract",
      "title": "Abstract Wallpaper 153",
      "tags": [
        "abstract",
        "wallpaper",
        "hd",
        "mobile"
      ],
      "urls": {
        "raw": "https://media.githubusercontent.com/media/ddh4r4m/wallpaper-collection/main/collection/wallpapers/abstract/153.jpg",
        "thumb": "https://media.githubusercontent.com/media/ddh4r4m/wallpaper-collection/main/collection/thumbnails/abstract/153.jpg"
      },
      "metadata": {
        "dimensions": {
          "width": 1080,
          "height": 1920
        },
        "file_size": 445027,
        "format": "JPEG",
        "added_at": "2025-07-17T00:02:22.609101",
        "hash": "5ae2b0ca65cf81472724d6ae99ae4663",
        "source": "migrated"
      }
    },
    {
      "id": "abstract_154",
      "category": "abstract",
      "title": "Abstract Wallpaper 154",
      "tags": [
        "abstract",
        "wallpaper",
        "hd",
        "mobile"
      ],
      "urls": {
        "raw": "https://media.githubusercontent.com/media/ddh4r4m/wallpaper-collection/main/collection/wallpapers/abstract/154.jpg",
        "thumb": "https://media.githubusercontent.com/media/ddh4r4m/wallpaper-collection/main/collection/thumbnails/abstract/154.jpg"
      },
      "metadata": {
        "dimensions": {
          "width": 1080,
          "height": 1920
        },
        "file_size": 136271,
        "format": "JPEG",
        "added_at": "2025-07-17T00:02:22.658502",
        "hash": "5ada16c8694a5477653bfd46c684e800",
        "source": "migrated"
      }
    },
    {
      "id": "abstract_155",
      "category": "abstract",
      "title": "Abstract Wallpaper 155",
      "tags": [
        "abstract",
        "wallpaper",
        "hd",
        "mobile"
      ],
      "urls": {
        "raw": "https://media.githubusercontent.com/media/ddh4r4m/wallpaper-collection/main/collection/wallpapers/abstract/155.jpg",
        "thumb": "https://media.githubusercontent.com/media/ddh4r4m/wallpaper-collection/main/collection/thumbnails/abstract/155.jpg"
      },
      "metadata": {
        "dimensions": {
          "width": 1080,
          "height": 1920
        },
        "file_size": 788034,
        "format": "JPEG",
        "added_at": "2025-07-17T00:02:22.742979",
        "hash": "09ea8bcd4a0c68b30baeb900ec7aae43",
        "source": "migrated"
      }
    },
    {
      "id": "abstract_156",
      "category": "abstract",
      "title": "Abstract Wallpaper 156",
      "tags": [
        "abstract",
        "wallpaper",
        "hd",
        "mobile"
      ],
      "urls": {
        "raw": "https://media.githubusercontent.com/media/ddh4r4m/wallpaper-collection/main/collection/wallpapers/abstract/156.jpg",
        "thumb": "https://media.githubusercontent.com/media/ddh4r4m/wallpaper-collection/main/collection/thumbnails/abstract/156.jpg"
      },
      "metadata": {
        "dimensions": {
          "width": 1080,
          "height": 1920
        },
        "file_size": 571248,
        "format": "JPEG",
        "added_at": "2025-07-17T00:02:22.814456",
        "hash": "802c1b57bd84aed35db6787960889616",
        "source": "migrated"
      }
    },
    {
      "id": "abstract_157",
      "category": "abstract",
      "title": "Abstract Wallpaper 157",
      "tags": [
        "abstract",
        "wallpaper",
        "hd",
        "mobile"
      ],
      "urls": {
        "raw": "https://media.githubusercontent.com/media/ddh4r4m/wallpaper-collection/main/collection/wallpapers/abstract/157.jpg",
        "thumb": "https://media.githubusercontent.com/media/ddh4r4m/wallpaper-collection/main/collection/thumbnails/abstract/157.jpg"
      },
      "metadata": {
        "dimensions": {
          "width": 1080,
          "height": 1920
        },
        "file_size": 381973,
        "format": "JPEG",
        "added_at": "2025-07-17T00:02:22.877759",
        "hash": "9cd013c7aac82654ba5da98eec1d1c85",
        "source": "migrated"
      }
    },
    {
      "id": "abstract_158",
      "category": "abstract",
      "title": "Abstract Wallpaper 158",
      "tags": [
        "abstract",
        "wallpaper",
        "hd",
        "mobile"
      ],
      "urls": {
        "raw": "https://media.githubusercontent.com/media/ddh4r4m/wallpaper-collection/main/collection/wallpapers/abstract/158.jpg",
        "thumb": "https://media.githubusercontent.com/media/ddh4r4m/wallpaper-collection/main/collection/thumbnails/abstract/158.jpg"
      },
      "metadata": {
        "dimensions": {
          "width": 1080,
          "height": 1920
        },
        "file_size": 496765,
        "format": "JPEG",
        "added_at": "2025-07-17T00:02:22.947766",
        "hash": "c9d4946060b034fc0de07fb57d656c6b",
        "source": "migrated"
      }
    },
    {
      "id": "abstract_159",
      "category": "abstract",
      "title": "Abstract Wallpaper 159",
      "tags": [
        "abstract",
        "wallpaper",
        "hd",
        "mobile"
      ],
      "urls": {
        "raw": "https://media.githubusercontent.com/media/ddh4r4m/wallpaper-collection/main/collection/wallpapers/abstract/159.jpg",
        "thumb": "https://media.githubusercontent.com/media/ddh4r4m/wallpaper-collection/main/collection/thumbnails/abstract/159.jpg"
      },
      "metadata": {
        "dimensions": {
          "width": 1080,
          "height": 1920
        },
        "file_size": 738036,
        "format": "JPEG",
        "added_at": "2025-07-17T00:02:23.030184",
        "hash": "a461d64d38eefc5a72edf34ae0ecd169",
        "source": "migrated"
      }
    },
    {
      "id": "abstract_160",
      "category": "abstract",
      "title": "Abstract Wallpaper 160",
      "tags": [
        "abstract",
        "wallpaper",
        "hd",
        "mobile"
      ],
      "urls": {
        "raw": "https://media.githubusercontent.com/media/ddh4r4m/wallpaper-collection/main/collection/wallpapers/abstract/160.jpg",
        "thumb": "https://media.githubusercontent.com/media/ddh4r4m/wallpaper-collection/main/collection/thumbnails/abstract/160.jpg"
      },
      "metadata": {
        "dimensions": {
          "width": 1080,
          "height": 1920
        },
        "file_size": 696508,
        "format": "JPEG",
        "added_at": "2025-07-17T00:02:23.107479",
        "hash": "184a2351f9f822ea09554659251f865c",
        "source": "migrated"
      }
    }
  ]
}