{
  "meta": {
    "version": "1.0",
    "generated_at": "2025-07-28T22:48:38.208699",
    "page": 25,
    "per_page": 15,
    "total_pages": 183,
    "total_count": 2737,
    "count_on_page": 15,
    "categories": 22,
    "has_next": true,
    "has_prev": true,
    "next_page_url": "/api/v1/all/pages/26.json",
    "prev_page_url": "/api/v1/all/pages/24.json"
  },
  "data": [
    {
      "id": "abstract_161",
      "category": "abstract",
      "title": "Abstract Wallpaper 161",
      "tags": [
        "abstract",
        "wallpaper",
        "hd",
        "mobile"
      ],
      "urls": {
        "raw": "https://media.githubusercontent.com/media/ddh4r4m/wallpaper-collection/main/collection/wallpapers/abstract/161.jpg",
        "thumb": "https://media.githubusercontent.com/media/ddh4r4m/wallpaper-collection/main/collection/thumbnails/abstract/161.jpg"
      },
      "metadata": {
        "dimensions": {
          "width": 1080,
          "height": 1920
        },
        "file_size": 453387,
        "format": "JPEG",
        "added_at": "2025-07-17T00:02:23.175116",
        "hash": "67057b0e7fc27ff48dc1fcf06a44497f",
        "source": "migrated"
      }
    },
    {
      "id": "abstract_162",
      "category": "abstract",
      "title": "Abstract Wallpaper 162",
      "tags": [
        "abstract",
        "wallpaper",
        "hd",
        "mobile"
      ],
      "urls": {
        "raw": "https://media.githubusercontent.com/media/ddh4r4m/wallpaper-collection/main/collection/wallpapers/abstract/162.jpg",
        "thumb": "https://media.githubusercontent.com/media/ddh4r4m/wallpaper-collection/main/collection/thumbnails/abstract/162.jpg"
      },
      "metadata": {
        "dimensions": {
          "width": 1080,
          "height": 1920
        },
        "file_size": 487620,
        "format": "JPEG",
        "added_at": "2025-07-17T00:02:23.244387",
        "hash": "5c88b9dbef43a4a5427d0f43f09fd48e",
        "source": "migrated"
      }
    },
    {
      "id": "abstract_163",
      "category": "abstract",
      "title": "Abstract Wallpaper 163",
      "tags": [
        "abstract",
        "wallpaper",
        "hd",
        "mobile"
      ],
      "urls": {
        "raw": "https://media.githubusercontent.com/media/ddh4r4m/wallpaper-collection/main/collection/wallpapers/abstract/163.jpg",
        "thumb": "https://media.githubusercontent.com/media/ddh4r4m/wallpaper-collection/main/collection/thumbnails/abstract/163.jpg"
      },
      "metadata": {
        "dimensions": {
          "width": 1080,
          "height": 1920
        },
        "file_size": 283116,
        "format": "JPEG",
        "added_at": "2025-07-17T00:02:23.299745",
        "hash": "9829ba53764ccf6f48dff07a57ff2e47",
        "source": "migrated"
      }
    },
    {
      "id": "abstract_164",
      "category": "abstract",
      "title": "Abstract Wallpaper 164",
      "tags": [
        "abstract",
        "wallpaper",
        "hd",
        "mobile"
      ],
      "urls": {
        "raw": "https://media.githubusercontent.com/media/ddh4r4m/wallpaper-collection/main/collection/wallpapers/abstract/164.jpg",
        "thumb": "https://media.githubusercontent.com/media/ddh4r4m/wallpaper-collection/main/collection/thumbnails/abstract/164.jpg"
      },
      "metadata": {
        "dimensions": {
          "width": 1080,
          "height": 1920
        },
        "file_size": 706986,
        "format": "JPEG",
        "added_at": "2025-07-17T00:02:23.378554",
        "hash": "265137495cb10cdfb9002f4616dadcc1",
        "source": "migrated"
      }
    },
    {
      "id": "abstract_165",
      "category": "abstract",
      "title": "Abstract Wallpaper 165",
      "tags": [
        "abstract",
        "wallpaper",
        "hd",
        "mobile"
      ],
      "urls": {
        "raw": "https://media.githubusercontent.com/media/ddh4r4m/wallpaper-collection/main/collection/wallpapers/abstract/165.jpg",
        "thumb": "https://media.githubusercontent.com/media/ddh4r4m/wallpaper-collection/main/collection/thumbnails/abstract/165.jpg"
      },
      "metadata": {
        "dimensions": {
          "width": 1080,
          "height": 1920
        },
        "file_size": 448694,
        "format": "JPEG",
        "added_at": "2025-07-17T00:02:23.445796",
        "hash": "ddd0e6fb52e5f95e6ddceaaea5895221",
        "source": "migrated"
      }
    },
    {
      "id": "abstract_166",
      "category": "abstract",
      "title": "Abstract Wallpaper 166",
      "tags": [
        "abstract",
        "wallpaper",
        "hd",
        "mobile"
      ],
      "urls": {
        "raw": "https://media.githubusercontent.com/media/ddh4r4m/wallpaper-collection/main/collection/wallpapers/abstract/166.jpg",
        "thumb": "https://media.githubusercontent.com/media/ddh4r4m/wallpaper-collection/main/collection/thumbnails/abstract/166.jpg"
      },
      "metadata": {
        "dimensions": {
          "width": 1080,
          "height": 1920
        },
        "file_size": 565538,
        "format": "JPEG",
        "added_at": "2025-07-17T00:02:23.519033",
        "hash": "835afa27cc77e62363d3ba94bcf50814",
        "source": "migrated"
      }
    },
    {
      "id": "abstract_167",
      "category": "abstract",
      "title": "Abstract Wallpaper 167",
      "tags": [
        "abstract",
        "wallpaper",
        "hd",
        "mobile"
      ],
      "urls": {
        "raw": "https://media.githubusercontent.com/media/ddh4r4m/wallpaper-collection/main/collection/wallpapers/abstract/167.jpg",
        "thumb": "https://media.githubusercontent.com/media/ddh4r4m/wallpaper-collection/main/collection/thumbnails/abstract/167.jpg"
      },
      "metadata": {
        "dimensions": {
          "width": 1080,
          "height": 1920
        },
        "file_size": 495452,
        "format": "JPEG",
        "added_at": "2025-07-17T00:02:23.591422",
        "hash": "fbd50b2ccd2063bc75866ad17e6c25e0",
        "source": "migrated"
      }
    },
    {
      "id": "abstract_168",
      "category": "abstract",
      "title": "Abstract Wallpaper 168",
      "tags": [
        "abstract",
        "wallpaper",
        "hd",
        "mobile"
      ],
      "urls": {
        "raw": "https://media.githubusercontent.com/media/ddh4r4m/wallpaper-collection/main/collection/wallpapers/abstract/168.jpg",
        "thumb": "https://media.githubusercontent.com/media/ddh4r4m/wallpaper-collection/main/collection/thumbnails/abstract/168.jpg"
      },
      "metadata": {
        "dimensions": {
          "width": 1080,
          "height": 1920
        },
        "file_size": 474301,
        "format": "JPEG",
        "added_at": "2025-07-17T00:02:23.662594",
        "hash": "7e1666c29f2a2218a731adcad846f7bb",
        "source": "migrated"
      }
    },
    {
      "id": "abstract_169",
      "category": "abstract",
      "title": "Abstract Wallpaper 169",
      "tags": [
        "abstract",
        "wallpaper",
        "hd",
        "mobile"
      ],
      "urls": {
        "raw": "https://media.githubusercontent.com/media/ddh4r4m/wallpaper-collection/main/collection/wallpapers/abstract/169.jpg",
        "thumb": "https://media.githubusercontent.com/media/ddh4r4m/wallpaper-collection/main/collection/thumbnails/abstract/169.jpg"
      },
      "metadata": {
        "dimensions": {
          "width": 1080,
          "height": 1920
        },
        "file_size": 535842,
        "format": "JPEG",
        "added_at": "2025-07-17T00:02:23.736509",
        "hash": "8422ec533c4d5e0bddc290df2bd18f26",
        "source": "migrated"
      }
    },
    {
      "id": "abstract_170",
      "category": "abstract",
      "title": "Abstract Wallpaper 170",
      "tags": [
        "abstract",
        "wallpaper",
        "hd",
        "mobile"
      ],
      "urls": {
        "raw": "https://media.githubusercontent.com/media/ddh4r4m/wallpaper-collection/main/collection/wallpapers/abstract/170.jpg",
        "thumb": "https://media.githubusercontent.com/media/ddh4r4m/wallpaper-collection/main/collection/thumbnails/abstract/170.jpg"
      },
      "metadata": {
        "dimensions": {
          "width": 1080,
          "height": 1920
        },
        "file_size": 800974,
        "format": "JPEG",
        "added_at": "2025-07-17T00:02:23.820243",
        "hash": "ffa1ebc471b13beaa532749937895438",
        "source": "migrated"
      }
    },
    {
      "id": "abstract_171",
      "category": "abstract",
      "title": "Abstract Wallpaper 171",
      "tags": [
        "abstract",
        "wallpaper",
        "hd",
        "mobile"
      ],
      "urls": {
        "raw": "https://media.githubusercontent.com/media/ddh4r4m/wallpaper-collection/main/collection/wallpapers/abstract/171.jpg",
        "thumb": "https://media.githubusercontent.com/media/ddh4r4m/wallpaper-collection/main/collection/thumbnails/abstract/171.jpg"
      },
      "metadata": {
        "dimensions": {
          "width": 1080,
          "height": 1920
        },
        "file_size": 694194,
        "format": "JPEG",
        "added_at": "2025-07-17T00:02:23.899131",
        "hash": "e7c252d1aeae75accb0e35c603c82c63",
        "source": "migrated"
      }
    },
    {
      "id": "abstract_172",
      "category": "abstract",
      "title": "Abstract Wallpaper 172",
      "tags": [
        "abstract",
        "wallpaper",
        "hd",
        "mobile"
      ],
      "urls": {
        "raw": "https://media.githubusercontent.com/media/ddh4r4m/wallpaper-collection/main/collection/wallpapers/abstract/172.jpg",
        "thumb": "https://media.githubusercontent.com/media/ddh4r4m/wallpaper-collection/main/collection/thumbnails/abstract/172.jpg"
      },
      "metadata": {
        "dimensions": {
          "width": 1080,
          "height": 1920
        },
        "file_size": 876252,
        "format": "JPEG",
        "added_at": "2025-07-17T00:02:23.988214",
        "hash": "0eda2a2edc6165539c02d700b1ad4362",
        "source": "migrated"
      }
    },
    {
      "id": "abstract_173",
      "category": "abstract",
      "title": "Abstract Wallpaper 173",
      "tags": [
        "abstract",
        "wallpaper",
        "hd",
        "mobile"
      ],
      "urls": {
        "raw": "https://media.githubusercontent.com/media/ddh4r4m/wallpaper-collection/main/collection/wallpapers/abstract/173.jpg",
        "thumb": "https://media.githubusercontent.com/media/ddh4r4m/wallpaper-collection/main/collection/thumbnails/abstract/173.jpg"
      },
      "metadata": {
        "dimensions": {
          "width": 1080,
          "height": 1920
        },
        "file_size": 480002,
        "format": "JPEG",
        "added_at": "2025-07-17T00:02:24.057285",
        "hash": "189e616bef370ebb003bd6510e95cfba",
        "source": "migrated"
      }
    },
    {
      "id": "abstract_174",
      "category": "abstract",
      "title": "Abstract Wallpaper 174",
      "tags": [
        "abstract",
        "wallpaper",
        "hd",
        "mobile"
      ],
      "urls": {
        "raw": "https://media.githubusercontent.com/media/ddh4r4m/wallpaper-collection/main/collection/wallpapers/abstract/174.jpg",
        "thumb": "https://media.githubusercontent.com/media/ddh4r4m/wallpaper-collection/main/collection/thumbnails/abstract/174.jpg"
      },
      "metadata": {
        "dimensions": {
          "width": 1080,
          "height": 1920
        },
        "file_size": 394282,
        "format": "JPEG",
        "added_at": "2025-07-17T00:02:24.121614",
        "hash": "8f54dddd4fe10415012556148431d5e8",
        "source": "migrated"
      }
    },
    {
      "id": "abstract_175",
      "category": "abstract",
      "title": "Abstract Wallpaper 175",
      "tags": [
        "abstract",
        "wallpaper",
        "hd",
        "mobile"
      ],
      "urls": {
        "raw": "https://media.githubusercontent.com/media/ddh4r4m/wallpaper-collection/main/collection/wallpapers/abstract/175.jpg",
        "thumb": "https://media.githubusercontent.com/media/ddh4r4m/wallpaper-collection/main/collection/thumbnails/abstract/175.jpg"
      },
      "metadata": {
        "dimensions": {
          "width": 1080,
          "height": 1920
        },
        "file_size": 314978,
        "format": "JPEG",
        "added_at": "2025-07-17T00:02:24.181678",
        "hash": "94c790bd213b3a944adeb2f14977e518",
        "source": "migrated"
      }
    }
  ]
}