{
  "meta": {
    "version": "1.0",
    "generated_at": "2025-07-19T12:26:57.111378",
    "page": 26,
    "per_page": 15,
    "total_pages": 160,
    "total_count": 2387,
    "count_on_page": 15,
    "categories": 19,
    "has_next": true,
    "has_prev": true,
    "next_page_url": "/api/v1/all/pages/27.json",
    "prev_page_url": "/api/v1/all/pages/25.json"
  },
  "data": [
    {
      "id": "abstract_176",
      "category": "abstract",
      "title": "Abstract Wallpaper 176",
      "tags": [
        "abstract",
        "wallpaper",
        "hd",
        "mobile"
      ],
      "urls": {
        "raw": "https://media.githubusercontent.com/media/ddh4r4m/wallpaper-collection/main/collection/wallpapers/abstract/176.jpg",
        "thumb": "https://media.githubusercontent.com/media/ddh4r4m/wallpaper-collection/main/collection/thumbnails/abstract/176.jpg"
      },
      "metadata": {
        "dimensions": {
          "width": 1080,
          "height": 1920
        },
        "file_size": 396813,
        "format": "JPEG",
        "added_at": "2025-07-17T00:02:24.245303",
        "hash": "6d996e9431db9f992ea1d62b53147674",
        "source": "migrated"
      }
    },
    {
      "id": "abstract_177",
      "category": "abstract",
      "title": "Abstract Wallpaper 177",
      "tags": [
        "abstract",
        "wallpaper",
        "hd",
        "mobile"
      ],
      "urls": {
        "raw": "https://media.githubusercontent.com/media/ddh4r4m/wallpaper-collection/main/collection/wallpapers/abstract/177.jpg",
        "thumb": "https://media.githubusercontent.com/media/ddh4r4m/wallpaper-collection/main/collection/thumbnails/abstract/177.jpg"
      },
      "metadata": {
        "dimensions": {
          "width": 1080,
          "height": 1920
        },
        "file_size": 521961,
        "format": "JPEG",
        "added_at": "2025-07-17T00:02:24.314835",
        "hash": "1595c52cae2a443439630c639e52d363",
        "source": "migrated"
      }
    },
    {
      "id": "abstract_178",
      "category": "abstract",
      "title": "Abstract Wallpaper 178",
      "tags": [
        "abstract",
        "wallpaper",
        "hd",
        "mobile"
      ],
      "urls": {
        "raw": "https://media.githubusercontent.com/media/ddh4r4m/wallpaper-collection/main/collection/wallpapers/abstract/178.jpg",
        "thumb": "https://media.githubusercontent.com/media/ddh4r4m/wallpaper-collection/main/collection/thumbnails/abstract/178.jpg"
      },
      "metadata": {
        "dimensions": {
          "width": 1080,
          "height": 1920
        },
        "file_size": 446151,
        "format": "JPEG",
        "added_at": "2025-07-17T00:02:24.380955",
        "hash": "99bba9353e132f4d9e43926bbde58fe3",
        "source": "migrated"
      }
    },
    {
      "id": "abstract_179",
      "category": "abstract",
      "title": "Abstract Wallpaper 179",
      "tags": [
        "abstract",
        "wallpaper",
        "hd",
        "mobile"
      ],
      "urls": {
        "raw": "https://media.githubusercontent.com/media/ddh4r4m/wallpaper-collection/main/collection/wallpapers/abstract/179.jpg",
        "thumb": "https://media.githubusercontent.com/media/ddh4r4m/wallpaper-collection/main/collection/thumbnails/abstract/179.jpg"
      },
      "metadata": {
        "dimensions": {
          "width": 1080,
          "height": 1920
        },
        "file_size": 586520,
        "format": "JPEG",
        "added_at": "2025-07-17T00:02:24.456689",
        "hash": "f1b264c7f64f7b2a453bdec9852c2113",
        "source": "migrated"
      }
    },
    {
      "id": "abstract_180",
      "category": "abstract",
      "title": "Abstract Wallpaper 180",
      "tags": [
        "abstract",
        "wallpaper",
        "hd",
        "mobile"
      ],
      "urls": {
        "raw": "https://media.githubusercontent.com/media/ddh4r4m/wallpaper-collection/main/collection/wallpapers/abstract/180.jpg",
        "thumb": "https://media.githubusercontent.com/media/ddh4r4m/wallpaper-collection/main/collection/thumbnails/abstract/180.jpg"
      },
      "metadata": {
        "dimensions": {
          "width": 1080,
          "height": 1920
        },
        "file_size": 542465,
        "format": "JPEG",
        "added_at": "2025-07-17T00:02:24.528581",
        "hash": "e1cdea46605c9b1d3c40bf21bf266f58",
        "source": "migrated"
      }
    },
    {
      "id": "abstract_181",
      "category": "abstract",
      "title": "Abstract Wallpaper 181",
      "tags": [
        "abstract",
        "wallpaper",
        "hd",
        "mobile"
      ],
      "urls": {
        "raw": "https://media.githubusercontent.com/media/ddh4r4m/wallpaper-collection/main/collection/wallpapers/abstract/181.jpg",
        "thumb": "https://media.githubusercontent.com/media/ddh4r4m/wallpaper-collection/main/collection/thumbnails/abstract/181.jpg"
      },
      "metadata": {
        "dimensions": {
          "width": 1080,
          "height": 1920
        },
        "file_size": 406856,
        "format": "JPEG",
        "added_at": "2025-07-17T00:02:24.595966",
        "hash": "05fbeb3ed970f9fb3d0f4988beb402c6",
        "source": "migrated"
      }
    },
    {
      "id": "abstract_182",
      "category": "abstract",
      "title": "Abstract Wallpaper 182",
      "tags": [
        "abstract",
        "wallpaper",
        "hd",
        "mobile"
      ],
      "urls": {
        "raw": "https://media.githubusercontent.com/media/ddh4r4m/wallpaper-collection/main/collection/wallpapers/abstract/182.jpg",
        "thumb": "https://media.githubusercontent.com/media/ddh4r4m/wallpaper-collection/main/collection/thumbnails/abstract/182.jpg"
      },
      "metadata": {
        "dimensions": {
          "width": 1080,
          "height": 1920
        },
        "file_size": 483514,
        "format": "JPEG",
        "added_at": "2025-07-17T00:02:24.662068",
        "hash": "1a6bb1f6f544463a289597b9aa111096",
        "source": "migrated"
      }
    },
    {
      "id": "abstract_183",
      "category": "abstract",
      "title": "Abstract Wallpaper 183",
      "tags": [
        "abstract",
        "wallpaper",
        "hd",
        "mobile"
      ],
      "urls": {
        "raw": "https://media.githubusercontent.com/media/ddh4r4m/wallpaper-collection/main/collection/wallpapers/abstract/183.jpg",
        "thumb": "https://media.githubusercontent.com/media/ddh4r4m/wallpaper-collection/main/collection/thumbnails/abstract/183.jpg"
      },
      "metadata": {
        "dimensions": {
          "width": 1080,
          "height": 1920
        },
        "file_size": 654502,
        "format": "JPEG",
        "added_at": "2025-07-17T00:02:24.739807",
        "hash": "8bbad9666ae839e06f4ade93f0bac7ec",
        "source": "migrated"
      }
    },
    {
      "id": "abstract_184",
      "category": "abstract",
      "title": "Abstract Wallpaper 184",
      "tags": [
        "abstract",
        "wallpaper",
        "hd",
        "mobile"
      ],
      "urls": {
        "raw": "https://media.githubusercontent.com/media/ddh4r4m/wallpaper-collection/main/collection/wallpapers/abstract/184.jpg",
        "thumb": "https://media.githubusercontent.com/media/ddh4r4m/wallpaper-collection/main/collection/thumbnails/abstract/184.jpg"
      },
      "metadata": {
        "dimensions": {
          "width": 1080,
          "height": 1920
        },
        "file_size": 393199,
        "format": "JPEG",
        "added_at": "2025-07-17T00:02:24.802341",
        "hash": "ade61d5e3a46f18a84d9754c4cab56ec",
        "source": "migrated"
      }
    },
    {
      "id": "abstract_185",
      "category": "abstract",
      "title": "Abstract Wallpaper 185",
      "tags": [
        "abstract",
        "wallpaper",
        "hd",
        "mobile"
      ],
      "urls": {
        "raw": "https://media.githubusercontent.com/media/ddh4r4m/wallpaper-collection/main/collection/wallpapers/abstract/185.jpg",
        "thumb": "https://media.githubusercontent.com/media/ddh4r4m/wallpaper-collection/main/collection/thumbnails/abstract/185.jpg"
      },
      "metadata": {
        "dimensions": {
          "width": 1080,
          "height": 1920
        },
        "file_size": 520018,
        "format": "JPEG",
        "added_at": "2025-07-17T00:02:24.870772",
        "hash": "1d6db63117274123a03b134d9782c93f",
        "source": "migrated"
      }
    },
    {
      "id": "abstract_186",
      "category": "abstract",
      "title": "Abstract Wallpaper 186",
      "tags": [
        "abstract",
        "wallpaper",
        "hd",
        "mobile"
      ],
      "urls": {
        "raw": "https://media.githubusercontent.com/media/ddh4r4m/wallpaper-collection/main/collection/wallpapers/abstract/186.jpg",
        "thumb": "https://media.githubusercontent.com/media/ddh4r4m/wallpaper-collection/main/collection/thumbnails/abstract/186.jpg"
      },
      "metadata": {
        "dimensions": {
          "width": 1080,
          "height": 1920
        },
        "file_size": 734832,
        "format": "JPEG",
        "added_at": "2025-07-17T00:02:24.950573",
        "hash": "3d35896d082666e6d66c8cd52ae14ff5",
        "source": "migrated"
      }
    },
    {
      "id": "abstract_187",
      "category": "abstract",
      "title": "Abstract Wallpaper 187",
      "tags": [
        "abstract",
        "wallpaper",
        "hd",
        "mobile"
      ],
      "urls": {
        "raw": "https://media.githubusercontent.com/media/ddh4r4m/wallpaper-collection/main/collection/wallpapers/abstract/187.jpg",
        "thumb": "https://media.githubusercontent.com/media/ddh4r4m/wallpaper-collection/main/collection/thumbnails/abstract/187.jpg"
      },
      "metadata": {
        "dimensions": {
          "width": 1080,
          "height": 1920
        },
        "file_size": 135312,
        "format": "JPEG",
        "added_at": "2025-07-17T00:02:24.996748",
        "hash": "116dce61e7203377f0b151ad9386c12b",
        "source": "migrated"
      }
    },
    {
      "id": "abstract_188",
      "category": "abstract",
      "title": "Abstract Wallpaper 188",
      "tags": [
        "abstract",
        "wallpaper",
        "hd",
        "mobile"
      ],
      "urls": {
        "raw": "https://media.githubusercontent.com/media/ddh4r4m/wallpaper-collection/main/collection/wallpapers/abstract/188.jpg",
        "thumb": "https://media.githubusercontent.com/media/ddh4r4m/wallpaper-collection/main/collection/thumbnails/abstract/188.jpg"
      },
      "metadata": {
        "dimensions": {
          "width": 1080,
          "height": 1920
        },
        "file_size": 479496,
        "format": "JPEG",
        "added_at": "2025-07-17T00:02:25.065161",
        "hash": "617ecf2c3d13b24f8f1e376868943e7c",
        "source": "migrated"
      }
    },
    {
      "id": "abstract_189",
      "category": "abstract",
      "title": "Abstract Wallpaper 189",
      "tags": [
        "abstract",
        "wallpaper",
        "hd",
        "mobile"
      ],
      "urls": {
        "raw": "https://media.githubusercontent.com/media/ddh4r4m/wallpaper-collection/main/collection/wallpapers/abstract/189.jpg",
        "thumb": "https://media.githubusercontent.com/media/ddh4r4m/wallpaper-collection/main/collection/thumbnails/abstract/189.jpg"
      },
      "metadata": {
        "dimensions": {
          "width": 1080,
          "height": 1920
        },
        "file_size": 370564,
        "format": "JPEG",
        "added_at": "2025-07-17T00:02:25.128888",
        "hash": "5594c115261f08aa4d07d5c47cfea043",
        "source": "migrated"
      }
    },
    {
      "id": "abstract_190",
      "category": "abstract",
      "title": "Abstract Wallpaper 190",
      "tags": [
        "abstract",
        "wallpaper",
        "hd",
        "mobile"
      ],
      "urls": {
        "raw": "https://media.githubusercontent.com/media/ddh4r4m/wallpaper-collection/main/collection/wallpapers/abstract/190.jpg",
        "thumb": "https://media.githubusercontent.com/media/ddh4r4m/wallpaper-collection/main/collection/thumbnails/abstract/190.jpg"
      },
      "metadata": {
        "dimensions": {
          "width": 1080,
          "height": 1920
        },
        "file_size": 808151,
        "format": "JPEG",
        "added_at": "2025-07-17T00:02:25.215008",
        "hash": "7fb3bbcd77c7ab92bed44c11d2f9fd19",
        "source": "migrated"
      }
    }
  ]
}