{
  "meta": {
    "version": "1.0",
    "generated_at": "2025-07-28T22:38:03.579947",
    "page": 27,
    "per_page": 15,
    "total_pages": 178,
    "total_count": 2656,
    "count_on_page": 15,
    "categories": 21,
    "has_next": true,
    "has_prev": true,
    "next_page_url": "/api/v1/all/pages/28.json",
    "prev_page_url": "/api/v1/all/pages/26.json"
  },
  "data": [
    {
      "id": "abstract_191",
      "category": "abstract",
      "title": "Abstract Wallpaper 191",
      "tags": [
        "abstract",
        "wallpaper",
        "hd",
        "mobile"
      ],
      "urls": {
        "raw": "https://media.githubusercontent.com/media/ddh4r4m/wallpaper-collection/main/collection/wallpapers/abstract/191.jpg",
        "thumb": "https://media.githubusercontent.com/media/ddh4r4m/wallpaper-collection/main/collection/thumbnails/abstract/191.jpg"
      },
      "metadata": {
        "dimensions": {
          "width": 1080,
          "height": 1920
        },
        "file_size": 223044,
        "format": "JPEG",
        "added_at": "2025-07-17T00:02:25.271320",
        "hash": "ddcdac0892b2e5a6916507cd8e83828b",
        "source": "migrated"
      }
    },
    {
      "id": "abstract_192",
      "category": "abstract",
      "title": "Abstract Wallpaper 192",
      "tags": [
        "abstract",
        "wallpaper",
        "hd",
        "mobile"
      ],
      "urls": {
        "raw": "https://media.githubusercontent.com/media/ddh4r4m/wallpaper-collection/main/collection/wallpapers/abstract/192.jpg",
        "thumb": "https://media.githubusercontent.com/media/ddh4r4m/wallpaper-collection/main/collection/thumbnails/abstract/192.jpg"
      },
      "metadata": {
        "dimensions": {
          "width": 1080,
          "height": 1920
        },
        "file_size": 629251,
        "format": "JPEG",
        "added_at": "2025-07-17T00:02:25.351556",
        "hash": "5b7677c6ec7134d8a2db923037c491dc",
        "source": "migrated"
      }
    },
    {
      "id": "abstract_193",
      "category": "abstract",
      "title": "Abstract Wallpaper 193",
      "tags": [
        "abstract",
        "wallpaper",
        "hd",
        "mobile"
      ],
      "urls": {
        "raw": "https://media.githubusercontent.com/media/ddh4r4m/wallpaper-collection/main/collection/wallpapers/abstract/193.jpg",
        "thumb": "https://media.githubusercontent.com/media/ddh4r4m/wallpaper-collection/main/collection/thumbnails/abstract/193.jpg"
      },
      "metadata": {
        "dimensions": {
          "width": 1080,
          "height": 1920
        },
        "file_size": 399294,
        "format": "JPEG",
        "added_at": "2025-07-17T00:02:25.416144",
        "hash": "e552d5021638bb0784b73dae4a2ce7a9",
        "source": "migrated"
      }
    },
    {
      "id": "abstract_194",
      "category": "abstract",
      "title": "Abstract Wallpaper 194",
      "tags": [
        "abstract",
        "wallpaper",
        "hd",
        "mobile"
      ],
      "urls": {
        "raw": "https://media.githubusercontent.com/media/ddh4r4m/wallpaper-collection/main/collection/wallpapers/abstract/194.jpg",
        "thumb": "https://media.githubusercontent.com/media/ddh4r4m/wallpaper-collection/main/collection/thumbnails/abstract/194.jpg"
      },
      "metadata": {
        "dimensions": {
          "width": 1080,
          "height": 1920
        },
        "file_size": 451128,
        "format": "JPEG",
        "added_at": "2025-07-17T00:02:25.481056",
        "hash": "2b6e140da2f5fa58f3eb57368829db4c",
        "source": "migrated"
      }
    },
    {
      "id": "abstract_195",
      "category": "abstract",
      "title": "Abstract Wallpaper 195",
      "tags": [
        "abstract",
        "wallpaper",
        "hd",
        "mobile"
      ],
      "urls": {
        "raw": "https://media.githubusercontent.com/media/ddh4r4m/wallpaper-collection/main/collection/wallpapers/abstract/195.jpg",
        "thumb": "https://media.githubusercontent.com/media/ddh4r4m/wallpaper-collection/main/collection/thumbnails/abstract/195.jpg"
      },
      "metadata": {
        "dimensions": {
          "width": 1080,
          "height": 1920
        },
        "file_size": 466486,
        "format": "JPEG",
        "added_at": "2025-07-17T00:02:25.548139",
        "hash": "db61834f0ef73310547230c1fedc4a32",
        "source": "migrated"
      }
    },
    {
      "id": "abstract_196",
      "category": "abstract",
      "title": "Abstract Wallpaper 196",
      "tags": [
        "abstract",
        "wallpaper",
        "hd",
        "mobile"
      ],
      "urls": {
        "raw": "https://media.githubusercontent.com/media/ddh4r4m/wallpaper-collection/main/collection/wallpapers/abstract/196.jpg",
        "thumb": "https://media.githubusercontent.com/media/ddh4r4m/wallpaper-collection/main/collection/thumbnails/abstract/196.jpg"
      },
      "metadata": {
        "dimensions": {
          "width": 1080,
          "height": 1920
        },
        "file_size": 670063,
        "format": "JPEG",
        "added_at": "2025-07-17T00:02:25.626227",
        "hash": "1e1a4bd33be91be079337a8c427ac163",
        "source": "migrated"
      }
    },
    {
      "id": "abstract_197",
      "category": "abstract",
      "title": "Abstract Wallpaper 197",
      "tags": [
        "abstract",
        "wallpaper",
        "hd",
        "mobile"
      ],
      "urls": {
        "raw": "https://media.githubusercontent.com/media/ddh4r4m/wallpaper-collection/main/collection/wallpapers/abstract/197.jpg",
        "thumb": "https://media.githubusercontent.com/media/ddh4r4m/wallpaper-collection/main/collection/thumbnails/abstract/197.jpg"
      },
      "metadata": {
        "dimensions": {
          "width": 1080,
          "height": 1920
        },
        "file_size": 369202,
        "format": "JPEG",
        "added_at": "2025-07-17T00:02:25.689136",
        "hash": "6012f3cf3dfe26516ae03f3e9226990d",
        "source": "migrated"
      }
    },
    {
      "id": "abstract_198",
      "category": "abstract",
      "title": "Abstract Wallpaper 198",
      "tags": [
        "abstract",
        "wallpaper",
        "hd",
        "mobile"
      ],
      "urls": {
        "raw": "https://media.githubusercontent.com/media/ddh4r4m/wallpaper-collection/main/collection/wallpapers/abstract/198.jpg",
        "thumb": "https://media.githubusercontent.com/media/ddh4r4m/wallpaper-collection/main/collection/thumbnails/abstract/198.jpg"
      },
      "metadata": {
        "dimensions": {
          "width": 1080,
          "height": 1920
        },
        "file_size": 158340,
        "format": "JPEG",
        "added_at": "2025-07-17T00:02:25.741038",
        "hash": "24cc68bc28bcfa0b6c6b86d9ba109e62",
        "source": "migrated"
      }
    },
    {
      "id": "abstract_199",
      "category": "abstract",
      "title": "Abstract Wallpaper 199",
      "tags": [
        "abstract",
        "wallpaper",
        "hd",
        "mobile"
      ],
      "urls": {
        "raw": "https://media.githubusercontent.com/media/ddh4r4m/wallpaper-collection/main/collection/wallpapers/abstract/199.jpg",
        "thumb": "https://media.githubusercontent.com/media/ddh4r4m/wallpaper-collection/main/collection/thumbnails/abstract/199.jpg"
      },
      "metadata": {
        "dimensions": {
          "width": 1080,
          "height": 1920
        },
        "file_size": 601272,
        "format": "JPEG",
        "added_at": "2025-07-17T00:02:25.817426",
        "hash": "e4ad65dca997cd3fdfbe453895966a9f",
        "source": "migrated"
      }
    },
    {
      "id": "abstract_200",
      "category": "abstract",
      "title": "Abstract Wallpaper 200",
      "tags": [
        "abstract",
        "wallpaper",
        "hd",
        "mobile"
      ],
      "urls": {
        "raw": "https://media.githubusercontent.com/media/ddh4r4m/wallpaper-collection/main/collection/wallpapers/abstract/200.jpg",
        "thumb": "https://media.githubusercontent.com/media/ddh4r4m/wallpaper-collection/main/collection/thumbnails/abstract/200.jpg"
      },
      "metadata": {
        "dimensions": {
          "width": 1080,
          "height": 1920
        },
        "file_size": 435980,
        "format": "JPEG",
        "added_at": "2025-07-17T00:02:25.883951",
        "hash": "b67b1e28c0740361327ba3904d00b7ab",
        "source": "migrated"
      }
    },
    {
      "id": "abstract_201",
      "category": "abstract",
      "title": "Abstract Wallpaper 201",
      "tags": [
        "abstract",
        "wallpaper",
        "hd",
        "mobile"
      ],
      "urls": {
        "raw": "https://media.githubusercontent.com/media/ddh4r4m/wallpaper-collection/main/collection/wallpapers/abstract/201.jpg",
        "thumb": "https://media.githubusercontent.com/media/ddh4r4m/wallpaper-collection/main/collection/thumbnails/abstract/201.jpg"
      },
      "metadata": {
        "dimensions": {
          "width": 1080,
          "height": 1920
        },
        "file_size": 650864,
        "format": "JPEG",
        "added_at": "2025-07-17T00:02:25.962624",
        "hash": "2fa6e62896778382f16351fdaa58e8d3",
        "source": "migrated"
      }
    },
    {
      "id": "abstract_202",
      "category": "abstract",
      "title": "Abstract Wallpaper 202",
      "tags": [
        "abstract",
        "wallpaper",
        "hd",
        "mobile"
      ],
      "urls": {
        "raw": "https://media.githubusercontent.com/media/ddh4r4m/wallpaper-collection/main/collection/wallpapers/abstract/202.jpg",
        "thumb": "https://media.githubusercontent.com/media/ddh4r4m/wallpaper-collection/main/collection/thumbnails/abstract/202.jpg"
      },
      "metadata": {
        "dimensions": {
          "width": 1080,
          "height": 1920
        },
        "file_size": 475403,
        "format": "JPEG",
        "added_at": "2025-07-17T00:02:26.029239",
        "hash": "ccbb6be0c05af557eea3535d883238f1",
        "source": "migrated"
      }
    },
    {
      "id": "abstract_203",
      "category": "abstract",
      "title": "Abstract Wallpaper 203",
      "tags": [
        "abstract",
        "wallpaper",
        "hd",
        "mobile"
      ],
      "urls": {
        "raw": "https://media.githubusercontent.com/media/ddh4r4m/wallpaper-collection/main/collection/wallpapers/abstract/203.jpg",
        "thumb": "https://media.githubusercontent.com/media/ddh4r4m/wallpaper-collection/main/collection/thumbnails/abstract/203.jpg"
      },
      "metadata": {
        "dimensions": {
          "width": 1080,
          "height": 1920
        },
        "file_size": 398178,
        "format": "JPEG",
        "added_at": "2025-07-17T00:02:26.094668",
        "hash": "8d3020d3c312a5109a54f87fb44fe339",
        "source": "migrated"
      }
    },
    {
      "id": "abstract_204",
      "category": "abstract",
      "title": "Abstract Wallpaper 204",
      "tags": [
        "abstract",
        "wallpaper",
        "hd",
        "mobile"
      ],
      "urls": {
        "raw": "https://media.githubusercontent.com/media/ddh4r4m/wallpaper-collection/main/collection/wallpapers/abstract/204.jpg",
        "thumb": "https://media.githubusercontent.com/media/ddh4r4m/wallpaper-collection/main/collection/thumbnails/abstract/204.jpg"
      },
      "metadata": {
        "dimensions": {
          "width": 1080,
          "height": 1920
        },
        "file_size": 507805,
        "format": "JPEG",
        "added_at": "2025-07-17T00:02:26.165085",
        "hash": "f73b3758c7a1fba67042ff1e4bbdfa00",
        "source": "migrated"
      }
    },
    {
      "id": "abstract_205",
      "category": "abstract",
      "title": "Abstract Wallpaper 205",
      "tags": [
        "abstract",
        "wallpaper",
        "hd",
        "mobile"
      ],
      "urls": {
        "raw": "https://media.githubusercontent.com/media/ddh4r4m/wallpaper-collection/main/collection/wallpapers/abstract/205.jpg",
        "thumb": "https://media.githubusercontent.com/media/ddh4r4m/wallpaper-collection/main/collection/thumbnails/abstract/205.jpg"
      },
      "metadata": {
        "dimensions": {
          "width": 1080,
          "height": 1920
        },
        "file_size": 572342,
        "format": "JPEG",
        "added_at": "2025-07-17T00:02:26.235990",
        "hash": "46f75b0cf59ac7670c4bed63e1178df0",
        "source": "migrated"
      }
    }
  ]
}