{
  "meta": {
    "version": "1.0",
    "generated_at": "2025-07-17T21:14:17.488868",
    "page": 36,
    "per_page": 15,
    "total_pages": 117,
    "total_count": 1751,
    "count_on_page": 15,
    "categories": 17,
    "has_next": true,
    "has_prev": true,
    "next_page_url": "/api/v1/all/pages/37.json",
    "prev_page_url": "/api/v1/all/pages/35.json"
  },
  "data": [
    {
      "id": "anime_107",
      "category": "anime",
      "title": "Anime Wallpaper 107",
      "tags": [
        "anime",
        "wallpaper",
        "hd",
        "mobile"
      ],
      "urls": {
        "raw": "https://media.githubusercontent.com/media/ddh4r4m/wallpaper-collection/main/collection/wallpapers/anime/107.jpg",
        "thumb": "https://media.githubusercontent.com/media/ddh4r4m/wallpaper-collection/main/collection/thumbnails/anime/107.jpg"
      },
      "metadata": {
        "dimensions": {
          "width": 1080,
          "height": 1920
        },
        "file_size": 206594,
        "format": "JPEG",
        "added_at": "2025-07-17T00:02:42.834144",
        "hash": "839c8006726e29e464b7119586da0e8f",
        "source": "migrated"
      }
    },
    {
      "id": "anime_108",
      "category": "anime",
      "title": "Anime Wallpaper 108",
      "tags": [
        "anime",
        "wallpaper",
        "hd",
        "mobile"
      ],
      "urls": {
        "raw": "https://media.githubusercontent.com/media/ddh4r4m/wallpaper-collection/main/collection/wallpapers/anime/108.jpg",
        "thumb": "https://media.githubusercontent.com/media/ddh4r4m/wallpaper-collection/main/collection/thumbnails/anime/108.jpg"
      },
      "metadata": {
        "dimensions": {
          "width": 1080,
          "height": 1920
        },
        "file_size": 270715,
        "format": "JPEG",
        "added_at": "2025-07-17T00:02:43.031058",
        "hash": "17bddab543b78f704cfe00d1e647f610",
        "source": "migrated"
      }
    },
    {
      "id": "anime_109",
      "category": "anime",
      "title": "Anime Wallpaper 109",
      "tags": [
        "anime",
        "wallpaper",
        "hd",
        "mobile"
      ],
      "urls": {
        "raw": "https://media.githubusercontent.com/media/ddh4r4m/wallpaper-collection/main/collection/wallpapers/anime/109.jpg",
        "thumb": "https://media.githubusercontent.com/media/ddh4r4m/wallpaper-collection/main/collection/thumbnails/anime/109.jpg"
      },
      "metadata": {
        "dimensions": {
          "width": 1080,
          "height": 1920
        },
        "file_size": 318708,
        "format": "JPEG",
        "added_at": "2025-07-17T00:02:43.369504",
        "hash": "6c4e7664c33d8dd0cbc25f627f8feaa2",
        "source": "migrated"
      }
    },
    {
      "id": "anime_110",
      "category": "anime",
      "title": "Anime Wallpaper 110",
      "tags": [
        "anime",
        "wallpaper",
        "hd",
        "mobile"
      ],
      "urls": {
        "raw": "https://media.githubusercontent.com/media/ddh4r4m/wallpaper-collection/main/collection/wallpapers/anime/110.jpg",
        "thumb": "https://media.githubusercontent.com/media/ddh4r4m/wallpaper-collection/main/collection/thumbnails/anime/110.jpg"
      },
      "metadata": {
        "dimensions": {
          "width": 1080,
          "height": 1920
        },
        "file_size": 308505,
        "format": "JPEG",
        "added_at": "2025-07-17T00:02:43.610454",
        "hash": "61bbe9c62831758061faa1720c688ff2",
        "source": "migrated"
      }
    },
    {
      "id": "anime_111",
      "category": "anime",
      "title": "Anime Wallpaper 111",
      "tags": [
        "anime",
        "wallpaper",
        "hd",
        "mobile"
      ],
      "urls": {
        "raw": "https://media.githubusercontent.com/media/ddh4r4m/wallpaper-collection/main/collection/wallpapers/anime/111.jpg",
        "thumb": "https://media.githubusercontent.com/media/ddh4r4m/wallpaper-collection/main/collection/thumbnails/anime/111.jpg"
      },
      "metadata": {
        "dimensions": {
          "width": 1080,
          "height": 1920
        },
        "file_size": 140746,
        "format": "JPEG",
        "added_at": "2025-07-17T00:02:43.953907",
        "hash": "60433a4bb471b8baf6f951b3ba5edbc4",
        "source": "migrated"
      }
    },
    {
      "id": "anime_112",
      "category": "anime",
      "title": "Anime Wallpaper 112",
      "tags": [
        "anime",
        "wallpaper",
        "hd",
        "mobile"
      ],
      "urls": {
        "raw": "https://media.githubusercontent.com/media/ddh4r4m/wallpaper-collection/main/collection/wallpapers/anime/112.jpg",
        "thumb": "https://media.githubusercontent.com/media/ddh4r4m/wallpaper-collection/main/collection/thumbnails/anime/112.jpg"
      },
      "metadata": {
        "dimensions": {
          "width": 1080,
          "height": 1920
        },
        "file_size": 348300,
        "format": "JPEG",
        "added_at": "2025-07-17T00:02:44.169251",
        "hash": "e02c0f445a4adfca216b924374de0820",
        "source": "migrated"
      }
    },
    {
      "id": "anime_113",
      "category": "anime",
      "title": "Anime Wallpaper 113",
      "tags": [
        "anime",
        "wallpaper",
        "hd",
        "mobile"
      ],
      "urls": {
        "raw": "https://media.githubusercontent.com/media/ddh4r4m/wallpaper-collection/main/collection/wallpapers/anime/113.jpg",
        "thumb": "https://media.githubusercontent.com/media/ddh4r4m/wallpaper-collection/main/collection/thumbnails/anime/113.jpg"
      },
      "metadata": {
        "dimensions": {
          "width": 1080,
          "height": 1920
        },
        "file_size": 432570,
        "format": "JPEG",
        "added_at": "2025-07-17T00:02:44.540964",
        "hash": "7e58ee2e38b92e45e5e945ee81b66172",
        "source": "migrated"
      }
    },
    {
      "id": "anime_114",
      "category": "anime",
      "title": "Anime Wallpaper 114",
      "tags": [
        "anime",
        "wallpaper",
        "hd",
        "mobile"
      ],
      "urls": {
        "raw": "https://media.githubusercontent.com/media/ddh4r4m/wallpaper-collection/main/collection/wallpapers/anime/114.jpg",
        "thumb": "https://media.githubusercontent.com/media/ddh4r4m/wallpaper-collection/main/collection/thumbnails/anime/114.jpg"
      },
      "metadata": {
        "dimensions": {
          "width": 1080,
          "height": 1920
        },
        "file_size": 356780,
        "format": "JPEG",
        "added_at": "2025-07-17T00:02:44.764377",
        "hash": "6dddff749dc7fe4c91026431d77f8176",
        "source": "migrated"
      }
    },
    {
      "id": "anime_115",
      "category": "anime",
      "title": "Anime Wallpaper 115",
      "tags": [
        "anime",
        "wallpaper",
        "hd",
        "mobile"
      ],
      "urls": {
        "raw": "https://media.githubusercontent.com/media/ddh4r4m/wallpaper-collection/main/collection/wallpapers/anime/115.jpg",
        "thumb": "https://media.githubusercontent.com/media/ddh4r4m/wallpaper-collection/main/collection/thumbnails/anime/115.jpg"
      },
      "metadata": {
        "dimensions": {
          "width": 1080,
          "height": 1920
        },
        "file_size": 167445,
        "format": "JPEG",
        "added_at": "2025-07-17T00:02:44.905095",
        "hash": "666606e221ebaf51615f73e93a5d58c3",
        "source": "migrated"
      }
    },
    {
      "id": "anime_116",
      "category": "anime",
      "title": "Anime Wallpaper 116",
      "tags": [
        "anime",
        "wallpaper",
        "hd",
        "mobile"
      ],
      "urls": {
        "raw": "https://media.githubusercontent.com/media/ddh4r4m/wallpaper-collection/main/collection/wallpapers/anime/116.jpg",
        "thumb": "https://media.githubusercontent.com/media/ddh4r4m/wallpaper-collection/main/collection/thumbnails/anime/116.jpg"
      },
      "metadata": {
        "dimensions": {
          "width": 1080,
          "height": 1920
        },
        "file_size": 200541,
        "format": "JPEG",
        "added_at": "2025-07-17T00:02:45.060254",
        "hash": "6f9d483753a79505f5666f0a4d35937c",
        "source": "migrated"
      }
    },
    {
      "id": "architecture_001",
      "category": "architecture",
      "title": "Architecture Wallpaper 001",
      "tags": [
        "architecture",
        "wallpaper",
        "hd",
        "mobile"
      ],
      "urls": {
        "raw": "https://media.githubusercontent.com/media/ddh4r4m/wallpaper-collection/main/collection/wallpapers/architecture/001.jpg",
        "thumb": "https://media.githubusercontent.com/media/ddh4r4m/wallpaper-collection/main/collection/thumbnails/architecture/001.jpg"
      },
      "metadata": {
        "dimensions": {
          "width": 1080,
          "height": 1920
        },
        "file_size": 240257,
        "format": "JPEG",
        "added_at": "2025-07-17T00:02:45.117920",
        "hash": "c4ada9866bbcd9f4ea6e9ddc814181c3",
        "source": "migrated"
      }
    },
    {
      "id": "architecture_002",
      "category": "architecture",
      "title": "Architecture Wallpaper 002",
      "tags": [
        "architecture",
        "wallpaper",
        "hd",
        "mobile"
      ],
      "urls": {
        "raw": "https://media.githubusercontent.com/media/ddh4r4m/wallpaper-collection/main/collection/wallpapers/architecture/002.jpg",
        "thumb": "https://media.githubusercontent.com/media/ddh4r4m/wallpaper-collection/main/collection/thumbnails/architecture/002.jpg"
      },
      "metadata": {
        "dimensions": {
          "width": 1080,
          "height": 1920
        },
        "file_size": 301470,
        "format": "JPEG",
        "added_at": "2025-07-17T00:02:45.176709",
        "hash": "27391e46ba3b5ff47303b9a57d6bd99a",
        "source": "migrated"
      }
    },
    {
      "id": "architecture_003",
      "category": "architecture",
      "title": "Architecture Wallpaper 003",
      "tags": [
        "architecture",
        "wallpaper",
        "hd",
        "mobile"
      ],
      "urls": {
        "raw": "https://media.githubusercontent.com/media/ddh4r4m/wallpaper-collection/main/collection/wallpapers/architecture/003.jpg",
        "thumb": "https://media.githubusercontent.com/media/ddh4r4m/wallpaper-collection/main/collection/thumbnails/architecture/003.jpg"
      },
      "metadata": {
        "dimensions": {
          "width": 1080,
          "height": 1920
        },
        "file_size": 159165,
        "format": "JPEG",
        "added_at": "2025-07-17T00:02:45.224828",
        "hash": "4022a7e5b6f74ee28ecf1cac6352c375",
        "source": "migrated"
      }
    },
    {
      "id": "architecture_004",
      "category": "architecture",
      "title": "Architecture Wallpaper 004",
      "tags": [
        "architecture",
        "wallpaper",
        "hd",
        "mobile"
      ],
      "urls": {
        "raw": "https://media.githubusercontent.com/media/ddh4r4m/wallpaper-collection/main/collection/wallpapers/architecture/004.jpg",
        "thumb": "https://media.githubusercontent.com/media/ddh4r4m/wallpaper-collection/main/collection/thumbnails/architecture/004.jpg"
      },
      "metadata": {
        "dimensions": {
          "width": 1080,
          "height": 1920
        },
        "file_size": 323071,
        "format": "JPEG",
        "added_at": "2025-07-17T00:02:45.283999",
        "hash": "a349d0a801dfe9c45a9aa9701860f529",
        "source": "migrated"
      }
    },
    {
      "id": "architecture_005",
      "category": "architecture",
      "title": "Architecture Wallpaper 005",
      "tags": [
        "architecture",
        "wallpaper",
        "hd",
        "mobile"
      ],
      "urls": {
        "raw": "https://media.githubusercontent.com/media/ddh4r4m/wallpaper-collection/main/collection/wallpapers/architecture/005.jpg",
        "thumb": "https://media.githubusercontent.com/media/ddh4r4m/wallpaper-collection/main/collection/thumbnails/architecture/005.jpg"
      },
      "metadata": {
        "dimensions": {
          "width": 1080,
          "height": 1920
        },
        "file_size": 440398,
        "format": "JPEG",
        "added_at": "2025-07-17T00:02:45.347481",
        "hash": "83148242f9384bc4b4b573df50414222",
        "source": "migrated"
      }
    }
  ]
}