{
  "meta": {
    "version": "1.0",
    "generated_at": "2025-07-17T21:14:17.488868",
    "page": 37,
    "per_page": 15,
    "total_pages": 117,
    "total_count": 1751,
    "count_on_page": 15,
    "categories": 17,
    "has_next": true,
    "has_prev": true,
    "next_page_url": "/api/v1/all/pages/38.json",
    "prev_page_url": "/api/v1/all/pages/36.json"
  },
  "data": [
    {
      "id": "architecture_006",
      "category": "architecture",
      "title": "Architecture Wallpaper 006",
      "tags": [
        "architecture",
        "wallpaper",
        "hd",
        "mobile"
      ],
      "urls": {
        "raw": "https://media.githubusercontent.com/media/ddh4r4m/wallpaper-collection/main/collection/wallpapers/architecture/006.jpg",
        "thumb": "https://media.githubusercontent.com/media/ddh4r4m/wallpaper-collection/main/collection/thumbnails/architecture/006.jpg"
      },
      "metadata": {
        "dimensions": {
          "width": 1080,
          "height": 1920
        },
        "file_size": 315359,
        "format": "JPEG",
        "added_at": "2025-07-17T00:02:45.407194",
        "hash": "546a8f07b37651775beefc27896b5ad8",
        "source": "migrated"
      }
    },
    {
      "id": "architecture_007",
      "category": "architecture",
      "title": "Architecture Wallpaper 007",
      "tags": [
        "architecture",
        "wallpaper",
        "hd",
        "mobile"
      ],
      "urls": {
        "raw": "https://media.githubusercontent.com/media/ddh4r4m/wallpaper-collection/main/collection/wallpapers/architecture/007.jpg",
        "thumb": "https://media.githubusercontent.com/media/ddh4r4m/wallpaper-collection/main/collection/thumbnails/architecture/007.jpg"
      },
      "metadata": {
        "dimensions": {
          "width": 1080,
          "height": 1920
        },
        "file_size": 687748,
        "format": "JPEG",
        "added_at": "2025-07-17T00:02:45.485273",
        "hash": "f234e99849cfe3ea41da639708419fa4",
        "source": "migrated"
      }
    },
    {
      "id": "architecture_008",
      "category": "architecture",
      "title": "Architecture Wallpaper 008",
      "tags": [
        "architecture",
        "wallpaper",
        "hd",
        "mobile"
      ],
      "urls": {
        "raw": "https://media.githubusercontent.com/media/ddh4r4m/wallpaper-collection/main/collection/wallpapers/architecture/008.jpg",
        "thumb": "https://media.githubusercontent.com/media/ddh4r4m/wallpaper-collection/main/collection/thumbnails/architecture/008.jpg"
      },
      "metadata": {
        "dimensions": {
          "width": 1080,
          "height": 1920
        },
        "file_size": 445388,
        "format": "JPEG",
        "added_at": "2025-07-17T00:02:45.549497",
        "hash": "d660fd38f09df3431c75bbebaff73ecf",
        "source": "migrated"
      }
    },
    {
      "id": "architecture_009",
      "category": "architecture",
      "title": "Architecture Wallpaper 009",
      "tags": [
        "architecture",
        "wallpaper",
        "hd",
        "mobile"
      ],
      "urls": {
        "raw": "https://media.githubusercontent.com/media/ddh4r4m/wallpaper-collection/main/collection/wallpapers/architecture/009.jpg",
        "thumb": "https://media.githubusercontent.com/media/ddh4r4m/wallpaper-collection/main/collection/thumbnails/architecture/009.jpg"
      },
      "metadata": {
        "dimensions": {
          "width": 1080,
          "height": 1920
        },
        "file_size": 214714,
        "format": "JPEG",
        "added_at": "2025-07-17T00:02:45.604228",
        "hash": "20287893b7050b383127d94436f90d10",
        "source": "migrated"
      }
    },
    {
      "id": "architecture_010",
      "category": "architecture",
      "title": "Architecture Wallpaper 010",
      "tags": [
        "architecture",
        "wallpaper",
        "hd",
        "mobile"
      ],
      "urls": {
        "raw": "https://media.githubusercontent.com/media/ddh4r4m/wallpaper-collection/main/collection/wallpapers/architecture/010.jpg",
        "thumb": "https://media.githubusercontent.com/media/ddh4r4m/wallpaper-collection/main/collection/thumbnails/architecture/010.jpg"
      },
      "metadata": {
        "dimensions": {
          "width": 1080,
          "height": 1920
        },
        "file_size": 260955,
        "format": "JPEG",
        "added_at": "2025-07-17T00:02:45.661088",
        "hash": "cecc6ebdd91dea93fb48126d0bed14af",
        "source": "migrated"
      }
    },
    {
      "id": "architecture_011",
      "category": "architecture",
      "title": "Architecture Wallpaper 011",
      "tags": [
        "architecture",
        "wallpaper",
        "hd",
        "mobile"
      ],
      "urls": {
        "raw": "https://media.githubusercontent.com/media/ddh4r4m/wallpaper-collection/main/collection/wallpapers/architecture/011.jpg",
        "thumb": "https://media.githubusercontent.com/media/ddh4r4m/wallpaper-collection/main/collection/thumbnails/architecture/011.jpg"
      },
      "metadata": {
        "dimensions": {
          "width": 1080,
          "height": 1920
        },
        "file_size": 382169,
        "format": "JPEG",
        "added_at": "2025-07-17T00:02:45.723589",
        "hash": "02d67eeae942f2753750be857a03a219",
        "source": "migrated"
      }
    },
    {
      "id": "architecture_012",
      "category": "architecture",
      "title": "Architecture Wallpaper 012",
      "tags": [
        "architecture",
        "wallpaper",
        "hd",
        "mobile"
      ],
      "urls": {
        "raw": "https://media.githubusercontent.com/media/ddh4r4m/wallpaper-collection/main/collection/wallpapers/architecture/012.jpg",
        "thumb": "https://media.githubusercontent.com/media/ddh4r4m/wallpaper-collection/main/collection/thumbnails/architecture/012.jpg"
      },
      "metadata": {
        "dimensions": {
          "width": 1080,
          "height": 1920
        },
        "file_size": 303381,
        "format": "JPEG",
        "added_at": "2025-07-17T00:02:45.782052",
        "hash": "89be485e9bec325aa7b81cdc72cb0fad",
        "source": "migrated"
      }
    },
    {
      "id": "architecture_013",
      "category": "architecture",
      "title": "Architecture Wallpaper 013",
      "tags": [
        "architecture",
        "wallpaper",
        "hd",
        "mobile"
      ],
      "urls": {
        "raw": "https://media.githubusercontent.com/media/ddh4r4m/wallpaper-collection/main/collection/wallpapers/architecture/013.jpg",
        "thumb": "https://media.githubusercontent.com/media/ddh4r4m/wallpaper-collection/main/collection/thumbnails/architecture/013.jpg"
      },
      "metadata": {
        "dimensions": {
          "width": 1080,
          "height": 1920
        },
        "file_size": 205566,
        "format": "JPEG",
        "added_at": "2025-07-17T00:02:45.834890",
        "hash": "64c71bce8956813fa916cccc343e1c5b",
        "source": "migrated"
      }
    },
    {
      "id": "architecture_014",
      "category": "architecture",
      "title": "Architecture Wallpaper 014",
      "tags": [
        "architecture",
        "wallpaper",
        "hd",
        "mobile"
      ],
      "urls": {
        "raw": "https://media.githubusercontent.com/media/ddh4r4m/wallpaper-collection/main/collection/wallpapers/architecture/014.jpg",
        "thumb": "https://media.githubusercontent.com/media/ddh4r4m/wallpaper-collection/main/collection/thumbnails/architecture/014.jpg"
      },
      "metadata": {
        "dimensions": {
          "width": 1080,
          "height": 1920
        },
        "file_size": 281536,
        "format": "JPEG",
        "added_at": "2025-07-17T00:02:45.891827",
        "hash": "fbf1239f6130721f1eb7da255e3e7ed6",
        "source": "migrated"
      }
    },
    {
      "id": "architecture_015",
      "category": "architecture",
      "title": "Architecture Wallpaper 015",
      "tags": [
        "architecture",
        "wallpaper",
        "hd",
        "mobile"
      ],
      "urls": {
        "raw": "https://media.githubusercontent.com/media/ddh4r4m/wallpaper-collection/main/collection/wallpapers/architecture/015.jpg",
        "thumb": "https://media.githubusercontent.com/media/ddh4r4m/wallpaper-collection/main/collection/thumbnails/architecture/015.jpg"
      },
      "metadata": {
        "dimensions": {
          "width": 1080,
          "height": 1920
        },
        "file_size": 461018,
        "format": "JPEG",
        "added_at": "2025-07-17T00:02:45.958494",
        "hash": "8dd377844a95ba5bb77b3e4c0d39ea88",
        "source": "migrated"
      }
    },
    {
      "id": "architecture_016",
      "category": "architecture",
      "title": "Architecture Wallpaper 016",
      "tags": [
        "architecture",
        "wallpaper",
        "hd",
        "mobile"
      ],
      "urls": {
        "raw": "https://media.githubusercontent.com/media/ddh4r4m/wallpaper-collection/main/collection/wallpapers/architecture/016.jpg",
        "thumb": "https://media.githubusercontent.com/media/ddh4r4m/wallpaper-collection/main/collection/thumbnails/architecture/016.jpg"
      },
      "metadata": {
        "dimensions": {
          "width": 1080,
          "height": 1920
        },
        "file_size": 288069,
        "format": "JPEG",
        "added_at": "2025-07-17T00:02:46.014105",
        "hash": "6b1a14e9f957675035fab74e57e6be64",
        "source": "migrated"
      }
    },
    {
      "id": "architecture_017",
      "category": "architecture",
      "title": "Architecture Wallpaper 017",
      "tags": [
        "architecture",
        "wallpaper",
        "hd",
        "mobile"
      ],
      "urls": {
        "raw": "https://media.githubusercontent.com/media/ddh4r4m/wallpaper-collection/main/collection/wallpapers/architecture/017.jpg",
        "thumb": "https://media.githubusercontent.com/media/ddh4r4m/wallpaper-collection/main/collection/thumbnails/architecture/017.jpg"
      },
      "metadata": {
        "dimensions": {
          "width": 1080,
          "height": 1920
        },
        "file_size": 583544,
        "format": "JPEG",
        "added_at": "2025-07-17T00:02:46.086528",
        "hash": "bcbd05063d67fb205dde1f2786f2ed77",
        "source": "migrated"
      }
    },
    {
      "id": "architecture_018",
      "category": "architecture",
      "title": "Architecture Wallpaper 018",
      "tags": [
        "architecture",
        "wallpaper",
        "hd",
        "mobile"
      ],
      "urls": {
        "raw": "https://media.githubusercontent.com/media/ddh4r4m/wallpaper-collection/main/collection/wallpapers/architecture/018.jpg",
        "thumb": "https://media.githubusercontent.com/media/ddh4r4m/wallpaper-collection/main/collection/thumbnails/architecture/018.jpg"
      },
      "metadata": {
        "dimensions": {
          "width": 1080,
          "height": 1920
        },
        "file_size": 482573,
        "format": "JPEG",
        "added_at": "2025-07-17T00:02:46.152407",
        "hash": "7d5b15cc6fdd0f30dd064264590cead4",
        "source": "migrated"
      }
    },
    {
      "id": "architecture_019",
      "category": "architecture",
      "title": "Architecture Wallpaper 019",
      "tags": [
        "architecture",
        "wallpaper",
        "hd",
        "mobile"
      ],
      "urls": {
        "raw": "https://media.githubusercontent.com/media/ddh4r4m/wallpaper-collection/main/collection/wallpapers/architecture/019.jpg",
        "thumb": "https://media.githubusercontent.com/media/ddh4r4m/wallpaper-collection/main/collection/thumbnails/architecture/019.jpg"
      },
      "metadata": {
        "dimensions": {
          "width": 1080,
          "height": 1920
        },
        "file_size": 256686,
        "format": "JPEG",
        "added_at": "2025-07-17T00:02:46.208541",
        "hash": "dd3bc732331fcc3261f4ae4ea3bdf7a5",
        "source": "migrated"
      }
    },
    {
      "id": "architecture_020",
      "category": "architecture",
      "title": "Architecture Wallpaper 020",
      "tags": [
        "architecture",
        "wallpaper",
        "hd",
        "mobile"
      ],
      "urls": {
        "raw": "https://media.githubusercontent.com/media/ddh4r4m/wallpaper-collection/main/collection/wallpapers/architecture/020.jpg",
        "thumb": "https://media.githubusercontent.com/media/ddh4r4m/wallpaper-collection/main/collection/thumbnails/architecture/020.jpg"
      },
      "metadata": {
        "dimensions": {
          "width": 1080,
          "height": 1920
        },
        "file_size": 288999,
        "format": "JPEG",
        "added_at": "2025-07-17T00:02:46.267625",
        "hash": "5307f26763a0e06eb000237919821d51",
        "source": "migrated"
      }
    }
  ]
}