{
  "meta": {
    "version": "1.0",
    "generated_at": "2025-07-17T21:14:17.488868",
    "page": 38,
    "per_page": 15,
    "total_pages": 117,
    "total_count": 1751,
    "count_on_page": 15,
    "categories": 17,
    "has_next": true,
    "has_prev": true,
    "next_page_url": "/api/v1/all/pages/39.json",
    "prev_page_url": "/api/v1/all/pages/37.json"
  },
  "data": [
    {
      "id": "architecture_021",
      "category": "architecture",
      "title": "Architecture Wallpaper 021",
      "tags": [
        "architecture",
        "wallpaper",
        "hd",
        "mobile"
      ],
      "urls": {
        "raw": "https://media.githubusercontent.com/media/ddh4r4m/wallpaper-collection/main/collection/wallpapers/architecture/021.jpg",
        "thumb": "https://media.githubusercontent.com/media/ddh4r4m/wallpaper-collection/main/collection/thumbnails/architecture/021.jpg"
      },
      "metadata": {
        "dimensions": {
          "width": 1080,
          "height": 1920
        },
        "file_size": 396718,
        "format": "JPEG",
        "added_at": "2025-07-17T00:02:46.329958",
        "hash": "4df840c855acc59586bcedba502aac9e",
        "source": "migrated"
      }
    },
    {
      "id": "architecture_022",
      "category": "architecture",
      "title": "Architecture Wallpaper 022",
      "tags": [
        "architecture",
        "wallpaper",
        "hd",
        "mobile"
      ],
      "urls": {
        "raw": "https://media.githubusercontent.com/media/ddh4r4m/wallpaper-collection/main/collection/wallpapers/architecture/022.jpg",
        "thumb": "https://media.githubusercontent.com/media/ddh4r4m/wallpaper-collection/main/collection/thumbnails/architecture/022.jpg"
      },
      "metadata": {
        "dimensions": {
          "width": 1080,
          "height": 1920
        },
        "file_size": 263752,
        "format": "JPEG",
        "added_at": "2025-07-17T00:02:46.387615",
        "hash": "cf16a02cb96e8e943e28a0cc92feba63",
        "source": "migrated"
      }
    },
    {
      "id": "architecture_023",
      "category": "architecture",
      "title": "Architecture Wallpaper 023",
      "tags": [
        "architecture",
        "wallpaper",
        "hd",
        "mobile"
      ],
      "urls": {
        "raw": "https://media.githubusercontent.com/media/ddh4r4m/wallpaper-collection/main/collection/wallpapers/architecture/023.jpg",
        "thumb": "https://media.githubusercontent.com/media/ddh4r4m/wallpaper-collection/main/collection/thumbnails/architecture/023.jpg"
      },
      "metadata": {
        "dimensions": {
          "width": 1080,
          "height": 1920
        },
        "file_size": 369045,
        "format": "JPEG",
        "added_at": "2025-07-17T00:02:46.450427",
        "hash": "1716c652ccf4dd9590b6a66e2ffb503c",
        "source": "migrated"
      }
    },
    {
      "id": "architecture_024",
      "category": "architecture",
      "title": "Architecture Wallpaper 024",
      "tags": [
        "architecture",
        "wallpaper",
        "hd",
        "mobile"
      ],
      "urls": {
        "raw": "https://media.githubusercontent.com/media/ddh4r4m/wallpaper-collection/main/collection/wallpapers/architecture/024.jpg",
        "thumb": "https://media.githubusercontent.com/media/ddh4r4m/wallpaper-collection/main/collection/thumbnails/architecture/024.jpg"
      },
      "metadata": {
        "dimensions": {
          "width": 1080,
          "height": 1920
        },
        "file_size": 381467,
        "format": "JPEG",
        "added_at": "2025-07-17T00:02:46.512515",
        "hash": "d869c15011ee40fea932bc19328ff97b",
        "source": "migrated"
      }
    },
    {
      "id": "architecture_025",
      "category": "architecture",
      "title": "Architecture Wallpaper 025",
      "tags": [
        "architecture",
        "wallpaper",
        "hd",
        "mobile"
      ],
      "urls": {
        "raw": "https://media.githubusercontent.com/media/ddh4r4m/wallpaper-collection/main/collection/wallpapers/architecture/025.jpg",
        "thumb": "https://media.githubusercontent.com/media/ddh4r4m/wallpaper-collection/main/collection/thumbnails/architecture/025.jpg"
      },
      "metadata": {
        "dimensions": {
          "width": 1080,
          "height": 1920
        },
        "file_size": 385126,
        "format": "JPEG",
        "added_at": "2025-07-17T00:02:46.574621",
        "hash": "2b42a9fe934100d1734db91e0dd1cee5",
        "source": "migrated"
      }
    },
    {
      "id": "architecture_026",
      "category": "architecture",
      "title": "Architecture Wallpaper 026",
      "tags": [
        "architecture",
        "wallpaper",
        "hd",
        "mobile"
      ],
      "urls": {
        "raw": "https://media.githubusercontent.com/media/ddh4r4m/wallpaper-collection/main/collection/wallpapers/architecture/026.jpg",
        "thumb": "https://media.githubusercontent.com/media/ddh4r4m/wallpaper-collection/main/collection/thumbnails/architecture/026.jpg"
      },
      "metadata": {
        "dimensions": {
          "width": 1080,
          "height": 1920
        },
        "file_size": 280219,
        "format": "JPEG",
        "added_at": "2025-07-17T00:02:46.630737",
        "hash": "e516be9d063fcf9efdb7f40ecba5770d",
        "source": "migrated"
      }
    },
    {
      "id": "architecture_027",
      "category": "architecture",
      "title": "Architecture Wallpaper 027",
      "tags": [
        "architecture",
        "wallpaper",
        "hd",
        "mobile"
      ],
      "urls": {
        "raw": "https://media.githubusercontent.com/media/ddh4r4m/wallpaper-collection/main/collection/wallpapers/architecture/027.jpg",
        "thumb": "https://media.githubusercontent.com/media/ddh4r4m/wallpaper-collection/main/collection/thumbnails/architecture/027.jpg"
      },
      "metadata": {
        "dimensions": {
          "width": 1080,
          "height": 1920
        },
        "file_size": 384361,
        "format": "JPEG",
        "added_at": "2025-07-17T00:02:46.691067",
        "hash": "9406e5388a93a4a3717d1f115349fa5d",
        "source": "migrated"
      }
    },
    {
      "id": "architecture_028",
      "category": "architecture",
      "title": "Architecture Wallpaper 028",
      "tags": [
        "architecture",
        "wallpaper",
        "hd",
        "mobile"
      ],
      "urls": {
        "raw": "https://media.githubusercontent.com/media/ddh4r4m/wallpaper-collection/main/collection/wallpapers/architecture/028.jpg",
        "thumb": "https://media.githubusercontent.com/media/ddh4r4m/wallpaper-collection/main/collection/thumbnails/architecture/028.jpg"
      },
      "metadata": {
        "dimensions": {
          "width": 1080,
          "height": 1920
        },
        "file_size": 103165,
        "format": "JPEG",
        "added_at": "2025-07-17T00:02:46.737735",
        "hash": "2754253dda553b3e8ad72480b66ab008",
        "source": "migrated"
      }
    },
    {
      "id": "architecture_029",
      "category": "architecture",
      "title": "Architecture Wallpaper 029",
      "tags": [
        "architecture",
        "wallpaper",
        "hd",
        "mobile"
      ],
      "urls": {
        "raw": "https://media.githubusercontent.com/media/ddh4r4m/wallpaper-collection/main/collection/wallpapers/architecture/029.jpg",
        "thumb": "https://media.githubusercontent.com/media/ddh4r4m/wallpaper-collection/main/collection/thumbnails/architecture/029.jpg"
      },
      "metadata": {
        "dimensions": {
          "width": 1080,
          "height": 1920
        },
        "file_size": 253885,
        "format": "JPEG",
        "added_at": "2025-07-17T00:02:46.791288",
        "hash": "1a5babb2384e11c8bbfccc46c18f387a",
        "source": "migrated"
      }
    },
    {
      "id": "architecture_030",
      "category": "architecture",
      "title": "Architecture Wallpaper 030",
      "tags": [
        "architecture",
        "wallpaper",
        "hd",
        "mobile"
      ],
      "urls": {
        "raw": "https://media.githubusercontent.com/media/ddh4r4m/wallpaper-collection/main/collection/wallpapers/architecture/030.jpg",
        "thumb": "https://media.githubusercontent.com/media/ddh4r4m/wallpaper-collection/main/collection/thumbnails/architecture/030.jpg"
      },
      "metadata": {
        "dimensions": {
          "width": 1080,
          "height": 1920
        },
        "file_size": 298071,
        "format": "JPEG",
        "added_at": "2025-07-17T00:02:46.849082",
        "hash": "6e2019b00d444b9a53eb19895707ecb9",
        "source": "migrated"
      }
    },
    {
      "id": "architecture_031",
      "category": "architecture",
      "title": "Architecture Wallpaper 031",
      "tags": [
        "architecture",
        "wallpaper",
        "hd",
        "mobile"
      ],
      "urls": {
        "raw": "https://media.githubusercontent.com/media/ddh4r4m/wallpaper-collection/main/collection/wallpapers/architecture/031.jpg",
        "thumb": "https://media.githubusercontent.com/media/ddh4r4m/wallpaper-collection/main/collection/thumbnails/architecture/031.jpg"
      },
      "metadata": {
        "dimensions": {
          "width": 1080,
          "height": 1920
        },
        "file_size": 427601,
        "format": "JPEG",
        "added_at": "2025-07-17T00:02:46.914969",
        "hash": "5583a155cfa150e63b86cbb713e8cd51",
        "source": "migrated"
      }
    },
    {
      "id": "architecture_032",
      "category": "architecture",
      "title": "Architecture Wallpaper 032",
      "tags": [
        "architecture",
        "wallpaper",
        "hd",
        "mobile"
      ],
      "urls": {
        "raw": "https://media.githubusercontent.com/media/ddh4r4m/wallpaper-collection/main/collection/wallpapers/architecture/032.jpg",
        "thumb": "https://media.githubusercontent.com/media/ddh4r4m/wallpaper-collection/main/collection/thumbnails/architecture/032.jpg"
      },
      "metadata": {
        "dimensions": {
          "width": 1080,
          "height": 1920
        },
        "file_size": 299969,
        "format": "JPEG",
        "added_at": "2025-07-17T00:02:46.975895",
        "hash": "256f75c6daa1c901f3d02e9e6e4516c7",
        "source": "migrated"
      }
    },
    {
      "id": "architecture_033",
      "category": "architecture",
      "title": "Architecture Wallpaper 033",
      "tags": [
        "architecture",
        "wallpaper",
        "hd",
        "mobile"
      ],
      "urls": {
        "raw": "https://media.githubusercontent.com/media/ddh4r4m/wallpaper-collection/main/collection/wallpapers/architecture/033.jpg",
        "thumb": "https://media.githubusercontent.com/media/ddh4r4m/wallpaper-collection/main/collection/thumbnails/architecture/033.jpg"
      },
      "metadata": {
        "dimensions": {
          "width": 1080,
          "height": 1920
        },
        "file_size": 360764,
        "format": "JPEG",
        "added_at": "2025-07-17T00:02:47.035926",
        "hash": "8094cfbddc4c9e93ddb94c62add04195",
        "source": "migrated"
      }
    },
    {
      "id": "architecture_034",
      "category": "architecture",
      "title": "Architecture Wallpaper 034",
      "tags": [
        "architecture",
        "wallpaper",
        "hd",
        "mobile"
      ],
      "urls": {
        "raw": "https://media.githubusercontent.com/media/ddh4r4m/wallpaper-collection/main/collection/wallpapers/architecture/034.jpg",
        "thumb": "https://media.githubusercontent.com/media/ddh4r4m/wallpaper-collection/main/collection/thumbnails/architecture/034.jpg"
      },
      "metadata": {
        "dimensions": {
          "width": 1080,
          "height": 1920
        },
        "file_size": 135057,
        "format": "JPEG",
        "added_at": "2025-07-17T00:02:47.085347",
        "hash": "ff3b258560fb028fc6e8c4a5e57fa535",
        "source": "migrated"
      }
    },
    {
      "id": "architecture_035",
      "category": "architecture",
      "title": "Architecture Wallpaper 035",
      "tags": [
        "architecture",
        "wallpaper",
        "hd",
        "mobile"
      ],
      "urls": {
        "raw": "https://media.githubusercontent.com/media/ddh4r4m/wallpaper-collection/main/collection/wallpapers/architecture/035.jpg",
        "thumb": "https://media.githubusercontent.com/media/ddh4r4m/wallpaper-collection/main/collection/thumbnails/architecture/035.jpg"
      },
      "metadata": {
        "dimensions": {
          "width": 1080,
          "height": 1920
        },
        "file_size": 332272,
        "format": "JPEG",
        "added_at": "2025-07-17T00:02:47.143413",
        "hash": "7f2eef30a5bd531cf5e7c0cb41bd883f",
        "source": "migrated"
      }
    }
  ]
}