{
  "meta": {
    "version": "1.0",
    "generated_at": "2025-07-28T22:38:03.579947",
    "page": 4,
    "per_page": 15,
    "total_pages": 178,
    "total_count": 2656,
    "count_on_page": 15,
    "categories": 21,
    "has_next": true,
    "has_prev": true,
    "next_page_url": "/api/v1/all/pages/5.json",
    "prev_page_url": "/api/v1/all/pages/3.json"
  },
  "data": [
    {
      "id": "4k_046",
      "category": "4k",
      "title": "4K Wallpaper 046",
      "tags": [
        "4k",
        "wallpaper",
        "curated",
        "hd",
        "portrait"
      ],
      "metadata": {
        "dimensions": {
          "width": 1080,
          "height": 1920
        },
        "file_size": 469469,
        "format": "JPEG",
        "added_at": "2025-07-16T22:14:50.135595",
        "hash": "a693ba68927800ce6518e23ee26fa4b3"
      },
      "urls": {
        "raw": "https://media.githubusercontent.com/media/ddh4r4m/wallpaper-collection/main/collection/wallpapers/4k/046.jpg",
        "thumb": "https://media.githubusercontent.com/media/ddh4r4m/wallpaper-collection/main/collection/thumbnails/4k/046.jpg"
      }
    },
    {
      "id": "4k_047",
      "category": "4k",
      "title": "4K Wallpaper 047",
      "tags": [
        "4k",
        "wallpaper",
        "curated",
        "hd",
        "portrait"
      ],
      "metadata": {
        "dimensions": {
          "width": 1080,
          "height": 1920
        },
        "file_size": 500286,
        "format": "JPEG",
        "added_at": "2025-07-16T22:14:50.327065",
        "hash": "b68d2e5a63e611d4a605db0044681daf"
      },
      "urls": {
        "raw": "https://media.githubusercontent.com/media/ddh4r4m/wallpaper-collection/main/collection/wallpapers/4k/047.jpg",
        "thumb": "https://media.githubusercontent.com/media/ddh4r4m/wallpaper-collection/main/collection/thumbnails/4k/047.jpg"
      }
    },
    {
      "id": "4k_048",
      "category": "4k",
      "title": "4K Wallpaper 048",
      "tags": [
        "4k",
        "wallpaper",
        "curated",
        "hd",
        "portrait"
      ],
      "metadata": {
        "dimensions": {
          "width": 1080,
          "height": 1920
        },
        "file_size": 155464,
        "format": "JPEG",
        "added_at": "2025-07-16T22:14:50.479768",
        "hash": "ed4d55bd1609b302bf8f05af89a5a49f"
      },
      "urls": {
        "raw": "https://media.githubusercontent.com/media/ddh4r4m/wallpaper-collection/main/collection/wallpapers/4k/048.jpg",
        "thumb": "https://media.githubusercontent.com/media/ddh4r4m/wallpaper-collection/main/collection/thumbnails/4k/048.jpg"
      }
    },
    {
      "id": "4k_049",
      "category": "4k",
      "title": "4K Wallpaper 049",
      "tags": [
        "4k",
        "wallpaper",
        "curated",
        "hd",
        "portrait"
      ],
      "metadata": {
        "dimensions": {
          "width": 1080,
          "height": 1920
        },
        "file_size": 350271,
        "format": "JPEG",
        "added_at": "2025-07-16T22:14:50.643611",
        "hash": "946a4dea4367b902932c855965cb5ba3"
      },
      "urls": {
        "raw": "https://media.githubusercontent.com/media/ddh4r4m/wallpaper-collection/main/collection/wallpapers/4k/049.jpg",
        "thumb": "https://media.githubusercontent.com/media/ddh4r4m/wallpaper-collection/main/collection/thumbnails/4k/049.jpg"
      }
    },
    {
      "id": "4k_050",
      "category": "4k",
      "title": "4K Wallpaper 050",
      "tags": [
        "4k",
        "wallpaper",
        "curated",
        "hd",
        "portrait"
      ],
      "metadata": {
        "dimensions": {
          "width": 1080,
          "height": 1920
        },
        "file_size": 551141,
        "format": "JPEG",
        "added_at": "2025-07-16T22:14:50.829353",
        "hash": "2272b9cf7ffcde79234cadfb92bef507"
      },
      "urls": {
        "raw": "https://media.githubusercontent.com/media/ddh4r4m/wallpaper-collection/main/collection/wallpapers/4k/050.jpg",
        "thumb": "https://media.githubusercontent.com/media/ddh4r4m/wallpaper-collection/main/collection/thumbnails/4k/050.jpg"
      }
    },
    {
      "id": "4k_051",
      "category": "4k",
      "title": "4K Wallpaper 051",
      "tags": [
        "4k",
        "wallpaper",
        "curated",
        "hd",
        "portrait"
      ],
      "metadata": {
        "dimensions": {
          "width": 1080,
          "height": 1920
        },
        "file_size": 128300,
        "format": "JPEG",
        "added_at": "2025-07-16T22:15:08.309822",
        "hash": "1ede4a9bd779da29a20914ca887d6ae7"
      },
      "urls": {
        "raw": "https://media.githubusercontent.com/media/ddh4r4m/wallpaper-collection/main/collection/wallpapers/4k/051.jpg",
        "thumb": "https://media.githubusercontent.com/media/ddh4r4m/wallpaper-collection/main/collection/thumbnails/4k/051.jpg"
      }
    },
    {
      "id": "4k_052",
      "category": "4k",
      "title": "4K Wallpaper 052",
      "tags": [
        "4k",
        "wallpaper",
        "curated",
        "hd",
        "portrait"
      ],
      "metadata": {
        "dimensions": {
          "width": 1080,
          "height": 1920
        },
        "file_size": 411357,
        "format": "JPEG",
        "added_at": "2025-07-16T22:15:08.483529",
        "hash": "0c19cbd2e307aab27bda5caa409eba54"
      },
      "urls": {
        "raw": "https://media.githubusercontent.com/media/ddh4r4m/wallpaper-collection/main/collection/wallpapers/4k/052.jpg",
        "thumb": "https://media.githubusercontent.com/media/ddh4r4m/wallpaper-collection/main/collection/thumbnails/4k/052.jpg"
      }
    },
    {
      "id": "4k_053",
      "category": "4k",
      "title": "4K Wallpaper 053",
      "tags": [
        "4k",
        "wallpaper",
        "curated",
        "hd",
        "portrait"
      ],
      "metadata": {
        "dimensions": {
          "width": 1080,
          "height": 1920
        },
        "file_size": 218168,
        "format": "JPEG",
        "added_at": "2025-07-16T22:15:08.633100",
        "hash": "94460ab497a10ce1235e31303862e8a6"
      },
      "urls": {
        "raw": "https://media.githubusercontent.com/media/ddh4r4m/wallpaper-collection/main/collection/wallpapers/4k/053.jpg",
        "thumb": "https://media.githubusercontent.com/media/ddh4r4m/wallpaper-collection/main/collection/thumbnails/4k/053.jpg"
      }
    },
    {
      "id": "4k_054",
      "category": "4k",
      "title": "4K Wallpaper 054",
      "tags": [
        "4k",
        "wallpaper",
        "curated",
        "hd",
        "portrait"
      ],
      "metadata": {
        "dimensions": {
          "width": 1080,
          "height": 1920
        },
        "file_size": 193204,
        "format": "JPEG",
        "added_at": "2025-07-16T22:15:08.779415",
        "hash": "43d674a95f7cdb938fcadfa823e78add"
      },
      "urls": {
        "raw": "https://media.githubusercontent.com/media/ddh4r4m/wallpaper-collection/main/collection/wallpapers/4k/054.jpg",
        "thumb": "https://media.githubusercontent.com/media/ddh4r4m/wallpaper-collection/main/collection/thumbnails/4k/054.jpg"
      }
    },
    {
      "id": "4k_055",
      "category": "4k",
      "title": "4K Wallpaper 055",
      "tags": [
        "4k",
        "wallpaper",
        "curated",
        "hd",
        "portrait"
      ],
      "metadata": {
        "dimensions": {
          "width": 1080,
          "height": 1920
        },
        "file_size": 284524,
        "format": "JPEG",
        "added_at": "2025-07-16T22:15:08.932307",
        "hash": "7a15120c09f1b8331d7f5093bd035e66"
      },
      "urls": {
        "raw": "https://media.githubusercontent.com/media/ddh4r4m/wallpaper-collection/main/collection/wallpapers/4k/055.jpg",
        "thumb": "https://media.githubusercontent.com/media/ddh4r4m/wallpaper-collection/main/collection/thumbnails/4k/055.jpg"
      }
    },
    {
      "id": "4k_056",
      "category": "4k",
      "title": "4K Wallpaper 056",
      "tags": [
        "4k",
        "wallpaper",
        "curated",
        "hd",
        "portrait"
      ],
      "metadata": {
        "dimensions": {
          "width": 1080,
          "height": 1920
        },
        "file_size": 555317,
        "format": "JPEG",
        "added_at": "2025-07-16T22:15:09.098916",
        "hash": "e106e51dfeab1ae5e0407333d6b18b15"
      },
      "urls": {
        "raw": "https://media.githubusercontent.com/media/ddh4r4m/wallpaper-collection/main/collection/wallpapers/4k/056.jpg",
        "thumb": "https://media.githubusercontent.com/media/ddh4r4m/wallpaper-collection/main/collection/thumbnails/4k/056.jpg"
      }
    },
    {
      "id": "4k_057",
      "category": "4k",
      "title": "4K Wallpaper 057",
      "tags": [
        "4k",
        "wallpaper",
        "curated",
        "hd",
        "portrait"
      ],
      "metadata": {
        "dimensions": {
          "width": 1080,
          "height": 1920
        },
        "file_size": 495302,
        "format": "JPEG",
        "added_at": "2025-07-16T22:15:09.262218",
        "hash": "c4de359d6560db02f122e25f55723c66"
      },
      "urls": {
        "raw": "https://media.githubusercontent.com/media/ddh4r4m/wallpaper-collection/main/collection/wallpapers/4k/057.jpg",
        "thumb": "https://media.githubusercontent.com/media/ddh4r4m/wallpaper-collection/main/collection/thumbnails/4k/057.jpg"
      }
    },
    {
      "id": "4k_058",
      "category": "4k",
      "title": "4K Wallpaper 058",
      "tags": [
        "4k",
        "wallpaper",
        "curated",
        "hd",
        "portrait"
      ],
      "metadata": {
        "dimensions": {
          "width": 1080,
          "height": 1920
        },
        "file_size": 243084,
        "format": "JPEG",
        "added_at": "2025-07-16T22:15:09.411842",
        "hash": "6cf6d84327966aa4193cf11a929b7a51"
      },
      "urls": {
        "raw": "https://media.githubusercontent.com/media/ddh4r4m/wallpaper-collection/main/collection/wallpapers/4k/058.jpg",
        "thumb": "https://media.githubusercontent.com/media/ddh4r4m/wallpaper-collection/main/collection/thumbnails/4k/058.jpg"
      }
    },
    {
      "id": "4k_059",
      "category": "4k",
      "title": "4K Wallpaper 059",
      "tags": [
        "4k",
        "wallpaper",
        "curated",
        "hd",
        "portrait"
      ],
      "metadata": {
        "dimensions": {
          "width": 1080,
          "height": 1920
        },
        "file_size": 326400,
        "format": "JPEG",
        "added_at": "2025-07-16T22:15:09.566616",
        "hash": "c1a83808c3a819ebfb8cd679647e99d9"
      },
      "urls": {
        "raw": "https://media.githubusercontent.com/media/ddh4r4m/wallpaper-collection/main/collection/wallpapers/4k/059.jpg",
        "thumb": "https://media.githubusercontent.com/media/ddh4r4m/wallpaper-collection/main/collection/thumbnails/4k/059.jpg"
      }
    },
    {
      "id": "4k_060",
      "category": "4k",
      "title": "4K Wallpaper 060",
      "tags": [
        "4k",
        "wallpaper",
        "curated",
        "hd",
        "portrait"
      ],
      "metadata": {
        "dimensions": {
          "width": 1080,
          "height": 1920
        },
        "file_size": 458197,
        "format": "JPEG",
        "added_at": "2025-07-16T22:15:09.728567",
        "hash": "71ea435179d72177f4b2f0398419406e"
      },
      "urls": {
        "raw": "https://media.githubusercontent.com/media/ddh4r4m/wallpaper-collection/main/collection/wallpapers/4k/060.jpg",
        "thumb": "https://media.githubusercontent.com/media/ddh4r4m/wallpaper-collection/main/collection/thumbnails/4k/060.jpg"
      }
    }
  ]
}