{
  "meta": {
    "version": "1.0",
    "generated_at": "2025-07-17T00:06:19.072196",
    "page": 40,
    "per_page": 15,
    "total_pages": 117,
    "total_count": 1751,
    "count_on_page": 15,
    "categories": 17,
    "has_next": true,
    "has_prev": true,
    "next_page_url": "/api/v1/all/pages/41.json",
    "prev_page_url": "/api/v1/all/pages/39.json"
  },
  "data": [
    {
      "id": "architecture_051",
      "category": "architecture",
      "title": "Architecture Wallpaper 051",
      "tags": [
        "architecture",
        "wallpaper",
        "hd",
        "mobile"
      ],
      "urls": {
        "raw": "https://raw.githubusercontent.com/ddh4r4m/wallpaper-collection/main/collection/wallpapers/architecture/051.jpg",
        "thumb": "https://raw.githubusercontent.com/ddh4r4m/wallpaper-collection/main/collection/thumbnails/architecture/051.jpg"
      },
      "metadata": {
        "dimensions": {
          "width": 1080,
          "height": 1920
        },
        "file_size": 229792,
        "format": "JPEG",
        "added_at": "2025-07-17T00:02:48.121653",
        "hash": "7d0d97ae5a6351d618e88999a9c9bfeb",
        "source": "migrated"
      }
    },
    {
      "id": "architecture_052",
      "category": "architecture",
      "title": "Architecture Wallpaper 052",
      "tags": [
        "architecture",
        "wallpaper",
        "hd",
        "mobile"
      ],
      "urls": {
        "raw": "https://raw.githubusercontent.com/ddh4r4m/wallpaper-collection/main/collection/wallpapers/architecture/052.jpg",
        "thumb": "https://raw.githubusercontent.com/ddh4r4m/wallpaper-collection/main/collection/thumbnails/architecture/052.jpg"
      },
      "metadata": {
        "dimensions": {
          "width": 1080,
          "height": 1920
        },
        "file_size": 247541,
        "format": "JPEG",
        "added_at": "2025-07-17T00:02:48.178485",
        "hash": "0eeb5da45e4a7f99873a8925734641fa",
        "source": "migrated"
      }
    },
    {
      "id": "architecture_053",
      "category": "architecture",
      "title": "Architecture Wallpaper 053",
      "tags": [
        "architecture",
        "wallpaper",
        "hd",
        "mobile"
      ],
      "urls": {
        "raw": "https://raw.githubusercontent.com/ddh4r4m/wallpaper-collection/main/collection/wallpapers/architecture/053.jpg",
        "thumb": "https://raw.githubusercontent.com/ddh4r4m/wallpaper-collection/main/collection/thumbnails/architecture/053.jpg"
      },
      "metadata": {
        "dimensions": {
          "width": 1080,
          "height": 1920
        },
        "file_size": 369259,
        "format": "JPEG",
        "added_at": "2025-07-17T00:02:48.239195",
        "hash": "f1b3eed2577e65d0dcb362368939fef2",
        "source": "migrated"
      }
    },
    {
      "id": "architecture_054",
      "category": "architecture",
      "title": "Architecture Wallpaper 054",
      "tags": [
        "architecture",
        "wallpaper",
        "hd",
        "mobile"
      ],
      "urls": {
        "raw": "https://raw.githubusercontent.com/ddh4r4m/wallpaper-collection/main/collection/wallpapers/architecture/054.jpg",
        "thumb": "https://raw.githubusercontent.com/ddh4r4m/wallpaper-collection/main/collection/thumbnails/architecture/054.jpg"
      },
      "metadata": {
        "dimensions": {
          "width": 1080,
          "height": 1920
        },
        "file_size": 191040,
        "format": "JPEG",
        "added_at": "2025-07-17T00:02:48.290388",
        "hash": "93821f9032220eaa92eb7ed87e48c57f",
        "source": "migrated"
      }
    },
    {
      "id": "architecture_055",
      "category": "architecture",
      "title": "Architecture Wallpaper 055",
      "tags": [
        "architecture",
        "wallpaper",
        "hd",
        "mobile"
      ],
      "urls": {
        "raw": "https://raw.githubusercontent.com/ddh4r4m/wallpaper-collection/main/collection/wallpapers/architecture/055.jpg",
        "thumb": "https://raw.githubusercontent.com/ddh4r4m/wallpaper-collection/main/collection/thumbnails/architecture/055.jpg"
      },
      "metadata": {
        "dimensions": {
          "width": 1080,
          "height": 1920
        },
        "file_size": 315487,
        "format": "JPEG",
        "added_at": "2025-07-17T00:02:48.348276",
        "hash": "c58ef76f8c2252cddf1773f263cb307f",
        "source": "migrated"
      }
    },
    {
      "id": "architecture_056",
      "category": "architecture",
      "title": "Architecture Wallpaper 056",
      "tags": [
        "architecture",
        "wallpaper",
        "hd",
        "mobile"
      ],
      "urls": {
        "raw": "https://raw.githubusercontent.com/ddh4r4m/wallpaper-collection/main/collection/wallpapers/architecture/056.jpg",
        "thumb": "https://raw.githubusercontent.com/ddh4r4m/wallpaper-collection/main/collection/thumbnails/architecture/056.jpg"
      },
      "metadata": {
        "dimensions": {
          "width": 1080,
          "height": 1920
        },
        "file_size": 609078,
        "format": "JPEG",
        "added_at": "2025-07-17T00:02:48.422568",
        "hash": "7a24a13207704de16841dbcb7e7588b1",
        "source": "migrated"
      }
    },
    {
      "id": "architecture_057",
      "category": "architecture",
      "title": "Architecture Wallpaper 057",
      "tags": [
        "architecture",
        "wallpaper",
        "hd",
        "mobile"
      ],
      "urls": {
        "raw": "https://raw.githubusercontent.com/ddh4r4m/wallpaper-collection/main/collection/wallpapers/architecture/057.jpg",
        "thumb": "https://raw.githubusercontent.com/ddh4r4m/wallpaper-collection/main/collection/thumbnails/architecture/057.jpg"
      },
      "metadata": {
        "dimensions": {
          "width": 1080,
          "height": 1920
        },
        "file_size": 698756,
        "format": "JPEG",
        "added_at": "2025-07-17T00:02:48.501396",
        "hash": "d7e80ccccf5c0944db47557c3950f4c4",
        "source": "migrated"
      }
    },
    {
      "id": "architecture_058",
      "category": "architecture",
      "title": "Architecture Wallpaper 058",
      "tags": [
        "architecture",
        "wallpaper",
        "hd",
        "mobile"
      ],
      "urls": {
        "raw": "https://raw.githubusercontent.com/ddh4r4m/wallpaper-collection/main/collection/wallpapers/architecture/058.jpg",
        "thumb": "https://raw.githubusercontent.com/ddh4r4m/wallpaper-collection/main/collection/thumbnails/architecture/058.jpg"
      },
      "metadata": {
        "dimensions": {
          "width": 1080,
          "height": 1920
        },
        "file_size": 473270,
        "format": "JPEG",
        "added_at": "2025-07-17T00:02:48.566624",
        "hash": "a30715c350de51b8e94a8b8c7c6607da",
        "source": "migrated"
      }
    },
    {
      "id": "architecture_059",
      "category": "architecture",
      "title": "Architecture Wallpaper 059",
      "tags": [
        "architecture",
        "wallpaper",
        "hd",
        "mobile"
      ],
      "urls": {
        "raw": "https://raw.githubusercontent.com/ddh4r4m/wallpaper-collection/main/collection/wallpapers/architecture/059.jpg",
        "thumb": "https://raw.githubusercontent.com/ddh4r4m/wallpaper-collection/main/collection/thumbnails/architecture/059.jpg"
      },
      "metadata": {
        "dimensions": {
          "width": 1080,
          "height": 1920
        },
        "file_size": 307572,
        "format": "JPEG",
        "added_at": "2025-07-17T00:02:48.626283",
        "hash": "a0f87b24af5da70e597b139cff3ea274",
        "source": "migrated"
      }
    },
    {
      "id": "architecture_060",
      "category": "architecture",
      "title": "Architecture Wallpaper 060",
      "tags": [
        "architecture",
        "wallpaper",
        "hd",
        "mobile"
      ],
      "urls": {
        "raw": "https://raw.githubusercontent.com/ddh4r4m/wallpaper-collection/main/collection/wallpapers/architecture/060.jpg",
        "thumb": "https://raw.githubusercontent.com/ddh4r4m/wallpaper-collection/main/collection/thumbnails/architecture/060.jpg"
      },
      "metadata": {
        "dimensions": {
          "width": 1080,
          "height": 1920
        },
        "file_size": 467306,
        "format": "JPEG",
        "added_at": "2025-07-17T00:02:48.690529",
        "hash": "ef416260111f5a27d6c57eb61480ae1f",
        "source": "migrated"
      }
    },
    {
      "id": "architecture_061",
      "category": "architecture",
      "title": "Architecture Wallpaper 061",
      "tags": [
        "architecture",
        "wallpaper",
        "hd",
        "mobile"
      ],
      "urls": {
        "raw": "https://raw.githubusercontent.com/ddh4r4m/wallpaper-collection/main/collection/wallpapers/architecture/061.jpg",
        "thumb": "https://raw.githubusercontent.com/ddh4r4m/wallpaper-collection/main/collection/thumbnails/architecture/061.jpg"
      },
      "metadata": {
        "dimensions": {
          "width": 1080,
          "height": 1920
        },
        "file_size": 242382,
        "format": "JPEG",
        "added_at": "2025-07-17T00:02:48.745537",
        "hash": "d6d514dadc0b81a29b01913c99b39a20",
        "source": "migrated"
      }
    },
    {
      "id": "architecture_062",
      "category": "architecture",
      "title": "Architecture Wallpaper 062",
      "tags": [
        "architecture",
        "wallpaper",
        "hd",
        "mobile"
      ],
      "urls": {
        "raw": "https://raw.githubusercontent.com/ddh4r4m/wallpaper-collection/main/collection/wallpapers/architecture/062.jpg",
        "thumb": "https://raw.githubusercontent.com/ddh4r4m/wallpaper-collection/main/collection/thumbnails/architecture/062.jpg"
      },
      "metadata": {
        "dimensions": {
          "width": 1080,
          "height": 1920
        },
        "file_size": 312054,
        "format": "JPEG",
        "added_at": "2025-07-17T00:02:48.811123",
        "hash": "370b67d06a3d824fd22862ca65e0cba9",
        "source": "migrated"
      }
    },
    {
      "id": "architecture_063",
      "category": "architecture",
      "title": "Architecture Wallpaper 063",
      "tags": [
        "architecture",
        "wallpaper",
        "hd",
        "mobile"
      ],
      "urls": {
        "raw": "https://raw.githubusercontent.com/ddh4r4m/wallpaper-collection/main/collection/wallpapers/architecture/063.jpg",
        "thumb": "https://raw.githubusercontent.com/ddh4r4m/wallpaper-collection/main/collection/thumbnails/architecture/063.jpg"
      },
      "metadata": {
        "dimensions": {
          "width": 1080,
          "height": 1920
        },
        "file_size": 233395,
        "format": "JPEG",
        "added_at": "2025-07-17T00:02:48.866765",
        "hash": "9515316e849062a770b599db270df233",
        "source": "migrated"
      }
    },
    {
      "id": "architecture_064",
      "category": "architecture",
      "title": "Architecture Wallpaper 064",
      "tags": [
        "architecture",
        "wallpaper",
        "hd",
        "mobile"
      ],
      "urls": {
        "raw": "https://raw.githubusercontent.com/ddh4r4m/wallpaper-collection/main/collection/wallpapers/architecture/064.jpg",
        "thumb": "https://raw.githubusercontent.com/ddh4r4m/wallpaper-collection/main/collection/thumbnails/architecture/064.jpg"
      },
      "metadata": {
        "dimensions": {
          "width": 1080,
          "height": 1920
        },
        "file_size": 299058,
        "format": "JPEG",
        "added_at": "2025-07-17T00:02:48.932046",
        "hash": "a173a37441cdd204d7c8422d02b7e6df",
        "source": "migrated"
      }
    },
    {
      "id": "architecture_065",
      "category": "architecture",
      "title": "Architecture Wallpaper 065",
      "tags": [
        "architecture",
        "wallpaper",
        "hd",
        "mobile"
      ],
      "urls": {
        "raw": "https://raw.githubusercontent.com/ddh4r4m/wallpaper-collection/main/collection/wallpapers/architecture/065.jpg",
        "thumb": "https://raw.githubusercontent.com/ddh4r4m/wallpaper-collection/main/collection/thumbnails/architecture/065.jpg"
      },
      "metadata": {
        "dimensions": {
          "width": 1080,
          "height": 1920
        },
        "file_size": 633210,
        "format": "JPEG",
        "added_at": "2025-07-17T00:02:49.008484",
        "hash": "469683835b42eed73e00cbbb60051e5a",
        "source": "migrated"
      }
    }
  ]
}