{
  "meta": {
    "version": "1.0",
    "generated_at": "2025-07-17T21:14:17.488868",
    "page": 41,
    "per_page": 15,
    "total_pages": 117,
    "total_count": 1751,
    "count_on_page": 15,
    "categories": 17,
    "has_next": true,
    "has_prev": true,
    "next_page_url": "/api/v1/all/pages/42.json",
    "prev_page_url": "/api/v1/all/pages/40.json"
  },
  "data": [
    {
      "id": "architecture_066",
      "category": "architecture",
      "title": "Architecture Wallpaper 066",
      "tags": [
        "architecture",
        "wallpaper",
        "hd",
        "mobile"
      ],
      "urls": {
        "raw": "https://media.githubusercontent.com/media/ddh4r4m/wallpaper-collection/main/collection/wallpapers/architecture/066.jpg",
        "thumb": "https://media.githubusercontent.com/media/ddh4r4m/wallpaper-collection/main/collection/thumbnails/architecture/066.jpg"
      },
      "metadata": {
        "dimensions": {
          "width": 1080,
          "height": 1920
        },
        "file_size": 352349,
        "format": "JPEG",
        "added_at": "2025-07-17T00:02:49.071094",
        "hash": "b5a6ab842990f3aed7ad632216fc41df",
        "source": "migrated"
      }
    },
    {
      "id": "architecture_067",
      "category": "architecture",
      "title": "Architecture Wallpaper 067",
      "tags": [
        "architecture",
        "wallpaper",
        "hd",
        "mobile"
      ],
      "urls": {
        "raw": "https://media.githubusercontent.com/media/ddh4r4m/wallpaper-collection/main/collection/wallpapers/architecture/067.jpg",
        "thumb": "https://media.githubusercontent.com/media/ddh4r4m/wallpaper-collection/main/collection/thumbnails/architecture/067.jpg"
      },
      "metadata": {
        "dimensions": {
          "width": 1080,
          "height": 1920
        },
        "file_size": 542883,
        "format": "JPEG",
        "added_at": "2025-07-17T00:02:49.141470",
        "hash": "4d114494488fb739a07e25984649a509",
        "source": "migrated"
      }
    },
    {
      "id": "architecture_068",
      "category": "architecture",
      "title": "Architecture Wallpaper 068",
      "tags": [
        "architecture",
        "wallpaper",
        "hd",
        "mobile"
      ],
      "urls": {
        "raw": "https://media.githubusercontent.com/media/ddh4r4m/wallpaper-collection/main/collection/wallpapers/architecture/068.jpg",
        "thumb": "https://media.githubusercontent.com/media/ddh4r4m/wallpaper-collection/main/collection/thumbnails/architecture/068.jpg"
      },
      "metadata": {
        "dimensions": {
          "width": 1080,
          "height": 1920
        },
        "file_size": 559189,
        "format": "JPEG",
        "added_at": "2025-07-17T00:02:49.210317",
        "hash": "713111b289e9da10b441a20b3cd33775",
        "source": "migrated"
      }
    },
    {
      "id": "architecture_069",
      "category": "architecture",
      "title": "Architecture Wallpaper 069",
      "tags": [
        "architecture",
        "wallpaper",
        "hd",
        "mobile"
      ],
      "urls": {
        "raw": "https://media.githubusercontent.com/media/ddh4r4m/wallpaper-collection/main/collection/wallpapers/architecture/069.jpg",
        "thumb": "https://media.githubusercontent.com/media/ddh4r4m/wallpaper-collection/main/collection/thumbnails/architecture/069.jpg"
      },
      "metadata": {
        "dimensions": {
          "width": 1080,
          "height": 1920
        },
        "file_size": 327501,
        "format": "JPEG",
        "added_at": "2025-07-17T00:02:49.268675",
        "hash": "03da3a1b1e218df9435fc3f74e08d46e",
        "source": "migrated"
      }
    },
    {
      "id": "architecture_070",
      "category": "architecture",
      "title": "Architecture Wallpaper 070",
      "tags": [
        "architecture",
        "wallpaper",
        "hd",
        "mobile"
      ],
      "urls": {
        "raw": "https://media.githubusercontent.com/media/ddh4r4m/wallpaper-collection/main/collection/wallpapers/architecture/070.jpg",
        "thumb": "https://media.githubusercontent.com/media/ddh4r4m/wallpaper-collection/main/collection/thumbnails/architecture/070.jpg"
      },
      "metadata": {
        "dimensions": {
          "width": 1080,
          "height": 1920
        },
        "file_size": 421569,
        "format": "JPEG",
        "added_at": "2025-07-17T00:02:49.332750",
        "hash": "e255918a0880c527418e783c85d4b0f0",
        "source": "migrated"
      }
    },
    {
      "id": "architecture_071",
      "category": "architecture",
      "title": "Architecture Wallpaper 071",
      "tags": [
        "architecture",
        "wallpaper",
        "hd",
        "mobile"
      ],
      "urls": {
        "raw": "https://media.githubusercontent.com/media/ddh4r4m/wallpaper-collection/main/collection/wallpapers/architecture/071.jpg",
        "thumb": "https://media.githubusercontent.com/media/ddh4r4m/wallpaper-collection/main/collection/thumbnails/architecture/071.jpg"
      },
      "metadata": {
        "dimensions": {
          "width": 1080,
          "height": 1920
        },
        "file_size": 312235,
        "format": "JPEG",
        "added_at": "2025-07-17T00:02:49.390181",
        "hash": "05a7f51e978decb0f25e8c5065a19c14",
        "source": "migrated"
      }
    },
    {
      "id": "architecture_072",
      "category": "architecture",
      "title": "Architecture Wallpaper 072",
      "tags": [
        "architecture",
        "wallpaper",
        "hd",
        "mobile"
      ],
      "urls": {
        "raw": "https://media.githubusercontent.com/media/ddh4r4m/wallpaper-collection/main/collection/wallpapers/architecture/072.jpg",
        "thumb": "https://media.githubusercontent.com/media/ddh4r4m/wallpaper-collection/main/collection/thumbnails/architecture/072.jpg"
      },
      "metadata": {
        "dimensions": {
          "width": 1080,
          "height": 1920
        },
        "file_size": 323673,
        "format": "JPEG",
        "added_at": "2025-07-17T00:02:49.447348",
        "hash": "8350d4b9d06b6d0072ab3e212de835ee",
        "source": "migrated"
      }
    },
    {
      "id": "architecture_073",
      "category": "architecture",
      "title": "Architecture Wallpaper 073",
      "tags": [
        "architecture",
        "wallpaper",
        "hd",
        "mobile"
      ],
      "urls": {
        "raw": "https://media.githubusercontent.com/media/ddh4r4m/wallpaper-collection/main/collection/wallpapers/architecture/073.jpg",
        "thumb": "https://media.githubusercontent.com/media/ddh4r4m/wallpaper-collection/main/collection/thumbnails/architecture/073.jpg"
      },
      "metadata": {
        "dimensions": {
          "width": 1080,
          "height": 1920
        },
        "file_size": 210620,
        "format": "JPEG",
        "added_at": "2025-07-17T00:02:49.501290",
        "hash": "f77c84eec3d18754141c970c37cef1c4",
        "source": "migrated"
      }
    },
    {
      "id": "architecture_074",
      "category": "architecture",
      "title": "Architecture Wallpaper 074",
      "tags": [
        "architecture",
        "wallpaper",
        "hd",
        "mobile"
      ],
      "urls": {
        "raw": "https://media.githubusercontent.com/media/ddh4r4m/wallpaper-collection/main/collection/wallpapers/architecture/074.jpg",
        "thumb": "https://media.githubusercontent.com/media/ddh4r4m/wallpaper-collection/main/collection/thumbnails/architecture/074.jpg"
      },
      "metadata": {
        "dimensions": {
          "width": 1080,
          "height": 1920
        },
        "file_size": 691758,
        "format": "JPEG",
        "added_at": "2025-07-17T00:02:49.582632",
        "hash": "5f86cca38a39a3dc13725d549c56ee7d",
        "source": "migrated"
      }
    },
    {
      "id": "architecture_075",
      "category": "architecture",
      "title": "Architecture Wallpaper 075",
      "tags": [
        "architecture",
        "wallpaper",
        "hd",
        "mobile"
      ],
      "urls": {
        "raw": "https://media.githubusercontent.com/media/ddh4r4m/wallpaper-collection/main/collection/wallpapers/architecture/075.jpg",
        "thumb": "https://media.githubusercontent.com/media/ddh4r4m/wallpaper-collection/main/collection/thumbnails/architecture/075.jpg"
      },
      "metadata": {
        "dimensions": {
          "width": 1080,
          "height": 1920
        },
        "file_size": 137362,
        "format": "JPEG",
        "added_at": "2025-07-17T00:02:49.631280",
        "hash": "7d3c1a12735bbdaffefc3860cb0aeb0d",
        "source": "migrated"
      }
    },
    {
      "id": "architecture_076",
      "category": "architecture",
      "title": "Architecture Wallpaper 076",
      "tags": [
        "architecture",
        "wallpaper",
        "hd",
        "mobile"
      ],
      "urls": {
        "raw": "https://media.githubusercontent.com/media/ddh4r4m/wallpaper-collection/main/collection/wallpapers/architecture/076.jpg",
        "thumb": "https://media.githubusercontent.com/media/ddh4r4m/wallpaper-collection/main/collection/thumbnails/architecture/076.jpg"
      },
      "metadata": {
        "dimensions": {
          "width": 1080,
          "height": 1920
        },
        "file_size": 379003,
        "format": "JPEG",
        "added_at": "2025-07-17T00:02:49.693898",
        "hash": "db44fa55f40ef93750745d3b7ecf0bcf",
        "source": "migrated"
      }
    },
    {
      "id": "architecture_077",
      "category": "architecture",
      "title": "Architecture Wallpaper 077",
      "tags": [
        "architecture",
        "wallpaper",
        "hd",
        "mobile"
      ],
      "urls": {
        "raw": "https://media.githubusercontent.com/media/ddh4r4m/wallpaper-collection/main/collection/wallpapers/architecture/077.jpg",
        "thumb": "https://media.githubusercontent.com/media/ddh4r4m/wallpaper-collection/main/collection/thumbnails/architecture/077.jpg"
      },
      "metadata": {
        "dimensions": {
          "width": 1080,
          "height": 1920
        },
        "file_size": 327314,
        "format": "JPEG",
        "added_at": "2025-07-17T00:02:49.752025",
        "hash": "080f07f0b57a3858c1c1ff0dd1f503d2",
        "source": "migrated"
      }
    },
    {
      "id": "architecture_078",
      "category": "architecture",
      "title": "Architecture Wallpaper 078",
      "tags": [
        "architecture",
        "wallpaper",
        "hd",
        "mobile"
      ],
      "urls": {
        "raw": "https://media.githubusercontent.com/media/ddh4r4m/wallpaper-collection/main/collection/wallpapers/architecture/078.jpg",
        "thumb": "https://media.githubusercontent.com/media/ddh4r4m/wallpaper-collection/main/collection/thumbnails/architecture/078.jpg"
      },
      "metadata": {
        "dimensions": {
          "width": 1080,
          "height": 1920
        },
        "file_size": 213462,
        "format": "JPEG",
        "added_at": "2025-07-17T00:02:49.803295",
        "hash": "a1ff147682b9e30e4310f7d675427b61",
        "source": "migrated"
      }
    },
    {
      "id": "architecture_079",
      "category": "architecture",
      "title": "Architecture Wallpaper 079",
      "tags": [
        "architecture",
        "wallpaper",
        "hd",
        "mobile"
      ],
      "urls": {
        "raw": "https://media.githubusercontent.com/media/ddh4r4m/wallpaper-collection/main/collection/wallpapers/architecture/079.jpg",
        "thumb": "https://media.githubusercontent.com/media/ddh4r4m/wallpaper-collection/main/collection/thumbnails/architecture/079.jpg"
      },
      "metadata": {
        "dimensions": {
          "width": 1080,
          "height": 1920
        },
        "file_size": 315818,
        "format": "JPEG",
        "added_at": "2025-07-17T00:02:49.862762",
        "hash": "f54b2f2f0ec1d06966f82c42c8d7402d",
        "source": "migrated"
      }
    },
    {
      "id": "architecture_080",
      "category": "architecture",
      "title": "Architecture Wallpaper 080",
      "tags": [
        "architecture",
        "wallpaper",
        "hd",
        "mobile"
      ],
      "urls": {
        "raw": "https://media.githubusercontent.com/media/ddh4r4m/wallpaper-collection/main/collection/wallpapers/architecture/080.jpg",
        "thumb": "https://media.githubusercontent.com/media/ddh4r4m/wallpaper-collection/main/collection/thumbnails/architecture/080.jpg"
      },
      "metadata": {
        "dimensions": {
          "width": 1080,
          "height": 1920
        },
        "file_size": 453428,
        "format": "JPEG",
        "added_at": "2025-07-17T00:02:49.926964",
        "hash": "848f81995a36c6730b7b7a0f5c8628c4",
        "source": "migrated"
      }
    }
  ]
}