{
  "meta": {
    "version": "1.0",
    "generated_at": "2025-07-19T12:26:57.111378",
    "page": 42,
    "per_page": 15,
    "total_pages": 160,
    "total_count": 2387,
    "count_on_page": 15,
    "categories": 19,
    "has_next": true,
    "has_prev": true,
    "next_page_url": "/api/v1/all/pages/43.json",
    "prev_page_url": "/api/v1/all/pages/41.json"
  },
  "data": [
    {
      "id": "animals_076",
      "category": "animals",
      "title": "Animals Wallpaper",
      "tags": [
        "animals",
        "unsplash",
        "hd",
        "mobile"
      ],
      "metadata": {
        "dimensions": {
          "width": 1080,
          "height": 864
        },
        "file_size": 256332,
        "format": "JPEG",
        "added_at": "2025-07-18T00:40:37.157749",
        "hash": "976bee7f199346d6d504dc12aa8c4566",
        "photographer": "Unknown"
      },
      "urls": {
        "raw": "https://media.githubusercontent.com/media/ddh4r4m/wallpaper-collection/main/collection/wallpapers/animals/076.jpg",
        "thumb": "https://media.githubusercontent.com/media/ddh4r4m/wallpaper-collection/main/collection/thumbnails/animals/076.jpg"
      }
    },
    {
      "id": "animals_077",
      "category": "animals",
      "title": "Animals Wallpaper",
      "tags": [
        "animals",
        "unsplash",
        "hd",
        "mobile"
      ],
      "metadata": {
        "dimensions": {
          "width": 1080,
          "height": 635
        },
        "file_size": 156423,
        "format": "JPEG",
        "added_at": "2025-07-18T00:40:40.664593",
        "hash": "d9a22da6e2c49a14be4f450d6eb9f2b5",
        "photographer": "Unknown"
      },
      "urls": {
        "raw": "https://media.githubusercontent.com/media/ddh4r4m/wallpaper-collection/main/collection/wallpapers/animals/077.jpg",
        "thumb": "https://media.githubusercontent.com/media/ddh4r4m/wallpaper-collection/main/collection/thumbnails/animals/077.jpg"
      }
    },
    {
      "id": "animals_078",
      "category": "animals",
      "title": "Animals Wallpaper",
      "tags": [
        "animals",
        "unsplash",
        "hd",
        "mobile"
      ],
      "metadata": {
        "dimensions": {
          "width": 1080,
          "height": 720
        },
        "file_size": 173447,
        "format": "JPEG",
        "added_at": "2025-07-18T00:40:43.270596",
        "hash": "28cf88a8d7ff9d37016fc1830fd9b78c",
        "photographer": "Unknown"
      },
      "urls": {
        "raw": "https://media.githubusercontent.com/media/ddh4r4m/wallpaper-collection/main/collection/wallpapers/animals/078.jpg",
        "thumb": "https://media.githubusercontent.com/media/ddh4r4m/wallpaper-collection/main/collection/thumbnails/animals/078.jpg"
      }
    },
    {
      "id": "animals_079",
      "category": "animals",
      "title": "Animals Wallpaper",
      "tags": [
        "animals",
        "unsplash",
        "hd",
        "mobile"
      ],
      "metadata": {
        "dimensions": {
          "width": 1080,
          "height": 1620
        },
        "file_size": 352492,
        "format": "JPEG",
        "added_at": "2025-07-18T00:40:47.097869",
        "hash": "0db51723fa25f545db1cce42403f39c3",
        "photographer": "cat"
      },
      "urls": {
        "raw": "https://media.githubusercontent.com/media/ddh4r4m/wallpaper-collection/main/collection/wallpapers/animals/079.jpg",
        "thumb": "https://media.githubusercontent.com/media/ddh4r4m/wallpaper-collection/main/collection/thumbnails/animals/079.jpg"
      }
    },
    {
      "id": "animals_080",
      "category": "animals",
      "title": "Animals Wallpaper",
      "tags": [
        "animals",
        "unsplash",
        "hd",
        "mobile"
      ],
      "metadata": {
        "dimensions": {
          "width": 1080,
          "height": 1620
        },
        "file_size": 129038,
        "format": "JPEG",
        "added_at": "2025-07-18T00:40:49.816517",
        "hash": "0c13ec8095bf1bda8c62320af8dc82c1",
        "photographer": "Unknown"
      },
      "urls": {
        "raw": "https://media.githubusercontent.com/media/ddh4r4m/wallpaper-collection/main/collection/wallpapers/animals/080.jpg",
        "thumb": "https://media.githubusercontent.com/media/ddh4r4m/wallpaper-collection/main/collection/thumbnails/animals/080.jpg"
      }
    },
    {
      "id": "animals_081",
      "category": "animals",
      "title": "Animals Wallpaper",
      "tags": [
        "animals",
        "unsplash",
        "hd",
        "mobile"
      ],
      "metadata": {
        "dimensions": {
          "width": 1080,
          "height": 1686
        },
        "file_size": 316639,
        "format": "JPEG",
        "added_at": "2025-07-18T00:40:53.870553",
        "hash": "4affb8949eb52451660c9f7dbecffbbc",
        "photographer": "Unknown"
      },
      "urls": {
        "raw": "https://media.githubusercontent.com/media/ddh4r4m/wallpaper-collection/main/collection/wallpapers/animals/081.jpg",
        "thumb": "https://media.githubusercontent.com/media/ddh4r4m/wallpaper-collection/main/collection/thumbnails/animals/081.jpg"
      }
    },
    {
      "id": "animals_082",
      "category": "animals",
      "title": "Animals Wallpaper",
      "tags": [
        "animals",
        "unsplash",
        "hd",
        "mobile"
      ],
      "metadata": {
        "dimensions": {
          "width": 1080,
          "height": 721
        },
        "file_size": 88095,
        "format": "JPEG",
        "added_at": "2025-07-18T00:40:56.570222",
        "hash": "2df3eb98eda89308eca0a1700d74c42e",
        "photographer": "Unknown"
      },
      "urls": {
        "raw": "https://media.githubusercontent.com/media/ddh4r4m/wallpaper-collection/main/collection/wallpapers/animals/082.jpg",
        "thumb": "https://media.githubusercontent.com/media/ddh4r4m/wallpaper-collection/main/collection/thumbnails/animals/082.jpg"
      }
    },
    {
      "id": "animals_083",
      "category": "animals",
      "title": "Animals Wallpaper",
      "tags": [
        "animals",
        "unsplash",
        "hd",
        "mobile"
      ],
      "metadata": {
        "dimensions": {
          "width": 1080,
          "height": 1620
        },
        "file_size": 319107,
        "format": "JPEG",
        "added_at": "2025-07-18T00:40:59.113147",
        "hash": "fd5cc4402338c74195d8981814930f41",
        "photographer": "Unknown"
      },
      "urls": {
        "raw": "https://media.githubusercontent.com/media/ddh4r4m/wallpaper-collection/main/collection/wallpapers/animals/083.jpg",
        "thumb": "https://media.githubusercontent.com/media/ddh4r4m/wallpaper-collection/main/collection/thumbnails/animals/083.jpg"
      }
    },
    {
      "id": "animals_084",
      "category": "animals",
      "title": "Animals Wallpaper",
      "tags": [
        "animals",
        "unsplash",
        "hd",
        "mobile"
      ],
      "metadata": {
        "dimensions": {
          "width": 1080,
          "height": 1571
        },
        "file_size": 250653,
        "format": "JPEG",
        "added_at": "2025-07-18T00:41:01.720999",
        "hash": "5f2435d47b485f1891815f346a0a96e5",
        "photographer": "Unknown"
      },
      "urls": {
        "raw": "https://media.githubusercontent.com/media/ddh4r4m/wallpaper-collection/main/collection/wallpapers/animals/084.jpg",
        "thumb": "https://media.githubusercontent.com/media/ddh4r4m/wallpaper-collection/main/collection/thumbnails/animals/084.jpg"
      }
    },
    {
      "id": "anime_001",
      "category": "anime",
      "title": "Anime Wallpaper",
      "tags": [
        "anime",
        "wallpaper",
        "hd",
        "high resolution",
        "mobile"
      ],
      "metadata": {
        "dimensions": {
          "width": 6143,
          "height": 3094
        },
        "file_size": 7859057,
        "added_at": "2025-07-16T20:56:14.359456",
        "migrated_from": "/Users/dharamdhurandhar/Developer/AndroidApps/WallpaperCollection/wallpapers/anime/anime_003.jpg"
      },
      "urls": {
        "raw": "https://media.githubusercontent.com/media/ddh4r4m/wallpaper-collection/main/collection/wallpapers/anime/001.jpg",
        "thumb": "https://media.githubusercontent.com/media/ddh4r4m/wallpaper-collection/main/collection/thumbnails/anime/001.jpg"
      }
    },
    {
      "id": "anime_002",
      "category": "anime",
      "title": "Anime Wallpaper",
      "tags": [
        "anime",
        "wallpaper",
        "hd",
        "high resolution",
        "mobile"
      ],
      "metadata": {
        "dimensions": {
          "width": 2184,
          "height": 3089
        },
        "file_size": 7500202,
        "added_at": "2025-07-16T20:56:14.529346",
        "migrated_from": "/Users/dharamdhurandhar/Developer/AndroidApps/WallpaperCollection/wallpapers/anime/anime_004.jpg"
      },
      "urls": {
        "raw": "https://media.githubusercontent.com/media/ddh4r4m/wallpaper-collection/main/collection/wallpapers/anime/002.jpg",
        "thumb": "https://media.githubusercontent.com/media/ddh4r4m/wallpaper-collection/main/collection/thumbnails/anime/002.jpg"
      }
    },
    {
      "id": "anime_003",
      "category": "anime",
      "title": "Anime Wallpaper",
      "tags": [
        "anime",
        "wallpaper",
        "hd",
        "high resolution",
        "mobile"
      ],
      "metadata": {
        "dimensions": {
          "width": 6000,
          "height": 2571
        },
        "file_size": 7902904,
        "added_at": "2025-07-16T20:56:14.684690",
        "migrated_from": "/Users/dharamdhurandhar/Developer/AndroidApps/WallpaperCollection/wallpapers/anime/anime_005.jpg"
      },
      "urls": {
        "raw": "https://media.githubusercontent.com/media/ddh4r4m/wallpaper-collection/main/collection/wallpapers/anime/003.jpg",
        "thumb": "https://media.githubusercontent.com/media/ddh4r4m/wallpaper-collection/main/collection/thumbnails/anime/003.jpg"
      }
    },
    {
      "id": "anime_004",
      "category": "anime",
      "title": "Anime Wallpaper",
      "tags": [
        "anime",
        "wallpaper",
        "hd",
        "high resolution",
        "mobile"
      ],
      "metadata": {
        "dimensions": {
          "width": 3840,
          "height": 2160
        },
        "file_size": 13502782,
        "added_at": "2025-07-16T20:56:14.883858",
        "migrated_from": "/Users/dharamdhurandhar/Developer/AndroidApps/WallpaperCollection/wallpapers/anime/anime_006.jpg"
      },
      "urls": {
        "raw": "https://media.githubusercontent.com/media/ddh4r4m/wallpaper-collection/main/collection/wallpapers/anime/004.jpg",
        "thumb": "https://media.githubusercontent.com/media/ddh4r4m/wallpaper-collection/main/collection/thumbnails/anime/004.jpg"
      }
    },
    {
      "id": "anime_005",
      "category": "anime",
      "title": "Anime Wallpaper",
      "tags": [
        "anime",
        "wallpaper",
        "hd",
        "high resolution",
        "mobile"
      ],
      "metadata": {
        "dimensions": {
          "width": 6000,
          "height": 2800
        },
        "file_size": 18097715,
        "added_at": "2025-07-16T20:56:15.131120",
        "migrated_from": "/Users/dharamdhurandhar/Developer/AndroidApps/WallpaperCollection/wallpapers/anime/anime_008.jpg"
      },
      "urls": {
        "raw": "https://media.githubusercontent.com/media/ddh4r4m/wallpaper-collection/main/collection/wallpapers/anime/005.jpg",
        "thumb": "https://media.githubusercontent.com/media/ddh4r4m/wallpaper-collection/main/collection/thumbnails/anime/005.jpg"
      }
    },
    {
      "id": "anime_006",
      "category": "anime",
      "title": "Anime Wallpaper",
      "tags": [
        "anime",
        "wallpaper",
        "hd",
        "high resolution",
        "mobile"
      ],
      "metadata": {
        "dimensions": {
          "width": 5640,
          "height": 2400
        },
        "file_size": 2972150,
        "added_at": "2025-07-16T20:56:15.210695",
        "migrated_from": "/Users/dharamdhurandhar/Developer/AndroidApps/WallpaperCollection/wallpapers/anime/anime_010.jpg"
      },
      "urls": {
        "raw": "https://media.githubusercontent.com/media/ddh4r4m/wallpaper-collection/main/collection/wallpapers/anime/006.jpg",
        "thumb": "https://media.githubusercontent.com/media/ddh4r4m/wallpaper-collection/main/collection/thumbnails/anime/006.jpg"
      }
    }
  ]
}