{
  "meta": {
    "version": "1.0",
    "generated_at": "2025-07-17T21:14:17.488868",
    "page": 43,
    "per_page": 15,
    "total_pages": 117,
    "total_count": 1751,
    "count_on_page": 15,
    "categories": 17,
    "has_next": true,
    "has_prev": true,
    "next_page_url": "/api/v1/all/pages/44.json",
    "prev_page_url": "/api/v1/all/pages/42.json"
  },
  "data": [
    {
      "id": "architecture_096",
      "category": "architecture",
      "title": "Architecture Wallpaper 096",
      "tags": [
        "architecture",
        "wallpaper",
        "hd",
        "mobile"
      ],
      "urls": {
        "raw": "https://media.githubusercontent.com/media/ddh4r4m/wallpaper-collection/main/collection/wallpapers/architecture/096.jpg",
        "thumb": "https://media.githubusercontent.com/media/ddh4r4m/wallpaper-collection/main/collection/thumbnails/architecture/096.jpg"
      },
      "metadata": {
        "dimensions": {
          "width": 1080,
          "height": 1920
        },
        "file_size": 54510,
        "format": "JPEG",
        "added_at": "2025-07-17T00:02:50.931733",
        "hash": "4e102d751543ae0c69911b0c477ccc4e",
        "source": "migrated"
      }
    },
    {
      "id": "architecture_097",
      "category": "architecture",
      "title": "Architecture Wallpaper 097",
      "tags": [
        "architecture",
        "wallpaper",
        "hd",
        "mobile"
      ],
      "urls": {
        "raw": "https://media.githubusercontent.com/media/ddh4r4m/wallpaper-collection/main/collection/wallpapers/architecture/097.jpg",
        "thumb": "https://media.githubusercontent.com/media/ddh4r4m/wallpaper-collection/main/collection/thumbnails/architecture/097.jpg"
      },
      "metadata": {
        "dimensions": {
          "width": 1080,
          "height": 1920
        },
        "file_size": 269549,
        "format": "JPEG",
        "added_at": "2025-07-17T00:02:50.987988",
        "hash": "0771d95d664c36297ec068425b76147f",
        "source": "migrated"
      }
    },
    {
      "id": "architecture_098",
      "category": "architecture",
      "title": "Architecture Wallpaper 098",
      "tags": [
        "architecture",
        "wallpaper",
        "hd",
        "mobile"
      ],
      "urls": {
        "raw": "https://media.githubusercontent.com/media/ddh4r4m/wallpaper-collection/main/collection/wallpapers/architecture/098.jpg",
        "thumb": "https://media.githubusercontent.com/media/ddh4r4m/wallpaper-collection/main/collection/thumbnails/architecture/098.jpg"
      },
      "metadata": {
        "dimensions": {
          "width": 1080,
          "height": 1920
        },
        "file_size": 316232,
        "format": "JPEG",
        "added_at": "2025-07-17T00:02:51.048323",
        "hash": "dd53e1821536d68854a7705edb3af2f1",
        "source": "migrated"
      }
    },
    {
      "id": "architecture_099",
      "category": "architecture",
      "title": "Architecture Wallpaper 099",
      "tags": [
        "architecture",
        "wallpaper",
        "hd",
        "mobile"
      ],
      "urls": {
        "raw": "https://media.githubusercontent.com/media/ddh4r4m/wallpaper-collection/main/collection/wallpapers/architecture/099.jpg",
        "thumb": "https://media.githubusercontent.com/media/ddh4r4m/wallpaper-collection/main/collection/thumbnails/architecture/099.jpg"
      },
      "metadata": {
        "dimensions": {
          "width": 1080,
          "height": 1920
        },
        "file_size": 294758,
        "format": "JPEG",
        "added_at": "2025-07-17T00:02:51.106072",
        "hash": "27174a97421d32cf2b93b1a49edaf962",
        "source": "migrated"
      }
    },
    {
      "id": "architecture_100",
      "category": "architecture",
      "title": "Architecture Wallpaper 100",
      "tags": [
        "architecture",
        "wallpaper",
        "hd",
        "mobile"
      ],
      "urls": {
        "raw": "https://media.githubusercontent.com/media/ddh4r4m/wallpaper-collection/main/collection/wallpapers/architecture/100.jpg",
        "thumb": "https://media.githubusercontent.com/media/ddh4r4m/wallpaper-collection/main/collection/thumbnails/architecture/100.jpg"
      },
      "metadata": {
        "dimensions": {
          "width": 1080,
          "height": 1920
        },
        "file_size": 187716,
        "format": "JPEG",
        "added_at": "2025-07-17T00:02:51.157713",
        "hash": "e2ece8c883e32040c38bc8fba272971c",
        "source": "migrated"
      }
    },
    {
      "id": "architecture_101",
      "category": "architecture",
      "title": "Architecture Wallpaper 101",
      "tags": [
        "architecture",
        "wallpaper",
        "hd",
        "mobile"
      ],
      "urls": {
        "raw": "https://media.githubusercontent.com/media/ddh4r4m/wallpaper-collection/main/collection/wallpapers/architecture/101.jpg",
        "thumb": "https://media.githubusercontent.com/media/ddh4r4m/wallpaper-collection/main/collection/thumbnails/architecture/101.jpg"
      },
      "metadata": {
        "dimensions": {
          "width": 1080,
          "height": 1920
        },
        "file_size": 224814,
        "format": "JPEG",
        "added_at": "2025-07-17T00:02:51.211359",
        "hash": "e30cbf9ac2a5b37d6d3afeffcd29daea",
        "source": "migrated"
      }
    },
    {
      "id": "architecture_102",
      "category": "architecture",
      "title": "Architecture Wallpaper 102",
      "tags": [
        "architecture",
        "wallpaper",
        "hd",
        "mobile"
      ],
      "urls": {
        "raw": "https://media.githubusercontent.com/media/ddh4r4m/wallpaper-collection/main/collection/wallpapers/architecture/102.jpg",
        "thumb": "https://media.githubusercontent.com/media/ddh4r4m/wallpaper-collection/main/collection/thumbnails/architecture/102.jpg"
      },
      "metadata": {
        "dimensions": {
          "width": 1080,
          "height": 1920
        },
        "file_size": 425802,
        "format": "JPEG",
        "added_at": "2025-07-17T00:02:51.275837",
        "hash": "727fc06d875e062c718b80846507127a",
        "source": "migrated"
      }
    },
    {
      "id": "architecture_103",
      "category": "architecture",
      "title": "Architecture Wallpaper 103",
      "tags": [
        "architecture",
        "wallpaper",
        "hd",
        "mobile"
      ],
      "urls": {
        "raw": "https://media.githubusercontent.com/media/ddh4r4m/wallpaper-collection/main/collection/wallpapers/architecture/103.jpg",
        "thumb": "https://media.githubusercontent.com/media/ddh4r4m/wallpaper-collection/main/collection/thumbnails/architecture/103.jpg"
      },
      "metadata": {
        "dimensions": {
          "width": 1080,
          "height": 1920
        },
        "file_size": 380380,
        "format": "JPEG",
        "added_at": "2025-07-17T00:02:51.336020",
        "hash": "560836931923b61a96d07c56b63b78d7",
        "source": "migrated"
      }
    },
    {
      "id": "architecture_104",
      "category": "architecture",
      "title": "Architecture Wallpaper 104",
      "tags": [
        "architecture",
        "wallpaper",
        "hd",
        "mobile"
      ],
      "urls": {
        "raw": "https://media.githubusercontent.com/media/ddh4r4m/wallpaper-collection/main/collection/wallpapers/architecture/104.jpg",
        "thumb": "https://media.githubusercontent.com/media/ddh4r4m/wallpaper-collection/main/collection/thumbnails/architecture/104.jpg"
      },
      "metadata": {
        "dimensions": {
          "width": 1080,
          "height": 1920
        },
        "file_size": 571246,
        "format": "JPEG",
        "added_at": "2025-07-17T00:02:51.407877",
        "hash": "cf08f4147c8defa9d3d7d4e1195fc73e",
        "source": "migrated"
      }
    },
    {
      "id": "architecture_105",
      "category": "architecture",
      "title": "Architecture Wallpaper 105",
      "tags": [
        "architecture",
        "wallpaper",
        "hd",
        "mobile"
      ],
      "urls": {
        "raw": "https://media.githubusercontent.com/media/ddh4r4m/wallpaper-collection/main/collection/wallpapers/architecture/105.jpg",
        "thumb": "https://media.githubusercontent.com/media/ddh4r4m/wallpaper-collection/main/collection/thumbnails/architecture/105.jpg"
      },
      "metadata": {
        "dimensions": {
          "width": 1080,
          "height": 1920
        },
        "file_size": 319545,
        "format": "JPEG",
        "added_at": "2025-07-17T00:02:51.468080",
        "hash": "05002f4bd825c4d5d6731fb4f3334a4d",
        "source": "migrated"
      }
    },
    {
      "id": "architecture_106",
      "category": "architecture",
      "title": "Architecture Wallpaper 106",
      "tags": [
        "architecture",
        "wallpaper",
        "hd",
        "mobile"
      ],
      "urls": {
        "raw": "https://media.githubusercontent.com/media/ddh4r4m/wallpaper-collection/main/collection/wallpapers/architecture/106.jpg",
        "thumb": "https://media.githubusercontent.com/media/ddh4r4m/wallpaper-collection/main/collection/thumbnails/architecture/106.jpg"
      },
      "metadata": {
        "dimensions": {
          "width": 1080,
          "height": 1920
        },
        "file_size": 328005,
        "format": "JPEG",
        "added_at": "2025-07-17T00:02:51.527179",
        "hash": "1e8965fa6d149fe59d7a537c65db15d5",
        "source": "migrated"
      }
    },
    {
      "id": "architecture_107",
      "category": "architecture",
      "title": "Architecture Wallpaper 107",
      "tags": [
        "architecture",
        "wallpaper",
        "hd",
        "mobile"
      ],
      "urls": {
        "raw": "https://media.githubusercontent.com/media/ddh4r4m/wallpaper-collection/main/collection/wallpapers/architecture/107.jpg",
        "thumb": "https://media.githubusercontent.com/media/ddh4r4m/wallpaper-collection/main/collection/thumbnails/architecture/107.jpg"
      },
      "metadata": {
        "dimensions": {
          "width": 1080,
          "height": 1920
        },
        "file_size": 317221,
        "format": "JPEG",
        "added_at": "2025-07-17T00:02:51.586976",
        "hash": "4f9a3a62d930151ffc09135cc363c407",
        "source": "migrated"
      }
    },
    {
      "id": "architecture_108",
      "category": "architecture",
      "title": "Architecture Wallpaper 108",
      "tags": [
        "architecture",
        "wallpaper",
        "hd",
        "mobile"
      ],
      "urls": {
        "raw": "https://media.githubusercontent.com/media/ddh4r4m/wallpaper-collection/main/collection/wallpapers/architecture/108.jpg",
        "thumb": "https://media.githubusercontent.com/media/ddh4r4m/wallpaper-collection/main/collection/thumbnails/architecture/108.jpg"
      },
      "metadata": {
        "dimensions": {
          "width": 1080,
          "height": 1920
        },
        "file_size": 242696,
        "format": "JPEG",
        "added_at": "2025-07-17T00:02:51.641947",
        "hash": "7a88d51a4be8687d6945e049ac9bdd92",
        "source": "migrated"
      }
    },
    {
      "id": "architecture_109",
      "category": "architecture",
      "title": "Architecture Wallpaper 109",
      "tags": [
        "architecture",
        "wallpaper",
        "hd",
        "mobile"
      ],
      "urls": {
        "raw": "https://media.githubusercontent.com/media/ddh4r4m/wallpaper-collection/main/collection/wallpapers/architecture/109.jpg",
        "thumb": "https://media.githubusercontent.com/media/ddh4r4m/wallpaper-collection/main/collection/thumbnails/architecture/109.jpg"
      },
      "metadata": {
        "dimensions": {
          "width": 1080,
          "height": 1920
        },
        "file_size": 562169,
        "format": "JPEG",
        "added_at": "2025-07-17T00:02:51.710781",
        "hash": "f9ad6e77362484ed91d1335b142c87b0",
        "source": "migrated"
      }
    },
    {
      "id": "architecture_110",
      "category": "architecture",
      "title": "Architecture Wallpaper 110",
      "tags": [
        "architecture",
        "wallpaper",
        "hd",
        "mobile"
      ],
      "urls": {
        "raw": "https://media.githubusercontent.com/media/ddh4r4m/wallpaper-collection/main/collection/wallpapers/architecture/110.jpg",
        "thumb": "https://media.githubusercontent.com/media/ddh4r4m/wallpaper-collection/main/collection/thumbnails/architecture/110.jpg"
      },
      "metadata": {
        "dimensions": {
          "width": 1080,
          "height": 1920
        },
        "file_size": 415437,
        "format": "JPEG",
        "added_at": "2025-07-17T00:02:51.775050",
        "hash": "530eddc21b80b35c2d6514e852026bba",
        "source": "migrated"
      }
    }
  ]
}