{
  "meta": {
    "version": "1.0",
    "generated_at": "2025-07-28T23:12:02.393375",
    "page": 44,
    "per_page": 15,
    "total_pages": 183,
    "total_count": 2743,
    "count_on_page": 15,
    "categories": 22,
    "has_next": true,
    "has_prev": true,
    "next_page_url": "/api/v1/all/pages/45.json",
    "prev_page_url": "/api/v1/all/pages/43.json"
  },
  "data": [
    {
      "id": "anime_022",
      "category": "anime",
      "title": "Anime Wallpaper",
      "tags": [
        "anime",
        "wallpaper",
        "hd",
        "high resolution",
        "mobile"
      ],
      "metadata": {
        "dimensions": {
          "width": 3600,
          "height": 2250
        },
        "file_size": 2775956,
        "added_at": "2025-07-16T20:56:17.808154",
        "migrated_from": "/Users/dharamdhurandhar/Developer/AndroidApps/WallpaperCollection/wallpapers/anime/anime_029.jpg"
      },
      "urls": {
        "raw": "https://media.githubusercontent.com/media/ddh4r4m/wallpaper-collection/main/collection/wallpapers/anime/022.jpg",
        "thumb": "https://media.githubusercontent.com/media/ddh4r4m/wallpaper-collection/main/collection/thumbnails/anime/022.jpg"
      }
    },
    {
      "id": "anime_023",
      "category": "anime",
      "title": "Anime Wallpaper",
      "tags": [
        "anime",
        "wallpaper",
        "hd",
        "high resolution",
        "mobile"
      ],
      "metadata": {
        "dimensions": {
          "width": 3840,
          "height": 2160
        },
        "file_size": 4296979,
        "added_at": "2025-07-16T20:56:17.898751",
        "migrated_from": "/Users/dharamdhurandhar/Developer/AndroidApps/WallpaperCollection/wallpapers/anime/anime_031.jpg"
      },
      "urls": {
        "raw": "https://media.githubusercontent.com/media/ddh4r4m/wallpaper-collection/main/collection/wallpapers/anime/023.jpg",
        "thumb": "https://media.githubusercontent.com/media/ddh4r4m/wallpaper-collection/main/collection/thumbnails/anime/023.jpg"
      }
    },
    {
      "id": "anime_024",
      "category": "anime",
      "title": "Anime Wallpaper",
      "tags": [
        "anime",
        "wallpaper",
        "hd",
        "high resolution",
        "mobile"
      ],
      "metadata": {
        "dimensions": {
          "width": 3840,
          "height": 2160
        },
        "file_size": 989324,
        "added_at": "2025-07-16T20:56:17.945422",
        "migrated_from": "/Users/dharamdhurandhar/Developer/AndroidApps/WallpaperCollection/wallpapers/anime/anime_033.jpg"
      },
      "urls": {
        "raw": "https://media.githubusercontent.com/media/ddh4r4m/wallpaper-collection/main/collection/wallpapers/anime/024.jpg",
        "thumb": "https://media.githubusercontent.com/media/ddh4r4m/wallpaper-collection/main/collection/thumbnails/anime/024.jpg"
      }
    },
    {
      "id": "anime_025",
      "category": "anime",
      "title": "Anime Wallpaper",
      "tags": [
        "anime",
        "wallpaper",
        "hd",
        "high resolution",
        "mobile"
      ],
      "metadata": {
        "dimensions": {
          "width": 2085,
          "height": 2980
        },
        "file_size": 1514704,
        "added_at": "2025-07-16T20:56:18.058730",
        "migrated_from": "/Users/dharamdhurandhar/Developer/AndroidApps/WallpaperCollection/wallpapers/anime/anime_034.jpg"
      },
      "urls": {
        "raw": "https://media.githubusercontent.com/media/ddh4r4m/wallpaper-collection/main/collection/wallpapers/anime/025.jpg",
        "thumb": "https://media.githubusercontent.com/media/ddh4r4m/wallpaper-collection/main/collection/thumbnails/anime/025.jpg"
      }
    },
    {
      "id": "anime_026",
      "category": "anime",
      "title": "Anime Wallpaper",
      "tags": [
        "anime",
        "wallpaper",
        "hd",
        "high resolution",
        "mobile"
      ],
      "metadata": {
        "dimensions": {
          "width": 3840,
          "height": 2160
        },
        "file_size": 15369161,
        "added_at": "2025-07-16T20:56:18.306774",
        "migrated_from": "/Users/dharamdhurandhar/Developer/AndroidApps/WallpaperCollection/wallpapers/anime/anime_036.jpg"
      },
      "urls": {
        "raw": "https://media.githubusercontent.com/media/ddh4r4m/wallpaper-collection/main/collection/wallpapers/anime/026.jpg",
        "thumb": "https://media.githubusercontent.com/media/ddh4r4m/wallpaper-collection/main/collection/thumbnails/anime/026.jpg"
      }
    },
    {
      "id": "anime_027",
      "category": "anime",
      "title": "Anime Wallpaper",
      "tags": [
        "anime",
        "wallpaper",
        "hd",
        "high resolution",
        "mobile"
      ],
      "metadata": {
        "dimensions": {
          "width": 3840,
          "height": 2160
        },
        "file_size": 14963270,
        "added_at": "2025-07-16T20:56:18.500113",
        "migrated_from": "/Users/dharamdhurandhar/Developer/AndroidApps/WallpaperCollection/wallpapers/anime/anime_037.jpg"
      },
      "urls": {
        "raw": "https://media.githubusercontent.com/media/ddh4r4m/wallpaper-collection/main/collection/wallpapers/anime/027.jpg",
        "thumb": "https://media.githubusercontent.com/media/ddh4r4m/wallpaper-collection/main/collection/thumbnails/anime/027.jpg"
      }
    },
    {
      "id": "anime_028",
      "category": "anime",
      "title": "Anime Wallpaper",
      "tags": [
        "anime",
        "wallpaper",
        "hd",
        "high resolution",
        "mobile"
      ],
      "metadata": {
        "dimensions": {
          "width": 3840,
          "height": 2160
        },
        "file_size": 496847,
        "added_at": "2025-07-16T20:56:18.583495",
        "migrated_from": "/Users/dharamdhurandhar/Developer/AndroidApps/WallpaperCollection/wallpapers/anime/anime_039.jpg"
      },
      "urls": {
        "raw": "https://media.githubusercontent.com/media/ddh4r4m/wallpaper-collection/main/collection/wallpapers/anime/028.jpg",
        "thumb": "https://media.githubusercontent.com/media/ddh4r4m/wallpaper-collection/main/collection/thumbnails/anime/028.jpg"
      }
    },
    {
      "id": "anime_029",
      "category": "anime",
      "title": "Anime Wallpaper",
      "tags": [
        "anime",
        "wallpaper",
        "hd",
        "high resolution",
        "mobile"
      ],
      "metadata": {
        "dimensions": {
          "width": 4500,
          "height": 2500
        },
        "file_size": 2311165,
        "added_at": "2025-07-16T20:56:18.656011",
        "migrated_from": "/Users/dharamdhurandhar/Developer/AndroidApps/WallpaperCollection/wallpapers/anime/anime_040.jpg"
      },
      "urls": {
        "raw": "https://media.githubusercontent.com/media/ddh4r4m/wallpaper-collection/main/collection/wallpapers/anime/029.jpg",
        "thumb": "https://media.githubusercontent.com/media/ddh4r4m/wallpaper-collection/main/collection/thumbnails/anime/029.jpg"
      }
    },
    {
      "id": "anime_030",
      "category": "anime",
      "title": "Anime Wallpaper",
      "tags": [
        "anime",
        "wallpaper",
        "hd",
        "high resolution",
        "mobile"
      ],
      "metadata": {
        "dimensions": {
          "width": 3840,
          "height": 2160
        },
        "file_size": 2300482,
        "added_at": "2025-07-16T20:56:18.793826",
        "migrated_from": "/Users/dharamdhurandhar/Developer/AndroidApps/WallpaperCollection/wallpapers/anime/anime_041.jpg"
      },
      "urls": {
        "raw": "https://media.githubusercontent.com/media/ddh4r4m/wallpaper-collection/main/collection/wallpapers/anime/030.jpg",
        "thumb": "https://media.githubusercontent.com/media/ddh4r4m/wallpaper-collection/main/collection/thumbnails/anime/030.jpg"
      }
    },
    {
      "id": "anime_031",
      "category": "anime",
      "title": "Anime Wallpaper",
      "tags": [
        "anime",
        "wallpaper",
        "hd",
        "high resolution",
        "mobile"
      ],
      "metadata": {
        "dimensions": {
          "width": 6000,
          "height": 2800
        },
        "file_size": 10163528,
        "added_at": "2025-07-16T20:56:18.968354",
        "migrated_from": "/Users/dharamdhurandhar/Developer/AndroidApps/WallpaperCollection/wallpapers/anime/anime_042.jpg"
      },
      "urls": {
        "raw": "https://media.githubusercontent.com/media/ddh4r4m/wallpaper-collection/main/collection/wallpapers/anime/031.jpg",
        "thumb": "https://media.githubusercontent.com/media/ddh4r4m/wallpaper-collection/main/collection/thumbnails/anime/031.jpg"
      }
    },
    {
      "id": "anime_032",
      "category": "anime",
      "title": "Anime Wallpaper",
      "tags": [
        "anime",
        "wallpaper",
        "hd",
        "high resolution",
        "mobile"
      ],
      "metadata": {
        "dimensions": {
          "width": 3253,
          "height": 2071
        },
        "file_size": 1859025,
        "added_at": "2025-07-16T20:56:19.022914",
        "migrated_from": "/Users/dharamdhurandhar/Developer/AndroidApps/WallpaperCollection/wallpapers/anime/anime_043.jpg"
      },
      "urls": {
        "raw": "https://media.githubusercontent.com/media/ddh4r4m/wallpaper-collection/main/collection/wallpapers/anime/032.jpg",
        "thumb": "https://media.githubusercontent.com/media/ddh4r4m/wallpaper-collection/main/collection/thumbnails/anime/032.jpg"
      }
    },
    {
      "id": "anime_033",
      "category": "anime",
      "title": "Anime Wallpaper",
      "tags": [
        "anime",
        "wallpaper",
        "hd",
        "high resolution",
        "mobile"
      ],
      "metadata": {
        "dimensions": {
          "width": 3651,
          "height": 2140
        },
        "file_size": 5485545,
        "added_at": "2025-07-16T20:56:19.120985",
        "migrated_from": "/Users/dharamdhurandhar/Developer/AndroidApps/WallpaperCollection/wallpapers/anime/anime_045.jpg"
      },
      "urls": {
        "raw": "https://media.githubusercontent.com/media/ddh4r4m/wallpaper-collection/main/collection/wallpapers/anime/033.jpg",
        "thumb": "https://media.githubusercontent.com/media/ddh4r4m/wallpaper-collection/main/collection/thumbnails/anime/033.jpg"
      }
    },
    {
      "id": "anime_034",
      "category": "anime",
      "title": "Anime Wallpaper",
      "tags": [
        "anime",
        "wallpaper",
        "hd",
        "high resolution",
        "mobile"
      ],
      "metadata": {
        "dimensions": {
          "width": 3840,
          "height": 2160
        },
        "file_size": 2119796,
        "added_at": "2025-07-16T20:56:19.179733",
        "migrated_from": "/Users/dharamdhurandhar/Developer/AndroidApps/WallpaperCollection/wallpapers/anime/anime_046.jpg"
      },
      "urls": {
        "raw": "https://media.githubusercontent.com/media/ddh4r4m/wallpaper-collection/main/collection/wallpapers/anime/034.jpg",
        "thumb": "https://media.githubusercontent.com/media/ddh4r4m/wallpaper-collection/main/collection/thumbnails/anime/034.jpg"
      }
    },
    {
      "id": "anime_035",
      "category": "anime",
      "title": "Anime Wallpaper",
      "tags": [
        "anime",
        "wallpaper",
        "hd",
        "high resolution",
        "mobile"
      ],
      "metadata": {
        "dimensions": {
          "width": 5640,
          "height": 2400
        },
        "file_size": 1413701,
        "added_at": "2025-07-16T20:56:19.239760",
        "migrated_from": "/Users/dharamdhurandhar/Developer/AndroidApps/WallpaperCollection/wallpapers/anime/anime_047.jpg"
      },
      "urls": {
        "raw": "https://media.githubusercontent.com/media/ddh4r4m/wallpaper-collection/main/collection/wallpapers/anime/035.jpg",
        "thumb": "https://media.githubusercontent.com/media/ddh4r4m/wallpaper-collection/main/collection/thumbnails/anime/035.jpg"
      }
    },
    {
      "id": "anime_036",
      "category": "anime",
      "title": "Anime Wallpaper",
      "tags": [
        "anime",
        "wallpaper",
        "hd",
        "high resolution",
        "mobile"
      ],
      "metadata": {
        "dimensions": {
          "width": 2000,
          "height": 1125
        },
        "file_size": 373815,
        "added_at": "2025-07-16T20:56:19.257449",
        "migrated_from": "/Users/dharamdhurandhar/Developer/AndroidApps/WallpaperCollection/wallpapers/anime/anime_048.jpg"
      },
      "urls": {
        "raw": "https://media.githubusercontent.com/media/ddh4r4m/wallpaper-collection/main/collection/wallpapers/anime/036.jpg",
        "thumb": "https://media.githubusercontent.com/media/ddh4r4m/wallpaper-collection/main/collection/thumbnails/anime/036.jpg"
      }
    }
  ]
}