{
  "meta": {
    "version": "1.0",
    "generated_at": "2025-07-19T12:26:57.111378",
    "page": 46,
    "per_page": 15,
    "total_pages": 160,
    "total_count": 2387,
    "count_on_page": 15,
    "categories": 19,
    "has_next": true,
    "has_prev": true,
    "next_page_url": "/api/v1/all/pages/47.json",
    "prev_page_url": "/api/v1/all/pages/45.json"
  },
  "data": [
    {
      "id": "anime_052",
      "category": "anime",
      "title": "Anime Wallpaper",
      "tags": [
        "anime",
        "wallpaper",
        "hd",
        "high resolution",
        "mobile"
      ],
      "metadata": {
        "dimensions": {
          "width": 4096,
          "height": 2160
        },
        "file_size": 4976241,
        "added_at": "2025-07-16T20:56:21.331145",
        "migrated_from": "/Users/dharamdhurandhar/Developer/AndroidApps/WallpaperCollection/wallpapers/anime/anime_068.jpg"
      },
      "urls": {
        "raw": "https://media.githubusercontent.com/media/ddh4r4m/wallpaper-collection/main/collection/wallpapers/anime/052.jpg",
        "thumb": "https://media.githubusercontent.com/media/ddh4r4m/wallpaper-collection/main/collection/thumbnails/anime/052.jpg"
      }
    },
    {
      "id": "anime_053",
      "category": "anime",
      "title": "Anime Wallpaper",
      "tags": [
        "anime",
        "wallpaper",
        "hd",
        "high resolution",
        "mobile"
      ],
      "metadata": {
        "dimensions": {
          "width": 2896,
          "height": 4096
        },
        "file_size": 7222347,
        "added_at": "2025-07-16T20:56:21.557014",
        "migrated_from": "/Users/dharamdhurandhar/Developer/AndroidApps/WallpaperCollection/wallpapers/anime/anime_069.jpg"
      },
      "urls": {
        "raw": "https://media.githubusercontent.com/media/ddh4r4m/wallpaper-collection/main/collection/wallpapers/anime/053.jpg",
        "thumb": "https://media.githubusercontent.com/media/ddh4r4m/wallpaper-collection/main/collection/thumbnails/anime/053.jpg"
      }
    },
    {
      "id": "anime_054",
      "category": "anime",
      "title": "Anime Wallpaper",
      "tags": [
        "anime",
        "wallpaper",
        "hd",
        "high resolution",
        "mobile"
      ],
      "metadata": {
        "dimensions": {
          "width": 2339,
          "height": 1653
        },
        "file_size": 6322396,
        "added_at": "2025-07-16T20:56:21.688149",
        "migrated_from": "/Users/dharamdhurandhar/Developer/AndroidApps/WallpaperCollection/wallpapers/anime/anime_071.jpg"
      },
      "urls": {
        "raw": "https://media.githubusercontent.com/media/ddh4r4m/wallpaper-collection/main/collection/wallpapers/anime/054.jpg",
        "thumb": "https://media.githubusercontent.com/media/ddh4r4m/wallpaper-collection/main/collection/thumbnails/anime/054.jpg"
      }
    },
    {
      "id": "anime_055",
      "category": "anime",
      "title": "Anime Wallpaper",
      "tags": [
        "anime",
        "wallpaper",
        "hd",
        "high resolution",
        "mobile"
      ],
      "metadata": {
        "dimensions": {
          "width": 5471,
          "height": 3031
        },
        "file_size": 8291796,
        "added_at": "2025-07-16T20:56:21.836582",
        "migrated_from": "/Users/dharamdhurandhar/Developer/AndroidApps/WallpaperCollection/wallpapers/anime/anime_076.jpg"
      },
      "urls": {
        "raw": "https://media.githubusercontent.com/media/ddh4r4m/wallpaper-collection/main/collection/wallpapers/anime/055.jpg",
        "thumb": "https://media.githubusercontent.com/media/ddh4r4m/wallpaper-collection/main/collection/thumbnails/anime/055.jpg"
      }
    },
    {
      "id": "anime_056",
      "category": "anime",
      "title": "Anime Wallpaper",
      "tags": [
        "anime",
        "wallpaper",
        "hd",
        "high resolution",
        "mobile"
      ],
      "metadata": {
        "dimensions": {
          "width": 4036,
          "height": 2692
        },
        "file_size": 3624567,
        "added_at": "2025-07-16T20:56:21.895325",
        "migrated_from": "/Users/dharamdhurandhar/Developer/AndroidApps/WallpaperCollection/wallpapers/anime/anime_080.jpg"
      },
      "urls": {
        "raw": "https://media.githubusercontent.com/media/ddh4r4m/wallpaper-collection/main/collection/wallpapers/anime/056.jpg",
        "thumb": "https://media.githubusercontent.com/media/ddh4r4m/wallpaper-collection/main/collection/thumbnails/anime/056.jpg"
      }
    },
    {
      "id": "anime_057",
      "category": "anime",
      "title": "Anime Wallpaper",
      "tags": [
        "anime",
        "wallpaper",
        "hd",
        "high resolution",
        "mobile"
      ],
      "metadata": {
        "dimensions": {
          "width": 1920,
          "height": 1080
        },
        "file_size": 368881,
        "added_at": "2025-07-16T20:56:21.932228",
        "migrated_from": "/Users/dharamdhurandhar/Developer/AndroidApps/WallpaperCollection/wallpapers/anime/anime_089.jpg"
      },
      "urls": {
        "raw": "https://media.githubusercontent.com/media/ddh4r4m/wallpaper-collection/main/collection/wallpapers/anime/057.jpg",
        "thumb": "https://media.githubusercontent.com/media/ddh4r4m/wallpaper-collection/main/collection/thumbnails/anime/057.jpg"
      }
    },
    {
      "id": "anime_058",
      "category": "anime",
      "title": "Anime Wallpaper",
      "tags": [
        "anime",
        "wallpaper",
        "hd",
        "high resolution",
        "mobile"
      ],
      "metadata": {
        "dimensions": {
          "width": 1920,
          "height": 1080
        },
        "file_size": 2022780,
        "added_at": "2025-07-16T20:56:21.982128",
        "migrated_from": "/Users/dharamdhurandhar/Developer/AndroidApps/WallpaperCollection/wallpapers/anime/anime_094.jpg"
      },
      "urls": {
        "raw": "https://media.githubusercontent.com/media/ddh4r4m/wallpaper-collection/main/collection/wallpapers/anime/058.jpg",
        "thumb": "https://media.githubusercontent.com/media/ddh4r4m/wallpaper-collection/main/collection/thumbnails/anime/058.jpg"
      }
    },
    {
      "id": "anime_059",
      "category": "anime",
      "title": "Anime Wallpaper 059",
      "tags": [
        "anime",
        "wallpaper",
        "hd",
        "mobile"
      ],
      "urls": {
        "raw": "https://media.githubusercontent.com/media/ddh4r4m/wallpaper-collection/main/collection/wallpapers/anime/059.jpg",
        "thumb": "https://media.githubusercontent.com/media/ddh4r4m/wallpaper-collection/main/collection/thumbnails/anime/059.jpg"
      },
      "metadata": {
        "dimensions": {
          "width": 1080,
          "height": 1920
        },
        "file_size": 457199,
        "format": "JPEG",
        "added_at": "2025-07-17T00:02:27.603764",
        "hash": "3c4bb62156945ed2259d44fe1067d6eb",
        "source": "migrated"
      }
    },
    {
      "id": "anime_060",
      "category": "anime",
      "title": "Anime Wallpaper 060",
      "tags": [
        "anime",
        "wallpaper",
        "hd",
        "mobile"
      ],
      "urls": {
        "raw": "https://media.githubusercontent.com/media/ddh4r4m/wallpaper-collection/main/collection/wallpapers/anime/060.jpg",
        "thumb": "https://media.githubusercontent.com/media/ddh4r4m/wallpaper-collection/main/collection/thumbnails/anime/060.jpg"
      },
      "metadata": {
        "dimensions": {
          "width": 1080,
          "height": 1920
        },
        "file_size": 234589,
        "format": "JPEG",
        "added_at": "2025-07-17T00:02:27.845281",
        "hash": "82f3947474ffddad9cac954c6c9a51d5",
        "source": "migrated"
      }
    },
    {
      "id": "anime_061",
      "category": "anime",
      "title": "Anime Wallpaper 061",
      "tags": [
        "anime",
        "wallpaper",
        "hd",
        "mobile"
      ],
      "urls": {
        "raw": "https://media.githubusercontent.com/media/ddh4r4m/wallpaper-collection/main/collection/wallpapers/anime/061.jpg",
        "thumb": "https://media.githubusercontent.com/media/ddh4r4m/wallpaper-collection/main/collection/thumbnails/anime/061.jpg"
      },
      "metadata": {
        "dimensions": {
          "width": 1080,
          "height": 1920
        },
        "file_size": 343723,
        "format": "JPEG",
        "added_at": "2025-07-17T00:02:28.255259",
        "hash": "c3dd102197bc14bc7ac255681d419071",
        "source": "migrated"
      }
    },
    {
      "id": "anime_062",
      "category": "anime",
      "title": "Anime Wallpaper 062",
      "tags": [
        "anime",
        "wallpaper",
        "hd",
        "mobile"
      ],
      "urls": {
        "raw": "https://media.githubusercontent.com/media/ddh4r4m/wallpaper-collection/main/collection/wallpapers/anime/062.jpg",
        "thumb": "https://media.githubusercontent.com/media/ddh4r4m/wallpaper-collection/main/collection/thumbnails/anime/062.jpg"
      },
      "metadata": {
        "dimensions": {
          "width": 1080,
          "height": 1920
        },
        "file_size": 277355,
        "format": "JPEG",
        "added_at": "2025-07-17T00:02:28.628606",
        "hash": "a759c6784230742f519b63f113d331ed",
        "source": "migrated"
      }
    },
    {
      "id": "anime_063",
      "category": "anime",
      "title": "Anime Wallpaper 063",
      "tags": [
        "anime",
        "wallpaper",
        "hd",
        "mobile"
      ],
      "urls": {
        "raw": "https://media.githubusercontent.com/media/ddh4r4m/wallpaper-collection/main/collection/wallpapers/anime/063.jpg",
        "thumb": "https://media.githubusercontent.com/media/ddh4r4m/wallpaper-collection/main/collection/thumbnails/anime/063.jpg"
      },
      "metadata": {
        "dimensions": {
          "width": 1080,
          "height": 1920
        },
        "file_size": 424709,
        "format": "JPEG",
        "added_at": "2025-07-17T00:02:29.133532",
        "hash": "8bfbf9af6fdd00032e0974e4358ac04f",
        "source": "migrated"
      }
    },
    {
      "id": "anime_064",
      "category": "anime",
      "title": "Anime Wallpaper 064",
      "tags": [
        "anime",
        "wallpaper",
        "hd",
        "mobile"
      ],
      "urls": {
        "raw": "https://media.githubusercontent.com/media/ddh4r4m/wallpaper-collection/main/collection/wallpapers/anime/064.jpg",
        "thumb": "https://media.githubusercontent.com/media/ddh4r4m/wallpaper-collection/main/collection/thumbnails/anime/064.jpg"
      },
      "metadata": {
        "dimensions": {
          "width": 1080,
          "height": 1920
        },
        "file_size": 132746,
        "format": "JPEG",
        "added_at": "2025-07-17T00:02:29.411976",
        "hash": "8c5798e5d38244c1c3352b029a4db41f",
        "source": "migrated"
      }
    },
    {
      "id": "anime_065",
      "category": "anime",
      "title": "Anime Wallpaper 065",
      "tags": [
        "anime",
        "wallpaper",
        "hd",
        "mobile"
      ],
      "urls": {
        "raw": "https://media.githubusercontent.com/media/ddh4r4m/wallpaper-collection/main/collection/wallpapers/anime/065.jpg",
        "thumb": "https://media.githubusercontent.com/media/ddh4r4m/wallpaper-collection/main/collection/thumbnails/anime/065.jpg"
      },
      "metadata": {
        "dimensions": {
          "width": 1080,
          "height": 1920
        },
        "file_size": 292081,
        "format": "JPEG",
        "added_at": "2025-07-17T00:02:29.573619",
        "hash": "f15d06899f9cb0e36a00396073e6c61c",
        "source": "migrated"
      }
    },
    {
      "id": "anime_066",
      "category": "anime",
      "title": "Anime Wallpaper 066",
      "tags": [
        "anime",
        "wallpaper",
        "hd",
        "mobile"
      ],
      "urls": {
        "raw": "https://media.githubusercontent.com/media/ddh4r4m/wallpaper-collection/main/collection/wallpapers/anime/066.jpg",
        "thumb": "https://media.githubusercontent.com/media/ddh4r4m/wallpaper-collection/main/collection/thumbnails/anime/066.jpg"
      },
      "metadata": {
        "dimensions": {
          "width": 1080,
          "height": 1920
        },
        "file_size": 161576,
        "format": "JPEG",
        "added_at": "2025-07-17T00:02:29.942220",
        "hash": "263b742018a72bc5aa9434516a062bae",
        "source": "migrated"
      }
    }
  ]
}