{
  "meta": {
    "version": "1.0",
    "generated_at": "2025-07-17T21:14:17.488868",
    "page": 47,
    "per_page": 15,
    "total_pages": 117,
    "total_count": 1751,
    "count_on_page": 15,
    "categories": 17,
    "has_next": true,
    "has_prev": true,
    "next_page_url": "/api/v1/all/pages/48.json",
    "prev_page_url": "/api/v1/all/pages/46.json"
  },
  "data": [
    {
      "id": "architecture_156",
      "category": "architecture",
      "title": "Architecture Wallpaper 156",
      "tags": [
        "architecture",
        "wallpaper",
        "hd",
        "mobile"
      ],
      "urls": {
        "raw": "https://media.githubusercontent.com/media/ddh4r4m/wallpaper-collection/main/collection/wallpapers/architecture/156.jpg",
        "thumb": "https://media.githubusercontent.com/media/ddh4r4m/wallpaper-collection/main/collection/thumbnails/architecture/156.jpg"
      },
      "metadata": {
        "dimensions": {
          "width": 1080,
          "height": 1920
        },
        "file_size": 191360,
        "format": "JPEG",
        "added_at": "2025-07-17T00:02:54.600071",
        "hash": "f10bff14dd6c64631baf57423f499c96",
        "source": "migrated"
      }
    },
    {
      "id": "architecture_157",
      "category": "architecture",
      "title": "Architecture Wallpaper 157",
      "tags": [
        "architecture",
        "wallpaper",
        "hd",
        "mobile"
      ],
      "urls": {
        "raw": "https://media.githubusercontent.com/media/ddh4r4m/wallpaper-collection/main/collection/wallpapers/architecture/157.jpg",
        "thumb": "https://media.githubusercontent.com/media/ddh4r4m/wallpaper-collection/main/collection/thumbnails/architecture/157.jpg"
      },
      "metadata": {
        "dimensions": {
          "width": 1080,
          "height": 1920
        },
        "file_size": 190202,
        "format": "JPEG",
        "added_at": "2025-07-17T00:02:54.652308",
        "hash": "2dc153dc1ec5e0f322b877cae97350e7",
        "source": "migrated"
      }
    },
    {
      "id": "architecture_158",
      "category": "architecture",
      "title": "Architecture Wallpaper 158",
      "tags": [
        "architecture",
        "wallpaper",
        "hd",
        "mobile"
      ],
      "urls": {
        "raw": "https://media.githubusercontent.com/media/ddh4r4m/wallpaper-collection/main/collection/wallpapers/architecture/158.jpg",
        "thumb": "https://media.githubusercontent.com/media/ddh4r4m/wallpaper-collection/main/collection/thumbnails/architecture/158.jpg"
      },
      "metadata": {
        "dimensions": {
          "width": 1080,
          "height": 1920
        },
        "file_size": 177872,
        "format": "JPEG",
        "added_at": "2025-07-17T00:02:54.703386",
        "hash": "38f963492f8e91da48a16af1cf1a7862",
        "source": "migrated"
      }
    },
    {
      "id": "architecture_159",
      "category": "architecture",
      "title": "Architecture Wallpaper 159",
      "tags": [
        "architecture",
        "wallpaper",
        "hd",
        "mobile"
      ],
      "urls": {
        "raw": "https://media.githubusercontent.com/media/ddh4r4m/wallpaper-collection/main/collection/wallpapers/architecture/159.jpg",
        "thumb": "https://media.githubusercontent.com/media/ddh4r4m/wallpaper-collection/main/collection/thumbnails/architecture/159.jpg"
      },
      "metadata": {
        "dimensions": {
          "width": 1080,
          "height": 1920
        },
        "file_size": 220638,
        "format": "JPEG",
        "added_at": "2025-07-17T00:02:54.756204",
        "hash": "3f59c67d6ec067ce2a020fb3dc60ea63",
        "source": "migrated"
      }
    },
    {
      "id": "architecture_160",
      "category": "architecture",
      "title": "Architecture Wallpaper 160",
      "tags": [
        "architecture",
        "wallpaper",
        "hd",
        "mobile"
      ],
      "urls": {
        "raw": "https://media.githubusercontent.com/media/ddh4r4m/wallpaper-collection/main/collection/wallpapers/architecture/160.jpg",
        "thumb": "https://media.githubusercontent.com/media/ddh4r4m/wallpaper-collection/main/collection/thumbnails/architecture/160.jpg"
      },
      "metadata": {
        "dimensions": {
          "width": 1080,
          "height": 1920
        },
        "file_size": 228044,
        "format": "JPEG",
        "added_at": "2025-07-17T00:02:54.808114",
        "hash": "058959f885bdb72ebd5a63f5ecedf46b",
        "source": "migrated"
      }
    },
    {
      "id": "architecture_161",
      "category": "architecture",
      "title": "Architecture Wallpaper 161",
      "tags": [
        "architecture",
        "wallpaper",
        "hd",
        "mobile"
      ],
      "urls": {
        "raw": "https://media.githubusercontent.com/media/ddh4r4m/wallpaper-collection/main/collection/wallpapers/architecture/161.jpg",
        "thumb": "https://media.githubusercontent.com/media/ddh4r4m/wallpaper-collection/main/collection/thumbnails/architecture/161.jpg"
      },
      "metadata": {
        "dimensions": {
          "width": 1080,
          "height": 1920
        },
        "file_size": 115510,
        "format": "JPEG",
        "added_at": "2025-07-17T00:02:54.855228",
        "hash": "fe6548e67bde545d0b98b18f1437ad0e",
        "source": "migrated"
      }
    },
    {
      "id": "architecture_162",
      "category": "architecture",
      "title": "Architecture Wallpaper 162",
      "tags": [
        "architecture",
        "wallpaper",
        "hd",
        "mobile"
      ],
      "urls": {
        "raw": "https://media.githubusercontent.com/media/ddh4r4m/wallpaper-collection/main/collection/wallpapers/architecture/162.jpg",
        "thumb": "https://media.githubusercontent.com/media/ddh4r4m/wallpaper-collection/main/collection/thumbnails/architecture/162.jpg"
      },
      "metadata": {
        "dimensions": {
          "width": 1080,
          "height": 1920
        },
        "file_size": 405830,
        "format": "JPEG",
        "added_at": "2025-07-17T00:02:54.918946",
        "hash": "2c1d452e90eb396963d7755be0b8abf6",
        "source": "migrated"
      }
    },
    {
      "id": "architecture_163",
      "category": "architecture",
      "title": "Architecture Wallpaper 163",
      "tags": [
        "architecture",
        "wallpaper",
        "hd",
        "mobile"
      ],
      "urls": {
        "raw": "https://media.githubusercontent.com/media/ddh4r4m/wallpaper-collection/main/collection/wallpapers/architecture/163.jpg",
        "thumb": "https://media.githubusercontent.com/media/ddh4r4m/wallpaper-collection/main/collection/thumbnails/architecture/163.jpg"
      },
      "metadata": {
        "dimensions": {
          "width": 1080,
          "height": 1920
        },
        "file_size": 422176,
        "format": "JPEG",
        "added_at": "2025-07-17T00:02:54.984904",
        "hash": "1b90362d79ea501031c22c0f78a45bb3",
        "source": "migrated"
      }
    },
    {
      "id": "architecture_164",
      "category": "architecture",
      "title": "Architecture Wallpaper 164",
      "tags": [
        "architecture",
        "wallpaper",
        "hd",
        "mobile"
      ],
      "urls": {
        "raw": "https://media.githubusercontent.com/media/ddh4r4m/wallpaper-collection/main/collection/wallpapers/architecture/164.jpg",
        "thumb": "https://media.githubusercontent.com/media/ddh4r4m/wallpaper-collection/main/collection/thumbnails/architecture/164.jpg"
      },
      "metadata": {
        "dimensions": {
          "width": 1080,
          "height": 1920
        },
        "file_size": 253860,
        "format": "JPEG",
        "added_at": "2025-07-17T00:02:55.043143",
        "hash": "8b4f4962bd7d0be1d9d88dc609b381ed",
        "source": "migrated"
      }
    },
    {
      "id": "architecture_165",
      "category": "architecture",
      "title": "Architecture Wallpaper 165",
      "tags": [
        "architecture",
        "wallpaper",
        "hd",
        "mobile"
      ],
      "urls": {
        "raw": "https://media.githubusercontent.com/media/ddh4r4m/wallpaper-collection/main/collection/wallpapers/architecture/165.jpg",
        "thumb": "https://media.githubusercontent.com/media/ddh4r4m/wallpaper-collection/main/collection/thumbnails/architecture/165.jpg"
      },
      "metadata": {
        "dimensions": {
          "width": 1080,
          "height": 1920
        },
        "file_size": 133002,
        "format": "JPEG",
        "added_at": "2025-07-17T00:02:55.091171",
        "hash": "744968bfacbad298feef6ab1e974ff0d",
        "source": "migrated"
      }
    },
    {
      "id": "architecture_166",
      "category": "architecture",
      "title": "Architecture Wallpaper 166",
      "tags": [
        "architecture",
        "wallpaper",
        "hd",
        "mobile"
      ],
      "urls": {
        "raw": "https://media.githubusercontent.com/media/ddh4r4m/wallpaper-collection/main/collection/wallpapers/architecture/166.jpg",
        "thumb": "https://media.githubusercontent.com/media/ddh4r4m/wallpaper-collection/main/collection/thumbnails/architecture/166.jpg"
      },
      "metadata": {
        "dimensions": {
          "width": 1080,
          "height": 1920
        },
        "file_size": 354808,
        "format": "JPEG",
        "added_at": "2025-07-17T00:02:55.153239",
        "hash": "347681a1036e3e6798ebba0709094600",
        "source": "migrated"
      }
    },
    {
      "id": "architecture_167",
      "category": "architecture",
      "title": "Architecture Wallpaper 167",
      "tags": [
        "architecture",
        "wallpaper",
        "hd",
        "mobile"
      ],
      "urls": {
        "raw": "https://media.githubusercontent.com/media/ddh4r4m/wallpaper-collection/main/collection/wallpapers/architecture/167.jpg",
        "thumb": "https://media.githubusercontent.com/media/ddh4r4m/wallpaper-collection/main/collection/thumbnails/architecture/167.jpg"
      },
      "metadata": {
        "dimensions": {
          "width": 1080,
          "height": 1920
        },
        "file_size": 200626,
        "format": "JPEG",
        "added_at": "2025-07-17T00:02:55.205675",
        "hash": "0403bae006b7b22c12ef3445895a3ac3",
        "source": "migrated"
      }
    },
    {
      "id": "architecture_168",
      "category": "architecture",
      "title": "Architecture Wallpaper 168",
      "tags": [
        "architecture",
        "wallpaper",
        "hd",
        "mobile"
      ],
      "urls": {
        "raw": "https://media.githubusercontent.com/media/ddh4r4m/wallpaper-collection/main/collection/wallpapers/architecture/168.jpg",
        "thumb": "https://media.githubusercontent.com/media/ddh4r4m/wallpaper-collection/main/collection/thumbnails/architecture/168.jpg"
      },
      "metadata": {
        "dimensions": {
          "width": 1080,
          "height": 1920
        },
        "file_size": 286895,
        "format": "JPEG",
        "added_at": "2025-07-17T00:02:55.263350",
        "hash": "e755bd2f51196b8680f6ebb11ce3e45c",
        "source": "migrated"
      }
    },
    {
      "id": "architecture_169",
      "category": "architecture",
      "title": "Architecture Wallpaper 169",
      "tags": [
        "architecture",
        "wallpaper",
        "hd",
        "mobile"
      ],
      "urls": {
        "raw": "https://media.githubusercontent.com/media/ddh4r4m/wallpaper-collection/main/collection/wallpapers/architecture/169.jpg",
        "thumb": "https://media.githubusercontent.com/media/ddh4r4m/wallpaper-collection/main/collection/thumbnails/architecture/169.jpg"
      },
      "metadata": {
        "dimensions": {
          "width": 1080,
          "height": 1920
        },
        "file_size": 548630,
        "format": "JPEG",
        "added_at": "2025-07-17T00:02:55.333153",
        "hash": "ea7762980cadd422ed9004a725c02a77",
        "source": "migrated"
      }
    },
    {
      "id": "architecture_170",
      "category": "architecture",
      "title": "Architecture Wallpaper 170",
      "tags": [
        "architecture",
        "wallpaper",
        "hd",
        "mobile"
      ],
      "urls": {
        "raw": "https://media.githubusercontent.com/media/ddh4r4m/wallpaper-collection/main/collection/wallpapers/architecture/170.jpg",
        "thumb": "https://media.githubusercontent.com/media/ddh4r4m/wallpaper-collection/main/collection/thumbnails/architecture/170.jpg"
      },
      "metadata": {
        "dimensions": {
          "width": 1080,
          "height": 1920
        },
        "file_size": 556993,
        "format": "JPEG",
        "added_at": "2025-07-17T00:02:55.404611",
        "hash": "84dada6a68d8d0e1c55cd063fe44dfaf",
        "source": "migrated"
      }
    }
  ]
}