{
  "meta": {
    "version": "1.0",
    "generated_at": "2025-07-17T21:14:17.488868",
    "page": 48,
    "per_page": 15,
    "total_pages": 117,
    "total_count": 1751,
    "count_on_page": 15,
    "categories": 17,
    "has_next": true,
    "has_prev": true,
    "next_page_url": "/api/v1/all/pages/49.json",
    "prev_page_url": "/api/v1/all/pages/47.json"
  },
  "data": [
    {
      "id": "architecture_171",
      "category": "architecture",
      "title": "Architecture Wallpaper 171",
      "tags": [
        "architecture",
        "wallpaper",
        "hd",
        "mobile"
      ],
      "urls": {
        "raw": "https://media.githubusercontent.com/media/ddh4r4m/wallpaper-collection/main/collection/wallpapers/architecture/171.jpg",
        "thumb": "https://media.githubusercontent.com/media/ddh4r4m/wallpaper-collection/main/collection/thumbnails/architecture/171.jpg"
      },
      "metadata": {
        "dimensions": {
          "width": 1080,
          "height": 1920
        },
        "file_size": 227970,
        "format": "JPEG",
        "added_at": "2025-07-17T00:02:55.456674",
        "hash": "e590c11ac3715bccdb921bc155c15933",
        "source": "migrated"
      }
    },
    {
      "id": "architecture_172",
      "category": "architecture",
      "title": "Architecture Wallpaper 172",
      "tags": [
        "architecture",
        "wallpaper",
        "hd",
        "mobile"
      ],
      "urls": {
        "raw": "https://media.githubusercontent.com/media/ddh4r4m/wallpaper-collection/main/collection/wallpapers/architecture/172.jpg",
        "thumb": "https://media.githubusercontent.com/media/ddh4r4m/wallpaper-collection/main/collection/thumbnails/architecture/172.jpg"
      },
      "metadata": {
        "dimensions": {
          "width": 1080,
          "height": 1920
        },
        "file_size": 395016,
        "format": "JPEG",
        "added_at": "2025-07-17T00:02:55.518328",
        "hash": "ce0fba0efa9ad1dd011ae8d8bce7aac2",
        "source": "migrated"
      }
    },
    {
      "id": "architecture_173",
      "category": "architecture",
      "title": "Architecture Wallpaper 173",
      "tags": [
        "architecture",
        "wallpaper",
        "hd",
        "mobile"
      ],
      "urls": {
        "raw": "https://media.githubusercontent.com/media/ddh4r4m/wallpaper-collection/main/collection/wallpapers/architecture/173.jpg",
        "thumb": "https://media.githubusercontent.com/media/ddh4r4m/wallpaper-collection/main/collection/thumbnails/architecture/173.jpg"
      },
      "metadata": {
        "dimensions": {
          "width": 1080,
          "height": 1920
        },
        "file_size": 413244,
        "format": "JPEG",
        "added_at": "2025-07-17T00:02:55.581788",
        "hash": "8cf11ff1fbddad1c06a99963b9c27642",
        "source": "migrated"
      }
    },
    {
      "id": "architecture_174",
      "category": "architecture",
      "title": "Architecture Wallpaper 174",
      "tags": [
        "architecture",
        "wallpaper",
        "hd",
        "mobile"
      ],
      "urls": {
        "raw": "https://media.githubusercontent.com/media/ddh4r4m/wallpaper-collection/main/collection/wallpapers/architecture/174.jpg",
        "thumb": "https://media.githubusercontent.com/media/ddh4r4m/wallpaper-collection/main/collection/thumbnails/architecture/174.jpg"
      },
      "metadata": {
        "dimensions": {
          "width": 1080,
          "height": 1920
        },
        "file_size": 202776,
        "format": "JPEG",
        "added_at": "2025-07-17T00:02:55.634296",
        "hash": "20f2773fa21b3238b1b82a15915d2c67",
        "source": "migrated"
      }
    },
    {
      "id": "architecture_175",
      "category": "architecture",
      "title": "Architecture Wallpaper 175",
      "tags": [
        "architecture",
        "wallpaper",
        "hd",
        "mobile"
      ],
      "urls": {
        "raw": "https://media.githubusercontent.com/media/ddh4r4m/wallpaper-collection/main/collection/wallpapers/architecture/175.jpg",
        "thumb": "https://media.githubusercontent.com/media/ddh4r4m/wallpaper-collection/main/collection/thumbnails/architecture/175.jpg"
      },
      "metadata": {
        "dimensions": {
          "width": 1080,
          "height": 1920
        },
        "file_size": 214334,
        "format": "JPEG",
        "added_at": "2025-07-17T00:02:55.687609",
        "hash": "f1cab9f67c4edf6ce4613d458139c3f6",
        "source": "migrated"
      }
    },
    {
      "id": "architecture_176",
      "category": "architecture",
      "title": "Architecture Wallpaper 176",
      "tags": [
        "architecture",
        "wallpaper",
        "hd",
        "mobile"
      ],
      "urls": {
        "raw": "https://media.githubusercontent.com/media/ddh4r4m/wallpaper-collection/main/collection/wallpapers/architecture/176.jpg",
        "thumb": "https://media.githubusercontent.com/media/ddh4r4m/wallpaper-collection/main/collection/thumbnails/architecture/176.jpg"
      },
      "metadata": {
        "dimensions": {
          "width": 1080,
          "height": 1920
        },
        "file_size": 393719,
        "format": "JPEG",
        "added_at": "2025-07-17T00:02:55.749800",
        "hash": "b06bdd52a28d69ad3ef384eecf9f9d64",
        "source": "migrated"
      }
    },
    {
      "id": "architecture_177",
      "category": "architecture",
      "title": "Architecture Wallpaper 177",
      "tags": [
        "architecture",
        "wallpaper",
        "hd",
        "mobile"
      ],
      "urls": {
        "raw": "https://media.githubusercontent.com/media/ddh4r4m/wallpaper-collection/main/collection/wallpapers/architecture/177.jpg",
        "thumb": "https://media.githubusercontent.com/media/ddh4r4m/wallpaper-collection/main/collection/thumbnails/architecture/177.jpg"
      },
      "metadata": {
        "dimensions": {
          "width": 1080,
          "height": 1920
        },
        "file_size": 359795,
        "format": "JPEG",
        "added_at": "2025-07-17T00:02:55.809878",
        "hash": "5e88b8b0458284d1bace5a2f59aa86da",
        "source": "migrated"
      }
    },
    {
      "id": "architecture_178",
      "category": "architecture",
      "title": "Architecture Wallpaper 178",
      "tags": [
        "architecture",
        "wallpaper",
        "hd",
        "mobile"
      ],
      "urls": {
        "raw": "https://media.githubusercontent.com/media/ddh4r4m/wallpaper-collection/main/collection/wallpapers/architecture/178.jpg",
        "thumb": "https://media.githubusercontent.com/media/ddh4r4m/wallpaper-collection/main/collection/thumbnails/architecture/178.jpg"
      },
      "metadata": {
        "dimensions": {
          "width": 1080,
          "height": 1920
        },
        "file_size": 301083,
        "format": "JPEG",
        "added_at": "2025-07-17T00:02:55.868458",
        "hash": "d26b20c3249570d1d47fb9ac2b3cc452",
        "source": "migrated"
      }
    },
    {
      "id": "architecture_179",
      "category": "architecture",
      "title": "Architecture Wallpaper 179",
      "tags": [
        "architecture",
        "wallpaper",
        "hd",
        "mobile"
      ],
      "urls": {
        "raw": "https://media.githubusercontent.com/media/ddh4r4m/wallpaper-collection/main/collection/wallpapers/architecture/179.jpg",
        "thumb": "https://media.githubusercontent.com/media/ddh4r4m/wallpaper-collection/main/collection/thumbnails/architecture/179.jpg"
      },
      "metadata": {
        "dimensions": {
          "width": 1080,
          "height": 1920
        },
        "file_size": 301893,
        "format": "JPEG",
        "added_at": "2025-07-17T00:02:55.926538",
        "hash": "409e3cac078bb162744b76f6c6194f7f",
        "source": "migrated"
      }
    },
    {
      "id": "architecture_180",
      "category": "architecture",
      "title": "Architecture Wallpaper 180",
      "tags": [
        "architecture",
        "wallpaper",
        "hd",
        "mobile"
      ],
      "urls": {
        "raw": "https://media.githubusercontent.com/media/ddh4r4m/wallpaper-collection/main/collection/wallpapers/architecture/180.jpg",
        "thumb": "https://media.githubusercontent.com/media/ddh4r4m/wallpaper-collection/main/collection/thumbnails/architecture/180.jpg"
      },
      "metadata": {
        "dimensions": {
          "width": 1080,
          "height": 1920
        },
        "file_size": 175710,
        "format": "JPEG",
        "added_at": "2025-07-17T00:02:55.979332",
        "hash": "d73c61f8edf499f97b6eb847d4b345ae",
        "source": "migrated"
      }
    },
    {
      "id": "architecture_181",
      "category": "architecture",
      "title": "Architecture Wallpaper 181",
      "tags": [
        "architecture",
        "wallpaper",
        "hd",
        "mobile"
      ],
      "urls": {
        "raw": "https://media.githubusercontent.com/media/ddh4r4m/wallpaper-collection/main/collection/wallpapers/architecture/181.jpg",
        "thumb": "https://media.githubusercontent.com/media/ddh4r4m/wallpaper-collection/main/collection/thumbnails/architecture/181.jpg"
      },
      "metadata": {
        "dimensions": {
          "width": 1080,
          "height": 1920
        },
        "file_size": 624396,
        "format": "JPEG",
        "added_at": "2025-07-17T00:02:56.053160",
        "hash": "b4c8379c87d6ffc265102af0b748e32b",
        "source": "migrated"
      }
    },
    {
      "id": "architecture_182",
      "category": "architecture",
      "title": "Architecture Wallpaper 182",
      "tags": [
        "architecture",
        "wallpaper",
        "hd",
        "mobile"
      ],
      "urls": {
        "raw": "https://media.githubusercontent.com/media/ddh4r4m/wallpaper-collection/main/collection/wallpapers/architecture/182.jpg",
        "thumb": "https://media.githubusercontent.com/media/ddh4r4m/wallpaper-collection/main/collection/thumbnails/architecture/182.jpg"
      },
      "metadata": {
        "dimensions": {
          "width": 1080,
          "height": 1920
        },
        "file_size": 217171,
        "format": "JPEG",
        "added_at": "2025-07-17T00:02:56.107477",
        "hash": "40f5961417213d8012a92ba74f3b04bc",
        "source": "migrated"
      }
    },
    {
      "id": "architecture_183",
      "category": "architecture",
      "title": "Architecture Wallpaper 183",
      "tags": [
        "architecture",
        "wallpaper",
        "hd",
        "mobile"
      ],
      "urls": {
        "raw": "https://media.githubusercontent.com/media/ddh4r4m/wallpaper-collection/main/collection/wallpapers/architecture/183.jpg",
        "thumb": "https://media.githubusercontent.com/media/ddh4r4m/wallpaper-collection/main/collection/thumbnails/architecture/183.jpg"
      },
      "metadata": {
        "dimensions": {
          "width": 1080,
          "height": 1920
        },
        "file_size": 216416,
        "format": "JPEG",
        "added_at": "2025-07-17T00:02:56.160372",
        "hash": "03524c2600501566977e5476ffc61ba4",
        "source": "migrated"
      }
    },
    {
      "id": "architecture_184",
      "category": "architecture",
      "title": "Architecture Wallpaper 184",
      "tags": [
        "architecture",
        "wallpaper",
        "hd",
        "mobile"
      ],
      "urls": {
        "raw": "https://media.githubusercontent.com/media/ddh4r4m/wallpaper-collection/main/collection/wallpapers/architecture/184.jpg",
        "thumb": "https://media.githubusercontent.com/media/ddh4r4m/wallpaper-collection/main/collection/thumbnails/architecture/184.jpg"
      },
      "metadata": {
        "dimensions": {
          "width": 1080,
          "height": 1920
        },
        "file_size": 498644,
        "format": "JPEG",
        "added_at": "2025-07-17T00:02:56.226654",
        "hash": "ed273bd2be54f87577baa2298c9b14a1",
        "source": "migrated"
      }
    },
    {
      "id": "architecture_185",
      "category": "architecture",
      "title": "Architecture Wallpaper 185",
      "tags": [
        "architecture",
        "wallpaper",
        "hd",
        "mobile"
      ],
      "urls": {
        "raw": "https://media.githubusercontent.com/media/ddh4r4m/wallpaper-collection/main/collection/wallpapers/architecture/185.jpg",
        "thumb": "https://media.githubusercontent.com/media/ddh4r4m/wallpaper-collection/main/collection/thumbnails/architecture/185.jpg"
      },
      "metadata": {
        "dimensions": {
          "width": 1080,
          "height": 1920
        },
        "file_size": 374074,
        "format": "JPEG",
        "added_at": "2025-07-17T00:02:56.291398",
        "hash": "fb98a7074778119059bc98904ad0f2dc",
        "source": "migrated"
      }
    }
  ]
}