{
  "meta": {
    "version": "1.0",
    "generated_at": "2025-07-28T23:12:02.393375",
    "page": 49,
    "per_page": 15,
    "total_pages": 183,
    "total_count": 2743,
    "count_on_page": 15,
    "categories": 22,
    "has_next": true,
    "has_prev": true,
    "next_page_url": "/api/v1/all/pages/50.json",
    "prev_page_url": "/api/v1/all/pages/48.json"
  },
  "data": [
    {
      "id": "anime_097",
      "category": "anime",
      "title": "Anime Wallpaper 097",
      "tags": [
        "anime",
        "wallpaper",
        "hd",
        "mobile"
      ],
      "urls": {
        "raw": "https://media.githubusercontent.com/media/ddh4r4m/wallpaper-collection/main/collection/wallpapers/anime/097.jpg",
        "thumb": "https://media.githubusercontent.com/media/ddh4r4m/wallpaper-collection/main/collection/thumbnails/anime/097.jpg"
      },
      "metadata": {
        "dimensions": {
          "width": 1080,
          "height": 1920
        },
        "file_size": 237002,
        "format": "JPEG",
        "added_at": "2025-07-17T00:02:39.071187",
        "hash": "27dad95354794b51901ef7760ccc9b28",
        "source": "migrated"
      }
    },
    {
      "id": "anime_098",
      "category": "anime",
      "title": "Anime Wallpaper 098",
      "tags": [
        "anime",
        "wallpaper",
        "hd",
        "mobile"
      ],
      "urls": {
        "raw": "https://media.githubusercontent.com/media/ddh4r4m/wallpaper-collection/main/collection/wallpapers/anime/098.jpg",
        "thumb": "https://media.githubusercontent.com/media/ddh4r4m/wallpaper-collection/main/collection/thumbnails/anime/098.jpg"
      },
      "metadata": {
        "dimensions": {
          "width": 1080,
          "height": 1920
        },
        "file_size": 75246,
        "format": "JPEG",
        "added_at": "2025-07-17T00:02:39.345016",
        "hash": "3e542dad1eb0ffc97a4f6eabb97a1d89",
        "source": "migrated"
      }
    },
    {
      "id": "anime_099",
      "category": "anime",
      "title": "Anime Wallpaper 099",
      "tags": [
        "anime",
        "wallpaper",
        "hd",
        "mobile"
      ],
      "urls": {
        "raw": "https://media.githubusercontent.com/media/ddh4r4m/wallpaper-collection/main/collection/wallpapers/anime/099.jpg",
        "thumb": "https://media.githubusercontent.com/media/ddh4r4m/wallpaper-collection/main/collection/thumbnails/anime/099.jpg"
      },
      "metadata": {
        "dimensions": {
          "width": 1080,
          "height": 1920
        },
        "file_size": 106813,
        "format": "JPEG",
        "added_at": "2025-07-17T00:02:39.556618",
        "hash": "3730158a88a82e9b9153703542df0d20",
        "source": "migrated"
      }
    },
    {
      "id": "anime_100",
      "category": "anime",
      "title": "Anime Wallpaper 100",
      "tags": [
        "anime",
        "wallpaper",
        "hd",
        "mobile"
      ],
      "urls": {
        "raw": "https://media.githubusercontent.com/media/ddh4r4m/wallpaper-collection/main/collection/wallpapers/anime/100.jpg",
        "thumb": "https://media.githubusercontent.com/media/ddh4r4m/wallpaper-collection/main/collection/thumbnails/anime/100.jpg"
      },
      "metadata": {
        "dimensions": {
          "width": 1080,
          "height": 1920
        },
        "file_size": 101522,
        "format": "JPEG",
        "added_at": "2025-07-17T00:02:39.728637",
        "hash": "c192c5a32739978decec6bdbd6762d87",
        "source": "migrated"
      }
    },
    {
      "id": "anime_101",
      "category": "anime",
      "title": "Anime Wallpaper 101",
      "tags": [
        "anime",
        "wallpaper",
        "hd",
        "mobile"
      ],
      "urls": {
        "raw": "https://media.githubusercontent.com/media/ddh4r4m/wallpaper-collection/main/collection/wallpapers/anime/101.jpg",
        "thumb": "https://media.githubusercontent.com/media/ddh4r4m/wallpaper-collection/main/collection/thumbnails/anime/101.jpg"
      },
      "metadata": {
        "dimensions": {
          "width": 1080,
          "height": 1920
        },
        "file_size": 367954,
        "format": "JPEG",
        "added_at": "2025-07-17T00:02:40.128557",
        "hash": "367f68a26201c177f6ea080775ad21ad",
        "source": "migrated"
      }
    },
    {
      "id": "anime_102",
      "category": "anime",
      "title": "Anime Wallpaper 102",
      "tags": [
        "anime",
        "wallpaper",
        "hd",
        "mobile"
      ],
      "urls": {
        "raw": "https://media.githubusercontent.com/media/ddh4r4m/wallpaper-collection/main/collection/wallpapers/anime/102.jpg",
        "thumb": "https://media.githubusercontent.com/media/ddh4r4m/wallpaper-collection/main/collection/thumbnails/anime/102.jpg"
      },
      "metadata": {
        "dimensions": {
          "width": 1080,
          "height": 1920
        },
        "file_size": 118278,
        "format": "JPEG",
        "added_at": "2025-07-17T00:02:40.313910",
        "hash": "d5387e7d84c74c01a1af296688174127",
        "source": "migrated"
      }
    },
    {
      "id": "anime_103",
      "category": "anime",
      "title": "Anime Wallpaper 103",
      "tags": [
        "anime",
        "wallpaper",
        "hd",
        "mobile"
      ],
      "urls": {
        "raw": "https://media.githubusercontent.com/media/ddh4r4m/wallpaper-collection/main/collection/wallpapers/anime/103.jpg",
        "thumb": "https://media.githubusercontent.com/media/ddh4r4m/wallpaper-collection/main/collection/thumbnails/anime/103.jpg"
      },
      "metadata": {
        "dimensions": {
          "width": 1080,
          "height": 1920
        },
        "file_size": 319593,
        "format": "JPEG",
        "added_at": "2025-07-17T00:02:40.810061",
        "hash": "56c901614731af7c2ec6e6ced2335c15",
        "source": "migrated"
      }
    },
    {
      "id": "anime_104",
      "category": "anime",
      "title": "Anime Wallpaper 104",
      "tags": [
        "anime",
        "wallpaper",
        "hd",
        "mobile"
      ],
      "urls": {
        "raw": "https://media.githubusercontent.com/media/ddh4r4m/wallpaper-collection/main/collection/wallpapers/anime/104.jpg",
        "thumb": "https://media.githubusercontent.com/media/ddh4r4m/wallpaper-collection/main/collection/thumbnails/anime/104.jpg"
      },
      "metadata": {
        "dimensions": {
          "width": 1080,
          "height": 1920
        },
        "file_size": 312609,
        "format": "JPEG",
        "added_at": "2025-07-17T00:02:41.446847",
        "hash": "54af97722d92f6ba4f5a99fc91689004",
        "source": "migrated"
      }
    },
    {
      "id": "anime_105",
      "category": "anime",
      "title": "Anime Wallpaper 105",
      "tags": [
        "anime",
        "wallpaper",
        "hd",
        "mobile"
      ],
      "urls": {
        "raw": "https://media.githubusercontent.com/media/ddh4r4m/wallpaper-collection/main/collection/wallpapers/anime/105.jpg",
        "thumb": "https://media.githubusercontent.com/media/ddh4r4m/wallpaper-collection/main/collection/thumbnails/anime/105.jpg"
      },
      "metadata": {
        "dimensions": {
          "width": 1080,
          "height": 1920
        },
        "file_size": 289597,
        "format": "JPEG",
        "added_at": "2025-07-17T00:02:41.721990",
        "hash": "8acfe2621bd69bf856a3054bdd131878",
        "source": "migrated"
      }
    },
    {
      "id": "anime_106",
      "category": "anime",
      "title": "Anime Wallpaper 106",
      "tags": [
        "anime",
        "wallpaper",
        "hd",
        "mobile"
      ],
      "urls": {
        "raw": "https://media.githubusercontent.com/media/ddh4r4m/wallpaper-collection/main/collection/wallpapers/anime/106.jpg",
        "thumb": "https://media.githubusercontent.com/media/ddh4r4m/wallpaper-collection/main/collection/thumbnails/anime/106.jpg"
      },
      "metadata": {
        "dimensions": {
          "width": 1080,
          "height": 1920
        },
        "file_size": 311332,
        "format": "JPEG",
        "added_at": "2025-07-17T00:02:42.039731",
        "hash": "5ee86018d43696a05a446c8a39ca986c",
        "source": "migrated"
      }
    },
    {
      "id": "anime_107",
      "category": "anime",
      "title": "Anime Wallpaper 107",
      "tags": [
        "anime",
        "wallpaper",
        "hd",
        "mobile"
      ],
      "urls": {
        "raw": "https://media.githubusercontent.com/media/ddh4r4m/wallpaper-collection/main/collection/wallpapers/anime/107.jpg",
        "thumb": "https://media.githubusercontent.com/media/ddh4r4m/wallpaper-collection/main/collection/thumbnails/anime/107.jpg"
      },
      "metadata": {
        "dimensions": {
          "width": 1080,
          "height": 1920
        },
        "file_size": 206594,
        "format": "JPEG",
        "added_at": "2025-07-17T00:02:42.834144",
        "hash": "839c8006726e29e464b7119586da0e8f",
        "source": "migrated"
      }
    },
    {
      "id": "anime_108",
      "category": "anime",
      "title": "Anime Wallpaper 108",
      "tags": [
        "anime",
        "wallpaper",
        "hd",
        "mobile"
      ],
      "urls": {
        "raw": "https://media.githubusercontent.com/media/ddh4r4m/wallpaper-collection/main/collection/wallpapers/anime/108.jpg",
        "thumb": "https://media.githubusercontent.com/media/ddh4r4m/wallpaper-collection/main/collection/thumbnails/anime/108.jpg"
      },
      "metadata": {
        "dimensions": {
          "width": 1080,
          "height": 1920
        },
        "file_size": 270715,
        "format": "JPEG",
        "added_at": "2025-07-17T00:02:43.031058",
        "hash": "17bddab543b78f704cfe00d1e647f610",
        "source": "migrated"
      }
    },
    {
      "id": "anime_109",
      "category": "anime",
      "title": "Anime Wallpaper 109",
      "tags": [
        "anime",
        "wallpaper",
        "hd",
        "mobile"
      ],
      "urls": {
        "raw": "https://media.githubusercontent.com/media/ddh4r4m/wallpaper-collection/main/collection/wallpapers/anime/109.jpg",
        "thumb": "https://media.githubusercontent.com/media/ddh4r4m/wallpaper-collection/main/collection/thumbnails/anime/109.jpg"
      },
      "metadata": {
        "dimensions": {
          "width": 1080,
          "height": 1920
        },
        "file_size": 318708,
        "format": "JPEG",
        "added_at": "2025-07-17T00:02:43.369504",
        "hash": "6c4e7664c33d8dd0cbc25f627f8feaa2",
        "source": "migrated"
      }
    },
    {
      "id": "anime_110",
      "category": "anime",
      "title": "Anime Wallpaper 110",
      "tags": [
        "anime",
        "wallpaper",
        "hd",
        "mobile"
      ],
      "urls": {
        "raw": "https://media.githubusercontent.com/media/ddh4r4m/wallpaper-collection/main/collection/wallpapers/anime/110.jpg",
        "thumb": "https://media.githubusercontent.com/media/ddh4r4m/wallpaper-collection/main/collection/thumbnails/anime/110.jpg"
      },
      "metadata": {
        "dimensions": {
          "width": 1080,
          "height": 1920
        },
        "file_size": 308505,
        "format": "JPEG",
        "added_at": "2025-07-17T00:02:43.610454",
        "hash": "61bbe9c62831758061faa1720c688ff2",
        "source": "migrated"
      }
    },
    {
      "id": "anime_111",
      "category": "anime",
      "title": "Anime Wallpaper 111",
      "tags": [
        "anime",
        "wallpaper",
        "hd",
        "mobile"
      ],
      "urls": {
        "raw": "https://media.githubusercontent.com/media/ddh4r4m/wallpaper-collection/main/collection/wallpapers/anime/111.jpg",
        "thumb": "https://media.githubusercontent.com/media/ddh4r4m/wallpaper-collection/main/collection/thumbnails/anime/111.jpg"
      },
      "metadata": {
        "dimensions": {
          "width": 1080,
          "height": 1920
        },
        "file_size": 140746,
        "format": "JPEG",
        "added_at": "2025-07-17T00:02:43.953907",
        "hash": "60433a4bb471b8baf6f951b3ba5edbc4",
        "source": "migrated"
      }
    }
  ]
}