{
  "meta": {
    "version": "1.0",
    "generated_at": "2025-07-17T21:14:17.488868",
    "page": 50,
    "per_page": 15,
    "total_pages": 117,
    "total_count": 1751,
    "count_on_page": 15,
    "categories": 17,
    "has_next": true,
    "has_prev": true,
    "next_page_url": "/api/v1/all/pages/51.json",
    "prev_page_url": "/api/v1/all/pages/49.json"
  },
  "data": [
    {
      "id": "architecture_201",
      "category": "architecture",
      "title": "Architecture Wallpaper 201",
      "tags": [
        "architecture",
        "wallpaper",
        "hd",
        "mobile"
      ],
      "urls": {
        "raw": "https://media.githubusercontent.com/media/ddh4r4m/wallpaper-collection/main/collection/wallpapers/architecture/201.jpg",
        "thumb": "https://media.githubusercontent.com/media/ddh4r4m/wallpaper-collection/main/collection/thumbnails/architecture/201.jpg"
      },
      "metadata": {
        "dimensions": {
          "width": 1080,
          "height": 1920
        },
        "file_size": 363840,
        "format": "JPEG",
        "added_at": "2025-07-17T00:02:57.294414",
        "hash": "64af90cf49cb9e0865ca1ca399b6e31b",
        "source": "migrated"
      }
    },
    {
      "id": "architecture_202",
      "category": "architecture",
      "title": "Architecture Wallpaper 202",
      "tags": [
        "architecture",
        "wallpaper",
        "hd",
        "mobile"
      ],
      "urls": {
        "raw": "https://media.githubusercontent.com/media/ddh4r4m/wallpaper-collection/main/collection/wallpapers/architecture/202.jpg",
        "thumb": "https://media.githubusercontent.com/media/ddh4r4m/wallpaper-collection/main/collection/thumbnails/architecture/202.jpg"
      },
      "metadata": {
        "dimensions": {
          "width": 1080,
          "height": 1920
        },
        "file_size": 371326,
        "format": "JPEG",
        "added_at": "2025-07-17T00:02:57.355659",
        "hash": "a3c3c916906d843b35193574b4d38be1",
        "source": "migrated"
      }
    },
    {
      "id": "architecture_203",
      "category": "architecture",
      "title": "Architecture Wallpaper 203",
      "tags": [
        "architecture",
        "wallpaper",
        "hd",
        "mobile"
      ],
      "urls": {
        "raw": "https://media.githubusercontent.com/media/ddh4r4m/wallpaper-collection/main/collection/wallpapers/architecture/203.jpg",
        "thumb": "https://media.githubusercontent.com/media/ddh4r4m/wallpaper-collection/main/collection/thumbnails/architecture/203.jpg"
      },
      "metadata": {
        "dimensions": {
          "width": 1080,
          "height": 1920
        },
        "file_size": 310382,
        "format": "JPEG",
        "added_at": "2025-07-17T00:02:57.415792",
        "hash": "deb74c067f582902cfbb835e3268970f",
        "source": "migrated"
      }
    },
    {
      "id": "architecture_204",
      "category": "architecture",
      "title": "Architecture Wallpaper 204",
      "tags": [
        "architecture",
        "wallpaper",
        "hd",
        "mobile"
      ],
      "urls": {
        "raw": "https://media.githubusercontent.com/media/ddh4r4m/wallpaper-collection/main/collection/wallpapers/architecture/204.jpg",
        "thumb": "https://media.githubusercontent.com/media/ddh4r4m/wallpaper-collection/main/collection/thumbnails/architecture/204.jpg"
      },
      "metadata": {
        "dimensions": {
          "width": 1080,
          "height": 1920
        },
        "file_size": 371942,
        "format": "JPEG",
        "added_at": "2025-07-17T00:02:57.475995",
        "hash": "f15f8771dcb479e702a63d0324361d2e",
        "source": "migrated"
      }
    },
    {
      "id": "architecture_205",
      "category": "architecture",
      "title": "Architecture Wallpaper 205",
      "tags": [
        "architecture",
        "wallpaper",
        "hd",
        "mobile"
      ],
      "urls": {
        "raw": "https://media.githubusercontent.com/media/ddh4r4m/wallpaper-collection/main/collection/wallpapers/architecture/205.jpg",
        "thumb": "https://media.githubusercontent.com/media/ddh4r4m/wallpaper-collection/main/collection/thumbnails/architecture/205.jpg"
      },
      "metadata": {
        "dimensions": {
          "width": 1080,
          "height": 1920
        },
        "file_size": 454912,
        "format": "JPEG",
        "added_at": "2025-07-17T00:02:57.541581",
        "hash": "b58d013454aa00bc6c510440b57503ae",
        "source": "migrated"
      }
    },
    {
      "id": "architecture_206",
      "category": "architecture",
      "title": "Architecture Wallpaper 206",
      "tags": [
        "architecture",
        "wallpaper",
        "hd",
        "mobile"
      ],
      "urls": {
        "raw": "https://media.githubusercontent.com/media/ddh4r4m/wallpaper-collection/main/collection/wallpapers/architecture/206.jpg",
        "thumb": "https://media.githubusercontent.com/media/ddh4r4m/wallpaper-collection/main/collection/thumbnails/architecture/206.jpg"
      },
      "metadata": {
        "dimensions": {
          "width": 1080,
          "height": 1920
        },
        "file_size": 374040,
        "format": "JPEG",
        "added_at": "2025-07-17T00:02:57.600887",
        "hash": "aad7d6ac24595f4cc4ca96bd063b9543",
        "source": "migrated"
      }
    },
    {
      "id": "architecture_207",
      "category": "architecture",
      "title": "Architecture Wallpaper 207",
      "tags": [
        "architecture",
        "wallpaper",
        "hd",
        "mobile"
      ],
      "urls": {
        "raw": "https://media.githubusercontent.com/media/ddh4r4m/wallpaper-collection/main/collection/wallpapers/architecture/207.jpg",
        "thumb": "https://media.githubusercontent.com/media/ddh4r4m/wallpaper-collection/main/collection/thumbnails/architecture/207.jpg"
      },
      "metadata": {
        "dimensions": {
          "width": 1080,
          "height": 1920
        },
        "file_size": 465261,
        "format": "JPEG",
        "added_at": "2025-07-17T00:02:57.670071",
        "hash": "6adaba6a7a36bd435562d36eae0cfbd2",
        "source": "migrated"
      }
    },
    {
      "id": "architecture_208",
      "category": "architecture",
      "title": "Architecture Wallpaper 208",
      "tags": [
        "architecture",
        "wallpaper",
        "hd",
        "mobile"
      ],
      "urls": {
        "raw": "https://media.githubusercontent.com/media/ddh4r4m/wallpaper-collection/main/collection/wallpapers/architecture/208.jpg",
        "thumb": "https://media.githubusercontent.com/media/ddh4r4m/wallpaper-collection/main/collection/thumbnails/architecture/208.jpg"
      },
      "metadata": {
        "dimensions": {
          "width": 1080,
          "height": 1920
        },
        "file_size": 433227,
        "format": "JPEG",
        "added_at": "2025-07-17T00:02:57.757561",
        "hash": "637be1c0f4801a8aa680426822a6c919",
        "source": "migrated"
      }
    },
    {
      "id": "architecture_209",
      "category": "architecture",
      "title": "Architecture Wallpaper 209",
      "tags": [
        "architecture",
        "wallpaper",
        "hd",
        "mobile"
      ],
      "urls": {
        "raw": "https://media.githubusercontent.com/media/ddh4r4m/wallpaper-collection/main/collection/wallpapers/architecture/209.jpg",
        "thumb": "https://media.githubusercontent.com/media/ddh4r4m/wallpaper-collection/main/collection/thumbnails/architecture/209.jpg"
      },
      "metadata": {
        "dimensions": {
          "width": 1080,
          "height": 1920
        },
        "file_size": 246547,
        "format": "JPEG",
        "added_at": "2025-07-17T00:02:57.834481",
        "hash": "390d496c851b16b437177c1dea2fbc46",
        "source": "migrated"
      }
    },
    {
      "id": "architecture_210",
      "category": "architecture",
      "title": "Architecture Wallpaper 210",
      "tags": [
        "architecture",
        "wallpaper",
        "hd",
        "mobile"
      ],
      "urls": {
        "raw": "https://media.githubusercontent.com/media/ddh4r4m/wallpaper-collection/main/collection/wallpapers/architecture/210.jpg",
        "thumb": "https://media.githubusercontent.com/media/ddh4r4m/wallpaper-collection/main/collection/thumbnails/architecture/210.jpg"
      },
      "metadata": {
        "dimensions": {
          "width": 1080,
          "height": 1920
        },
        "file_size": 414094,
        "format": "JPEG",
        "added_at": "2025-07-17T00:02:57.898957",
        "hash": "aec6dc0eaf585b61fa1858d33c5bb569",
        "source": "migrated"
      }
    },
    {
      "id": "architecture_211",
      "category": "architecture",
      "title": "Architecture Wallpaper 211",
      "tags": [
        "architecture",
        "wallpaper",
        "hd",
        "mobile"
      ],
      "urls": {
        "raw": "https://media.githubusercontent.com/media/ddh4r4m/wallpaper-collection/main/collection/wallpapers/architecture/211.jpg",
        "thumb": "https://media.githubusercontent.com/media/ddh4r4m/wallpaper-collection/main/collection/thumbnails/architecture/211.jpg"
      },
      "metadata": {
        "dimensions": {
          "width": 1080,
          "height": 1920
        },
        "file_size": 195988,
        "format": "JPEG",
        "added_at": "2025-07-17T00:02:57.952604",
        "hash": "8b1e4165be8ed6ae534582486e97dd01",
        "source": "migrated"
      }
    },
    {
      "id": "architecture_212",
      "category": "architecture",
      "title": "Architecture Wallpaper 212",
      "tags": [
        "architecture",
        "wallpaper",
        "hd",
        "mobile"
      ],
      "urls": {
        "raw": "https://media.githubusercontent.com/media/ddh4r4m/wallpaper-collection/main/collection/wallpapers/architecture/212.jpg",
        "thumb": "https://media.githubusercontent.com/media/ddh4r4m/wallpaper-collection/main/collection/thumbnails/architecture/212.jpg"
      },
      "metadata": {
        "dimensions": {
          "width": 1080,
          "height": 1920
        },
        "file_size": 290969,
        "format": "JPEG",
        "added_at": "2025-07-17T00:02:58.011519",
        "hash": "7101187175468ff9b436c82ea170e0c3",
        "source": "migrated"
      }
    },
    {
      "id": "architecture_213",
      "category": "architecture",
      "title": "Architecture Wallpaper 213",
      "tags": [
        "architecture",
        "wallpaper",
        "hd",
        "mobile"
      ],
      "urls": {
        "raw": "https://media.githubusercontent.com/media/ddh4r4m/wallpaper-collection/main/collection/wallpapers/architecture/213.jpg",
        "thumb": "https://media.githubusercontent.com/media/ddh4r4m/wallpaper-collection/main/collection/thumbnails/architecture/213.jpg"
      },
      "metadata": {
        "dimensions": {
          "width": 1080,
          "height": 1920
        },
        "file_size": 330059,
        "format": "JPEG",
        "added_at": "2025-07-17T00:02:58.072836",
        "hash": "eddd466b9c6119b5f55d8a9301e61a74",
        "source": "migrated"
      }
    },
    {
      "id": "architecture_214",
      "category": "architecture",
      "title": "Architecture Wallpaper 214",
      "tags": [
        "architecture",
        "wallpaper",
        "hd",
        "mobile"
      ],
      "urls": {
        "raw": "https://media.githubusercontent.com/media/ddh4r4m/wallpaper-collection/main/collection/wallpapers/architecture/214.jpg",
        "thumb": "https://media.githubusercontent.com/media/ddh4r4m/wallpaper-collection/main/collection/thumbnails/architecture/214.jpg"
      },
      "metadata": {
        "dimensions": {
          "width": 1080,
          "height": 1920
        },
        "file_size": 316996,
        "format": "JPEG",
        "added_at": "2025-07-17T00:02:58.133972",
        "hash": "8745d559936de37cc2781e41dc26783d",
        "source": "migrated"
      }
    },
    {
      "id": "architecture_215",
      "category": "architecture",
      "title": "Architecture Wallpaper 215",
      "tags": [
        "architecture",
        "wallpaper",
        "hd",
        "mobile"
      ],
      "urls": {
        "raw": "https://media.githubusercontent.com/media/ddh4r4m/wallpaper-collection/main/collection/wallpapers/architecture/215.jpg",
        "thumb": "https://media.githubusercontent.com/media/ddh4r4m/wallpaper-collection/main/collection/thumbnails/architecture/215.jpg"
      },
      "metadata": {
        "dimensions": {
          "width": 1080,
          "height": 1920
        },
        "file_size": 344850,
        "format": "JPEG",
        "added_at": "2025-07-17T00:02:58.194737",
        "hash": "edd051afaa78b7e0f9655e932e85917b",
        "source": "migrated"
      }
    }
  ]
}