{
  "meta": {
    "version": "1.0",
    "generated_at": "2025-07-28T23:12:02.393375",
    "page": 51,
    "per_page": 15,
    "total_pages": 183,
    "total_count": 2743,
    "count_on_page": 15,
    "categories": 22,
    "has_next": true,
    "has_prev": true,
    "next_page_url": "/api/v1/all/pages/52.json",
    "prev_page_url": "/api/v1/all/pages/50.json"
  },
  "data": [
    {
      "id": "anime_127",
      "category": "anime",
      "title": "Top 10 Anime of the Week #2 -  - Reddit AI",
      "tags": [
        "anime",
        "ai-generated",
        "hd",
        "mobile",
        "community"
      ],
      "metadata": {
        "dimensions": {
          "width": 1080,
          "height": 1620
        },
        "file_size": 340973,
        "format": "JPEG",
        "added_at": "2025-07-19T11:46:37.227287",
        "hash": "bc9ab106984c79f1e648bd7539f87101",
        "ai_source": "reddit",
        "ai_generated": true,
        "community_score": 1607
      },
      "urls": {
        "raw": "https://media.githubusercontent.com/media/ddh4r4m/wallpaper-collection/main/collection/wallpapers/anime/127.jpg",
        "thumb": "https://media.githubusercontent.com/media/ddh4r4m/wallpaper-collection/main/collection/thumbnails/anime/127.jpg"
      }
    },
    {
      "id": "anime_128",
      "category": "anime",
      "title": "\"The Frontier Lord Begins with - Reddit AI",
      "tags": [
        "anime",
        "ai-generated",
        "hd",
        "mobile",
        "community"
      ],
      "metadata": {
        "dimensions": {
          "width": 1061,
          "height": 1500
        },
        "file_size": 318213,
        "format": "JPEG",
        "added_at": "2025-07-19T11:46:38.326680",
        "hash": "8a1434b7b066ef804e8b5292d07ba5a9",
        "ai_source": "reddit",
        "ai_generated": true,
        "community_score": 168
      },
      "urls": {
        "raw": "https://media.githubusercontent.com/media/ddh4r4m/wallpaper-collection/main/collection/wallpapers/anime/128.jpg",
        "thumb": "https://media.githubusercontent.com/media/ddh4r4m/wallpaper-collection/main/collection/thumbnails/anime/128.jpg"
      }
    },
    {
      "id": "anime_129",
      "category": "anime",
      "title": "Hero Without a Class: Who Even - Reddit AI",
      "tags": [
        "anime",
        "ai-generated",
        "hd",
        "mobile",
        "community"
      ],
      "metadata": {
        "dimensions": {
          "width": 852,
          "height": 1200
        },
        "file_size": 212686,
        "format": "JPEG",
        "added_at": "2025-07-19T11:46:39.527433",
        "hash": "bc3b3565acdb9c49e83ca763a2370780",
        "ai_source": "reddit",
        "ai_generated": true,
        "community_score": 78
      },
      "urls": {
        "raw": "https://media.githubusercontent.com/media/ddh4r4m/wallpaper-collection/main/collection/wallpapers/anime/129.jpg",
        "thumb": "https://media.githubusercontent.com/media/ddh4r4m/wallpaper-collection/main/collection/thumbnails/anime/129.jpg"
      }
    },
    {
      "id": "anime_130",
      "category": "anime",
      "title": "latest drawing:&lt; - Reddit AI",
      "tags": [
        "anime",
        "ai-generated",
        "hd",
        "mobile",
        "community"
      ],
      "metadata": {
        "dimensions": {
          "width": 1080,
          "height": 1350
        },
        "file_size": 109987,
        "format": "JPEG",
        "added_at": "2025-07-19T11:46:41.783229",
        "hash": "3298fc96091c3de166fc0e67023fd40d",
        "ai_source": "reddit",
        "ai_generated": true,
        "community_score": 50
      },
      "urls": {
        "raw": "https://media.githubusercontent.com/media/ddh4r4m/wallpaper-collection/main/collection/wallpapers/anime/130.jpg",
        "thumb": "https://media.githubusercontent.com/media/ddh4r4m/wallpaper-collection/main/collection/thumbnails/anime/130.jpg"
      }
    },
    {
      "id": "anime_131",
      "category": "anime",
      "title": "Ready For The Beach [Original] - Reddit AI",
      "tags": [
        "anime",
        "ai-generated",
        "hd",
        "mobile",
        "community"
      ],
      "metadata": {
        "dimensions": {
          "width": 1080,
          "height": 1620
        },
        "file_size": 179961,
        "format": "JPEG",
        "added_at": "2025-07-19T11:46:43.056178",
        "hash": "e5ea264c32e1d970d2d1a5da4639178f",
        "ai_source": "reddit",
        "ai_generated": true,
        "community_score": 164
      },
      "urls": {
        "raw": "https://media.githubusercontent.com/media/ddh4r4m/wallpaper-collection/main/collection/wallpapers/anime/131.jpg",
        "thumb": "https://media.githubusercontent.com/media/ddh4r4m/wallpaper-collection/main/collection/thumbnails/anime/131.jpg"
      }
    },
    {
      "id": "anime_132",
      "category": "anime",
      "title": "I made Hu Tao from Genshin Imp - Reddit AI",
      "tags": [
        "anime",
        "ai-generated",
        "hd",
        "mobile",
        "community"
      ],
      "metadata": {
        "dimensions": {
          "width": 1080,
          "height": 1440
        },
        "file_size": 167190,
        "format": "JPEG",
        "added_at": "2025-07-19T11:46:44.201965",
        "hash": "c504cc66c4e4d7d20a0062f9779fb681",
        "ai_source": "reddit",
        "ai_generated": true,
        "community_score": 23
      },
      "urls": {
        "raw": "https://media.githubusercontent.com/media/ddh4r4m/wallpaper-collection/main/collection/wallpapers/anime/132.jpg",
        "thumb": "https://media.githubusercontent.com/media/ddh4r4m/wallpaper-collection/main/collection/thumbnails/anime/132.jpg"
      }
    },
    {
      "id": "anime_133",
      "category": "anime",
      "title": "Just a Tohru and Kanna Illustr - Reddit AI",
      "tags": [
        "anime",
        "ai-generated",
        "hd",
        "mobile",
        "community"
      ],
      "metadata": {
        "dimensions": {
          "width": 1080,
          "height": 1350
        },
        "file_size": 217050,
        "format": "JPEG",
        "added_at": "2025-07-19T11:46:46.699546",
        "hash": "f5233a61e118c06b13efb26fdc427ae9",
        "ai_source": "reddit",
        "ai_generated": true,
        "community_score": 9
      },
      "urls": {
        "raw": "https://media.githubusercontent.com/media/ddh4r4m/wallpaper-collection/main/collection/wallpapers/anime/133.jpg",
        "thumb": "https://media.githubusercontent.com/media/ddh4r4m/wallpaper-collection/main/collection/thumbnails/anime/133.jpg"
      }
    },
    {
      "id": "anime_134",
      "category": "anime",
      "title": "Anime Wallpaper 134",
      "tags": [
        "anime"
      ],
      "urls": {
        "raw": "https://media.githubusercontent.com/media/ddh4r4m/wallpaper-collection/main/collection/wallpapers/anime/134.jpg",
        "thumb": "https://media.githubusercontent.com/media/ddh4r4m/wallpaper-collection/main/collection/thumbnails/anime/134.jpg"
      },
      "metadata": {
        "added_at": "2025-07-28T23:02:19.924007",
        "file_size": 307811,
        "dimensions": {
          "width": 1200,
          "height": 2133
        }
      }
    },
    {
      "id": "anime_135",
      "category": "anime",
      "title": "Anime Wallpaper 135",
      "tags": [
        "anime"
      ],
      "urls": {
        "raw": "https://media.githubusercontent.com/media/ddh4r4m/wallpaper-collection/main/collection/wallpapers/anime/135.jpg",
        "thumb": "https://media.githubusercontent.com/media/ddh4r4m/wallpaper-collection/main/collection/thumbnails/anime/135.jpg"
      },
      "metadata": {
        "added_at": "2025-07-28T23:02:21.938117",
        "file_size": 492724,
        "dimensions": {
          "width": 1349,
          "height": 2494
        }
      }
    },
    {
      "id": "anime_136",
      "category": "anime",
      "title": "Anime Wallpaper 136",
      "tags": [
        "anime"
      ],
      "urls": {
        "raw": "https://media.githubusercontent.com/media/ddh4r4m/wallpaper-collection/main/collection/wallpapers/anime/136.jpg",
        "thumb": "https://media.githubusercontent.com/media/ddh4r4m/wallpaper-collection/main/collection/thumbnails/anime/136.jpg"
      },
      "metadata": {
        "added_at": "2025-07-28T23:02:23.799133",
        "file_size": 199821,
        "dimensions": {
          "width": 998,
          "height": 1774
        }
      }
    },
    {
      "id": "anime_137",
      "category": "anime",
      "title": "Anime Wallpaper 137",
      "tags": [
        "anime"
      ],
      "urls": {
        "raw": "https://media.githubusercontent.com/media/ddh4r4m/wallpaper-collection/main/collection/wallpapers/anime/137.jpg",
        "thumb": "https://media.githubusercontent.com/media/ddh4r4m/wallpaper-collection/main/collection/thumbnails/anime/137.jpg"
      },
      "metadata": {
        "added_at": "2025-07-28T23:02:25.404732",
        "file_size": 62075,
        "dimensions": {
          "width": 1080,
          "height": 1920
        }
      }
    },
    {
      "id": "anime_138",
      "category": "anime",
      "title": "Anime Wallpaper 138",
      "tags": [
        "anime"
      ],
      "urls": {
        "raw": "https://media.githubusercontent.com/media/ddh4r4m/wallpaper-collection/main/collection/wallpapers/anime/138.jpg",
        "thumb": "https://media.githubusercontent.com/media/ddh4r4m/wallpaper-collection/main/collection/thumbnails/anime/138.jpg"
      },
      "metadata": {
        "added_at": "2025-07-28T23:02:26.991907",
        "file_size": 335630,
        "dimensions": {
          "width": 1080,
          "height": 1927
        }
      }
    },
    {
      "id": "anime_139",
      "category": "anime",
      "title": "Anime Wallpaper 139",
      "tags": [
        "anime"
      ],
      "urls": {
        "raw": "https://media.githubusercontent.com/media/ddh4r4m/wallpaper-collection/main/collection/wallpapers/anime/139.jpg",
        "thumb": "https://media.githubusercontent.com/media/ddh4r4m/wallpaper-collection/main/collection/thumbnails/anime/139.jpg"
      },
      "metadata": {
        "added_at": "2025-07-28T23:02:28.576071",
        "file_size": 299307,
        "dimensions": {
          "width": 1080,
          "height": 1920
        }
      }
    },
    {
      "id": "architecture_001",
      "category": "architecture",
      "title": "Architecture Wallpaper 001",
      "tags": [
        "architecture",
        "wallpaper",
        "hd",
        "mobile"
      ],
      "urls": {
        "raw": "https://media.githubusercontent.com/media/ddh4r4m/wallpaper-collection/main/collection/wallpapers/architecture/001.jpg",
        "thumb": "https://media.githubusercontent.com/media/ddh4r4m/wallpaper-collection/main/collection/thumbnails/architecture/001.jpg"
      },
      "metadata": {
        "dimensions": {
          "width": 1080,
          "height": 1920
        },
        "file_size": 240257,
        "format": "JPEG",
        "added_at": "2025-07-17T00:02:45.117920",
        "hash": "c4ada9866bbcd9f4ea6e9ddc814181c3",
        "source": "migrated"
      }
    },
    {
      "id": "architecture_002",
      "category": "architecture",
      "title": "Architecture Wallpaper 002",
      "tags": [
        "architecture",
        "wallpaper",
        "hd",
        "mobile"
      ],
      "urls": {
        "raw": "https://media.githubusercontent.com/media/ddh4r4m/wallpaper-collection/main/collection/wallpapers/architecture/002.jpg",
        "thumb": "https://media.githubusercontent.com/media/ddh4r4m/wallpaper-collection/main/collection/thumbnails/architecture/002.jpg"
      },
      "metadata": {
        "dimensions": {
          "width": 1080,
          "height": 1920
        },
        "file_size": 301470,
        "format": "JPEG",
        "added_at": "2025-07-17T00:02:45.176709",
        "hash": "27391e46ba3b5ff47303b9a57d6bd99a",
        "source": "migrated"
      }
    }
  ]
}