{
  "meta": {
    "version": "1.0",
    "generated_at": "2025-07-17T00:06:19.072196",
    "page": 52,
    "per_page": 15,
    "total_pages": 117,
    "total_count": 1751,
    "count_on_page": 15,
    "categories": 17,
    "has_next": true,
    "has_prev": true,
    "next_page_url": "/api/v1/all/pages/53.json",
    "prev_page_url": "/api/v1/all/pages/51.json"
  },
  "data": [
    {
      "id": "architecture_231",
      "category": "architecture",
      "title": "Architecture Wallpaper 231",
      "tags": [
        "architecture",
        "wallpaper",
        "hd",
        "mobile"
      ],
      "urls": {
        "raw": "https://raw.githubusercontent.com/ddh4r4m/wallpaper-collection/main/collection/wallpapers/architecture/231.jpg",
        "thumb": "https://raw.githubusercontent.com/ddh4r4m/wallpaper-collection/main/collection/thumbnails/architecture/231.jpg"
      },
      "metadata": {
        "dimensions": {
          "width": 1080,
          "height": 1920
        },
        "file_size": 396234,
        "format": "JPEG",
        "added_at": "2025-07-17T00:02:59.234989",
        "hash": "c136f6745e0e0bef06f3072f5a1589e1",
        "source": "migrated"
      }
    },
    {
      "id": "architecture_232",
      "category": "architecture",
      "title": "Architecture Wallpaper 232",
      "tags": [
        "architecture",
        "wallpaper",
        "hd",
        "mobile"
      ],
      "urls": {
        "raw": "https://raw.githubusercontent.com/ddh4r4m/wallpaper-collection/main/collection/wallpapers/architecture/232.jpg",
        "thumb": "https://raw.githubusercontent.com/ddh4r4m/wallpaper-collection/main/collection/thumbnails/architecture/232.jpg"
      },
      "metadata": {
        "dimensions": {
          "width": 1080,
          "height": 1920
        },
        "file_size": 319571,
        "format": "JPEG",
        "added_at": "2025-07-17T00:02:59.294162",
        "hash": "f098c4b29abb125414f27c0a34b2b223",
        "source": "migrated"
      }
    },
    {
      "id": "architecture_233",
      "category": "architecture",
      "title": "Architecture Wallpaper 233",
      "tags": [
        "architecture",
        "wallpaper",
        "hd",
        "mobile"
      ],
      "urls": {
        "raw": "https://raw.githubusercontent.com/ddh4r4m/wallpaper-collection/main/collection/wallpapers/architecture/233.jpg",
        "thumb": "https://raw.githubusercontent.com/ddh4r4m/wallpaper-collection/main/collection/thumbnails/architecture/233.jpg"
      },
      "metadata": {
        "dimensions": {
          "width": 1080,
          "height": 1920
        },
        "file_size": 350633,
        "format": "JPEG",
        "added_at": "2025-07-17T00:02:59.353976",
        "hash": "20507fa9423e983a6fd27752b0fe4e61",
        "source": "migrated"
      }
    },
    {
      "id": "architecture_234",
      "category": "architecture",
      "title": "Architecture Wallpaper 234",
      "tags": [
        "architecture",
        "wallpaper",
        "hd",
        "mobile"
      ],
      "urls": {
        "raw": "https://raw.githubusercontent.com/ddh4r4m/wallpaper-collection/main/collection/wallpapers/architecture/234.jpg",
        "thumb": "https://raw.githubusercontent.com/ddh4r4m/wallpaper-collection/main/collection/thumbnails/architecture/234.jpg"
      },
      "metadata": {
        "dimensions": {
          "width": 1080,
          "height": 1920
        },
        "file_size": 685405,
        "format": "JPEG",
        "added_at": "2025-07-17T00:02:59.430596",
        "hash": "da1c9d722a84c6b3fd716bf05f5cf07e",
        "source": "migrated"
      }
    },
    {
      "id": "architecture_235",
      "category": "architecture",
      "title": "Architecture Wallpaper 235",
      "tags": [
        "architecture",
        "wallpaper",
        "hd",
        "mobile"
      ],
      "urls": {
        "raw": "https://raw.githubusercontent.com/ddh4r4m/wallpaper-collection/main/collection/wallpapers/architecture/235.jpg",
        "thumb": "https://raw.githubusercontent.com/ddh4r4m/wallpaper-collection/main/collection/thumbnails/architecture/235.jpg"
      },
      "metadata": {
        "dimensions": {
          "width": 1080,
          "height": 1920
        },
        "file_size": 451918,
        "format": "JPEG",
        "added_at": "2025-07-17T00:02:59.506317",
        "hash": "d52b050147e7202f81573281b761b458",
        "source": "migrated"
      }
    },
    {
      "id": "architecture_236",
      "category": "architecture",
      "title": "Architecture Wallpaper 236",
      "tags": [
        "architecture",
        "wallpaper",
        "hd",
        "mobile"
      ],
      "urls": {
        "raw": "https://raw.githubusercontent.com/ddh4r4m/wallpaper-collection/main/collection/wallpapers/architecture/236.jpg",
        "thumb": "https://raw.githubusercontent.com/ddh4r4m/wallpaper-collection/main/collection/thumbnails/architecture/236.jpg"
      },
      "metadata": {
        "dimensions": {
          "width": 1080,
          "height": 1920
        },
        "file_size": 378721,
        "format": "JPEG",
        "added_at": "2025-07-17T00:02:59.566241",
        "hash": "3824be7eb60d973bbb0b78c473791016",
        "source": "migrated"
      }
    },
    {
      "id": "architecture_237",
      "category": "architecture",
      "title": "Architecture Wallpaper 237",
      "tags": [
        "architecture",
        "wallpaper",
        "hd",
        "mobile"
      ],
      "urls": {
        "raw": "https://raw.githubusercontent.com/ddh4r4m/wallpaper-collection/main/collection/wallpapers/architecture/237.jpg",
        "thumb": "https://raw.githubusercontent.com/ddh4r4m/wallpaper-collection/main/collection/thumbnails/architecture/237.jpg"
      },
      "metadata": {
        "dimensions": {
          "width": 1080,
          "height": 1920
        },
        "file_size": 475378,
        "format": "JPEG",
        "added_at": "2025-07-17T00:02:59.634755",
        "hash": "613a1cb71d0c07751a64cafe2f1c1ce9",
        "source": "migrated"
      }
    },
    {
      "id": "architecture_238",
      "category": "architecture",
      "title": "Architecture Wallpaper 238",
      "tags": [
        "architecture",
        "wallpaper",
        "hd",
        "mobile"
      ],
      "urls": {
        "raw": "https://raw.githubusercontent.com/ddh4r4m/wallpaper-collection/main/collection/wallpapers/architecture/238.jpg",
        "thumb": "https://raw.githubusercontent.com/ddh4r4m/wallpaper-collection/main/collection/thumbnails/architecture/238.jpg"
      },
      "metadata": {
        "dimensions": {
          "width": 1080,
          "height": 1920
        },
        "file_size": 389297,
        "format": "JPEG",
        "added_at": "2025-07-17T00:02:59.698742",
        "hash": "a4f7db6459d9b8fd6784461560b9589c",
        "source": "migrated"
      }
    },
    {
      "id": "architecture_239",
      "category": "architecture",
      "title": "Architecture Wallpaper 239",
      "tags": [
        "architecture",
        "wallpaper",
        "hd",
        "mobile"
      ],
      "urls": {
        "raw": "https://raw.githubusercontent.com/ddh4r4m/wallpaper-collection/main/collection/wallpapers/architecture/239.jpg",
        "thumb": "https://raw.githubusercontent.com/ddh4r4m/wallpaper-collection/main/collection/thumbnails/architecture/239.jpg"
      },
      "metadata": {
        "dimensions": {
          "width": 1080,
          "height": 1920
        },
        "file_size": 452140,
        "format": "JPEG",
        "added_at": "2025-07-17T00:02:59.764217",
        "hash": "4184af15d5b55807cbb17b788310611c",
        "source": "migrated"
      }
    },
    {
      "id": "architecture_240",
      "category": "architecture",
      "title": "Architecture Wallpaper 240",
      "tags": [
        "architecture",
        "wallpaper",
        "hd",
        "mobile"
      ],
      "urls": {
        "raw": "https://raw.githubusercontent.com/ddh4r4m/wallpaper-collection/main/collection/wallpapers/architecture/240.jpg",
        "thumb": "https://raw.githubusercontent.com/ddh4r4m/wallpaper-collection/main/collection/thumbnails/architecture/240.jpg"
      },
      "metadata": {
        "dimensions": {
          "width": 1080,
          "height": 1920
        },
        "file_size": 464530,
        "format": "JPEG",
        "added_at": "2025-07-17T00:02:59.830843",
        "hash": "9ebb5541b0b356d6fadc964f774cff8b",
        "source": "migrated"
      }
    },
    {
      "id": "architecture_241",
      "category": "architecture",
      "title": "Architecture Wallpaper 241",
      "tags": [
        "architecture",
        "wallpaper",
        "hd",
        "mobile"
      ],
      "urls": {
        "raw": "https://raw.githubusercontent.com/ddh4r4m/wallpaper-collection/main/collection/wallpapers/architecture/241.jpg",
        "thumb": "https://raw.githubusercontent.com/ddh4r4m/wallpaper-collection/main/collection/thumbnails/architecture/241.jpg"
      },
      "metadata": {
        "dimensions": {
          "width": 1080,
          "height": 1920
        },
        "file_size": 341493,
        "format": "JPEG",
        "added_at": "2025-07-17T00:02:59.891541",
        "hash": "829d8d5e5d6fe109ddaa49cee69b94c2",
        "source": "migrated"
      }
    },
    {
      "id": "architecture_242",
      "category": "architecture",
      "title": "Architecture Wallpaper 242",
      "tags": [
        "architecture",
        "wallpaper",
        "hd",
        "mobile"
      ],
      "urls": {
        "raw": "https://raw.githubusercontent.com/ddh4r4m/wallpaper-collection/main/collection/wallpapers/architecture/242.jpg",
        "thumb": "https://raw.githubusercontent.com/ddh4r4m/wallpaper-collection/main/collection/thumbnails/architecture/242.jpg"
      },
      "metadata": {
        "dimensions": {
          "width": 1080,
          "height": 1920
        },
        "file_size": 279996,
        "format": "JPEG",
        "added_at": "2025-07-17T00:02:59.949692",
        "hash": "2535f50f140abd569cbc3af4829d7fd8",
        "source": "migrated"
      }
    },
    {
      "id": "architecture_243",
      "category": "architecture",
      "title": "Architecture Wallpaper 243",
      "tags": [
        "architecture",
        "wallpaper",
        "hd",
        "mobile"
      ],
      "urls": {
        "raw": "https://raw.githubusercontent.com/ddh4r4m/wallpaper-collection/main/collection/wallpapers/architecture/243.jpg",
        "thumb": "https://raw.githubusercontent.com/ddh4r4m/wallpaper-collection/main/collection/thumbnails/architecture/243.jpg"
      },
      "metadata": {
        "dimensions": {
          "width": 1080,
          "height": 1920
        },
        "file_size": 445608,
        "format": "JPEG",
        "added_at": "2025-07-17T00:03:00.014842",
        "hash": "2b07066507c8ccd6476de34d6a9b46a8",
        "source": "migrated"
      }
    },
    {
      "id": "architecture_244",
      "category": "architecture",
      "title": "Architecture Wallpaper 244",
      "tags": [
        "architecture",
        "wallpaper",
        "hd",
        "mobile"
      ],
      "urls": {
        "raw": "https://raw.githubusercontent.com/ddh4r4m/wallpaper-collection/main/collection/wallpapers/architecture/244.jpg",
        "thumb": "https://raw.githubusercontent.com/ddh4r4m/wallpaper-collection/main/collection/thumbnails/architecture/244.jpg"
      },
      "metadata": {
        "dimensions": {
          "width": 1080,
          "height": 1920
        },
        "file_size": 404363,
        "format": "JPEG",
        "added_at": "2025-07-17T00:03:00.085703",
        "hash": "7839cbe738593556dce4b0e247b62550",
        "source": "migrated"
      }
    },
    {
      "id": "architecture_245",
      "category": "architecture",
      "title": "Architecture Wallpaper 245",
      "tags": [
        "architecture",
        "wallpaper",
        "hd",
        "mobile"
      ],
      "urls": {
        "raw": "https://raw.githubusercontent.com/ddh4r4m/wallpaper-collection/main/collection/wallpapers/architecture/245.jpg",
        "thumb": "https://raw.githubusercontent.com/ddh4r4m/wallpaper-collection/main/collection/thumbnails/architecture/245.jpg"
      },
      "metadata": {
        "dimensions": {
          "width": 1080,
          "height": 1920
        },
        "file_size": 271579,
        "format": "JPEG",
        "added_at": "2025-07-17T00:03:00.142455",
        "hash": "04fb051f51e3038eb301a7f245437663",
        "source": "migrated"
      }
    }
  ]
}