{
  "meta": {
    "version": "1.0",
    "generated_at": "2025-07-28T22:38:03.579947",
    "page": 54,
    "per_page": 15,
    "total_pages": 178,
    "total_count": 2656,
    "count_on_page": 15,
    "categories": 21,
    "has_next": true,
    "has_prev": true,
    "next_page_url": "/api/v1/all/pages/55.json",
    "prev_page_url": "/api/v1/all/pages/53.json"
  },
  "data": [
    {
      "id": "architecture_039",
      "category": "architecture",
      "title": "Architecture Wallpaper 039",
      "tags": [
        "architecture",
        "wallpaper",
        "hd",
        "mobile"
      ],
      "urls": {
        "raw": "https://media.githubusercontent.com/media/ddh4r4m/wallpaper-collection/main/collection/wallpapers/architecture/039.jpg",
        "thumb": "https://media.githubusercontent.com/media/ddh4r4m/wallpaper-collection/main/collection/thumbnails/architecture/039.jpg"
      },
      "metadata": {
        "dimensions": {
          "width": 1080,
          "height": 1920
        },
        "file_size": 612329,
        "format": "JPEG",
        "added_at": "2025-07-17T00:02:47.440522",
        "hash": "806fb233c8c5a7f6d85f45f827b23545",
        "source": "migrated"
      }
    },
    {
      "id": "architecture_040",
      "category": "architecture",
      "title": "Architecture Wallpaper 040",
      "tags": [
        "architecture",
        "wallpaper",
        "hd",
        "mobile"
      ],
      "urls": {
        "raw": "https://media.githubusercontent.com/media/ddh4r4m/wallpaper-collection/main/collection/wallpapers/architecture/040.jpg",
        "thumb": "https://media.githubusercontent.com/media/ddh4r4m/wallpaper-collection/main/collection/thumbnails/architecture/040.jpg"
      },
      "metadata": {
        "dimensions": {
          "width": 1080,
          "height": 1920
        },
        "file_size": 350243,
        "format": "JPEG",
        "added_at": "2025-07-17T00:02:47.502380",
        "hash": "5dc69a3b29afb4b9400365a6cbf83f6b",
        "source": "migrated"
      }
    },
    {
      "id": "architecture_041",
      "category": "architecture",
      "title": "Architecture Wallpaper 041",
      "tags": [
        "architecture",
        "wallpaper",
        "hd",
        "mobile"
      ],
      "urls": {
        "raw": "https://media.githubusercontent.com/media/ddh4r4m/wallpaper-collection/main/collection/wallpapers/architecture/041.jpg",
        "thumb": "https://media.githubusercontent.com/media/ddh4r4m/wallpaper-collection/main/collection/thumbnails/architecture/041.jpg"
      },
      "metadata": {
        "dimensions": {
          "width": 1080,
          "height": 1920
        },
        "file_size": 357313,
        "format": "JPEG",
        "added_at": "2025-07-17T00:02:47.563433",
        "hash": "fa61f3e9d7ec1c3bbdda568f3b8548c3",
        "source": "migrated"
      }
    },
    {
      "id": "architecture_042",
      "category": "architecture",
      "title": "Architecture Wallpaper 042",
      "tags": [
        "architecture",
        "wallpaper",
        "hd",
        "mobile"
      ],
      "urls": {
        "raw": "https://media.githubusercontent.com/media/ddh4r4m/wallpaper-collection/main/collection/wallpapers/architecture/042.jpg",
        "thumb": "https://media.githubusercontent.com/media/ddh4r4m/wallpaper-collection/main/collection/thumbnails/architecture/042.jpg"
      },
      "metadata": {
        "dimensions": {
          "width": 1080,
          "height": 1920
        },
        "file_size": 184350,
        "format": "JPEG",
        "added_at": "2025-07-17T00:02:47.613360",
        "hash": "bc483989499dbaba74ccc4677cce52c4",
        "source": "migrated"
      }
    },
    {
      "id": "architecture_043",
      "category": "architecture",
      "title": "Architecture Wallpaper 043",
      "tags": [
        "architecture",
        "wallpaper",
        "hd",
        "mobile"
      ],
      "urls": {
        "raw": "https://media.githubusercontent.com/media/ddh4r4m/wallpaper-collection/main/collection/wallpapers/architecture/043.jpg",
        "thumb": "https://media.githubusercontent.com/media/ddh4r4m/wallpaper-collection/main/collection/thumbnails/architecture/043.jpg"
      },
      "metadata": {
        "dimensions": {
          "width": 1080,
          "height": 1920
        },
        "file_size": 424646,
        "format": "JPEG",
        "added_at": "2025-07-17T00:02:47.677327",
        "hash": "88af9da08f219b1bba0dbf71b579f2ff",
        "source": "migrated"
      }
    },
    {
      "id": "architecture_044",
      "category": "architecture",
      "title": "Architecture Wallpaper 044",
      "tags": [
        "architecture",
        "wallpaper",
        "hd",
        "mobile"
      ],
      "urls": {
        "raw": "https://media.githubusercontent.com/media/ddh4r4m/wallpaper-collection/main/collection/wallpapers/architecture/044.jpg",
        "thumb": "https://media.githubusercontent.com/media/ddh4r4m/wallpaper-collection/main/collection/thumbnails/architecture/044.jpg"
      },
      "metadata": {
        "dimensions": {
          "width": 1080,
          "height": 1920
        },
        "file_size": 345174,
        "format": "JPEG",
        "added_at": "2025-07-17T00:02:47.738944",
        "hash": "392c4feddeeaf384c444e8d9342f9ffc",
        "source": "migrated"
      }
    },
    {
      "id": "architecture_045",
      "category": "architecture",
      "title": "Architecture Wallpaper 045",
      "tags": [
        "architecture",
        "wallpaper",
        "hd",
        "mobile"
      ],
      "urls": {
        "raw": "https://media.githubusercontent.com/media/ddh4r4m/wallpaper-collection/main/collection/wallpapers/architecture/045.jpg",
        "thumb": "https://media.githubusercontent.com/media/ddh4r4m/wallpaper-collection/main/collection/thumbnails/architecture/045.jpg"
      },
      "metadata": {
        "dimensions": {
          "width": 1080,
          "height": 1920
        },
        "file_size": 97030,
        "format": "JPEG",
        "added_at": "2025-07-17T00:02:47.788907",
        "hash": "94466f3f87141a1516c8bcb5040413fb",
        "source": "migrated"
      }
    },
    {
      "id": "architecture_046",
      "category": "architecture",
      "title": "Architecture Wallpaper 046",
      "tags": [
        "architecture",
        "wallpaper",
        "hd",
        "mobile"
      ],
      "urls": {
        "raw": "https://media.githubusercontent.com/media/ddh4r4m/wallpaper-collection/main/collection/wallpapers/architecture/046.jpg",
        "thumb": "https://media.githubusercontent.com/media/ddh4r4m/wallpaper-collection/main/collection/thumbnails/architecture/046.jpg"
      },
      "metadata": {
        "dimensions": {
          "width": 1080,
          "height": 1920
        },
        "file_size": 229941,
        "format": "JPEG",
        "added_at": "2025-07-17T00:02:47.842491",
        "hash": "851e765b31bff1b09d10facfb6608e70",
        "source": "migrated"
      }
    },
    {
      "id": "architecture_047",
      "category": "architecture",
      "title": "Architecture Wallpaper 047",
      "tags": [
        "architecture",
        "wallpaper",
        "hd",
        "mobile"
      ],
      "urls": {
        "raw": "https://media.githubusercontent.com/media/ddh4r4m/wallpaper-collection/main/collection/wallpapers/architecture/047.jpg",
        "thumb": "https://media.githubusercontent.com/media/ddh4r4m/wallpaper-collection/main/collection/thumbnails/architecture/047.jpg"
      },
      "metadata": {
        "dimensions": {
          "width": 1080,
          "height": 1920
        },
        "file_size": 192425,
        "format": "JPEG",
        "added_at": "2025-07-17T00:02:47.896461",
        "hash": "fc0aae624662b9140af36ee9af013eed",
        "source": "migrated"
      }
    },
    {
      "id": "architecture_048",
      "category": "architecture",
      "title": "Architecture Wallpaper 048",
      "tags": [
        "architecture",
        "wallpaper",
        "hd",
        "mobile"
      ],
      "urls": {
        "raw": "https://media.githubusercontent.com/media/ddh4r4m/wallpaper-collection/main/collection/wallpapers/architecture/048.jpg",
        "thumb": "https://media.githubusercontent.com/media/ddh4r4m/wallpaper-collection/main/collection/thumbnails/architecture/048.jpg"
      },
      "metadata": {
        "dimensions": {
          "width": 1080,
          "height": 1920
        },
        "file_size": 289688,
        "format": "JPEG",
        "added_at": "2025-07-17T00:02:47.955621",
        "hash": "9a86fa06e279d209f986e5ba2ad41443",
        "source": "migrated"
      }
    },
    {
      "id": "architecture_049",
      "category": "architecture",
      "title": "Architecture Wallpaper 049",
      "tags": [
        "architecture",
        "wallpaper",
        "hd",
        "mobile"
      ],
      "urls": {
        "raw": "https://media.githubusercontent.com/media/ddh4r4m/wallpaper-collection/main/collection/wallpapers/architecture/049.jpg",
        "thumb": "https://media.githubusercontent.com/media/ddh4r4m/wallpaper-collection/main/collection/thumbnails/architecture/049.jpg"
      },
      "metadata": {
        "dimensions": {
          "width": 1080,
          "height": 1920
        },
        "file_size": 216275,
        "format": "JPEG",
        "added_at": "2025-07-17T00:02:48.010140",
        "hash": "767c160824773c3aa25394541f1a88d4",
        "source": "migrated"
      }
    },
    {
      "id": "architecture_050",
      "category": "architecture",
      "title": "Architecture Wallpaper 050",
      "tags": [
        "architecture",
        "wallpaper",
        "hd",
        "mobile"
      ],
      "urls": {
        "raw": "https://media.githubusercontent.com/media/ddh4r4m/wallpaper-collection/main/collection/wallpapers/architecture/050.jpg",
        "thumb": "https://media.githubusercontent.com/media/ddh4r4m/wallpaper-collection/main/collection/thumbnails/architecture/050.jpg"
      },
      "metadata": {
        "dimensions": {
          "width": 1080,
          "height": 1920
        },
        "file_size": 264908,
        "format": "JPEG",
        "added_at": "2025-07-17T00:02:48.066485",
        "hash": "69073b66b72d9ed95b77e20c61c1ecf9",
        "source": "migrated"
      }
    },
    {
      "id": "architecture_051",
      "category": "architecture",
      "title": "Architecture Wallpaper 051",
      "tags": [
        "architecture",
        "wallpaper",
        "hd",
        "mobile"
      ],
      "urls": {
        "raw": "https://media.githubusercontent.com/media/ddh4r4m/wallpaper-collection/main/collection/wallpapers/architecture/051.jpg",
        "thumb": "https://media.githubusercontent.com/media/ddh4r4m/wallpaper-collection/main/collection/thumbnails/architecture/051.jpg"
      },
      "metadata": {
        "dimensions": {
          "width": 1080,
          "height": 1920
        },
        "file_size": 229792,
        "format": "JPEG",
        "added_at": "2025-07-17T00:02:48.121653",
        "hash": "7d0d97ae5a6351d618e88999a9c9bfeb",
        "source": "migrated"
      }
    },
    {
      "id": "architecture_052",
      "category": "architecture",
      "title": "Architecture Wallpaper 052",
      "tags": [
        "architecture",
        "wallpaper",
        "hd",
        "mobile"
      ],
      "urls": {
        "raw": "https://media.githubusercontent.com/media/ddh4r4m/wallpaper-collection/main/collection/wallpapers/architecture/052.jpg",
        "thumb": "https://media.githubusercontent.com/media/ddh4r4m/wallpaper-collection/main/collection/thumbnails/architecture/052.jpg"
      },
      "metadata": {
        "dimensions": {
          "width": 1080,
          "height": 1920
        },
        "file_size": 247541,
        "format": "JPEG",
        "added_at": "2025-07-17T00:02:48.178485",
        "hash": "0eeb5da45e4a7f99873a8925734641fa",
        "source": "migrated"
      }
    },
    {
      "id": "architecture_053",
      "category": "architecture",
      "title": "Architecture Wallpaper 053",
      "tags": [
        "architecture",
        "wallpaper",
        "hd",
        "mobile"
      ],
      "urls": {
        "raw": "https://media.githubusercontent.com/media/ddh4r4m/wallpaper-collection/main/collection/wallpapers/architecture/053.jpg",
        "thumb": "https://media.githubusercontent.com/media/ddh4r4m/wallpaper-collection/main/collection/thumbnails/architecture/053.jpg"
      },
      "metadata": {
        "dimensions": {
          "width": 1080,
          "height": 1920
        },
        "file_size": 369259,
        "format": "JPEG",
        "added_at": "2025-07-17T00:02:48.239195",
        "hash": "f1b3eed2577e65d0dcb362368939fef2",
        "source": "migrated"
      }
    }
  ]
}