{
  "meta": {
    "version": "1.0",
    "generated_at": "2025-07-28T22:38:03.579947",
    "page": 57,
    "per_page": 15,
    "total_pages": 178,
    "total_count": 2656,
    "count_on_page": 15,
    "categories": 21,
    "has_next": true,
    "has_prev": true,
    "next_page_url": "/api/v1/all/pages/58.json",
    "prev_page_url": "/api/v1/all/pages/56.json"
  },
  "data": [
    {
      "id": "architecture_084",
      "category": "architecture",
      "title": "Architecture Wallpaper 084",
      "tags": [
        "architecture",
        "wallpaper",
        "hd",
        "mobile"
      ],
      "urls": {
        "raw": "https://media.githubusercontent.com/media/ddh4r4m/wallpaper-collection/main/collection/wallpapers/architecture/084.jpg",
        "thumb": "https://media.githubusercontent.com/media/ddh4r4m/wallpaper-collection/main/collection/thumbnails/architecture/084.jpg"
      },
      "metadata": {
        "dimensions": {
          "width": 1080,
          "height": 1920
        },
        "file_size": 587016,
        "format": "JPEG",
        "added_at": "2025-07-17T00:02:50.200409",
        "hash": "90c05f95372839fcf5804101fdc8e02f",
        "source": "migrated"
      }
    },
    {
      "id": "architecture_085",
      "category": "architecture",
      "title": "Architecture Wallpaper 085",
      "tags": [
        "architecture",
        "wallpaper",
        "hd",
        "mobile"
      ],
      "urls": {
        "raw": "https://media.githubusercontent.com/media/ddh4r4m/wallpaper-collection/main/collection/wallpapers/architecture/085.jpg",
        "thumb": "https://media.githubusercontent.com/media/ddh4r4m/wallpaper-collection/main/collection/thumbnails/architecture/085.jpg"
      },
      "metadata": {
        "dimensions": {
          "width": 1080,
          "height": 1920
        },
        "file_size": 431399,
        "format": "JPEG",
        "added_at": "2025-07-17T00:02:50.264680",
        "hash": "1f10a3f57d9b3c3f02b282412a01a74f",
        "source": "migrated"
      }
    },
    {
      "id": "architecture_086",
      "category": "architecture",
      "title": "Architecture Wallpaper 086",
      "tags": [
        "architecture",
        "wallpaper",
        "hd",
        "mobile"
      ],
      "urls": {
        "raw": "https://media.githubusercontent.com/media/ddh4r4m/wallpaper-collection/main/collection/wallpapers/architecture/086.jpg",
        "thumb": "https://media.githubusercontent.com/media/ddh4r4m/wallpaper-collection/main/collection/thumbnails/architecture/086.jpg"
      },
      "metadata": {
        "dimensions": {
          "width": 1080,
          "height": 1920
        },
        "file_size": 243114,
        "format": "JPEG",
        "added_at": "2025-07-17T00:02:50.320989",
        "hash": "7cb4469c64e3fc89323888ab1104fcb0",
        "source": "migrated"
      }
    },
    {
      "id": "architecture_087",
      "category": "architecture",
      "title": "Architecture Wallpaper 087",
      "tags": [
        "architecture",
        "wallpaper",
        "hd",
        "mobile"
      ],
      "urls": {
        "raw": "https://media.githubusercontent.com/media/ddh4r4m/wallpaper-collection/main/collection/wallpapers/architecture/087.jpg",
        "thumb": "https://media.githubusercontent.com/media/ddh4r4m/wallpaper-collection/main/collection/thumbnails/architecture/087.jpg"
      },
      "metadata": {
        "dimensions": {
          "width": 1080,
          "height": 1920
        },
        "file_size": 474871,
        "format": "JPEG",
        "added_at": "2025-07-17T00:02:50.388307",
        "hash": "c1f78e33d11dc60eeaa1313ce3c58501",
        "source": "migrated"
      }
    },
    {
      "id": "architecture_088",
      "category": "architecture",
      "title": "Architecture Wallpaper 088",
      "tags": [
        "architecture",
        "wallpaper",
        "hd",
        "mobile"
      ],
      "urls": {
        "raw": "https://media.githubusercontent.com/media/ddh4r4m/wallpaper-collection/main/collection/wallpapers/architecture/088.jpg",
        "thumb": "https://media.githubusercontent.com/media/ddh4r4m/wallpaper-collection/main/collection/thumbnails/architecture/088.jpg"
      },
      "metadata": {
        "dimensions": {
          "width": 1080,
          "height": 1920
        },
        "file_size": 556589,
        "format": "JPEG",
        "added_at": "2025-07-17T00:02:50.460107",
        "hash": "e187739db4de1645f0e29db6c27fc693",
        "source": "migrated"
      }
    },
    {
      "id": "architecture_089",
      "category": "architecture",
      "title": "Architecture Wallpaper 089",
      "tags": [
        "architecture",
        "wallpaper",
        "hd",
        "mobile"
      ],
      "urls": {
        "raw": "https://media.githubusercontent.com/media/ddh4r4m/wallpaper-collection/main/collection/wallpapers/architecture/089.jpg",
        "thumb": "https://media.githubusercontent.com/media/ddh4r4m/wallpaper-collection/main/collection/thumbnails/architecture/089.jpg"
      },
      "metadata": {
        "dimensions": {
          "width": 1080,
          "height": 1920
        },
        "file_size": 472838,
        "format": "JPEG",
        "added_at": "2025-07-17T00:02:50.526953",
        "hash": "0d4896bc6a98c60d73e31e9b1cf41edd",
        "source": "migrated"
      }
    },
    {
      "id": "architecture_090",
      "category": "architecture",
      "title": "Architecture Wallpaper 090",
      "tags": [
        "architecture",
        "wallpaper",
        "hd",
        "mobile"
      ],
      "urls": {
        "raw": "https://media.githubusercontent.com/media/ddh4r4m/wallpaper-collection/main/collection/wallpapers/architecture/090.jpg",
        "thumb": "https://media.githubusercontent.com/media/ddh4r4m/wallpaper-collection/main/collection/thumbnails/architecture/090.jpg"
      },
      "metadata": {
        "dimensions": {
          "width": 1080,
          "height": 1920
        },
        "file_size": 425274,
        "format": "JPEG",
        "added_at": "2025-07-17T00:02:50.592141",
        "hash": "b5e2dbaa7e157359bbcb57cb8560fdaa",
        "source": "migrated"
      }
    },
    {
      "id": "architecture_091",
      "category": "architecture",
      "title": "Architecture Wallpaper 091",
      "tags": [
        "architecture",
        "wallpaper",
        "hd",
        "mobile"
      ],
      "urls": {
        "raw": "https://media.githubusercontent.com/media/ddh4r4m/wallpaper-collection/main/collection/wallpapers/architecture/091.jpg",
        "thumb": "https://media.githubusercontent.com/media/ddh4r4m/wallpaper-collection/main/collection/thumbnails/architecture/091.jpg"
      },
      "metadata": {
        "dimensions": {
          "width": 1080,
          "height": 1920
        },
        "file_size": 287960,
        "format": "JPEG",
        "added_at": "2025-07-17T00:02:50.650355",
        "hash": "5defb48d74d1492090e11d98cfab8e96",
        "source": "migrated"
      }
    },
    {
      "id": "architecture_092",
      "category": "architecture",
      "title": "Architecture Wallpaper 092",
      "tags": [
        "architecture",
        "wallpaper",
        "hd",
        "mobile"
      ],
      "urls": {
        "raw": "https://media.githubusercontent.com/media/ddh4r4m/wallpaper-collection/main/collection/wallpapers/architecture/092.jpg",
        "thumb": "https://media.githubusercontent.com/media/ddh4r4m/wallpaper-collection/main/collection/thumbnails/architecture/092.jpg"
      },
      "metadata": {
        "dimensions": {
          "width": 1080,
          "height": 1920
        },
        "file_size": 326004,
        "format": "JPEG",
        "added_at": "2025-07-17T00:02:50.710787",
        "hash": "2c2bccd59540186f809bb481f268a204",
        "source": "migrated"
      }
    },
    {
      "id": "architecture_093",
      "category": "architecture",
      "title": "Architecture Wallpaper 093",
      "tags": [
        "architecture",
        "wallpaper",
        "hd",
        "mobile"
      ],
      "urls": {
        "raw": "https://media.githubusercontent.com/media/ddh4r4m/wallpaper-collection/main/collection/wallpapers/architecture/093.jpg",
        "thumb": "https://media.githubusercontent.com/media/ddh4r4m/wallpaper-collection/main/collection/thumbnails/architecture/093.jpg"
      },
      "metadata": {
        "dimensions": {
          "width": 1080,
          "height": 1920
        },
        "file_size": 182714,
        "format": "JPEG",
        "added_at": "2025-07-17T00:02:50.761157",
        "hash": "bd0512f7847dbc9a64cd227ca5bcd50c",
        "source": "migrated"
      }
    },
    {
      "id": "architecture_094",
      "category": "architecture",
      "title": "Architecture Wallpaper 094",
      "tags": [
        "architecture",
        "wallpaper",
        "hd",
        "mobile"
      ],
      "urls": {
        "raw": "https://media.githubusercontent.com/media/ddh4r4m/wallpaper-collection/main/collection/wallpapers/architecture/094.jpg",
        "thumb": "https://media.githubusercontent.com/media/ddh4r4m/wallpaper-collection/main/collection/thumbnails/architecture/094.jpg"
      },
      "metadata": {
        "dimensions": {
          "width": 1080,
          "height": 1920
        },
        "file_size": 528058,
        "format": "JPEG",
        "added_at": "2025-07-17T00:02:50.829333",
        "hash": "e734985cd1bf1a81a0189b75c52a8aa2",
        "source": "migrated"
      }
    },
    {
      "id": "architecture_095",
      "category": "architecture",
      "title": "Architecture Wallpaper 095",
      "tags": [
        "architecture",
        "wallpaper",
        "hd",
        "mobile"
      ],
      "urls": {
        "raw": "https://media.githubusercontent.com/media/ddh4r4m/wallpaper-collection/main/collection/wallpapers/architecture/095.jpg",
        "thumb": "https://media.githubusercontent.com/media/ddh4r4m/wallpaper-collection/main/collection/thumbnails/architecture/095.jpg"
      },
      "metadata": {
        "dimensions": {
          "width": 1080,
          "height": 1920
        },
        "file_size": 372968,
        "format": "JPEG",
        "added_at": "2025-07-17T00:02:50.889717",
        "hash": "d47fdff1afc2327fd644234540c342aa",
        "source": "migrated"
      }
    },
    {
      "id": "architecture_096",
      "category": "architecture",
      "title": "Architecture Wallpaper 096",
      "tags": [
        "architecture",
        "wallpaper",
        "hd",
        "mobile"
      ],
      "urls": {
        "raw": "https://media.githubusercontent.com/media/ddh4r4m/wallpaper-collection/main/collection/wallpapers/architecture/096.jpg",
        "thumb": "https://media.githubusercontent.com/media/ddh4r4m/wallpaper-collection/main/collection/thumbnails/architecture/096.jpg"
      },
      "metadata": {
        "dimensions": {
          "width": 1080,
          "height": 1920
        },
        "file_size": 54510,
        "format": "JPEG",
        "added_at": "2025-07-17T00:02:50.931733",
        "hash": "4e102d751543ae0c69911b0c477ccc4e",
        "source": "migrated"
      }
    },
    {
      "id": "architecture_097",
      "category": "architecture",
      "title": "Architecture Wallpaper 097",
      "tags": [
        "architecture",
        "wallpaper",
        "hd",
        "mobile"
      ],
      "urls": {
        "raw": "https://media.githubusercontent.com/media/ddh4r4m/wallpaper-collection/main/collection/wallpapers/architecture/097.jpg",
        "thumb": "https://media.githubusercontent.com/media/ddh4r4m/wallpaper-collection/main/collection/thumbnails/architecture/097.jpg"
      },
      "metadata": {
        "dimensions": {
          "width": 1080,
          "height": 1920
        },
        "file_size": 269549,
        "format": "JPEG",
        "added_at": "2025-07-17T00:02:50.987988",
        "hash": "0771d95d664c36297ec068425b76147f",
        "source": "migrated"
      }
    },
    {
      "id": "architecture_098",
      "category": "architecture",
      "title": "Architecture Wallpaper 098",
      "tags": [
        "architecture",
        "wallpaper",
        "hd",
        "mobile"
      ],
      "urls": {
        "raw": "https://media.githubusercontent.com/media/ddh4r4m/wallpaper-collection/main/collection/wallpapers/architecture/098.jpg",
        "thumb": "https://media.githubusercontent.com/media/ddh4r4m/wallpaper-collection/main/collection/thumbnails/architecture/098.jpg"
      },
      "metadata": {
        "dimensions": {
          "width": 1080,
          "height": 1920
        },
        "file_size": 316232,
        "format": "JPEG",
        "added_at": "2025-07-17T00:02:51.048323",
        "hash": "dd53e1821536d68854a7705edb3af2f1",
        "source": "migrated"
      }
    }
  ]
}