{
  "meta": {
    "version": "1.0",
    "generated_at": "2025-07-17T21:14:17.488868",
    "page": 59,
    "per_page": 15,
    "total_pages": 117,
    "total_count": 1751,
    "count_on_page": 15,
    "categories": 17,
    "has_next": true,
    "has_prev": true,
    "next_page_url": "/api/v1/all/pages/60.json",
    "prev_page_url": "/api/v1/all/pages/58.json"
  },
  "data": [
    {
      "id": "cars_014",
      "category": "cars",
      "title": "Cars Wallpaper 014",
      "tags": [
        "cars",
        "wallpaper",
        "hd",
        "mobile"
      ],
      "urls": {
        "raw": "https://media.githubusercontent.com/media/ddh4r4m/wallpaper-collection/main/collection/wallpapers/cars/014.jpg",
        "thumb": "https://media.githubusercontent.com/media/ddh4r4m/wallpaper-collection/main/collection/thumbnails/cars/014.jpg"
      },
      "metadata": {
        "dimensions": {
          "width": 1080,
          "height": 1920
        },
        "file_size": 272959,
        "format": "JPEG",
        "added_at": "2025-07-17T00:03:08.912826",
        "hash": "0b8cf85bfff49363a36c56475d0be664",
        "source": "migrated"
      }
    },
    {
      "id": "cars_015",
      "category": "cars",
      "title": "Cars Wallpaper 015",
      "tags": [
        "cars",
        "wallpaper",
        "hd",
        "mobile"
      ],
      "urls": {
        "raw": "https://media.githubusercontent.com/media/ddh4r4m/wallpaper-collection/main/collection/wallpapers/cars/015.jpg",
        "thumb": "https://media.githubusercontent.com/media/ddh4r4m/wallpaper-collection/main/collection/thumbnails/cars/015.jpg"
      },
      "metadata": {
        "dimensions": {
          "width": 1080,
          "height": 1920
        },
        "file_size": 241339,
        "format": "JPEG",
        "added_at": "2025-07-17T00:03:09.109804",
        "hash": "5ae93e85a2f28feafb386711f7448607",
        "source": "migrated"
      }
    },
    {
      "id": "cars_016",
      "category": "cars",
      "title": "Cars Wallpaper 016",
      "tags": [
        "cars",
        "wallpaper",
        "hd",
        "mobile"
      ],
      "urls": {
        "raw": "https://media.githubusercontent.com/media/ddh4r4m/wallpaper-collection/main/collection/wallpapers/cars/016.jpg",
        "thumb": "https://media.githubusercontent.com/media/ddh4r4m/wallpaper-collection/main/collection/thumbnails/cars/016.jpg"
      },
      "metadata": {
        "dimensions": {
          "width": 1080,
          "height": 1920
        },
        "file_size": 166924,
        "format": "JPEG",
        "added_at": "2025-07-17T00:03:09.239473",
        "hash": "05b9d8e75606ab7f7ae59aadf9bd7c90",
        "source": "migrated"
      }
    },
    {
      "id": "cars_017",
      "category": "cars",
      "title": "Cars Wallpaper 017",
      "tags": [
        "cars",
        "wallpaper",
        "hd",
        "mobile"
      ],
      "urls": {
        "raw": "https://media.githubusercontent.com/media/ddh4r4m/wallpaper-collection/main/collection/wallpapers/cars/017.jpg",
        "thumb": "https://media.githubusercontent.com/media/ddh4r4m/wallpaper-collection/main/collection/thumbnails/cars/017.jpg"
      },
      "metadata": {
        "dimensions": {
          "width": 1080,
          "height": 1920
        },
        "file_size": 202024,
        "format": "JPEG",
        "added_at": "2025-07-17T00:03:09.438054",
        "hash": "fbc1ecef96af1bffd1ffcd8a5b01e1aa",
        "source": "migrated"
      }
    },
    {
      "id": "cars_018",
      "category": "cars",
      "title": "Cars Wallpaper 018",
      "tags": [
        "cars",
        "wallpaper",
        "hd",
        "mobile"
      ],
      "urls": {
        "raw": "https://media.githubusercontent.com/media/ddh4r4m/wallpaper-collection/main/collection/wallpapers/cars/018.jpg",
        "thumb": "https://media.githubusercontent.com/media/ddh4r4m/wallpaper-collection/main/collection/thumbnails/cars/018.jpg"
      },
      "metadata": {
        "dimensions": {
          "width": 1080,
          "height": 1920
        },
        "file_size": 172727,
        "format": "JPEG",
        "added_at": "2025-07-17T00:03:09.875995",
        "hash": "523096820c5379430a54bb3163562cae",
        "source": "migrated"
      }
    },
    {
      "id": "cars_019",
      "category": "cars",
      "title": "Cars Wallpaper 019",
      "tags": [
        "cars",
        "wallpaper",
        "hd",
        "mobile"
      ],
      "urls": {
        "raw": "https://media.githubusercontent.com/media/ddh4r4m/wallpaper-collection/main/collection/wallpapers/cars/019.jpg",
        "thumb": "https://media.githubusercontent.com/media/ddh4r4m/wallpaper-collection/main/collection/thumbnails/cars/019.jpg"
      },
      "metadata": {
        "dimensions": {
          "width": 1080,
          "height": 1920
        },
        "file_size": 197412,
        "format": "JPEG",
        "added_at": "2025-07-17T00:03:10.014076",
        "hash": "5136b693f0dc12d409b8afc3e0c6bb84",
        "source": "migrated"
      }
    },
    {
      "id": "cars_020",
      "category": "cars",
      "title": "Cars Wallpaper 020",
      "tags": [
        "cars",
        "wallpaper",
        "hd",
        "mobile"
      ],
      "urls": {
        "raw": "https://media.githubusercontent.com/media/ddh4r4m/wallpaper-collection/main/collection/wallpapers/cars/020.jpg",
        "thumb": "https://media.githubusercontent.com/media/ddh4r4m/wallpaper-collection/main/collection/thumbnails/cars/020.jpg"
      },
      "metadata": {
        "dimensions": {
          "width": 1080,
          "height": 1920
        },
        "file_size": 122818,
        "format": "JPEG",
        "added_at": "2025-07-17T00:03:10.203159",
        "hash": "a778f3038893ad12823a560475a5db9f",
        "source": "migrated"
      }
    },
    {
      "id": "cars_021",
      "category": "cars",
      "title": "Cars Wallpaper 021",
      "tags": [
        "cars",
        "wallpaper",
        "hd",
        "mobile"
      ],
      "urls": {
        "raw": "https://media.githubusercontent.com/media/ddh4r4m/wallpaper-collection/main/collection/wallpapers/cars/021.jpg",
        "thumb": "https://media.githubusercontent.com/media/ddh4r4m/wallpaper-collection/main/collection/thumbnails/cars/021.jpg"
      },
      "metadata": {
        "dimensions": {
          "width": 1080,
          "height": 1920
        },
        "file_size": 415389,
        "format": "JPEG",
        "added_at": "2025-07-17T00:03:10.537536",
        "hash": "be90126d1ac942fb0f1986b6069ca752",
        "source": "migrated"
      }
    },
    {
      "id": "cars_022",
      "category": "cars",
      "title": "Cars Wallpaper 022",
      "tags": [
        "cars",
        "wallpaper",
        "hd",
        "mobile"
      ],
      "urls": {
        "raw": "https://media.githubusercontent.com/media/ddh4r4m/wallpaper-collection/main/collection/wallpapers/cars/022.jpg",
        "thumb": "https://media.githubusercontent.com/media/ddh4r4m/wallpaper-collection/main/collection/thumbnails/cars/022.jpg"
      },
      "metadata": {
        "dimensions": {
          "width": 1080,
          "height": 1920
        },
        "file_size": 200431,
        "format": "JPEG",
        "added_at": "2025-07-17T00:03:11.022355",
        "hash": "3cc576dd5787e99bf1bdded6558edb94",
        "source": "migrated"
      }
    },
    {
      "id": "cars_023",
      "category": "cars",
      "title": "Cars Wallpaper 023",
      "tags": [
        "cars",
        "wallpaper",
        "hd",
        "mobile"
      ],
      "urls": {
        "raw": "https://media.githubusercontent.com/media/ddh4r4m/wallpaper-collection/main/collection/wallpapers/cars/023.jpg",
        "thumb": "https://media.githubusercontent.com/media/ddh4r4m/wallpaper-collection/main/collection/thumbnails/cars/023.jpg"
      },
      "metadata": {
        "dimensions": {
          "width": 1080,
          "height": 1920
        },
        "file_size": 239765,
        "format": "JPEG",
        "added_at": "2025-07-17T00:03:11.239666",
        "hash": "ce3c58877cceb1ba1a85098c358f21bd",
        "source": "migrated"
      }
    },
    {
      "id": "cars_024",
      "category": "cars",
      "title": "Cars Wallpaper 024",
      "tags": [
        "cars",
        "wallpaper",
        "hd",
        "mobile"
      ],
      "urls": {
        "raw": "https://media.githubusercontent.com/media/ddh4r4m/wallpaper-collection/main/collection/wallpapers/cars/024.jpg",
        "thumb": "https://media.githubusercontent.com/media/ddh4r4m/wallpaper-collection/main/collection/thumbnails/cars/024.jpg"
      },
      "metadata": {
        "dimensions": {
          "width": 1080,
          "height": 1920
        },
        "file_size": 182558,
        "format": "JPEG",
        "added_at": "2025-07-17T00:03:11.681162",
        "hash": "b1205eb9d0d82c4bb558b5171f5792fe",
        "source": "migrated"
      }
    },
    {
      "id": "cars_025",
      "category": "cars",
      "title": "Cars Wallpaper 025",
      "tags": [
        "cars",
        "wallpaper",
        "hd",
        "mobile"
      ],
      "urls": {
        "raw": "https://media.githubusercontent.com/media/ddh4r4m/wallpaper-collection/main/collection/wallpapers/cars/025.jpg",
        "thumb": "https://media.githubusercontent.com/media/ddh4r4m/wallpaper-collection/main/collection/thumbnails/cars/025.jpg"
      },
      "metadata": {
        "dimensions": {
          "width": 1080,
          "height": 1920
        },
        "file_size": 347956,
        "format": "JPEG",
        "added_at": "2025-07-17T00:03:11.984041",
        "hash": "d219e7f1be927ec466ea8f4cbb2aa2fb",
        "source": "migrated"
      }
    },
    {
      "id": "cars_026",
      "category": "cars",
      "title": "Cars Wallpaper 026",
      "tags": [
        "cars",
        "wallpaper",
        "hd",
        "mobile"
      ],
      "urls": {
        "raw": "https://media.githubusercontent.com/media/ddh4r4m/wallpaper-collection/main/collection/wallpapers/cars/026.jpg",
        "thumb": "https://media.githubusercontent.com/media/ddh4r4m/wallpaper-collection/main/collection/thumbnails/cars/026.jpg"
      },
      "metadata": {
        "dimensions": {
          "width": 1080,
          "height": 1920
        },
        "file_size": 248201,
        "format": "JPEG",
        "added_at": "2025-07-17T00:03:12.258754",
        "hash": "6bc0282026fac9e25a67aff526e8f239",
        "source": "migrated"
      }
    },
    {
      "id": "cars_027",
      "category": "cars",
      "title": "Cars Wallpaper 027",
      "tags": [
        "cars",
        "wallpaper",
        "hd",
        "mobile"
      ],
      "urls": {
        "raw": "https://media.githubusercontent.com/media/ddh4r4m/wallpaper-collection/main/collection/wallpapers/cars/027.jpg",
        "thumb": "https://media.githubusercontent.com/media/ddh4r4m/wallpaper-collection/main/collection/thumbnails/cars/027.jpg"
      },
      "metadata": {
        "dimensions": {
          "width": 1080,
          "height": 1920
        },
        "file_size": 251704,
        "format": "JPEG",
        "added_at": "2025-07-17T00:03:12.566808",
        "hash": "2cf85877faa35f23247e9d68c4efa6a5",
        "source": "migrated"
      }
    },
    {
      "id": "cars_028",
      "category": "cars",
      "title": "Cars Wallpaper 028",
      "tags": [
        "cars",
        "wallpaper",
        "hd",
        "mobile"
      ],
      "urls": {
        "raw": "https://media.githubusercontent.com/media/ddh4r4m/wallpaper-collection/main/collection/wallpapers/cars/028.jpg",
        "thumb": "https://media.githubusercontent.com/media/ddh4r4m/wallpaper-collection/main/collection/thumbnails/cars/028.jpg"
      },
      "metadata": {
        "dimensions": {
          "width": 1080,
          "height": 1920
        },
        "file_size": 478729,
        "format": "JPEG",
        "added_at": "2025-07-17T00:03:12.818483",
        "hash": "65d196e704a6e4d8474c0bdd3dc6b50a",
        "source": "migrated"
      }
    }
  ]
}