{
  "meta": {
    "version": "1.0",
    "generated_at": "2025-07-19T12:26:57.111378",
    "page": 6,
    "per_page": 15,
    "total_pages": 160,
    "total_count": 2387,
    "count_on_page": 15,
    "categories": 19,
    "has_next": true,
    "has_prev": true,
    "next_page_url": "/api/v1/all/pages/7.json",
    "prev_page_url": "/api/v1/all/pages/5.json"
  },
  "data": [
    {
      "id": "4k_076",
      "category": "4k",
      "title": "4K Wallpaper 076",
      "tags": [
        "4k",
        "wallpaper",
        "curated",
        "hd",
        "portrait"
      ],
      "metadata": {
        "dimensions": {
          "width": 1080,
          "height": 1920
        },
        "file_size": 266263,
        "format": "JPEG",
        "added_at": "2025-07-16T22:15:12.228773",
        "hash": "6692331285aa037c64795f561f9add50"
      },
      "urls": {
        "raw": "https://media.githubusercontent.com/media/ddh4r4m/wallpaper-collection/main/collection/wallpapers/4k/076.jpg",
        "thumb": "https://media.githubusercontent.com/media/ddh4r4m/wallpaper-collection/main/collection/thumbnails/4k/076.jpg"
      }
    },
    {
      "id": "4k_077",
      "category": "4k",
      "title": "4K Wallpaper 077",
      "tags": [
        "4k",
        "wallpaper",
        "curated",
        "hd",
        "portrait"
      ],
      "metadata": {
        "dimensions": {
          "width": 1080,
          "height": 1920
        },
        "file_size": 378943,
        "format": "JPEG",
        "added_at": "2025-07-16T22:15:12.387336",
        "hash": "9f7ca20fa6ac107e38b7cee379da3a4a"
      },
      "urls": {
        "raw": "https://media.githubusercontent.com/media/ddh4r4m/wallpaper-collection/main/collection/wallpapers/4k/077.jpg",
        "thumb": "https://media.githubusercontent.com/media/ddh4r4m/wallpaper-collection/main/collection/thumbnails/4k/077.jpg"
      }
    },
    {
      "id": "4k_078",
      "category": "4k",
      "title": "4K Wallpaper 078",
      "tags": [
        "4k",
        "wallpaper",
        "curated",
        "hd",
        "portrait"
      ],
      "metadata": {
        "dimensions": {
          "width": 1080,
          "height": 1920
        },
        "file_size": 471217,
        "format": "JPEG",
        "added_at": "2025-07-16T22:15:12.555616",
        "hash": "3b4fa67499c115d862538dae1ec0ec26"
      },
      "urls": {
        "raw": "https://media.githubusercontent.com/media/ddh4r4m/wallpaper-collection/main/collection/wallpapers/4k/078.jpg",
        "thumb": "https://media.githubusercontent.com/media/ddh4r4m/wallpaper-collection/main/collection/thumbnails/4k/078.jpg"
      }
    },
    {
      "id": "4k_079",
      "category": "4k",
      "title": "4K Wallpaper 079",
      "tags": [
        "4k",
        "wallpaper",
        "curated",
        "hd",
        "portrait"
      ],
      "metadata": {
        "dimensions": {
          "width": 1080,
          "height": 1920
        },
        "file_size": 424108,
        "format": "JPEG",
        "added_at": "2025-07-16T22:15:12.719291",
        "hash": "67bd04f12145461884798c4a4a656fbb"
      },
      "urls": {
        "raw": "https://media.githubusercontent.com/media/ddh4r4m/wallpaper-collection/main/collection/wallpapers/4k/079.jpg",
        "thumb": "https://media.githubusercontent.com/media/ddh4r4m/wallpaper-collection/main/collection/thumbnails/4k/079.jpg"
      }
    },
    {
      "id": "4k_080",
      "category": "4k",
      "title": "4K Wallpaper 080",
      "tags": [
        "4k",
        "wallpaper",
        "curated",
        "hd",
        "portrait"
      ],
      "metadata": {
        "dimensions": {
          "width": 1080,
          "height": 1920
        },
        "file_size": 767425,
        "format": "JPEG",
        "added_at": "2025-07-16T22:15:12.913337",
        "hash": "3e5499addcfe911c7707f06fec72cbeb"
      },
      "urls": {
        "raw": "https://media.githubusercontent.com/media/ddh4r4m/wallpaper-collection/main/collection/wallpapers/4k/080.jpg",
        "thumb": "https://media.githubusercontent.com/media/ddh4r4m/wallpaper-collection/main/collection/thumbnails/4k/080.jpg"
      }
    },
    {
      "id": "4k_081",
      "category": "4k",
      "title": "4K Wallpaper 081",
      "tags": [
        "4k",
        "wallpaper",
        "curated",
        "hd",
        "portrait"
      ],
      "metadata": {
        "dimensions": {
          "width": 1080,
          "height": 1920
        },
        "file_size": 260724,
        "format": "JPEG",
        "added_at": "2025-07-16T22:15:25.710661",
        "hash": "44b7fd398f9600bee9d1d0cc08fb9746"
      },
      "urls": {
        "raw": "https://media.githubusercontent.com/media/ddh4r4m/wallpaper-collection/main/collection/wallpapers/4k/081.jpg",
        "thumb": "https://media.githubusercontent.com/media/ddh4r4m/wallpaper-collection/main/collection/thumbnails/4k/081.jpg"
      }
    },
    {
      "id": "4k_082",
      "category": "4k",
      "title": "4K Wallpaper 082",
      "tags": [
        "4k",
        "wallpaper",
        "curated",
        "hd",
        "portrait"
      ],
      "metadata": {
        "dimensions": {
          "width": 1080,
          "height": 1920
        },
        "file_size": 336377,
        "format": "JPEG",
        "added_at": "2025-07-16T22:15:25.871287",
        "hash": "b92e8f6ada007fef75011d9bb437d5b7"
      },
      "urls": {
        "raw": "https://media.githubusercontent.com/media/ddh4r4m/wallpaper-collection/main/collection/wallpapers/4k/082.jpg",
        "thumb": "https://media.githubusercontent.com/media/ddh4r4m/wallpaper-collection/main/collection/thumbnails/4k/082.jpg"
      }
    },
    {
      "id": "4k_083",
      "category": "4k",
      "title": "4K Wallpaper 083",
      "tags": [
        "4k",
        "wallpaper",
        "curated",
        "hd",
        "portrait"
      ],
      "metadata": {
        "dimensions": {
          "width": 1080,
          "height": 1920
        },
        "file_size": 692504,
        "format": "JPEG",
        "added_at": "2025-07-16T22:15:26.046028",
        "hash": "9b515d4b55195dc0f457393fadd149a5"
      },
      "urls": {
        "raw": "https://media.githubusercontent.com/media/ddh4r4m/wallpaper-collection/main/collection/wallpapers/4k/083.jpg",
        "thumb": "https://media.githubusercontent.com/media/ddh4r4m/wallpaper-collection/main/collection/thumbnails/4k/083.jpg"
      }
    },
    {
      "id": "4k_084",
      "category": "4k",
      "title": "4K Wallpaper 084",
      "tags": [
        "4k",
        "wallpaper",
        "curated",
        "hd",
        "portrait"
      ],
      "metadata": {
        "dimensions": {
          "width": 1080,
          "height": 1920
        },
        "file_size": 240254,
        "format": "JPEG",
        "added_at": "2025-07-16T22:15:26.195906",
        "hash": "cfa62db2f7a01844029f99a529b23a64"
      },
      "urls": {
        "raw": "https://media.githubusercontent.com/media/ddh4r4m/wallpaper-collection/main/collection/wallpapers/4k/084.jpg",
        "thumb": "https://media.githubusercontent.com/media/ddh4r4m/wallpaper-collection/main/collection/thumbnails/4k/084.jpg"
      }
    },
    {
      "id": "4k_085",
      "category": "4k",
      "title": "4K Wallpaper 085",
      "tags": [
        "4k",
        "wallpaper",
        "curated",
        "hd",
        "portrait"
      ],
      "metadata": {
        "dimensions": {
          "width": 1080,
          "height": 1920
        },
        "file_size": 314799,
        "format": "JPEG",
        "added_at": "2025-07-16T22:15:26.348837",
        "hash": "6a341c11e76fa5c3c236589be55c986d"
      },
      "urls": {
        "raw": "https://media.githubusercontent.com/media/ddh4r4m/wallpaper-collection/main/collection/wallpapers/4k/085.jpg",
        "thumb": "https://media.githubusercontent.com/media/ddh4r4m/wallpaper-collection/main/collection/thumbnails/4k/085.jpg"
      }
    },
    {
      "id": "4k_086",
      "category": "4k",
      "title": "4K Wallpaper 086",
      "tags": [
        "4k",
        "wallpaper",
        "curated",
        "hd",
        "portrait"
      ],
      "metadata": {
        "dimensions": {
          "width": 1080,
          "height": 1920
        },
        "file_size": 677526,
        "format": "JPEG",
        "added_at": "2025-07-16T22:15:26.521925",
        "hash": "e0daccf0d65387c0cf55a51ec30f47a6"
      },
      "urls": {
        "raw": "https://media.githubusercontent.com/media/ddh4r4m/wallpaper-collection/main/collection/wallpapers/4k/086.jpg",
        "thumb": "https://media.githubusercontent.com/media/ddh4r4m/wallpaper-collection/main/collection/thumbnails/4k/086.jpg"
      }
    },
    {
      "id": "4k_087",
      "category": "4k",
      "title": "4K Wallpaper 087",
      "tags": [
        "4k",
        "wallpaper",
        "curated",
        "hd",
        "portrait"
      ],
      "metadata": {
        "dimensions": {
          "width": 1080,
          "height": 1920
        },
        "file_size": 334249,
        "format": "JPEG",
        "added_at": "2025-07-16T22:15:26.679058",
        "hash": "9aa3822c8b18d0f020684bad2e9ded4e"
      },
      "urls": {
        "raw": "https://media.githubusercontent.com/media/ddh4r4m/wallpaper-collection/main/collection/wallpapers/4k/087.jpg",
        "thumb": "https://media.githubusercontent.com/media/ddh4r4m/wallpaper-collection/main/collection/thumbnails/4k/087.jpg"
      }
    },
    {
      "id": "4k_088",
      "category": "4k",
      "title": "4K Wallpaper 088",
      "tags": [
        "4k",
        "wallpaper",
        "curated",
        "hd",
        "portrait"
      ],
      "metadata": {
        "dimensions": {
          "width": 1080,
          "height": 1920
        },
        "file_size": 430414,
        "format": "JPEG",
        "added_at": "2025-07-16T22:15:26.842826",
        "hash": "8316ae26bd31f8dadc872745ab9d5ad8"
      },
      "urls": {
        "raw": "https://media.githubusercontent.com/media/ddh4r4m/wallpaper-collection/main/collection/wallpapers/4k/088.jpg",
        "thumb": "https://media.githubusercontent.com/media/ddh4r4m/wallpaper-collection/main/collection/thumbnails/4k/088.jpg"
      }
    },
    {
      "id": "4k_089",
      "category": "4k",
      "title": "4K Wallpaper 089",
      "tags": [
        "4k",
        "wallpaper",
        "curated",
        "hd",
        "portrait"
      ],
      "metadata": {
        "dimensions": {
          "width": 1080,
          "height": 1920
        },
        "file_size": 234838,
        "format": "JPEG",
        "added_at": "2025-07-16T22:15:26.994707",
        "hash": "e4ce320c4e1bff4091a74f7bca76e305"
      },
      "urls": {
        "raw": "https://media.githubusercontent.com/media/ddh4r4m/wallpaper-collection/main/collection/wallpapers/4k/089.jpg",
        "thumb": "https://media.githubusercontent.com/media/ddh4r4m/wallpaper-collection/main/collection/thumbnails/4k/089.jpg"
      }
    },
    {
      "id": "4k_090",
      "category": "4k",
      "title": "4K Wallpaper 090",
      "tags": [
        "4k",
        "wallpaper",
        "curated",
        "hd",
        "portrait"
      ],
      "metadata": {
        "dimensions": {
          "width": 1080,
          "height": 1920
        },
        "file_size": 260165,
        "format": "JPEG",
        "added_at": "2025-07-16T22:15:27.154942",
        "hash": "ada7bb3f30518c9212689ff04cc8143d"
      },
      "urls": {
        "raw": "https://media.githubusercontent.com/media/ddh4r4m/wallpaper-collection/main/collection/wallpapers/4k/090.jpg",
        "thumb": "https://media.githubusercontent.com/media/ddh4r4m/wallpaper-collection/main/collection/thumbnails/4k/090.jpg"
      }
    }
  ]
}