{
  "meta": {
    "version": "1.0",
    "generated_at": "2025-07-28T22:38:03.579947",
    "page": 60,
    "per_page": 15,
    "total_pages": 178,
    "total_count": 2656,
    "count_on_page": 15,
    "categories": 21,
    "has_next": true,
    "has_prev": true,
    "next_page_url": "/api/v1/all/pages/61.json",
    "prev_page_url": "/api/v1/all/pages/59.json"
  },
  "data": [
    {
      "id": "architecture_129",
      "category": "architecture",
      "title": "Architecture Wallpaper 129",
      "tags": [
        "architecture",
        "wallpaper",
        "hd",
        "mobile"
      ],
      "urls": {
        "raw": "https://media.githubusercontent.com/media/ddh4r4m/wallpaper-collection/main/collection/wallpapers/architecture/129.jpg",
        "thumb": "https://media.githubusercontent.com/media/ddh4r4m/wallpaper-collection/main/collection/thumbnails/architecture/129.jpg"
      },
      "metadata": {
        "dimensions": {
          "width": 1080,
          "height": 1920
        },
        "file_size": 523742,
        "format": "JPEG",
        "added_at": "2025-07-17T00:02:52.928552",
        "hash": "bb79d2fc13b5c32cd9f811100617cba9",
        "source": "migrated"
      }
    },
    {
      "id": "architecture_130",
      "category": "architecture",
      "title": "Architecture Wallpaper 130",
      "tags": [
        "architecture",
        "wallpaper",
        "hd",
        "mobile"
      ],
      "urls": {
        "raw": "https://media.githubusercontent.com/media/ddh4r4m/wallpaper-collection/main/collection/wallpapers/architecture/130.jpg",
        "thumb": "https://media.githubusercontent.com/media/ddh4r4m/wallpaper-collection/main/collection/thumbnails/architecture/130.jpg"
      },
      "metadata": {
        "dimensions": {
          "width": 1080,
          "height": 1920
        },
        "file_size": 598481,
        "format": "JPEG",
        "added_at": "2025-07-17T00:02:53.003084",
        "hash": "6c9735c5a510feb225d28a39e8e7a00e",
        "source": "migrated"
      }
    },
    {
      "id": "architecture_131",
      "category": "architecture",
      "title": "Architecture Wallpaper 131",
      "tags": [
        "architecture",
        "wallpaper",
        "hd",
        "mobile"
      ],
      "urls": {
        "raw": "https://media.githubusercontent.com/media/ddh4r4m/wallpaper-collection/main/collection/wallpapers/architecture/131.jpg",
        "thumb": "https://media.githubusercontent.com/media/ddh4r4m/wallpaper-collection/main/collection/thumbnails/architecture/131.jpg"
      },
      "metadata": {
        "dimensions": {
          "width": 1080,
          "height": 1920
        },
        "file_size": 445157,
        "format": "JPEG",
        "added_at": "2025-07-17T00:02:53.069159",
        "hash": "bad1aacd240e5596a26f4b4b24c874cd",
        "source": "migrated"
      }
    },
    {
      "id": "architecture_132",
      "category": "architecture",
      "title": "Architecture Wallpaper 132",
      "tags": [
        "architecture",
        "wallpaper",
        "hd",
        "mobile"
      ],
      "urls": {
        "raw": "https://media.githubusercontent.com/media/ddh4r4m/wallpaper-collection/main/collection/wallpapers/architecture/132.jpg",
        "thumb": "https://media.githubusercontent.com/media/ddh4r4m/wallpaper-collection/main/collection/thumbnails/architecture/132.jpg"
      },
      "metadata": {
        "dimensions": {
          "width": 1080,
          "height": 1920
        },
        "file_size": 407760,
        "format": "JPEG",
        "added_at": "2025-07-17T00:02:53.132981",
        "hash": "35b73954b722a007b1f797782b0e3f63",
        "source": "migrated"
      }
    },
    {
      "id": "architecture_133",
      "category": "architecture",
      "title": "Architecture Wallpaper 133",
      "tags": [
        "architecture",
        "wallpaper",
        "hd",
        "mobile"
      ],
      "urls": {
        "raw": "https://media.githubusercontent.com/media/ddh4r4m/wallpaper-collection/main/collection/wallpapers/architecture/133.jpg",
        "thumb": "https://media.githubusercontent.com/media/ddh4r4m/wallpaper-collection/main/collection/thumbnails/architecture/133.jpg"
      },
      "metadata": {
        "dimensions": {
          "width": 1080,
          "height": 1920
        },
        "file_size": 245839,
        "format": "JPEG",
        "added_at": "2025-07-17T00:02:53.187624",
        "hash": "caa707c7fb72acbda8d43fb4e7f9d607",
        "source": "migrated"
      }
    },
    {
      "id": "architecture_134",
      "category": "architecture",
      "title": "Architecture Wallpaper 134",
      "tags": [
        "architecture",
        "wallpaper",
        "hd",
        "mobile"
      ],
      "urls": {
        "raw": "https://media.githubusercontent.com/media/ddh4r4m/wallpaper-collection/main/collection/wallpapers/architecture/134.jpg",
        "thumb": "https://media.githubusercontent.com/media/ddh4r4m/wallpaper-collection/main/collection/thumbnails/architecture/134.jpg"
      },
      "metadata": {
        "dimensions": {
          "width": 1080,
          "height": 1920
        },
        "file_size": 454652,
        "format": "JPEG",
        "added_at": "2025-07-17T00:02:53.251435",
        "hash": "a8e0f3fc99660a60eca70e52ac5afa18",
        "source": "migrated"
      }
    },
    {
      "id": "architecture_135",
      "category": "architecture",
      "title": "Architecture Wallpaper 135",
      "tags": [
        "architecture",
        "wallpaper",
        "hd",
        "mobile"
      ],
      "urls": {
        "raw": "https://media.githubusercontent.com/media/ddh4r4m/wallpaper-collection/main/collection/wallpapers/architecture/135.jpg",
        "thumb": "https://media.githubusercontent.com/media/ddh4r4m/wallpaper-collection/main/collection/thumbnails/architecture/135.jpg"
      },
      "metadata": {
        "dimensions": {
          "width": 1080,
          "height": 1920
        },
        "file_size": 294055,
        "format": "JPEG",
        "added_at": "2025-07-17T00:02:53.309857",
        "hash": "1ecb19e9086b6d956f15434d84fc5ad5",
        "source": "migrated"
      }
    },
    {
      "id": "architecture_136",
      "category": "architecture",
      "title": "Architecture Wallpaper 136",
      "tags": [
        "architecture",
        "wallpaper",
        "hd",
        "mobile"
      ],
      "urls": {
        "raw": "https://media.githubusercontent.com/media/ddh4r4m/wallpaper-collection/main/collection/wallpapers/architecture/136.jpg",
        "thumb": "https://media.githubusercontent.com/media/ddh4r4m/wallpaper-collection/main/collection/thumbnails/architecture/136.jpg"
      },
      "metadata": {
        "dimensions": {
          "width": 1080,
          "height": 1920
        },
        "file_size": 335183,
        "format": "JPEG",
        "added_at": "2025-07-17T00:02:53.370057",
        "hash": "b1a9427e28e3edb15f0e52f061f4022f",
        "source": "migrated"
      }
    },
    {
      "id": "architecture_137",
      "category": "architecture",
      "title": "Architecture Wallpaper 137",
      "tags": [
        "architecture",
        "wallpaper",
        "hd",
        "mobile"
      ],
      "urls": {
        "raw": "https://media.githubusercontent.com/media/ddh4r4m/wallpaper-collection/main/collection/wallpapers/architecture/137.jpg",
        "thumb": "https://media.githubusercontent.com/media/ddh4r4m/wallpaper-collection/main/collection/thumbnails/architecture/137.jpg"
      },
      "metadata": {
        "dimensions": {
          "width": 1080,
          "height": 1920
        },
        "file_size": 257003,
        "format": "JPEG",
        "added_at": "2025-07-17T00:02:53.425895",
        "hash": "81c8b4caef0a915618b893ebde85c547",
        "source": "migrated"
      }
    },
    {
      "id": "architecture_138",
      "category": "architecture",
      "title": "Architecture Wallpaper 138",
      "tags": [
        "architecture",
        "wallpaper",
        "hd",
        "mobile"
      ],
      "urls": {
        "raw": "https://media.githubusercontent.com/media/ddh4r4m/wallpaper-collection/main/collection/wallpapers/architecture/138.jpg",
        "thumb": "https://media.githubusercontent.com/media/ddh4r4m/wallpaper-collection/main/collection/thumbnails/architecture/138.jpg"
      },
      "metadata": {
        "dimensions": {
          "width": 1080,
          "height": 1920
        },
        "file_size": 215574,
        "format": "JPEG",
        "added_at": "2025-07-17T00:02:53.482218",
        "hash": "01754b7259ac2601b30d907c33ef9e64",
        "source": "migrated"
      }
    },
    {
      "id": "architecture_139",
      "category": "architecture",
      "title": "Architecture Wallpaper 139",
      "tags": [
        "architecture",
        "wallpaper",
        "hd",
        "mobile"
      ],
      "urls": {
        "raw": "https://media.githubusercontent.com/media/ddh4r4m/wallpaper-collection/main/collection/wallpapers/architecture/139.jpg",
        "thumb": "https://media.githubusercontent.com/media/ddh4r4m/wallpaper-collection/main/collection/thumbnails/architecture/139.jpg"
      },
      "metadata": {
        "dimensions": {
          "width": 1080,
          "height": 1920
        },
        "file_size": 280169,
        "format": "JPEG",
        "added_at": "2025-07-17T00:02:53.538716",
        "hash": "8708dcd1cd437ab9111543ce1de26a79",
        "source": "migrated"
      }
    },
    {
      "id": "architecture_140",
      "category": "architecture",
      "title": "Architecture Wallpaper 140",
      "tags": [
        "architecture",
        "wallpaper",
        "hd",
        "mobile"
      ],
      "urls": {
        "raw": "https://media.githubusercontent.com/media/ddh4r4m/wallpaper-collection/main/collection/wallpapers/architecture/140.jpg",
        "thumb": "https://media.githubusercontent.com/media/ddh4r4m/wallpaper-collection/main/collection/thumbnails/architecture/140.jpg"
      },
      "metadata": {
        "dimensions": {
          "width": 1080,
          "height": 1920
        },
        "file_size": 255845,
        "format": "JPEG",
        "added_at": "2025-07-17T00:02:53.600150",
        "hash": "abf8795cff1fff380abe3c610c75cdcd",
        "source": "migrated"
      }
    },
    {
      "id": "architecture_141",
      "category": "architecture",
      "title": "Architecture Wallpaper 141",
      "tags": [
        "architecture",
        "wallpaper",
        "hd",
        "mobile"
      ],
      "urls": {
        "raw": "https://media.githubusercontent.com/media/ddh4r4m/wallpaper-collection/main/collection/wallpapers/architecture/141.jpg",
        "thumb": "https://media.githubusercontent.com/media/ddh4r4m/wallpaper-collection/main/collection/thumbnails/architecture/141.jpg"
      },
      "metadata": {
        "dimensions": {
          "width": 1080,
          "height": 1920
        },
        "file_size": 484882,
        "format": "JPEG",
        "added_at": "2025-07-17T00:02:53.676814",
        "hash": "32d750cbee6256fe518d5d063cab046f",
        "source": "migrated"
      }
    },
    {
      "id": "architecture_142",
      "category": "architecture",
      "title": "Architecture Wallpaper 142",
      "tags": [
        "architecture",
        "wallpaper",
        "hd",
        "mobile"
      ],
      "urls": {
        "raw": "https://media.githubusercontent.com/media/ddh4r4m/wallpaper-collection/main/collection/wallpapers/architecture/142.jpg",
        "thumb": "https://media.githubusercontent.com/media/ddh4r4m/wallpaper-collection/main/collection/thumbnails/architecture/142.jpg"
      },
      "metadata": {
        "dimensions": {
          "width": 1080,
          "height": 1920
        },
        "file_size": 138373,
        "format": "JPEG",
        "added_at": "2025-07-17T00:02:53.726705",
        "hash": "b55d7ea14fd5161d2d386db87ee74384",
        "source": "migrated"
      }
    },
    {
      "id": "architecture_143",
      "category": "architecture",
      "title": "Architecture Wallpaper 143",
      "tags": [
        "architecture",
        "wallpaper",
        "hd",
        "mobile"
      ],
      "urls": {
        "raw": "https://media.githubusercontent.com/media/ddh4r4m/wallpaper-collection/main/collection/wallpapers/architecture/143.jpg",
        "thumb": "https://media.githubusercontent.com/media/ddh4r4m/wallpaper-collection/main/collection/thumbnails/architecture/143.jpg"
      },
      "metadata": {
        "dimensions": {
          "width": 1080,
          "height": 1920
        },
        "file_size": 394568,
        "format": "JPEG",
        "added_at": "2025-07-17T00:02:53.789431",
        "hash": "bd61ad77cedf7f92b1910b43c33da064",
        "source": "migrated"
      }
    }
  ]
}