{
  "meta": {
    "version": "1.0",
    "generated_at": "2025-07-28T21:27:34.814586",
    "page": 62,
    "per_page": 15,
    "total_pages": 177,
    "total_count": 2647,
    "count_on_page": 15,
    "categories": 21,
    "has_next": true,
    "has_prev": true,
    "next_page_url": "/api/v1/all/pages/63.json",
    "prev_page_url": "/api/v1/all/pages/61.json"
  },
  "data": [
    {
      "id": "architecture_159",
      "category": "architecture",
      "title": "Architecture Wallpaper 159",
      "tags": [
        "architecture",
        "wallpaper",
        "hd",
        "mobile"
      ],
      "urls": {
        "raw": "https://media.githubusercontent.com/media/ddh4r4m/wallpaper-collection/main/collection/wallpapers/architecture/159.jpg",
        "thumb": "https://media.githubusercontent.com/media/ddh4r4m/wallpaper-collection/main/collection/thumbnails/architecture/159.jpg"
      },
      "metadata": {
        "dimensions": {
          "width": 1080,
          "height": 1920
        },
        "file_size": 220638,
        "format": "JPEG",
        "added_at": "2025-07-17T00:02:54.756204",
        "hash": "3f59c67d6ec067ce2a020fb3dc60ea63",
        "source": "migrated"
      }
    },
    {
      "id": "architecture_160",
      "category": "architecture",
      "title": "Architecture Wallpaper 160",
      "tags": [
        "architecture",
        "wallpaper",
        "hd",
        "mobile"
      ],
      "urls": {
        "raw": "https://media.githubusercontent.com/media/ddh4r4m/wallpaper-collection/main/collection/wallpapers/architecture/160.jpg",
        "thumb": "https://media.githubusercontent.com/media/ddh4r4m/wallpaper-collection/main/collection/thumbnails/architecture/160.jpg"
      },
      "metadata": {
        "dimensions": {
          "width": 1080,
          "height": 1920
        },
        "file_size": 228044,
        "format": "JPEG",
        "added_at": "2025-07-17T00:02:54.808114",
        "hash": "058959f885bdb72ebd5a63f5ecedf46b",
        "source": "migrated"
      }
    },
    {
      "id": "architecture_161",
      "category": "architecture",
      "title": "Architecture Wallpaper 161",
      "tags": [
        "architecture",
        "wallpaper",
        "hd",
        "mobile"
      ],
      "urls": {
        "raw": "https://media.githubusercontent.com/media/ddh4r4m/wallpaper-collection/main/collection/wallpapers/architecture/161.jpg",
        "thumb": "https://media.githubusercontent.com/media/ddh4r4m/wallpaper-collection/main/collection/thumbnails/architecture/161.jpg"
      },
      "metadata": {
        "dimensions": {
          "width": 1080,
          "height": 1920
        },
        "file_size": 115510,
        "format": "JPEG",
        "added_at": "2025-07-17T00:02:54.855228",
        "hash": "fe6548e67bde545d0b98b18f1437ad0e",
        "source": "migrated"
      }
    },
    {
      "id": "architecture_162",
      "category": "architecture",
      "title": "Architecture Wallpaper 162",
      "tags": [
        "architecture",
        "wallpaper",
        "hd",
        "mobile"
      ],
      "urls": {
        "raw": "https://media.githubusercontent.com/media/ddh4r4m/wallpaper-collection/main/collection/wallpapers/architecture/162.jpg",
        "thumb": "https://media.githubusercontent.com/media/ddh4r4m/wallpaper-collection/main/collection/thumbnails/architecture/162.jpg"
      },
      "metadata": {
        "dimensions": {
          "width": 1080,
          "height": 1920
        },
        "file_size": 405830,
        "format": "JPEG",
        "added_at": "2025-07-17T00:02:54.918946",
        "hash": "2c1d452e90eb396963d7755be0b8abf6",
        "source": "migrated"
      }
    },
    {
      "id": "architecture_163",
      "category": "architecture",
      "title": "Architecture Wallpaper 163",
      "tags": [
        "architecture",
        "wallpaper",
        "hd",
        "mobile"
      ],
      "urls": {
        "raw": "https://media.githubusercontent.com/media/ddh4r4m/wallpaper-collection/main/collection/wallpapers/architecture/163.jpg",
        "thumb": "https://media.githubusercontent.com/media/ddh4r4m/wallpaper-collection/main/collection/thumbnails/architecture/163.jpg"
      },
      "metadata": {
        "dimensions": {
          "width": 1080,
          "height": 1920
        },
        "file_size": 422176,
        "format": "JPEG",
        "added_at": "2025-07-17T00:02:54.984904",
        "hash": "1b90362d79ea501031c22c0f78a45bb3",
        "source": "migrated"
      }
    },
    {
      "id": "architecture_164",
      "category": "architecture",
      "title": "Architecture Wallpaper 164",
      "tags": [
        "architecture",
        "wallpaper",
        "hd",
        "mobile"
      ],
      "urls": {
        "raw": "https://media.githubusercontent.com/media/ddh4r4m/wallpaper-collection/main/collection/wallpapers/architecture/164.jpg",
        "thumb": "https://media.githubusercontent.com/media/ddh4r4m/wallpaper-collection/main/collection/thumbnails/architecture/164.jpg"
      },
      "metadata": {
        "dimensions": {
          "width": 1080,
          "height": 1920
        },
        "file_size": 253860,
        "format": "JPEG",
        "added_at": "2025-07-17T00:02:55.043143",
        "hash": "8b4f4962bd7d0be1d9d88dc609b381ed",
        "source": "migrated"
      }
    },
    {
      "id": "architecture_165",
      "category": "architecture",
      "title": "Architecture Wallpaper 165",
      "tags": [
        "architecture",
        "wallpaper",
        "hd",
        "mobile"
      ],
      "urls": {
        "raw": "https://media.githubusercontent.com/media/ddh4r4m/wallpaper-collection/main/collection/wallpapers/architecture/165.jpg",
        "thumb": "https://media.githubusercontent.com/media/ddh4r4m/wallpaper-collection/main/collection/thumbnails/architecture/165.jpg"
      },
      "metadata": {
        "dimensions": {
          "width": 1080,
          "height": 1920
        },
        "file_size": 133002,
        "format": "JPEG",
        "added_at": "2025-07-17T00:02:55.091171",
        "hash": "744968bfacbad298feef6ab1e974ff0d",
        "source": "migrated"
      }
    },
    {
      "id": "architecture_166",
      "category": "architecture",
      "title": "Architecture Wallpaper 166",
      "tags": [
        "architecture",
        "wallpaper",
        "hd",
        "mobile"
      ],
      "urls": {
        "raw": "https://media.githubusercontent.com/media/ddh4r4m/wallpaper-collection/main/collection/wallpapers/architecture/166.jpg",
        "thumb": "https://media.githubusercontent.com/media/ddh4r4m/wallpaper-collection/main/collection/thumbnails/architecture/166.jpg"
      },
      "metadata": {
        "dimensions": {
          "width": 1080,
          "height": 1920
        },
        "file_size": 354808,
        "format": "JPEG",
        "added_at": "2025-07-17T00:02:55.153239",
        "hash": "347681a1036e3e6798ebba0709094600",
        "source": "migrated"
      }
    },
    {
      "id": "architecture_167",
      "category": "architecture",
      "title": "Architecture Wallpaper 167",
      "tags": [
        "architecture",
        "wallpaper",
        "hd",
        "mobile"
      ],
      "urls": {
        "raw": "https://media.githubusercontent.com/media/ddh4r4m/wallpaper-collection/main/collection/wallpapers/architecture/167.jpg",
        "thumb": "https://media.githubusercontent.com/media/ddh4r4m/wallpaper-collection/main/collection/thumbnails/architecture/167.jpg"
      },
      "metadata": {
        "dimensions": {
          "width": 1080,
          "height": 1920
        },
        "file_size": 200626,
        "format": "JPEG",
        "added_at": "2025-07-17T00:02:55.205675",
        "hash": "0403bae006b7b22c12ef3445895a3ac3",
        "source": "migrated"
      }
    },
    {
      "id": "architecture_168",
      "category": "architecture",
      "title": "Architecture Wallpaper 168",
      "tags": [
        "architecture",
        "wallpaper",
        "hd",
        "mobile"
      ],
      "urls": {
        "raw": "https://media.githubusercontent.com/media/ddh4r4m/wallpaper-collection/main/collection/wallpapers/architecture/168.jpg",
        "thumb": "https://media.githubusercontent.com/media/ddh4r4m/wallpaper-collection/main/collection/thumbnails/architecture/168.jpg"
      },
      "metadata": {
        "dimensions": {
          "width": 1080,
          "height": 1920
        },
        "file_size": 286895,
        "format": "JPEG",
        "added_at": "2025-07-17T00:02:55.263350",
        "hash": "e755bd2f51196b8680f6ebb11ce3e45c",
        "source": "migrated"
      }
    },
    {
      "id": "architecture_169",
      "category": "architecture",
      "title": "Architecture Wallpaper 169",
      "tags": [
        "architecture",
        "wallpaper",
        "hd",
        "mobile"
      ],
      "urls": {
        "raw": "https://media.githubusercontent.com/media/ddh4r4m/wallpaper-collection/main/collection/wallpapers/architecture/169.jpg",
        "thumb": "https://media.githubusercontent.com/media/ddh4r4m/wallpaper-collection/main/collection/thumbnails/architecture/169.jpg"
      },
      "metadata": {
        "dimensions": {
          "width": 1080,
          "height": 1920
        },
        "file_size": 548630,
        "format": "JPEG",
        "added_at": "2025-07-17T00:02:55.333153",
        "hash": "ea7762980cadd422ed9004a725c02a77",
        "source": "migrated"
      }
    },
    {
      "id": "architecture_170",
      "category": "architecture",
      "title": "Architecture Wallpaper 170",
      "tags": [
        "architecture",
        "wallpaper",
        "hd",
        "mobile"
      ],
      "urls": {
        "raw": "https://media.githubusercontent.com/media/ddh4r4m/wallpaper-collection/main/collection/wallpapers/architecture/170.jpg",
        "thumb": "https://media.githubusercontent.com/media/ddh4r4m/wallpaper-collection/main/collection/thumbnails/architecture/170.jpg"
      },
      "metadata": {
        "dimensions": {
          "width": 1080,
          "height": 1920
        },
        "file_size": 556993,
        "format": "JPEG",
        "added_at": "2025-07-17T00:02:55.404611",
        "hash": "84dada6a68d8d0e1c55cd063fe44dfaf",
        "source": "migrated"
      }
    },
    {
      "id": "architecture_171",
      "category": "architecture",
      "title": "Architecture Wallpaper 171",
      "tags": [
        "architecture",
        "wallpaper",
        "hd",
        "mobile"
      ],
      "urls": {
        "raw": "https://media.githubusercontent.com/media/ddh4r4m/wallpaper-collection/main/collection/wallpapers/architecture/171.jpg",
        "thumb": "https://media.githubusercontent.com/media/ddh4r4m/wallpaper-collection/main/collection/thumbnails/architecture/171.jpg"
      },
      "metadata": {
        "dimensions": {
          "width": 1080,
          "height": 1920
        },
        "file_size": 227970,
        "format": "JPEG",
        "added_at": "2025-07-17T00:02:55.456674",
        "hash": "e590c11ac3715bccdb921bc155c15933",
        "source": "migrated"
      }
    },
    {
      "id": "architecture_172",
      "category": "architecture",
      "title": "Architecture Wallpaper 172",
      "tags": [
        "architecture",
        "wallpaper",
        "hd",
        "mobile"
      ],
      "urls": {
        "raw": "https://media.githubusercontent.com/media/ddh4r4m/wallpaper-collection/main/collection/wallpapers/architecture/172.jpg",
        "thumb": "https://media.githubusercontent.com/media/ddh4r4m/wallpaper-collection/main/collection/thumbnails/architecture/172.jpg"
      },
      "metadata": {
        "dimensions": {
          "width": 1080,
          "height": 1920
        },
        "file_size": 395016,
        "format": "JPEG",
        "added_at": "2025-07-17T00:02:55.518328",
        "hash": "ce0fba0efa9ad1dd011ae8d8bce7aac2",
        "source": "migrated"
      }
    },
    {
      "id": "architecture_173",
      "category": "architecture",
      "title": "Architecture Wallpaper 173",
      "tags": [
        "architecture",
        "wallpaper",
        "hd",
        "mobile"
      ],
      "urls": {
        "raw": "https://media.githubusercontent.com/media/ddh4r4m/wallpaper-collection/main/collection/wallpapers/architecture/173.jpg",
        "thumb": "https://media.githubusercontent.com/media/ddh4r4m/wallpaper-collection/main/collection/thumbnails/architecture/173.jpg"
      },
      "metadata": {
        "dimensions": {
          "width": 1080,
          "height": 1920
        },
        "file_size": 413244,
        "format": "JPEG",
        "added_at": "2025-07-17T00:02:55.581788",
        "hash": "8cf11ff1fbddad1c06a99963b9c27642",
        "source": "migrated"
      }
    }
  ]
}