{
  "meta": {
    "version": "1.0",
    "generated_at": "2025-07-17T21:14:17.488868",
    "page": 63,
    "per_page": 15,
    "total_pages": 117,
    "total_count": 1751,
    "count_on_page": 15,
    "categories": 17,
    "has_next": true,
    "has_prev": true,
    "next_page_url": "/api/v1/all/pages/64.json",
    "prev_page_url": "/api/v1/all/pages/62.json"
  },
  "data": [
    {
      "id": "dark_004",
      "category": "dark",
      "title": "Dark Wallpaper 004",
      "tags": [
        "dark",
        "wallpaper",
        "hd",
        "mobile"
      ],
      "urls": {
        "raw": "https://media.githubusercontent.com/media/ddh4r4m/wallpaper-collection/main/collection/wallpapers/dark/004.jpg",
        "thumb": "https://media.githubusercontent.com/media/ddh4r4m/wallpaper-collection/main/collection/thumbnails/dark/004.jpg"
      },
      "metadata": {
        "dimensions": {
          "width": 1080,
          "height": 1920
        },
        "file_size": 194793,
        "format": "JPEG",
        "added_at": "2025-07-17T00:03:24.710099",
        "hash": "b9ea99181ffc303cb49e0889a7441e9c",
        "source": "migrated"
      }
    },
    {
      "id": "dark_005",
      "category": "dark",
      "title": "Dark Wallpaper 005",
      "tags": [
        "dark",
        "wallpaper",
        "hd",
        "mobile"
      ],
      "urls": {
        "raw": "https://media.githubusercontent.com/media/ddh4r4m/wallpaper-collection/main/collection/wallpapers/dark/005.jpg",
        "thumb": "https://media.githubusercontent.com/media/ddh4r4m/wallpaper-collection/main/collection/thumbnails/dark/005.jpg"
      },
      "metadata": {
        "dimensions": {
          "width": 1080,
          "height": 1920
        },
        "file_size": 176750,
        "format": "JPEG",
        "added_at": "2025-07-17T00:03:24.848591",
        "hash": "3682d678675ef12607a5ff7e9bab7e67",
        "source": "migrated"
      }
    },
    {
      "id": "dark_006",
      "category": "dark",
      "title": "Dark Wallpaper 006",
      "tags": [
        "dark",
        "wallpaper",
        "hd",
        "mobile"
      ],
      "urls": {
        "raw": "https://media.githubusercontent.com/media/ddh4r4m/wallpaper-collection/main/collection/wallpapers/dark/006.jpg",
        "thumb": "https://media.githubusercontent.com/media/ddh4r4m/wallpaper-collection/main/collection/thumbnails/dark/006.jpg"
      },
      "metadata": {
        "dimensions": {
          "width": 1080,
          "height": 1920
        },
        "file_size": 274613,
        "format": "JPEG",
        "added_at": "2025-07-17T00:03:24.903904",
        "hash": "fe2d9dca44fd43aec0fa00f97904b8c4",
        "source": "migrated"
      }
    },
    {
      "id": "dark_007",
      "category": "dark",
      "title": "Dark Wallpaper 007",
      "tags": [
        "dark",
        "wallpaper",
        "hd",
        "mobile"
      ],
      "urls": {
        "raw": "https://media.githubusercontent.com/media/ddh4r4m/wallpaper-collection/main/collection/wallpapers/dark/007.jpg",
        "thumb": "https://media.githubusercontent.com/media/ddh4r4m/wallpaper-collection/main/collection/thumbnails/dark/007.jpg"
      },
      "metadata": {
        "dimensions": {
          "width": 1080,
          "height": 1920
        },
        "file_size": 507412,
        "format": "JPEG",
        "added_at": "2025-07-17T00:03:24.973227",
        "hash": "d2ac0343137a71585334c3e49dd303f8",
        "source": "migrated"
      }
    },
    {
      "id": "dark_008",
      "category": "dark",
      "title": "Dark Wallpaper 008",
      "tags": [
        "dark",
        "wallpaper",
        "hd",
        "mobile"
      ],
      "urls": {
        "raw": "https://media.githubusercontent.com/media/ddh4r4m/wallpaper-collection/main/collection/wallpapers/dark/008.jpg",
        "thumb": "https://media.githubusercontent.com/media/ddh4r4m/wallpaper-collection/main/collection/thumbnails/dark/008.jpg"
      },
      "metadata": {
        "dimensions": {
          "width": 1080,
          "height": 1920
        },
        "file_size": 132650,
        "format": "JPEG",
        "added_at": "2025-07-17T00:03:25.025872",
        "hash": "0b90c54aaef7b6dc7bf6bfa3bc0ab620",
        "source": "migrated"
      }
    },
    {
      "id": "dark_009",
      "category": "dark",
      "title": "Dark Wallpaper 009",
      "tags": [
        "dark",
        "wallpaper",
        "hd",
        "mobile"
      ],
      "urls": {
        "raw": "https://media.githubusercontent.com/media/ddh4r4m/wallpaper-collection/main/collection/wallpapers/dark/009.jpg",
        "thumb": "https://media.githubusercontent.com/media/ddh4r4m/wallpaper-collection/main/collection/thumbnails/dark/009.jpg"
      },
      "metadata": {
        "dimensions": {
          "width": 1080,
          "height": 1920
        },
        "file_size": 209230,
        "format": "JPEG",
        "added_at": "2025-07-17T00:03:25.080134",
        "hash": "fb214381822887f370e39478ab6e0bcc",
        "source": "migrated"
      }
    },
    {
      "id": "dark_010",
      "category": "dark",
      "title": "Dark Wallpaper 010",
      "tags": [
        "dark",
        "wallpaper",
        "hd",
        "mobile"
      ],
      "urls": {
        "raw": "https://media.githubusercontent.com/media/ddh4r4m/wallpaper-collection/main/collection/wallpapers/dark/010.jpg",
        "thumb": "https://media.githubusercontent.com/media/ddh4r4m/wallpaper-collection/main/collection/thumbnails/dark/010.jpg"
      },
      "metadata": {
        "dimensions": {
          "width": 1080,
          "height": 1920
        },
        "file_size": 248782,
        "format": "JPEG",
        "added_at": "2025-07-17T00:03:25.135648",
        "hash": "45983d84486180d2f5253a105b57f585",
        "source": "migrated"
      }
    },
    {
      "id": "dark_011",
      "category": "dark",
      "title": "Dark Wallpaper 011",
      "tags": [
        "dark",
        "wallpaper",
        "hd",
        "mobile"
      ],
      "urls": {
        "raw": "https://media.githubusercontent.com/media/ddh4r4m/wallpaper-collection/main/collection/wallpapers/dark/011.jpg",
        "thumb": "https://media.githubusercontent.com/media/ddh4r4m/wallpaper-collection/main/collection/thumbnails/dark/011.jpg"
      },
      "metadata": {
        "dimensions": {
          "width": 1080,
          "height": 1920
        },
        "file_size": 147840,
        "format": "JPEG",
        "added_at": "2025-07-17T00:03:25.297872",
        "hash": "82baee0b06e21f18fb18779df26b97bf",
        "source": "migrated"
      }
    },
    {
      "id": "dark_012",
      "category": "dark",
      "title": "Dark Wallpaper 012",
      "tags": [
        "dark",
        "wallpaper",
        "hd",
        "mobile"
      ],
      "urls": {
        "raw": "https://media.githubusercontent.com/media/ddh4r4m/wallpaper-collection/main/collection/wallpapers/dark/012.jpg",
        "thumb": "https://media.githubusercontent.com/media/ddh4r4m/wallpaper-collection/main/collection/thumbnails/dark/012.jpg"
      },
      "metadata": {
        "dimensions": {
          "width": 1080,
          "height": 1920
        },
        "file_size": 180171,
        "format": "JPEG",
        "added_at": "2025-07-17T00:03:25.350409",
        "hash": "cb395f55abc381700a8395aa225180b9",
        "source": "migrated"
      }
    },
    {
      "id": "dark_013",
      "category": "dark",
      "title": "Dark Wallpaper 013",
      "tags": [
        "dark",
        "wallpaper",
        "hd",
        "mobile"
      ],
      "urls": {
        "raw": "https://media.githubusercontent.com/media/ddh4r4m/wallpaper-collection/main/collection/wallpapers/dark/013.jpg",
        "thumb": "https://media.githubusercontent.com/media/ddh4r4m/wallpaper-collection/main/collection/thumbnails/dark/013.jpg"
      },
      "metadata": {
        "dimensions": {
          "width": 1080,
          "height": 1920
        },
        "file_size": 100707,
        "format": "JPEG",
        "added_at": "2025-07-17T00:03:25.396759",
        "hash": "554c83d7b2438920b57407dbdc812b67",
        "source": "migrated"
      }
    },
    {
      "id": "dark_014",
      "category": "dark",
      "title": "Dark Wallpaper 014",
      "tags": [
        "dark",
        "wallpaper",
        "hd",
        "mobile"
      ],
      "urls": {
        "raw": "https://media.githubusercontent.com/media/ddh4r4m/wallpaper-collection/main/collection/wallpapers/dark/014.jpg",
        "thumb": "https://media.githubusercontent.com/media/ddh4r4m/wallpaper-collection/main/collection/thumbnails/dark/014.jpg"
      },
      "metadata": {
        "dimensions": {
          "width": 1080,
          "height": 1920
        },
        "file_size": 169956,
        "format": "JPEG",
        "added_at": "2025-07-17T00:03:25.447283",
        "hash": "abd6ed2afe09eb2a56aa0b0532b8aff4",
        "source": "migrated"
      }
    },
    {
      "id": "dark_015",
      "category": "dark",
      "title": "Dark Wallpaper 015",
      "tags": [
        "dark",
        "wallpaper",
        "hd",
        "mobile"
      ],
      "urls": {
        "raw": "https://media.githubusercontent.com/media/ddh4r4m/wallpaper-collection/main/collection/wallpapers/dark/015.jpg",
        "thumb": "https://media.githubusercontent.com/media/ddh4r4m/wallpaper-collection/main/collection/thumbnails/dark/015.jpg"
      },
      "metadata": {
        "dimensions": {
          "width": 1080,
          "height": 1920
        },
        "file_size": 186418,
        "format": "JPEG",
        "added_at": "2025-07-17T00:03:25.498805",
        "hash": "1aa6a3fd1dff7b179139b01802117f94",
        "source": "migrated"
      }
    },
    {
      "id": "dark_016",
      "category": "dark",
      "title": "Dark Wallpaper 016",
      "tags": [
        "dark",
        "wallpaper",
        "hd",
        "mobile"
      ],
      "urls": {
        "raw": "https://media.githubusercontent.com/media/ddh4r4m/wallpaper-collection/main/collection/wallpapers/dark/016.jpg",
        "thumb": "https://media.githubusercontent.com/media/ddh4r4m/wallpaper-collection/main/collection/thumbnails/dark/016.jpg"
      },
      "metadata": {
        "dimensions": {
          "width": 1080,
          "height": 1920
        },
        "file_size": 324513,
        "format": "JPEG",
        "added_at": "2025-07-17T00:03:25.780019",
        "hash": "04b3d5c9d6a0091a9d98720120de5b22",
        "source": "migrated"
      }
    },
    {
      "id": "dark_017",
      "category": "dark",
      "title": "Dark Wallpaper 017",
      "tags": [
        "dark",
        "wallpaper",
        "hd",
        "mobile"
      ],
      "urls": {
        "raw": "https://media.githubusercontent.com/media/ddh4r4m/wallpaper-collection/main/collection/wallpapers/dark/017.jpg",
        "thumb": "https://media.githubusercontent.com/media/ddh4r4m/wallpaper-collection/main/collection/thumbnails/dark/017.jpg"
      },
      "metadata": {
        "dimensions": {
          "width": 1080,
          "height": 1920
        },
        "file_size": 245180,
        "format": "JPEG",
        "added_at": "2025-07-17T00:03:26.044960",
        "hash": "d3c15f31c246eb9430814567b5f50ad1",
        "source": "migrated"
      }
    },
    {
      "id": "dark_018",
      "category": "dark",
      "title": "Dark Wallpaper 018",
      "tags": [
        "dark",
        "wallpaper",
        "hd",
        "mobile"
      ],
      "urls": {
        "raw": "https://media.githubusercontent.com/media/ddh4r4m/wallpaper-collection/main/collection/wallpapers/dark/018.jpg",
        "thumb": "https://media.githubusercontent.com/media/ddh4r4m/wallpaper-collection/main/collection/thumbnails/dark/018.jpg"
      },
      "metadata": {
        "dimensions": {
          "width": 1080,
          "height": 1920
        },
        "file_size": 256966,
        "format": "JPEG",
        "added_at": "2025-07-17T00:03:26.099701",
        "hash": "3d647a8acea2141578b4ae65df28c3c6",
        "source": "migrated"
      }
    }
  ]
}