{
  "meta": {
    "version": "1.0",
    "generated_at": "2025-07-17T21:14:17.488868",
    "page": 64,
    "per_page": 15,
    "total_pages": 117,
    "total_count": 1751,
    "count_on_page": 15,
    "categories": 17,
    "has_next": true,
    "has_prev": true,
    "next_page_url": "/api/v1/all/pages/65.json",
    "prev_page_url": "/api/v1/all/pages/63.json"
  },
  "data": [
    {
      "id": "dark_019",
      "category": "dark",
      "title": "Dark Wallpaper 019",
      "tags": [
        "dark",
        "wallpaper",
        "hd",
        "mobile"
      ],
      "urls": {
        "raw": "https://media.githubusercontent.com/media/ddh4r4m/wallpaper-collection/main/collection/wallpapers/dark/019.jpg",
        "thumb": "https://media.githubusercontent.com/media/ddh4r4m/wallpaper-collection/main/collection/thumbnails/dark/019.jpg"
      },
      "metadata": {
        "dimensions": {
          "width": 1080,
          "height": 1920
        },
        "file_size": 177159,
        "format": "JPEG",
        "added_at": "2025-07-17T00:03:26.546469",
        "hash": "ba723038d73eab42a2218d8c19302ab1",
        "source": "migrated"
      }
    },
    {
      "id": "dark_020",
      "category": "dark",
      "title": "Dark Wallpaper 020",
      "tags": [
        "dark",
        "wallpaper",
        "hd",
        "mobile"
      ],
      "urls": {
        "raw": "https://media.githubusercontent.com/media/ddh4r4m/wallpaper-collection/main/collection/wallpapers/dark/020.jpg",
        "thumb": "https://media.githubusercontent.com/media/ddh4r4m/wallpaper-collection/main/collection/thumbnails/dark/020.jpg"
      },
      "metadata": {
        "dimensions": {
          "width": 1080,
          "height": 1920
        },
        "file_size": 180812,
        "format": "JPEG",
        "added_at": "2025-07-17T00:03:26.749902",
        "hash": "1e21c9719266e763e786ac049e4e10ae",
        "source": "migrated"
      }
    },
    {
      "id": "dark_021",
      "category": "dark",
      "title": "Dark Wallpaper 021",
      "tags": [
        "dark",
        "wallpaper",
        "hd",
        "mobile"
      ],
      "urls": {
        "raw": "https://media.githubusercontent.com/media/ddh4r4m/wallpaper-collection/main/collection/wallpapers/dark/021.jpg",
        "thumb": "https://media.githubusercontent.com/media/ddh4r4m/wallpaper-collection/main/collection/thumbnails/dark/021.jpg"
      },
      "metadata": {
        "dimensions": {
          "width": 1080,
          "height": 1920
        },
        "file_size": 142529,
        "format": "JPEG",
        "added_at": "2025-07-17T00:03:26.893225",
        "hash": "f5dc4eb4c071f63ae670e931f07212bd",
        "source": "migrated"
      }
    },
    {
      "id": "dark_022",
      "category": "dark",
      "title": "Dark Wallpaper 022",
      "tags": [
        "dark",
        "wallpaper",
        "hd",
        "mobile"
      ],
      "urls": {
        "raw": "https://media.githubusercontent.com/media/ddh4r4m/wallpaper-collection/main/collection/wallpapers/dark/022.jpg",
        "thumb": "https://media.githubusercontent.com/media/ddh4r4m/wallpaper-collection/main/collection/thumbnails/dark/022.jpg"
      },
      "metadata": {
        "dimensions": {
          "width": 1080,
          "height": 1920
        },
        "file_size": 182307,
        "format": "JPEG",
        "added_at": "2025-07-17T00:03:26.945454",
        "hash": "a41ad906c581c5cdb63efb7a49f2ba4a",
        "source": "migrated"
      }
    },
    {
      "id": "dark_023",
      "category": "dark",
      "title": "Dark Wallpaper 023",
      "tags": [
        "dark",
        "wallpaper",
        "hd",
        "mobile"
      ],
      "urls": {
        "raw": "https://media.githubusercontent.com/media/ddh4r4m/wallpaper-collection/main/collection/wallpapers/dark/023.jpg",
        "thumb": "https://media.githubusercontent.com/media/ddh4r4m/wallpaper-collection/main/collection/thumbnails/dark/023.jpg"
      },
      "metadata": {
        "dimensions": {
          "width": 1080,
          "height": 1920
        },
        "file_size": 186669,
        "format": "JPEG",
        "added_at": "2025-07-17T00:03:27.000994",
        "hash": "c8396bfb19cdcaba0c36f0c948e25264",
        "source": "migrated"
      }
    },
    {
      "id": "dark_024",
      "category": "dark",
      "title": "Dark Wallpaper 024",
      "tags": [
        "dark",
        "wallpaper",
        "hd",
        "mobile"
      ],
      "urls": {
        "raw": "https://media.githubusercontent.com/media/ddh4r4m/wallpaper-collection/main/collection/wallpapers/dark/024.jpg",
        "thumb": "https://media.githubusercontent.com/media/ddh4r4m/wallpaper-collection/main/collection/thumbnails/dark/024.jpg"
      },
      "metadata": {
        "dimensions": {
          "width": 1080,
          "height": 1920
        },
        "file_size": 153757,
        "format": "JPEG",
        "added_at": "2025-07-17T00:03:27.050776",
        "hash": "938c2de05d8547d8361003cef81d319f",
        "source": "migrated"
      }
    },
    {
      "id": "dark_025",
      "category": "dark",
      "title": "Dark Wallpaper 025",
      "tags": [
        "dark",
        "wallpaper",
        "hd",
        "mobile"
      ],
      "urls": {
        "raw": "https://media.githubusercontent.com/media/ddh4r4m/wallpaper-collection/main/collection/wallpapers/dark/025.jpg",
        "thumb": "https://media.githubusercontent.com/media/ddh4r4m/wallpaper-collection/main/collection/thumbnails/dark/025.jpg"
      },
      "metadata": {
        "dimensions": {
          "width": 1080,
          "height": 1920
        },
        "file_size": 293262,
        "format": "JPEG",
        "added_at": "2025-07-17T00:03:27.193551",
        "hash": "12834a1a6439c10f6bbc5f88407e581c",
        "source": "migrated"
      }
    },
    {
      "id": "dark_026",
      "category": "dark",
      "title": "Dark Wallpaper 026",
      "tags": [
        "dark",
        "wallpaper",
        "hd",
        "mobile"
      ],
      "urls": {
        "raw": "https://media.githubusercontent.com/media/ddh4r4m/wallpaper-collection/main/collection/wallpapers/dark/026.jpg",
        "thumb": "https://media.githubusercontent.com/media/ddh4r4m/wallpaper-collection/main/collection/thumbnails/dark/026.jpg"
      },
      "metadata": {
        "dimensions": {
          "width": 1080,
          "height": 1920
        },
        "file_size": 318748,
        "format": "JPEG",
        "added_at": "2025-07-17T00:03:27.587740",
        "hash": "855e4e57f5163c30ae1dcf18aa066481",
        "source": "migrated"
      }
    },
    {
      "id": "dark_027",
      "category": "dark",
      "title": "Dark Wallpaper 027",
      "tags": [
        "dark",
        "wallpaper",
        "hd",
        "mobile"
      ],
      "urls": {
        "raw": "https://media.githubusercontent.com/media/ddh4r4m/wallpaper-collection/main/collection/wallpapers/dark/027.jpg",
        "thumb": "https://media.githubusercontent.com/media/ddh4r4m/wallpaper-collection/main/collection/thumbnails/dark/027.jpg"
      },
      "metadata": {
        "dimensions": {
          "width": 1080,
          "height": 1920
        },
        "file_size": 286810,
        "format": "JPEG",
        "added_at": "2025-07-17T00:03:27.645450",
        "hash": "d8fad48526cdcdcb8c1c48a9117c83f6",
        "source": "migrated"
      }
    },
    {
      "id": "dark_028",
      "category": "dark",
      "title": "Dark Wallpaper 028",
      "tags": [
        "dark",
        "wallpaper",
        "hd",
        "mobile"
      ],
      "urls": {
        "raw": "https://media.githubusercontent.com/media/ddh4r4m/wallpaper-collection/main/collection/wallpapers/dark/028.jpg",
        "thumb": "https://media.githubusercontent.com/media/ddh4r4m/wallpaper-collection/main/collection/thumbnails/dark/028.jpg"
      },
      "metadata": {
        "dimensions": {
          "width": 1080,
          "height": 1920
        },
        "file_size": 287548,
        "format": "JPEG",
        "added_at": "2025-07-17T00:03:27.854597",
        "hash": "cd64fa473e9ebe7a0bd5501122bfe34d",
        "source": "migrated"
      }
    },
    {
      "id": "dark_029",
      "category": "dark",
      "title": "Dark Wallpaper 029",
      "tags": [
        "dark",
        "wallpaper",
        "hd",
        "mobile"
      ],
      "urls": {
        "raw": "https://media.githubusercontent.com/media/ddh4r4m/wallpaper-collection/main/collection/wallpapers/dark/029.jpg",
        "thumb": "https://media.githubusercontent.com/media/ddh4r4m/wallpaper-collection/main/collection/thumbnails/dark/029.jpg"
      },
      "metadata": {
        "dimensions": {
          "width": 1080,
          "height": 1920
        },
        "file_size": 425843,
        "format": "JPEG",
        "added_at": "2025-07-17T00:03:28.011658",
        "hash": "599e591be1fdf598c9513d620a5939d4",
        "source": "migrated"
      }
    },
    {
      "id": "dark_030",
      "category": "dark",
      "title": "Dark Wallpaper 030",
      "tags": [
        "dark",
        "wallpaper",
        "hd",
        "mobile"
      ],
      "urls": {
        "raw": "https://media.githubusercontent.com/media/ddh4r4m/wallpaper-collection/main/collection/wallpapers/dark/030.jpg",
        "thumb": "https://media.githubusercontent.com/media/ddh4r4m/wallpaper-collection/main/collection/thumbnails/dark/030.jpg"
      },
      "metadata": {
        "dimensions": {
          "width": 1080,
          "height": 1920
        },
        "file_size": 453491,
        "format": "JPEG",
        "added_at": "2025-07-17T00:03:28.253940",
        "hash": "1b63e7b16f62b3b635c9923b0c317560",
        "source": "migrated"
      }
    },
    {
      "id": "dark_031",
      "category": "dark",
      "title": "Dark Wallpaper 031",
      "tags": [
        "dark",
        "wallpaper",
        "hd",
        "mobile"
      ],
      "urls": {
        "raw": "https://media.githubusercontent.com/media/ddh4r4m/wallpaper-collection/main/collection/wallpapers/dark/031.jpg",
        "thumb": "https://media.githubusercontent.com/media/ddh4r4m/wallpaper-collection/main/collection/thumbnails/dark/031.jpg"
      },
      "metadata": {
        "dimensions": {
          "width": 1080,
          "height": 1920
        },
        "file_size": 87601,
        "format": "JPEG",
        "added_at": "2025-07-17T00:03:28.711601",
        "hash": "e2e72a48faab07f5da89446b1b2a177c",
        "source": "migrated"
      }
    },
    {
      "id": "dark_032",
      "category": "dark",
      "title": "Dark Wallpaper 032",
      "tags": [
        "dark",
        "wallpaper",
        "hd",
        "mobile"
      ],
      "urls": {
        "raw": "https://media.githubusercontent.com/media/ddh4r4m/wallpaper-collection/main/collection/wallpapers/dark/032.jpg",
        "thumb": "https://media.githubusercontent.com/media/ddh4r4m/wallpaper-collection/main/collection/thumbnails/dark/032.jpg"
      },
      "metadata": {
        "dimensions": {
          "width": 1080,
          "height": 1920
        },
        "file_size": 253820,
        "format": "JPEG",
        "added_at": "2025-07-17T00:03:28.768538",
        "hash": "dc70f5e506399f07657b9ad39e978062",
        "source": "migrated"
      }
    },
    {
      "id": "dark_033",
      "category": "dark",
      "title": "Dark Wallpaper 033",
      "tags": [
        "dark",
        "wallpaper",
        "hd",
        "mobile"
      ],
      "urls": {
        "raw": "https://media.githubusercontent.com/media/ddh4r4m/wallpaper-collection/main/collection/wallpapers/dark/033.jpg",
        "thumb": "https://media.githubusercontent.com/media/ddh4r4m/wallpaper-collection/main/collection/thumbnails/dark/033.jpg"
      },
      "metadata": {
        "dimensions": {
          "width": 1080,
          "height": 1920
        },
        "file_size": 240096,
        "format": "JPEG",
        "added_at": "2025-07-17T00:03:28.959836",
        "hash": "cc5853a6bbb046906e6f183079ea09cd",
        "source": "migrated"
      }
    }
  ]
}