{
  "meta": {
    "version": "1.0",
    "generated_at": "2025-07-28T22:38:03.579947",
    "page": 66,
    "per_page": 15,
    "total_pages": 178,
    "total_count": 2656,
    "count_on_page": 15,
    "categories": 21,
    "has_next": true,
    "has_prev": true,
    "next_page_url": "/api/v1/all/pages/67.json",
    "prev_page_url": "/api/v1/all/pages/65.json"
  },
  "data": [
    {
      "id": "architecture_219",
      "category": "architecture",
      "title": "Architecture Wallpaper 219",
      "tags": [
        "architecture",
        "wallpaper",
        "hd",
        "mobile"
      ],
      "urls": {
        "raw": "https://media.githubusercontent.com/media/ddh4r4m/wallpaper-collection/main/collection/wallpapers/architecture/219.jpg",
        "thumb": "https://media.githubusercontent.com/media/ddh4r4m/wallpaper-collection/main/collection/thumbnails/architecture/219.jpg"
      },
      "metadata": {
        "dimensions": {
          "width": 1080,
          "height": 1920
        },
        "file_size": 429125,
        "format": "JPEG",
        "added_at": "2025-07-17T00:02:58.472049",
        "hash": "3502306fefe6721ecd14247b92f3afee",
        "source": "migrated"
      }
    },
    {
      "id": "architecture_220",
      "category": "architecture",
      "title": "Architecture Wallpaper 220",
      "tags": [
        "architecture",
        "wallpaper",
        "hd",
        "mobile"
      ],
      "urls": {
        "raw": "https://media.githubusercontent.com/media/ddh4r4m/wallpaper-collection/main/collection/wallpapers/architecture/220.jpg",
        "thumb": "https://media.githubusercontent.com/media/ddh4r4m/wallpaper-collection/main/collection/thumbnails/architecture/220.jpg"
      },
      "metadata": {
        "dimensions": {
          "width": 1080,
          "height": 1920
        },
        "file_size": 259397,
        "format": "JPEG",
        "added_at": "2025-07-17T00:02:58.526105",
        "hash": "b4f07271da2928ac5f7ca0637280f2f6",
        "source": "migrated"
      }
    },
    {
      "id": "architecture_221",
      "category": "architecture",
      "title": "Architecture Wallpaper 221",
      "tags": [
        "architecture",
        "wallpaper",
        "hd",
        "mobile"
      ],
      "urls": {
        "raw": "https://media.githubusercontent.com/media/ddh4r4m/wallpaper-collection/main/collection/wallpapers/architecture/221.jpg",
        "thumb": "https://media.githubusercontent.com/media/ddh4r4m/wallpaper-collection/main/collection/thumbnails/architecture/221.jpg"
      },
      "metadata": {
        "dimensions": {
          "width": 1080,
          "height": 1920
        },
        "file_size": 139317,
        "format": "JPEG",
        "added_at": "2025-07-17T00:02:58.573745",
        "hash": "4c5edb4e7288baab46bd6db75976ff21",
        "source": "migrated"
      }
    },
    {
      "id": "architecture_222",
      "category": "architecture",
      "title": "Architecture Wallpaper 222",
      "tags": [
        "architecture",
        "wallpaper",
        "hd",
        "mobile"
      ],
      "urls": {
        "raw": "https://media.githubusercontent.com/media/ddh4r4m/wallpaper-collection/main/collection/wallpapers/architecture/222.jpg",
        "thumb": "https://media.githubusercontent.com/media/ddh4r4m/wallpaper-collection/main/collection/thumbnails/architecture/222.jpg"
      },
      "metadata": {
        "dimensions": {
          "width": 1080,
          "height": 1920
        },
        "file_size": 508988,
        "format": "JPEG",
        "added_at": "2025-07-17T00:02:58.640098",
        "hash": "15ce13102bf127c7a0366ed58ea1ab4e",
        "source": "migrated"
      }
    },
    {
      "id": "architecture_223",
      "category": "architecture",
      "title": "Architecture Wallpaper 223",
      "tags": [
        "architecture",
        "wallpaper",
        "hd",
        "mobile"
      ],
      "urls": {
        "raw": "https://media.githubusercontent.com/media/ddh4r4m/wallpaper-collection/main/collection/wallpapers/architecture/223.jpg",
        "thumb": "https://media.githubusercontent.com/media/ddh4r4m/wallpaper-collection/main/collection/thumbnails/architecture/223.jpg"
      },
      "metadata": {
        "dimensions": {
          "width": 1080,
          "height": 1920
        },
        "file_size": 505946,
        "format": "JPEG",
        "added_at": "2025-07-17T00:02:58.710801",
        "hash": "28b815751901000630f31c8587bf909c",
        "source": "migrated"
      }
    },
    {
      "id": "architecture_224",
      "category": "architecture",
      "title": "Architecture Wallpaper 224",
      "tags": [
        "architecture",
        "wallpaper",
        "hd",
        "mobile"
      ],
      "urls": {
        "raw": "https://media.githubusercontent.com/media/ddh4r4m/wallpaper-collection/main/collection/wallpapers/architecture/224.jpg",
        "thumb": "https://media.githubusercontent.com/media/ddh4r4m/wallpaper-collection/main/collection/thumbnails/architecture/224.jpg"
      },
      "metadata": {
        "dimensions": {
          "width": 1080,
          "height": 1920
        },
        "file_size": 336899,
        "format": "JPEG",
        "added_at": "2025-07-17T00:02:58.771210",
        "hash": "6f8c6ee9f2197d1f0e7f5b3347a2946b",
        "source": "migrated"
      }
    },
    {
      "id": "architecture_225",
      "category": "architecture",
      "title": "Architecture Wallpaper 225",
      "tags": [
        "architecture",
        "wallpaper",
        "hd",
        "mobile"
      ],
      "urls": {
        "raw": "https://media.githubusercontent.com/media/ddh4r4m/wallpaper-collection/main/collection/wallpapers/architecture/225.jpg",
        "thumb": "https://media.githubusercontent.com/media/ddh4r4m/wallpaper-collection/main/collection/thumbnails/architecture/225.jpg"
      },
      "metadata": {
        "dimensions": {
          "width": 1080,
          "height": 1920
        },
        "file_size": 430132,
        "format": "JPEG",
        "added_at": "2025-07-17T00:02:58.837332",
        "hash": "644b304dac8d6bd0768c9568d0075d4d",
        "source": "migrated"
      }
    },
    {
      "id": "architecture_226",
      "category": "architecture",
      "title": "Architecture Wallpaper 226",
      "tags": [
        "architecture",
        "wallpaper",
        "hd",
        "mobile"
      ],
      "urls": {
        "raw": "https://media.githubusercontent.com/media/ddh4r4m/wallpaper-collection/main/collection/wallpapers/architecture/226.jpg",
        "thumb": "https://media.githubusercontent.com/media/ddh4r4m/wallpaper-collection/main/collection/thumbnails/architecture/226.jpg"
      },
      "metadata": {
        "dimensions": {
          "width": 1080,
          "height": 1920
        },
        "file_size": 396672,
        "format": "JPEG",
        "added_at": "2025-07-17T00:02:58.904129",
        "hash": "2ba9acae38ed0f2ded2bf87a3a2ee724",
        "source": "migrated"
      }
    },
    {
      "id": "architecture_227",
      "category": "architecture",
      "title": "Architecture Wallpaper 227",
      "tags": [
        "architecture",
        "wallpaper",
        "hd",
        "mobile"
      ],
      "urls": {
        "raw": "https://media.githubusercontent.com/media/ddh4r4m/wallpaper-collection/main/collection/wallpapers/architecture/227.jpg",
        "thumb": "https://media.githubusercontent.com/media/ddh4r4m/wallpaper-collection/main/collection/thumbnails/architecture/227.jpg"
      },
      "metadata": {
        "dimensions": {
          "width": 1080,
          "height": 1920
        },
        "file_size": 450982,
        "format": "JPEG",
        "added_at": "2025-07-17T00:02:58.971416",
        "hash": "96456a29339258b81a60fd4a1bc1d907",
        "source": "migrated"
      }
    },
    {
      "id": "architecture_228",
      "category": "architecture",
      "title": "Architecture Wallpaper 228",
      "tags": [
        "architecture",
        "wallpaper",
        "hd",
        "mobile"
      ],
      "urls": {
        "raw": "https://media.githubusercontent.com/media/ddh4r4m/wallpaper-collection/main/collection/wallpapers/architecture/228.jpg",
        "thumb": "https://media.githubusercontent.com/media/ddh4r4m/wallpaper-collection/main/collection/thumbnails/architecture/228.jpg"
      },
      "metadata": {
        "dimensions": {
          "width": 1080,
          "height": 1920
        },
        "file_size": 331643,
        "format": "JPEG",
        "added_at": "2025-07-17T00:02:59.044509",
        "hash": "8f1ba7d04d3c0934d29ee369c82543ea",
        "source": "migrated"
      }
    },
    {
      "id": "architecture_229",
      "category": "architecture",
      "title": "Architecture Wallpaper 229",
      "tags": [
        "architecture",
        "wallpaper",
        "hd",
        "mobile"
      ],
      "urls": {
        "raw": "https://media.githubusercontent.com/media/ddh4r4m/wallpaper-collection/main/collection/wallpapers/architecture/229.jpg",
        "thumb": "https://media.githubusercontent.com/media/ddh4r4m/wallpaper-collection/main/collection/thumbnails/architecture/229.jpg"
      },
      "metadata": {
        "dimensions": {
          "width": 1080,
          "height": 1920
        },
        "file_size": 511708,
        "format": "JPEG",
        "added_at": "2025-07-17T00:02:59.112498",
        "hash": "0a5c88180d2782574fa47b7e3b60432f",
        "source": "migrated"
      }
    },
    {
      "id": "architecture_230",
      "category": "architecture",
      "title": "Architecture Wallpaper 230",
      "tags": [
        "architecture",
        "wallpaper",
        "hd",
        "mobile"
      ],
      "urls": {
        "raw": "https://media.githubusercontent.com/media/ddh4r4m/wallpaper-collection/main/collection/wallpapers/architecture/230.jpg",
        "thumb": "https://media.githubusercontent.com/media/ddh4r4m/wallpaper-collection/main/collection/thumbnails/architecture/230.jpg"
      },
      "metadata": {
        "dimensions": {
          "width": 1080,
          "height": 1920
        },
        "file_size": 326900,
        "format": "JPEG",
        "added_at": "2025-07-17T00:02:59.172077",
        "hash": "c74a6f2d317c45d0e6b636840c8c053a",
        "source": "migrated"
      }
    },
    {
      "id": "architecture_231",
      "category": "architecture",
      "title": "Architecture Wallpaper 231",
      "tags": [
        "architecture",
        "wallpaper",
        "hd",
        "mobile"
      ],
      "urls": {
        "raw": "https://media.githubusercontent.com/media/ddh4r4m/wallpaper-collection/main/collection/wallpapers/architecture/231.jpg",
        "thumb": "https://media.githubusercontent.com/media/ddh4r4m/wallpaper-collection/main/collection/thumbnails/architecture/231.jpg"
      },
      "metadata": {
        "dimensions": {
          "width": 1080,
          "height": 1920
        },
        "file_size": 396234,
        "format": "JPEG",
        "added_at": "2025-07-17T00:02:59.234989",
        "hash": "c136f6745e0e0bef06f3072f5a1589e1",
        "source": "migrated"
      }
    },
    {
      "id": "architecture_232",
      "category": "architecture",
      "title": "Architecture Wallpaper 232",
      "tags": [
        "architecture",
        "wallpaper",
        "hd",
        "mobile"
      ],
      "urls": {
        "raw": "https://media.githubusercontent.com/media/ddh4r4m/wallpaper-collection/main/collection/wallpapers/architecture/232.jpg",
        "thumb": "https://media.githubusercontent.com/media/ddh4r4m/wallpaper-collection/main/collection/thumbnails/architecture/232.jpg"
      },
      "metadata": {
        "dimensions": {
          "width": 1080,
          "height": 1920
        },
        "file_size": 319571,
        "format": "JPEG",
        "added_at": "2025-07-17T00:02:59.294162",
        "hash": "f098c4b29abb125414f27c0a34b2b223",
        "source": "migrated"
      }
    },
    {
      "id": "architecture_233",
      "category": "architecture",
      "title": "Architecture Wallpaper 233",
      "tags": [
        "architecture",
        "wallpaper",
        "hd",
        "mobile"
      ],
      "urls": {
        "raw": "https://media.githubusercontent.com/media/ddh4r4m/wallpaper-collection/main/collection/wallpapers/architecture/233.jpg",
        "thumb": "https://media.githubusercontent.com/media/ddh4r4m/wallpaper-collection/main/collection/thumbnails/architecture/233.jpg"
      },
      "metadata": {
        "dimensions": {
          "width": 1080,
          "height": 1920
        },
        "file_size": 350633,
        "format": "JPEG",
        "added_at": "2025-07-17T00:02:59.353976",
        "hash": "20507fa9423e983a6fd27752b0fe4e61",
        "source": "migrated"
      }
    }
  ]
}