{
  "meta": {
    "version": "1.0",
    "generated_at": "2025-07-28T21:27:34.814586",
    "page": 68,
    "per_page": 15,
    "total_pages": 177,
    "total_count": 2647,
    "count_on_page": 15,
    "categories": 21,
    "has_next": true,
    "has_prev": true,
    "next_page_url": "/api/v1/all/pages/69.json",
    "prev_page_url": "/api/v1/all/pages/67.json"
  },
  "data": [
    {
      "id": "architecture_249",
      "category": "architecture",
      "title": "Architecture Wallpaper 249",
      "tags": [
        "architecture",
        "wallpaper",
        "hd",
        "mobile"
      ],
      "urls": {
        "raw": "https://media.githubusercontent.com/media/ddh4r4m/wallpaper-collection/main/collection/wallpapers/architecture/249.jpg",
        "thumb": "https://media.githubusercontent.com/media/ddh4r4m/wallpaper-collection/main/collection/thumbnails/architecture/249.jpg"
      },
      "metadata": {
        "dimensions": {
          "width": 1080,
          "height": 1920
        },
        "file_size": 390974,
        "format": "JPEG",
        "added_at": "2025-07-17T00:03:00.401962",
        "hash": "2c6eaebdcdd047ef51554ed8a14a0c14",
        "source": "migrated"
      }
    },
    {
      "id": "architecture_250",
      "category": "architecture",
      "title": "Architecture Wallpaper 250",
      "tags": [
        "architecture",
        "wallpaper",
        "hd",
        "mobile"
      ],
      "urls": {
        "raw": "https://media.githubusercontent.com/media/ddh4r4m/wallpaper-collection/main/collection/wallpapers/architecture/250.jpg",
        "thumb": "https://media.githubusercontent.com/media/ddh4r4m/wallpaper-collection/main/collection/thumbnails/architecture/250.jpg"
      },
      "metadata": {
        "dimensions": {
          "width": 1080,
          "height": 1920
        },
        "file_size": 295748,
        "format": "JPEG",
        "added_at": "2025-07-17T00:03:00.462269",
        "hash": "ed6178ed7b95d6815fe844cda404787b",
        "source": "migrated"
      }
    },
    {
      "id": "architecture_251",
      "category": "architecture",
      "title": "Architecture Wallpaper 251",
      "tags": [
        "architecture",
        "wallpaper",
        "hd",
        "mobile"
      ],
      "urls": {
        "raw": "https://media.githubusercontent.com/media/ddh4r4m/wallpaper-collection/main/collection/wallpapers/architecture/251.jpg",
        "thumb": "https://media.githubusercontent.com/media/ddh4r4m/wallpaper-collection/main/collection/thumbnails/architecture/251.jpg"
      },
      "metadata": {
        "dimensions": {
          "width": 1080,
          "height": 1920
        },
        "file_size": 365837,
        "format": "JPEG",
        "added_at": "2025-07-17T00:03:00.525672",
        "hash": "a245feaa216869a462d4d8405f16a614",
        "source": "migrated"
      }
    },
    {
      "id": "architecture_252",
      "category": "architecture",
      "title": "Architecture Wallpaper 252",
      "tags": [
        "architecture",
        "wallpaper",
        "hd",
        "mobile"
      ],
      "urls": {
        "raw": "https://media.githubusercontent.com/media/ddh4r4m/wallpaper-collection/main/collection/wallpapers/architecture/252.jpg",
        "thumb": "https://media.githubusercontent.com/media/ddh4r4m/wallpaper-collection/main/collection/thumbnails/architecture/252.jpg"
      },
      "metadata": {
        "dimensions": {
          "width": 1080,
          "height": 1920
        },
        "file_size": 228962,
        "format": "JPEG",
        "added_at": "2025-07-17T00:03:00.578564",
        "hash": "4c3c34c958ca2c1cca97352f48f12638",
        "source": "migrated"
      }
    },
    {
      "id": "architecture_253",
      "category": "architecture",
      "title": "Architecture Wallpaper 253",
      "tags": [
        "architecture",
        "wallpaper",
        "hd",
        "mobile"
      ],
      "urls": {
        "raw": "https://media.githubusercontent.com/media/ddh4r4m/wallpaper-collection/main/collection/wallpapers/architecture/253.jpg",
        "thumb": "https://media.githubusercontent.com/media/ddh4r4m/wallpaper-collection/main/collection/thumbnails/architecture/253.jpg"
      },
      "metadata": {
        "dimensions": {
          "width": 1080,
          "height": 1920
        },
        "file_size": 428764,
        "format": "JPEG",
        "added_at": "2025-07-17T00:03:00.641905",
        "hash": "ca136089f27d7955312a996c32429540",
        "source": "migrated"
      }
    },
    {
      "id": "architecture_254",
      "category": "architecture",
      "title": "Architecture Wallpaper 254",
      "tags": [
        "architecture",
        "wallpaper",
        "hd",
        "mobile"
      ],
      "urls": {
        "raw": "https://media.githubusercontent.com/media/ddh4r4m/wallpaper-collection/main/collection/wallpapers/architecture/254.jpg",
        "thumb": "https://media.githubusercontent.com/media/ddh4r4m/wallpaper-collection/main/collection/thumbnails/architecture/254.jpg"
      },
      "metadata": {
        "dimensions": {
          "width": 1080,
          "height": 1920
        },
        "file_size": 198088,
        "format": "JPEG",
        "added_at": "2025-07-17T00:03:00.694753",
        "hash": "8381dc510b56226f49b74555159e29c6",
        "source": "migrated"
      }
    },
    {
      "id": "architecture_255",
      "category": "architecture",
      "title": "Architecture Wallpaper 255",
      "tags": [
        "architecture",
        "wallpaper",
        "hd",
        "mobile"
      ],
      "urls": {
        "raw": "https://media.githubusercontent.com/media/ddh4r4m/wallpaper-collection/main/collection/wallpapers/architecture/255.jpg",
        "thumb": "https://media.githubusercontent.com/media/ddh4r4m/wallpaper-collection/main/collection/thumbnails/architecture/255.jpg"
      },
      "metadata": {
        "dimensions": {
          "width": 1080,
          "height": 1920
        },
        "file_size": 209977,
        "format": "JPEG",
        "added_at": "2025-07-17T00:03:00.746776",
        "hash": "1e95966ba6e686ac99681a12a7dfe439",
        "source": "migrated"
      }
    },
    {
      "id": "architecture_256",
      "category": "architecture",
      "title": "Architecture Wallpaper 256",
      "tags": [
        "architecture",
        "wallpaper",
        "hd",
        "mobile"
      ],
      "urls": {
        "raw": "https://media.githubusercontent.com/media/ddh4r4m/wallpaper-collection/main/collection/wallpapers/architecture/256.jpg",
        "thumb": "https://media.githubusercontent.com/media/ddh4r4m/wallpaper-collection/main/collection/thumbnails/architecture/256.jpg"
      },
      "metadata": {
        "dimensions": {
          "width": 1080,
          "height": 1920
        },
        "file_size": 319842,
        "format": "JPEG",
        "added_at": "2025-07-17T00:03:00.810402",
        "hash": "72bea484237493c4685181804b31d1b4",
        "source": "migrated"
      }
    },
    {
      "id": "architecture_257",
      "category": "architecture",
      "title": "Architecture Wallpaper 257",
      "tags": [
        "architecture",
        "wallpaper",
        "hd",
        "mobile"
      ],
      "urls": {
        "raw": "https://media.githubusercontent.com/media/ddh4r4m/wallpaper-collection/main/collection/wallpapers/architecture/257.jpg",
        "thumb": "https://media.githubusercontent.com/media/ddh4r4m/wallpaper-collection/main/collection/thumbnails/architecture/257.jpg"
      },
      "metadata": {
        "dimensions": {
          "width": 1080,
          "height": 1920
        },
        "file_size": 441971,
        "format": "JPEG",
        "added_at": "2025-07-17T00:03:00.875949",
        "hash": "a05a3969fc7b88483e7b1408e7e72b8e",
        "source": "migrated"
      }
    },
    {
      "id": "architecture_258",
      "category": "architecture",
      "title": "Architecture Wallpaper 258",
      "tags": [
        "architecture",
        "wallpaper",
        "hd",
        "mobile"
      ],
      "urls": {
        "raw": "https://media.githubusercontent.com/media/ddh4r4m/wallpaper-collection/main/collection/wallpapers/architecture/258.jpg",
        "thumb": "https://media.githubusercontent.com/media/ddh4r4m/wallpaper-collection/main/collection/thumbnails/architecture/258.jpg"
      },
      "metadata": {
        "dimensions": {
          "width": 1080,
          "height": 1920
        },
        "file_size": 199901,
        "format": "JPEG",
        "added_at": "2025-07-17T00:03:00.927923",
        "hash": "72db9d1c21427ee9b6a0799cccbd5475",
        "source": "migrated"
      }
    },
    {
      "id": "architecture_259",
      "category": "architecture",
      "title": "Architecture Wallpaper 259",
      "tags": [
        "architecture",
        "wallpaper",
        "hd",
        "mobile"
      ],
      "urls": {
        "raw": "https://media.githubusercontent.com/media/ddh4r4m/wallpaper-collection/main/collection/wallpapers/architecture/259.jpg",
        "thumb": "https://media.githubusercontent.com/media/ddh4r4m/wallpaper-collection/main/collection/thumbnails/architecture/259.jpg"
      },
      "metadata": {
        "dimensions": {
          "width": 1080,
          "height": 1920
        },
        "file_size": 351294,
        "format": "JPEG",
        "added_at": "2025-07-17T00:03:00.988594",
        "hash": "94912920a3035ade8ae52fbdb25c288f",
        "source": "migrated"
      }
    },
    {
      "id": "architecture_260",
      "category": "architecture",
      "title": "Architecture Wallpaper 260",
      "tags": [
        "architecture",
        "wallpaper",
        "hd",
        "mobile"
      ],
      "urls": {
        "raw": "https://media.githubusercontent.com/media/ddh4r4m/wallpaper-collection/main/collection/wallpapers/architecture/260.jpg",
        "thumb": "https://media.githubusercontent.com/media/ddh4r4m/wallpaper-collection/main/collection/thumbnails/architecture/260.jpg"
      },
      "metadata": {
        "dimensions": {
          "width": 1080,
          "height": 1920
        },
        "file_size": 370046,
        "format": "JPEG",
        "added_at": "2025-07-17T00:03:01.047804",
        "hash": "a7a7d3a81c4f0a2c5f1964fbc3241ea6",
        "source": "migrated"
      }
    },
    {
      "id": "architecture_261",
      "category": "architecture",
      "title": "Architecture Wallpaper 261",
      "tags": [
        "architecture",
        "wallpaper",
        "hd",
        "mobile"
      ],
      "urls": {
        "raw": "https://media.githubusercontent.com/media/ddh4r4m/wallpaper-collection/main/collection/wallpapers/architecture/261.jpg",
        "thumb": "https://media.githubusercontent.com/media/ddh4r4m/wallpaper-collection/main/collection/thumbnails/architecture/261.jpg"
      },
      "metadata": {
        "dimensions": {
          "width": 1080,
          "height": 1920
        },
        "file_size": 376584,
        "format": "JPEG",
        "added_at": "2025-07-17T00:03:01.108135",
        "hash": "79a468a59045ce4fdcee5cbbb9124ae5",
        "source": "migrated"
      }
    },
    {
      "id": "architecture_262",
      "category": "architecture",
      "title": "Architecture Wallpaper 262",
      "tags": [
        "architecture",
        "wallpaper",
        "hd",
        "mobile"
      ],
      "urls": {
        "raw": "https://media.githubusercontent.com/media/ddh4r4m/wallpaper-collection/main/collection/wallpapers/architecture/262.jpg",
        "thumb": "https://media.githubusercontent.com/media/ddh4r4m/wallpaper-collection/main/collection/thumbnails/architecture/262.jpg"
      },
      "metadata": {
        "dimensions": {
          "width": 1080,
          "height": 1920
        },
        "file_size": 193124,
        "format": "JPEG",
        "added_at": "2025-07-17T00:03:01.159229",
        "hash": "faae7da49e73f9dab02d0eeb80b5151b",
        "source": "migrated"
      }
    },
    {
      "id": "architecture_263",
      "category": "architecture",
      "title": "Architecture Wallpaper 263",
      "tags": [
        "architecture",
        "wallpaper",
        "hd",
        "mobile"
      ],
      "urls": {
        "raw": "https://media.githubusercontent.com/media/ddh4r4m/wallpaper-collection/main/collection/wallpapers/architecture/263.jpg",
        "thumb": "https://media.githubusercontent.com/media/ddh4r4m/wallpaper-collection/main/collection/thumbnails/architecture/263.jpg"
      },
      "metadata": {
        "dimensions": {
          "width": 1080,
          "height": 1920
        },
        "file_size": 359143,
        "format": "JPEG",
        "added_at": "2025-07-17T00:03:01.219890",
        "hash": "236500096f71ca4183372d95680da2c3",
        "source": "migrated"
      }
    }
  ]
}