{
  "meta": {
    "version": "1.0",
    "generated_at": "2025-07-28T22:38:03.579947",
    "page": 69,
    "per_page": 15,
    "total_pages": 178,
    "total_count": 2656,
    "count_on_page": 15,
    "categories": 21,
    "has_next": true,
    "has_prev": true,
    "next_page_url": "/api/v1/all/pages/70.json",
    "prev_page_url": "/api/v1/all/pages/68.json"
  },
  "data": [
    {
      "id": "architecture_264",
      "category": "architecture",
      "title": "Architecture Wallpaper 264",
      "tags": [
        "architecture",
        "wallpaper",
        "hd",
        "mobile"
      ],
      "urls": {
        "raw": "https://media.githubusercontent.com/media/ddh4r4m/wallpaper-collection/main/collection/wallpapers/architecture/264.jpg",
        "thumb": "https://media.githubusercontent.com/media/ddh4r4m/wallpaper-collection/main/collection/thumbnails/architecture/264.jpg"
      },
      "metadata": {
        "dimensions": {
          "width": 1080,
          "height": 1920
        },
        "file_size": 210493,
        "format": "JPEG",
        "added_at": "2025-07-17T00:03:01.273027",
        "hash": "69544ac1ed7c9345c1b9b6adca06ee9e",
        "source": "migrated"
      }
    },
    {
      "id": "architecture_265",
      "category": "architecture",
      "title": "Architecture Wallpaper 265",
      "tags": [
        "architecture",
        "wallpaper",
        "hd",
        "mobile"
      ],
      "urls": {
        "raw": "https://media.githubusercontent.com/media/ddh4r4m/wallpaper-collection/main/collection/wallpapers/architecture/265.jpg",
        "thumb": "https://media.githubusercontent.com/media/ddh4r4m/wallpaper-collection/main/collection/thumbnails/architecture/265.jpg"
      },
      "metadata": {
        "dimensions": {
          "width": 1080,
          "height": 1920
        },
        "file_size": 256355,
        "format": "JPEG",
        "added_at": "2025-07-17T00:03:01.326646",
        "hash": "015e3dd391738170422703f2633c6434",
        "source": "migrated"
      }
    },
    {
      "id": "architecture_266",
      "category": "architecture",
      "title": "Architecture Wallpaper 266",
      "tags": [
        "architecture",
        "wallpaper",
        "hd",
        "mobile"
      ],
      "urls": {
        "raw": "https://media.githubusercontent.com/media/ddh4r4m/wallpaper-collection/main/collection/wallpapers/architecture/266.jpg",
        "thumb": "https://media.githubusercontent.com/media/ddh4r4m/wallpaper-collection/main/collection/thumbnails/architecture/266.jpg"
      },
      "metadata": {
        "dimensions": {
          "width": 1080,
          "height": 1920
        },
        "file_size": 130968,
        "format": "JPEG",
        "added_at": "2025-07-17T00:03:01.375643",
        "hash": "77386512bd88a91363788e0d2241a07f",
        "source": "migrated"
      }
    },
    {
      "id": "architecture_267",
      "category": "architecture",
      "title": "Architecture Wallpaper 267",
      "tags": [
        "architecture",
        "wallpaper",
        "hd",
        "mobile"
      ],
      "urls": {
        "raw": "https://media.githubusercontent.com/media/ddh4r4m/wallpaper-collection/main/collection/wallpapers/architecture/267.jpg",
        "thumb": "https://media.githubusercontent.com/media/ddh4r4m/wallpaper-collection/main/collection/thumbnails/architecture/267.jpg"
      },
      "metadata": {
        "dimensions": {
          "width": 1080,
          "height": 1920
        },
        "file_size": 362473,
        "format": "JPEG",
        "added_at": "2025-07-17T00:03:01.437858",
        "hash": "420cfd1ad3f6e5ba240b80e50a988cb3",
        "source": "migrated"
      }
    },
    {
      "id": "architecture_268",
      "category": "architecture",
      "title": "Architecture Wallpaper 268",
      "tags": [
        "architecture",
        "wallpaper",
        "hd",
        "mobile"
      ],
      "urls": {
        "raw": "https://media.githubusercontent.com/media/ddh4r4m/wallpaper-collection/main/collection/wallpapers/architecture/268.jpg",
        "thumb": "https://media.githubusercontent.com/media/ddh4r4m/wallpaper-collection/main/collection/thumbnails/architecture/268.jpg"
      },
      "metadata": {
        "dimensions": {
          "width": 1080,
          "height": 1920
        },
        "file_size": 204849,
        "format": "JPEG",
        "added_at": "2025-07-17T00:03:01.492395",
        "hash": "2d69a30268a1a31a4ccfe19dff2bd402",
        "source": "migrated"
      }
    },
    {
      "id": "architecture_269",
      "category": "architecture",
      "title": "Architecture Wallpaper 269",
      "tags": [
        "architecture",
        "wallpaper",
        "hd",
        "mobile"
      ],
      "urls": {
        "raw": "https://media.githubusercontent.com/media/ddh4r4m/wallpaper-collection/main/collection/wallpapers/architecture/269.jpg",
        "thumb": "https://media.githubusercontent.com/media/ddh4r4m/wallpaper-collection/main/collection/thumbnails/architecture/269.jpg"
      },
      "metadata": {
        "dimensions": {
          "width": 1080,
          "height": 1920
        },
        "file_size": 397749,
        "format": "JPEG",
        "added_at": "2025-07-17T00:03:01.555880",
        "hash": "4061d7e9ce9ce5b445d83f7c4a1ad0a8",
        "source": "migrated"
      }
    },
    {
      "id": "architecture_270",
      "category": "architecture",
      "title": "Architecture Wallpaper 270",
      "tags": [
        "architecture",
        "wallpaper",
        "hd",
        "mobile"
      ],
      "urls": {
        "raw": "https://media.githubusercontent.com/media/ddh4r4m/wallpaper-collection/main/collection/wallpapers/architecture/270.jpg",
        "thumb": "https://media.githubusercontent.com/media/ddh4r4m/wallpaper-collection/main/collection/thumbnails/architecture/270.jpg"
      },
      "metadata": {
        "dimensions": {
          "width": 1080,
          "height": 1920
        },
        "file_size": 584681,
        "format": "JPEG",
        "added_at": "2025-07-17T00:03:01.630754",
        "hash": "8cfccab275e82ea2a0a068a20c7aa023",
        "source": "migrated"
      }
    },
    {
      "id": "architecture_271",
      "category": "architecture",
      "title": "Architecture Wallpaper 271",
      "tags": [
        "architecture",
        "wallpaper",
        "hd",
        "mobile"
      ],
      "urls": {
        "raw": "https://media.githubusercontent.com/media/ddh4r4m/wallpaper-collection/main/collection/wallpapers/architecture/271.jpg",
        "thumb": "https://media.githubusercontent.com/media/ddh4r4m/wallpaper-collection/main/collection/thumbnails/architecture/271.jpg"
      },
      "metadata": {
        "dimensions": {
          "width": 1080,
          "height": 1920
        },
        "file_size": 569980,
        "format": "JPEG",
        "added_at": "2025-07-17T00:03:01.700638",
        "hash": "35cd2f583f87e2bb167e32de286d43c3",
        "source": "migrated"
      }
    },
    {
      "id": "architecture_272",
      "category": "architecture",
      "title": "Architecture Wallpaper 272",
      "tags": [
        "architecture",
        "wallpaper",
        "hd",
        "mobile"
      ],
      "urls": {
        "raw": "https://media.githubusercontent.com/media/ddh4r4m/wallpaper-collection/main/collection/wallpapers/architecture/272.jpg",
        "thumb": "https://media.githubusercontent.com/media/ddh4r4m/wallpaper-collection/main/collection/thumbnails/architecture/272.jpg"
      },
      "metadata": {
        "dimensions": {
          "width": 1080,
          "height": 1920
        },
        "file_size": 332213,
        "format": "JPEG",
        "added_at": "2025-07-17T00:03:01.760979",
        "hash": "341350fae9a615150f6da1a2e4847465",
        "source": "migrated"
      }
    },
    {
      "id": "architecture_273",
      "category": "architecture",
      "title": "Architecture Wallpaper 273",
      "tags": [
        "architecture",
        "wallpaper",
        "hd",
        "mobile"
      ],
      "urls": {
        "raw": "https://media.githubusercontent.com/media/ddh4r4m/wallpaper-collection/main/collection/wallpapers/architecture/273.jpg",
        "thumb": "https://media.githubusercontent.com/media/ddh4r4m/wallpaper-collection/main/collection/thumbnails/architecture/273.jpg"
      },
      "metadata": {
        "dimensions": {
          "width": 1080,
          "height": 1920
        },
        "file_size": 520176,
        "format": "JPEG",
        "added_at": "2025-07-17T00:03:01.832104",
        "hash": "e0363656714db9d59fede7bf00119fd3",
        "source": "migrated"
      }
    },
    {
      "id": "architecture_274",
      "category": "architecture",
      "title": "Architecture Wallpaper 274",
      "tags": [
        "architecture",
        "wallpaper",
        "hd",
        "mobile"
      ],
      "urls": {
        "raw": "https://media.githubusercontent.com/media/ddh4r4m/wallpaper-collection/main/collection/wallpapers/architecture/274.jpg",
        "thumb": "https://media.githubusercontent.com/media/ddh4r4m/wallpaper-collection/main/collection/thumbnails/architecture/274.jpg"
      },
      "metadata": {
        "dimensions": {
          "width": 1080,
          "height": 1920
        },
        "file_size": 494567,
        "format": "JPEG",
        "added_at": "2025-07-17T00:03:01.900451",
        "hash": "f4d3ce8e6657d0a0f5252c49c6199f0d",
        "source": "migrated"
      }
    },
    {
      "id": "architecture_275",
      "category": "architecture",
      "title": "Architecture Wallpaper 275",
      "tags": [
        "architecture",
        "wallpaper",
        "hd",
        "mobile"
      ],
      "urls": {
        "raw": "https://media.githubusercontent.com/media/ddh4r4m/wallpaper-collection/main/collection/wallpapers/architecture/275.jpg",
        "thumb": "https://media.githubusercontent.com/media/ddh4r4m/wallpaper-collection/main/collection/thumbnails/architecture/275.jpg"
      },
      "metadata": {
        "dimensions": {
          "width": 1080,
          "height": 1920
        },
        "file_size": 355387,
        "format": "JPEG",
        "added_at": "2025-07-17T00:03:01.986465",
        "hash": "d9965eb445279736335cea577d988a66",
        "source": "migrated"
      }
    },
    {
      "id": "art_001",
      "category": "art",
      "title": "Art Wallpaper 001",
      "tags": [
        "art",
        "wallpaper",
        "hd",
        "mobile"
      ],
      "urls": {
        "raw": "https://media.githubusercontent.com/media/ddh4r4m/wallpaper-collection/main/collection/wallpapers/art/001.jpg",
        "thumb": "https://media.githubusercontent.com/media/ddh4r4m/wallpaper-collection/main/collection/thumbnails/art/001.jpg"
      },
      "metadata": {
        "dimensions": {
          "width": 1080,
          "height": 1920
        },
        "file_size": 68346,
        "format": "JPEG",
        "added_at": "2025-07-17T00:03:02.037661",
        "hash": "7076bc94f1f3d91861904b360f9d06f5",
        "source": "migrated"
      }
    },
    {
      "id": "art_002",
      "category": "art",
      "title": "Art Wallpaper 002",
      "tags": [
        "art",
        "wallpaper",
        "hd",
        "mobile"
      ],
      "urls": {
        "raw": "https://media.githubusercontent.com/media/ddh4r4m/wallpaper-collection/main/collection/wallpapers/art/002.jpg",
        "thumb": "https://media.githubusercontent.com/media/ddh4r4m/wallpaper-collection/main/collection/thumbnails/art/002.jpg"
      },
      "metadata": {
        "dimensions": {
          "width": 1080,
          "height": 1920
        },
        "file_size": 140787,
        "format": "JPEG",
        "added_at": "2025-07-17T00:03:02.086412",
        "hash": "9ce5f42cfb98a2eefeb5e77b9c29dca1",
        "source": "migrated"
      }
    },
    {
      "id": "art_003",
      "category": "art",
      "title": "Art Wallpaper 003",
      "tags": [
        "art",
        "wallpaper",
        "hd",
        "mobile"
      ],
      "urls": {
        "raw": "https://media.githubusercontent.com/media/ddh4r4m/wallpaper-collection/main/collection/wallpapers/art/003.jpg",
        "thumb": "https://media.githubusercontent.com/media/ddh4r4m/wallpaper-collection/main/collection/thumbnails/art/003.jpg"
      },
      "metadata": {
        "dimensions": {
          "width": 1080,
          "height": 1920
        },
        "file_size": 66889,
        "format": "JPEG",
        "added_at": "2025-07-17T00:03:02.130188",
        "hash": "9c7d2c6488ee2b1651aa72e1c46c378e",
        "source": "migrated"
      }
    }
  ]
}