{
  "meta": {
    "version": "1.0",
    "generated_at": "2025-07-17T21:14:17.488868",
    "page": 70,
    "per_page": 15,
    "total_pages": 117,
    "total_count": 1751,
    "count_on_page": 15,
    "categories": 17,
    "has_next": true,
    "has_prev": true,
    "next_page_url": "/api/v1/all/pages/71.json",
    "prev_page_url": "/api/v1/all/pages/69.json"
  },
  "data": [
    {
      "id": "gaming_029",
      "category": "gaming",
      "title": "Gaming Wallpaper 029",
      "tags": [
        "gaming",
        "wallpaper",
        "hd",
        "mobile"
      ],
      "urls": {
        "raw": "https://media.githubusercontent.com/media/ddh4r4m/wallpaper-collection/main/collection/wallpapers/gaming/029.jpg",
        "thumb": "https://media.githubusercontent.com/media/ddh4r4m/wallpaper-collection/main/collection/thumbnails/gaming/029.jpg"
      },
      "metadata": {
        "dimensions": {
          "width": 1080,
          "height": 1920
        },
        "file_size": 254575,
        "format": "JPEG",
        "added_at": "2025-07-17T00:03:46.814888",
        "hash": "f4dd4e02066a2a13b8dd522656d3543b",
        "source": "migrated"
      }
    },
    {
      "id": "gaming_030",
      "category": "gaming",
      "title": "Gaming Wallpaper 030",
      "tags": [
        "gaming",
        "wallpaper",
        "hd",
        "mobile"
      ],
      "urls": {
        "raw": "https://media.githubusercontent.com/media/ddh4r4m/wallpaper-collection/main/collection/wallpapers/gaming/030.jpg",
        "thumb": "https://media.githubusercontent.com/media/ddh4r4m/wallpaper-collection/main/collection/thumbnails/gaming/030.jpg"
      },
      "metadata": {
        "dimensions": {
          "width": 1080,
          "height": 1920
        },
        "file_size": 97693,
        "format": "JPEG",
        "added_at": "2025-07-17T00:03:46.963224",
        "hash": "61ea1896f43e4467f39116a4305a2b54",
        "source": "migrated"
      }
    },
    {
      "id": "gaming_031",
      "category": "gaming",
      "title": "Gaming Wallpaper 031",
      "tags": [
        "gaming",
        "wallpaper",
        "hd",
        "mobile"
      ],
      "urls": {
        "raw": "https://media.githubusercontent.com/media/ddh4r4m/wallpaper-collection/main/collection/wallpapers/gaming/031.jpg",
        "thumb": "https://media.githubusercontent.com/media/ddh4r4m/wallpaper-collection/main/collection/thumbnails/gaming/031.jpg"
      },
      "metadata": {
        "dimensions": {
          "width": 1080,
          "height": 1920
        },
        "file_size": 222499,
        "format": "JPEG",
        "added_at": "2025-07-17T00:03:47.173041",
        "hash": "5892c3e2530ac1c8c582237e84f15efc",
        "source": "migrated"
      }
    },
    {
      "id": "gaming_032",
      "category": "gaming",
      "title": "Gaming Wallpaper 032",
      "tags": [
        "gaming",
        "wallpaper",
        "hd",
        "mobile"
      ],
      "urls": {
        "raw": "https://media.githubusercontent.com/media/ddh4r4m/wallpaper-collection/main/collection/wallpapers/gaming/032.jpg",
        "thumb": "https://media.githubusercontent.com/media/ddh4r4m/wallpaper-collection/main/collection/thumbnails/gaming/032.jpg"
      },
      "metadata": {
        "dimensions": {
          "width": 1080,
          "height": 1920
        },
        "file_size": 174637,
        "format": "JPEG",
        "added_at": "2025-07-17T00:03:47.837563",
        "hash": "5ce178af0af8f40fe6e97411dea660d6",
        "source": "migrated"
      }
    },
    {
      "id": "gaming_033",
      "category": "gaming",
      "title": "Gaming Wallpaper 033",
      "tags": [
        "gaming",
        "wallpaper",
        "hd",
        "mobile"
      ],
      "urls": {
        "raw": "https://media.githubusercontent.com/media/ddh4r4m/wallpaper-collection/main/collection/wallpapers/gaming/033.jpg",
        "thumb": "https://media.githubusercontent.com/media/ddh4r4m/wallpaper-collection/main/collection/thumbnails/gaming/033.jpg"
      },
      "metadata": {
        "dimensions": {
          "width": 1080,
          "height": 1920
        },
        "file_size": 310699,
        "format": "JPEG",
        "added_at": "2025-07-17T00:03:48.078798",
        "hash": "b2c9ccbb6a1fa03f7620853e577052c6",
        "source": "migrated"
      }
    },
    {
      "id": "gaming_034",
      "category": "gaming",
      "title": "Gaming Wallpaper 034",
      "tags": [
        "gaming",
        "wallpaper",
        "hd",
        "mobile"
      ],
      "urls": {
        "raw": "https://media.githubusercontent.com/media/ddh4r4m/wallpaper-collection/main/collection/wallpapers/gaming/034.jpg",
        "thumb": "https://media.githubusercontent.com/media/ddh4r4m/wallpaper-collection/main/collection/thumbnails/gaming/034.jpg"
      },
      "metadata": {
        "dimensions": {
          "width": 1080,
          "height": 1920
        },
        "file_size": 308751,
        "format": "JPEG",
        "added_at": "2025-07-17T00:03:49.086340",
        "hash": "d84e2ab903c7e08b45c352be2245bc8f",
        "source": "migrated"
      }
    },
    {
      "id": "gaming_035",
      "category": "gaming",
      "title": "Gaming Wallpaper 035",
      "tags": [
        "gaming",
        "wallpaper",
        "hd",
        "mobile"
      ],
      "urls": {
        "raw": "https://media.githubusercontent.com/media/ddh4r4m/wallpaper-collection/main/collection/wallpapers/gaming/035.jpg",
        "thumb": "https://media.githubusercontent.com/media/ddh4r4m/wallpaper-collection/main/collection/thumbnails/gaming/035.jpg"
      },
      "metadata": {
        "dimensions": {
          "width": 1080,
          "height": 1920
        },
        "file_size": 254605,
        "format": "JPEG",
        "added_at": "2025-07-17T00:03:49.276116",
        "hash": "17b0e26f86dbcb95436ef0446f320780",
        "source": "migrated"
      }
    },
    {
      "id": "gaming_036",
      "category": "gaming",
      "title": "Gaming Wallpaper 036",
      "tags": [
        "gaming",
        "wallpaper",
        "hd",
        "mobile"
      ],
      "urls": {
        "raw": "https://media.githubusercontent.com/media/ddh4r4m/wallpaper-collection/main/collection/wallpapers/gaming/036.jpg",
        "thumb": "https://media.githubusercontent.com/media/ddh4r4m/wallpaper-collection/main/collection/thumbnails/gaming/036.jpg"
      },
      "metadata": {
        "dimensions": {
          "width": 1080,
          "height": 1920
        },
        "file_size": 287668,
        "format": "JPEG",
        "added_at": "2025-07-17T00:03:49.470369",
        "hash": "ff031666dcf91fa2b1d9247d28d859bf",
        "source": "migrated"
      }
    },
    {
      "id": "gaming_037",
      "category": "gaming",
      "title": "Gaming Wallpaper 037",
      "tags": [
        "gaming",
        "wallpaper",
        "hd",
        "mobile"
      ],
      "urls": {
        "raw": "https://media.githubusercontent.com/media/ddh4r4m/wallpaper-collection/main/collection/wallpapers/gaming/037.jpg",
        "thumb": "https://media.githubusercontent.com/media/ddh4r4m/wallpaper-collection/main/collection/thumbnails/gaming/037.jpg"
      },
      "metadata": {
        "dimensions": {
          "width": 1080,
          "height": 1920
        },
        "file_size": 487535,
        "format": "JPEG",
        "added_at": "2025-07-17T00:03:49.729149",
        "hash": "d6227304f031aeb8596de39d0e427e06",
        "source": "migrated"
      }
    },
    {
      "id": "gaming_038",
      "category": "gaming",
      "title": "Gaming Wallpaper 038",
      "tags": [
        "gaming",
        "wallpaper",
        "hd",
        "mobile"
      ],
      "urls": {
        "raw": "https://media.githubusercontent.com/media/ddh4r4m/wallpaper-collection/main/collection/wallpapers/gaming/038.jpg",
        "thumb": "https://media.githubusercontent.com/media/ddh4r4m/wallpaper-collection/main/collection/thumbnails/gaming/038.jpg"
      },
      "metadata": {
        "dimensions": {
          "width": 1080,
          "height": 1920
        },
        "file_size": 424300,
        "format": "JPEG",
        "added_at": "2025-07-17T00:03:49.880523",
        "hash": "c88a0b162f7d3065eaba4415db6ea6db",
        "source": "migrated"
      }
    },
    {
      "id": "gaming_039",
      "category": "gaming",
      "title": "Gaming Wallpaper 039",
      "tags": [
        "gaming",
        "wallpaper",
        "hd",
        "mobile"
      ],
      "urls": {
        "raw": "https://media.githubusercontent.com/media/ddh4r4m/wallpaper-collection/main/collection/wallpapers/gaming/039.jpg",
        "thumb": "https://media.githubusercontent.com/media/ddh4r4m/wallpaper-collection/main/collection/thumbnails/gaming/039.jpg"
      },
      "metadata": {
        "dimensions": {
          "width": 1080,
          "height": 1920
        },
        "file_size": 319957,
        "format": "JPEG",
        "added_at": "2025-07-17T00:03:50.082524",
        "hash": "f2759891c3d5e080daa23e5043be0913",
        "source": "migrated"
      }
    },
    {
      "id": "gaming_040",
      "category": "gaming",
      "title": "Gaming Wallpaper 040",
      "tags": [
        "gaming",
        "wallpaper",
        "hd",
        "mobile"
      ],
      "urls": {
        "raw": "https://media.githubusercontent.com/media/ddh4r4m/wallpaper-collection/main/collection/wallpapers/gaming/040.jpg",
        "thumb": "https://media.githubusercontent.com/media/ddh4r4m/wallpaper-collection/main/collection/thumbnails/gaming/040.jpg"
      },
      "metadata": {
        "dimensions": {
          "width": 1080,
          "height": 1920
        },
        "file_size": 175395,
        "format": "JPEG",
        "added_at": "2025-07-17T00:03:50.345331",
        "hash": "3946957e253d7fd7fa67d491e50e9856",
        "source": "migrated"
      }
    },
    {
      "id": "gaming_041",
      "category": "gaming",
      "title": "Gaming Wallpaper 041",
      "tags": [
        "gaming",
        "wallpaper",
        "hd",
        "mobile"
      ],
      "urls": {
        "raw": "https://media.githubusercontent.com/media/ddh4r4m/wallpaper-collection/main/collection/wallpapers/gaming/041.jpg",
        "thumb": "https://media.githubusercontent.com/media/ddh4r4m/wallpaper-collection/main/collection/thumbnails/gaming/041.jpg"
      },
      "metadata": {
        "dimensions": {
          "width": 1080,
          "height": 1920
        },
        "file_size": 392444,
        "format": "JPEG",
        "added_at": "2025-07-17T00:03:50.554735",
        "hash": "3eaf6db6db719a50eb7803b2d739dc90",
        "source": "migrated"
      }
    },
    {
      "id": "gaming_042",
      "category": "gaming",
      "title": "Gaming Wallpaper 042",
      "tags": [
        "gaming",
        "wallpaper",
        "hd",
        "mobile"
      ],
      "urls": {
        "raw": "https://media.githubusercontent.com/media/ddh4r4m/wallpaper-collection/main/collection/wallpapers/gaming/042.jpg",
        "thumb": "https://media.githubusercontent.com/media/ddh4r4m/wallpaper-collection/main/collection/thumbnails/gaming/042.jpg"
      },
      "metadata": {
        "dimensions": {
          "width": 1080,
          "height": 1920
        },
        "file_size": 228783,
        "format": "JPEG",
        "added_at": "2025-07-17T00:03:51.057003",
        "hash": "4c0c3b3b4d26e9c888f1abf8f0cb352d",
        "source": "migrated"
      }
    },
    {
      "id": "gaming_043",
      "category": "gaming",
      "title": "Gaming Wallpaper 043",
      "tags": [
        "gaming",
        "wallpaper",
        "hd",
        "mobile"
      ],
      "urls": {
        "raw": "https://media.githubusercontent.com/media/ddh4r4m/wallpaper-collection/main/collection/wallpapers/gaming/043.jpg",
        "thumb": "https://media.githubusercontent.com/media/ddh4r4m/wallpaper-collection/main/collection/thumbnails/gaming/043.jpg"
      },
      "metadata": {
        "dimensions": {
          "width": 1080,
          "height": 1920
        },
        "file_size": 333824,
        "format": "JPEG",
        "added_at": "2025-07-17T00:03:51.515178",
        "hash": "d9cb08b613a110db7def8b5bf452b374",
        "source": "migrated"
      }
    }
  ]
}