{
  "meta": {
    "version": "1.0",
    "generated_at": "2025-07-28T23:12:02.393375",
    "page": 71,
    "per_page": 15,
    "total_pages": 183,
    "total_count": 2743,
    "count_on_page": 15,
    "categories": 22,
    "has_next": true,
    "has_prev": true,
    "next_page_url": "/api/v1/all/pages/72.json",
    "prev_page_url": "/api/v1/all/pages/70.json"
  },
  "data": [
    {
      "id": "art_013",
      "category": "art",
      "title": "Art Wallpaper 013",
      "tags": [
        "art",
        "wallpaper",
        "hd",
        "mobile"
      ],
      "urls": {
        "raw": "https://media.githubusercontent.com/media/ddh4r4m/wallpaper-collection/main/collection/wallpapers/art/013.jpg",
        "thumb": "https://media.githubusercontent.com/media/ddh4r4m/wallpaper-collection/main/collection/thumbnails/art/013.jpg"
      },
      "metadata": {
        "dimensions": {
          "width": 1080,
          "height": 1920
        },
        "file_size": 155702,
        "format": "JPEG",
        "added_at": "2025-07-17T00:03:02.752965",
        "hash": "55e40b3976f7ea78b29793a6d9c98468",
        "source": "migrated"
      }
    },
    {
      "id": "art_014",
      "category": "art",
      "title": "Art Wallpaper 014",
      "tags": [
        "art",
        "wallpaper",
        "hd",
        "mobile"
      ],
      "urls": {
        "raw": "https://media.githubusercontent.com/media/ddh4r4m/wallpaper-collection/main/collection/wallpapers/art/014.jpg",
        "thumb": "https://media.githubusercontent.com/media/ddh4r4m/wallpaper-collection/main/collection/thumbnails/art/014.jpg"
      },
      "metadata": {
        "dimensions": {
          "width": 1080,
          "height": 1920
        },
        "file_size": 31442,
        "format": "JPEG",
        "added_at": "2025-07-17T00:03:02.797237",
        "hash": "d76166f9708a07259afb9094d0fc8a42",
        "source": "migrated"
      }
    },
    {
      "id": "art_015",
      "category": "art",
      "title": "Art Wallpaper 015",
      "tags": [
        "art",
        "wallpaper",
        "hd",
        "mobile"
      ],
      "urls": {
        "raw": "https://media.githubusercontent.com/media/ddh4r4m/wallpaper-collection/main/collection/wallpapers/art/015.jpg",
        "thumb": "https://media.githubusercontent.com/media/ddh4r4m/wallpaper-collection/main/collection/thumbnails/art/015.jpg"
      },
      "metadata": {
        "dimensions": {
          "width": 1080,
          "height": 1920
        },
        "file_size": 159316,
        "format": "JPEG",
        "added_at": "2025-07-17T00:03:02.918349",
        "hash": "bd4f0357ca51aa3956759bf6e8e6b5e7",
        "source": "migrated"
      }
    },
    {
      "id": "art_016",
      "category": "art",
      "title": "Art Wallpaper 016",
      "tags": [
        "art",
        "wallpaper",
        "hd",
        "mobile"
      ],
      "urls": {
        "raw": "https://media.githubusercontent.com/media/ddh4r4m/wallpaper-collection/main/collection/wallpapers/art/016.jpg",
        "thumb": "https://media.githubusercontent.com/media/ddh4r4m/wallpaper-collection/main/collection/thumbnails/art/016.jpg"
      },
      "metadata": {
        "dimensions": {
          "width": 1080,
          "height": 1920
        },
        "file_size": 415261,
        "format": "JPEG",
        "added_at": "2025-07-17T00:03:03.011052",
        "hash": "f2bf7654bf17aac8b57a1dbb23d7a5b4",
        "source": "migrated"
      }
    },
    {
      "id": "art_017",
      "category": "art",
      "title": "Art Wallpaper 017",
      "tags": [
        "art",
        "wallpaper",
        "hd",
        "mobile"
      ],
      "urls": {
        "raw": "https://media.githubusercontent.com/media/ddh4r4m/wallpaper-collection/main/collection/wallpapers/art/017.jpg",
        "thumb": "https://media.githubusercontent.com/media/ddh4r4m/wallpaper-collection/main/collection/thumbnails/art/017.jpg"
      },
      "metadata": {
        "dimensions": {
          "width": 1080,
          "height": 1920
        },
        "file_size": 160863,
        "format": "JPEG",
        "added_at": "2025-07-17T00:03:03.062883",
        "hash": "8af1e15d007f2b3b05fd678da312faf4",
        "source": "migrated"
      }
    },
    {
      "id": "art_018",
      "category": "art",
      "title": "Art Wallpaper 018",
      "tags": [
        "art",
        "wallpaper",
        "hd",
        "mobile"
      ],
      "urls": {
        "raw": "https://media.githubusercontent.com/media/ddh4r4m/wallpaper-collection/main/collection/wallpapers/art/018.jpg",
        "thumb": "https://media.githubusercontent.com/media/ddh4r4m/wallpaper-collection/main/collection/thumbnails/art/018.jpg"
      },
      "metadata": {
        "dimensions": {
          "width": 1080,
          "height": 1920
        },
        "file_size": 250554,
        "format": "JPEG",
        "added_at": "2025-07-17T00:03:03.116672",
        "hash": "2f3b5afddbd33848feba3c37dba5bbf3",
        "source": "migrated"
      }
    },
    {
      "id": "art_019",
      "category": "art",
      "title": "Art Wallpaper 019",
      "tags": [
        "art",
        "wallpaper",
        "hd",
        "mobile"
      ],
      "urls": {
        "raw": "https://media.githubusercontent.com/media/ddh4r4m/wallpaper-collection/main/collection/wallpapers/art/019.jpg",
        "thumb": "https://media.githubusercontent.com/media/ddh4r4m/wallpaper-collection/main/collection/thumbnails/art/019.jpg"
      },
      "metadata": {
        "dimensions": {
          "width": 1080,
          "height": 1920
        },
        "file_size": 314962,
        "format": "JPEG",
        "added_at": "2025-07-17T00:03:03.174696",
        "hash": "428429c1597ac34cadb8bf4452f07cb5",
        "source": "migrated"
      }
    },
    {
      "id": "art_020",
      "category": "art",
      "title": "Art Wallpaper 020",
      "tags": [
        "art",
        "wallpaper",
        "hd",
        "mobile"
      ],
      "urls": {
        "raw": "https://media.githubusercontent.com/media/ddh4r4m/wallpaper-collection/main/collection/wallpapers/art/020.jpg",
        "thumb": "https://media.githubusercontent.com/media/ddh4r4m/wallpaper-collection/main/collection/thumbnails/art/020.jpg"
      },
      "metadata": {
        "dimensions": {
          "width": 1080,
          "height": 1920
        },
        "file_size": 112484,
        "format": "JPEG",
        "added_at": "2025-07-17T00:03:03.220471",
        "hash": "6870d93654582469b914d4030828dfe2",
        "source": "migrated"
      }
    },
    {
      "id": "art_021",
      "category": "art",
      "title": "Art Wallpaper 021",
      "tags": [
        "art",
        "wallpaper",
        "hd",
        "mobile"
      ],
      "urls": {
        "raw": "https://media.githubusercontent.com/media/ddh4r4m/wallpaper-collection/main/collection/wallpapers/art/021.jpg",
        "thumb": "https://media.githubusercontent.com/media/ddh4r4m/wallpaper-collection/main/collection/thumbnails/art/021.jpg"
      },
      "metadata": {
        "dimensions": {
          "width": 1080,
          "height": 1920
        },
        "file_size": 174737,
        "format": "JPEG",
        "added_at": "2025-07-17T00:03:03.270856",
        "hash": "1523ec94ee860ab611ed35830b212ffa",
        "source": "migrated"
      }
    },
    {
      "id": "art_022",
      "category": "art",
      "title": "Art Wallpaper 022",
      "tags": [
        "art",
        "wallpaper",
        "hd",
        "mobile"
      ],
      "urls": {
        "raw": "https://media.githubusercontent.com/media/ddh4r4m/wallpaper-collection/main/collection/wallpapers/art/022.jpg",
        "thumb": "https://media.githubusercontent.com/media/ddh4r4m/wallpaper-collection/main/collection/thumbnails/art/022.jpg"
      },
      "metadata": {
        "dimensions": {
          "width": 1080,
          "height": 1920
        },
        "file_size": 294101,
        "format": "JPEG",
        "added_at": "2025-07-17T00:03:03.327992",
        "hash": "40bbec8adc4ae581571f84de3f97782c",
        "source": "migrated"
      }
    },
    {
      "id": "art_023",
      "category": "art",
      "title": "Art Wallpaper 023",
      "tags": [
        "art",
        "wallpaper",
        "hd",
        "mobile"
      ],
      "urls": {
        "raw": "https://media.githubusercontent.com/media/ddh4r4m/wallpaper-collection/main/collection/wallpapers/art/023.jpg",
        "thumb": "https://media.githubusercontent.com/media/ddh4r4m/wallpaper-collection/main/collection/thumbnails/art/023.jpg"
      },
      "metadata": {
        "dimensions": {
          "width": 1080,
          "height": 1920
        },
        "file_size": 84263,
        "format": "JPEG",
        "added_at": "2025-07-17T00:03:03.393664",
        "hash": "c8cbb2d24acf212d97a9ad6903322401",
        "source": "migrated"
      }
    },
    {
      "id": "art_024",
      "category": "art",
      "title": "Art Wallpaper 024",
      "tags": [
        "art",
        "wallpaper",
        "hd",
        "mobile"
      ],
      "urls": {
        "raw": "https://media.githubusercontent.com/media/ddh4r4m/wallpaper-collection/main/collection/wallpapers/art/024.jpg",
        "thumb": "https://media.githubusercontent.com/media/ddh4r4m/wallpaper-collection/main/collection/thumbnails/art/024.jpg"
      },
      "metadata": {
        "dimensions": {
          "width": 1080,
          "height": 1920
        },
        "file_size": 121040,
        "format": "JPEG",
        "added_at": "2025-07-17T00:03:03.445087",
        "hash": "001e81a20edcef163b0cdad622ebf129",
        "source": "migrated"
      }
    },
    {
      "id": "art_025",
      "category": "art",
      "title": "Art Wallpaper 025",
      "tags": [
        "art",
        "wallpaper",
        "hd",
        "mobile"
      ],
      "urls": {
        "raw": "https://media.githubusercontent.com/media/ddh4r4m/wallpaper-collection/main/collection/wallpapers/art/025.jpg",
        "thumb": "https://media.githubusercontent.com/media/ddh4r4m/wallpaper-collection/main/collection/thumbnails/art/025.jpg"
      },
      "metadata": {
        "dimensions": {
          "width": 1080,
          "height": 1920
        },
        "file_size": 516761,
        "format": "JPEG",
        "added_at": "2025-07-17T00:03:03.514943",
        "hash": "2c0c5f2374a25b5deb22262460d6f741",
        "source": "migrated"
      }
    },
    {
      "id": "art_026",
      "category": "art",
      "title": "Art Wallpaper 026",
      "tags": [
        "art",
        "wallpaper",
        "hd",
        "mobile"
      ],
      "urls": {
        "raw": "https://media.githubusercontent.com/media/ddh4r4m/wallpaper-collection/main/collection/wallpapers/art/026.jpg",
        "thumb": "https://media.githubusercontent.com/media/ddh4r4m/wallpaper-collection/main/collection/thumbnails/art/026.jpg"
      },
      "metadata": {
        "dimensions": {
          "width": 1080,
          "height": 1920
        },
        "file_size": 344266,
        "format": "JPEG",
        "added_at": "2025-07-17T00:03:03.575671",
        "hash": "a16498a738a21c2104fa3fa6b049f46d",
        "source": "migrated"
      }
    },
    {
      "id": "art_027",
      "category": "art",
      "title": "Art Wallpaper 027",
      "tags": [
        "art",
        "wallpaper",
        "hd",
        "mobile"
      ],
      "urls": {
        "raw": "https://media.githubusercontent.com/media/ddh4r4m/wallpaper-collection/main/collection/wallpapers/art/027.jpg",
        "thumb": "https://media.githubusercontent.com/media/ddh4r4m/wallpaper-collection/main/collection/thumbnails/art/027.jpg"
      },
      "metadata": {
        "dimensions": {
          "width": 1080,
          "height": 1920
        },
        "file_size": 600878,
        "format": "JPEG",
        "added_at": "2025-07-17T00:03:03.649780",
        "hash": "95b6121b218f93b268f41d1b6b0d53a0",
        "source": "migrated"
      }
    }
  ]
}