{
  "meta": {
    "version": "1.0",
    "generated_at": "2025-07-17T00:06:19.072196",
    "page": 72,
    "per_page": 15,
    "total_pages": 117,
    "total_count": 1751,
    "count_on_page": 15,
    "categories": 17,
    "has_next": true,
    "has_prev": true,
    "next_page_url": "/api/v1/all/pages/73.json",
    "prev_page_url": "/api/v1/all/pages/71.json"
  },
  "data": [
    {
      "id": "gaming_059",
      "category": "gaming",
      "title": "Gaming Wallpaper 059",
      "tags": [
        "gaming",
        "wallpaper",
        "hd",
        "mobile"
      ],
      "urls": {
        "raw": "https://raw.githubusercontent.com/ddh4r4m/wallpaper-collection/main/collection/wallpapers/gaming/059.jpg",
        "thumb": "https://raw.githubusercontent.com/ddh4r4m/wallpaper-collection/main/collection/thumbnails/gaming/059.jpg"
      },
      "metadata": {
        "dimensions": {
          "width": 1080,
          "height": 1920
        },
        "file_size": 221578,
        "format": "JPEG",
        "added_at": "2025-07-17T00:03:55.504433",
        "hash": "b066a64a4f8943dd8f4cdf8681b4636f",
        "source": "migrated"
      }
    },
    {
      "id": "gaming_060",
      "category": "gaming",
      "title": "Gaming Wallpaper 060",
      "tags": [
        "gaming",
        "wallpaper",
        "hd",
        "mobile"
      ],
      "urls": {
        "raw": "https://raw.githubusercontent.com/ddh4r4m/wallpaper-collection/main/collection/wallpapers/gaming/060.jpg",
        "thumb": "https://raw.githubusercontent.com/ddh4r4m/wallpaper-collection/main/collection/thumbnails/gaming/060.jpg"
      },
      "metadata": {
        "dimensions": {
          "width": 1080,
          "height": 1920
        },
        "file_size": 492415,
        "format": "JPEG",
        "added_at": "2025-07-17T00:03:55.950235",
        "hash": "f14598a18f830a8d3b289f3757fcd96e",
        "source": "migrated"
      }
    },
    {
      "id": "gaming_061",
      "category": "gaming",
      "title": "Gaming Wallpaper 061",
      "tags": [
        "gaming",
        "wallpaper",
        "hd",
        "mobile"
      ],
      "urls": {
        "raw": "https://raw.githubusercontent.com/ddh4r4m/wallpaper-collection/main/collection/wallpapers/gaming/061.jpg",
        "thumb": "https://raw.githubusercontent.com/ddh4r4m/wallpaper-collection/main/collection/thumbnails/gaming/061.jpg"
      },
      "metadata": {
        "dimensions": {
          "width": 1080,
          "height": 1920
        },
        "file_size": 144059,
        "format": "JPEG",
        "added_at": "2025-07-17T00:03:56.129325",
        "hash": "b4c0f7afd42a078ab69b876a12f4731f",
        "source": "migrated"
      }
    },
    {
      "id": "gaming_062",
      "category": "gaming",
      "title": "Gaming Wallpaper 062",
      "tags": [
        "gaming",
        "wallpaper",
        "hd",
        "mobile"
      ],
      "urls": {
        "raw": "https://raw.githubusercontent.com/ddh4r4m/wallpaper-collection/main/collection/wallpapers/gaming/062.jpg",
        "thumb": "https://raw.githubusercontent.com/ddh4r4m/wallpaper-collection/main/collection/thumbnails/gaming/062.jpg"
      },
      "metadata": {
        "dimensions": {
          "width": 1080,
          "height": 1920
        },
        "file_size": 272188,
        "format": "JPEG",
        "added_at": "2025-07-17T00:03:56.850335",
        "hash": "482fc81c19832dee6dcd5f2243d2f1cb",
        "source": "migrated"
      }
    },
    {
      "id": "gaming_063",
      "category": "gaming",
      "title": "Gaming Wallpaper 063",
      "tags": [
        "gaming",
        "wallpaper",
        "hd",
        "mobile"
      ],
      "urls": {
        "raw": "https://raw.githubusercontent.com/ddh4r4m/wallpaper-collection/main/collection/wallpapers/gaming/063.jpg",
        "thumb": "https://raw.githubusercontent.com/ddh4r4m/wallpaper-collection/main/collection/thumbnails/gaming/063.jpg"
      },
      "metadata": {
        "dimensions": {
          "width": 1080,
          "height": 1920
        },
        "file_size": 249948,
        "format": "JPEG",
        "added_at": "2025-07-17T00:03:56.991538",
        "hash": "f6f04431db616229657bb62648b01cb4",
        "source": "migrated"
      }
    },
    {
      "id": "gaming_064",
      "category": "gaming",
      "title": "Gaming Wallpaper 064",
      "tags": [
        "gaming",
        "wallpaper",
        "hd",
        "mobile"
      ],
      "urls": {
        "raw": "https://raw.githubusercontent.com/ddh4r4m/wallpaper-collection/main/collection/wallpapers/gaming/064.jpg",
        "thumb": "https://raw.githubusercontent.com/ddh4r4m/wallpaper-collection/main/collection/thumbnails/gaming/064.jpg"
      },
      "metadata": {
        "dimensions": {
          "width": 1080,
          "height": 1920
        },
        "file_size": 200743,
        "format": "JPEG",
        "added_at": "2025-07-17T00:03:57.152599",
        "hash": "29364a3a6eb5139aa8629b448d84ae40",
        "source": "migrated"
      }
    },
    {
      "id": "gaming_065",
      "category": "gaming",
      "title": "Gaming Wallpaper 065",
      "tags": [
        "gaming",
        "wallpaper",
        "hd",
        "mobile"
      ],
      "urls": {
        "raw": "https://raw.githubusercontent.com/ddh4r4m/wallpaper-collection/main/collection/wallpapers/gaming/065.jpg",
        "thumb": "https://raw.githubusercontent.com/ddh4r4m/wallpaper-collection/main/collection/thumbnails/gaming/065.jpg"
      },
      "metadata": {
        "dimensions": {
          "width": 1080,
          "height": 1920
        },
        "file_size": 117678,
        "format": "JPEG",
        "added_at": "2025-07-17T00:03:57.307627",
        "hash": "7ee0502fef0e2ad552a6f1f32edbf25b",
        "source": "migrated"
      }
    },
    {
      "id": "gaming_066",
      "category": "gaming",
      "title": "Gaming Wallpaper 066",
      "tags": [
        "gaming",
        "wallpaper",
        "hd",
        "mobile"
      ],
      "urls": {
        "raw": "https://raw.githubusercontent.com/ddh4r4m/wallpaper-collection/main/collection/wallpapers/gaming/066.jpg",
        "thumb": "https://raw.githubusercontent.com/ddh4r4m/wallpaper-collection/main/collection/thumbnails/gaming/066.jpg"
      },
      "metadata": {
        "dimensions": {
          "width": 1080,
          "height": 1920
        },
        "file_size": 275237,
        "format": "JPEG",
        "added_at": "2025-07-17T00:03:57.450452",
        "hash": "cbc5bc774f09a7d017e4abcad27cf71d",
        "source": "migrated"
      }
    },
    {
      "id": "gaming_067",
      "category": "gaming",
      "title": "Gaming Wallpaper 067",
      "tags": [
        "gaming",
        "wallpaper",
        "hd",
        "mobile"
      ],
      "urls": {
        "raw": "https://raw.githubusercontent.com/ddh4r4m/wallpaper-collection/main/collection/wallpapers/gaming/067.jpg",
        "thumb": "https://raw.githubusercontent.com/ddh4r4m/wallpaper-collection/main/collection/thumbnails/gaming/067.jpg"
      },
      "metadata": {
        "dimensions": {
          "width": 1080,
          "height": 1920
        },
        "file_size": 215444,
        "format": "JPEG",
        "added_at": "2025-07-17T00:03:57.529195",
        "hash": "9d5cf8461d44a721bcb23d659f9e16c2",
        "source": "migrated"
      }
    },
    {
      "id": "gaming_068",
      "category": "gaming",
      "title": "Gaming Wallpaper 068",
      "tags": [
        "gaming",
        "wallpaper",
        "hd",
        "mobile"
      ],
      "urls": {
        "raw": "https://raw.githubusercontent.com/ddh4r4m/wallpaper-collection/main/collection/wallpapers/gaming/068.jpg",
        "thumb": "https://raw.githubusercontent.com/ddh4r4m/wallpaper-collection/main/collection/thumbnails/gaming/068.jpg"
      },
      "metadata": {
        "dimensions": {
          "width": 1080,
          "height": 1920
        },
        "file_size": 238485,
        "format": "JPEG",
        "added_at": "2025-07-17T00:03:58.225573",
        "hash": "5c1374488faa64c9f5aa49ef0a28982a",
        "source": "migrated"
      }
    },
    {
      "id": "gaming_069",
      "category": "gaming",
      "title": "Gaming Wallpaper 069",
      "tags": [
        "gaming",
        "wallpaper",
        "hd",
        "mobile"
      ],
      "urls": {
        "raw": "https://raw.githubusercontent.com/ddh4r4m/wallpaper-collection/main/collection/wallpapers/gaming/069.jpg",
        "thumb": "https://raw.githubusercontent.com/ddh4r4m/wallpaper-collection/main/collection/thumbnails/gaming/069.jpg"
      },
      "metadata": {
        "dimensions": {
          "width": 1080,
          "height": 1920
        },
        "file_size": 404546,
        "format": "JPEG",
        "added_at": "2025-07-17T00:03:58.505307",
        "hash": "834a8beda8a9cb70fbdcc37024f323b1",
        "source": "migrated"
      }
    },
    {
      "id": "gaming_070",
      "category": "gaming",
      "title": "Gaming Wallpaper 070",
      "tags": [
        "gaming",
        "wallpaper",
        "hd",
        "mobile"
      ],
      "urls": {
        "raw": "https://raw.githubusercontent.com/ddh4r4m/wallpaper-collection/main/collection/wallpapers/gaming/070.jpg",
        "thumb": "https://raw.githubusercontent.com/ddh4r4m/wallpaper-collection/main/collection/thumbnails/gaming/070.jpg"
      },
      "metadata": {
        "dimensions": {
          "width": 1080,
          "height": 1920
        },
        "file_size": 131464,
        "format": "JPEG",
        "added_at": "2025-07-17T00:03:58.769215",
        "hash": "3e3a2ebb057c60fd078b51a8471d4da3",
        "source": "migrated"
      }
    },
    {
      "id": "gaming_071",
      "category": "gaming",
      "title": "Gaming Wallpaper 071",
      "tags": [
        "gaming",
        "wallpaper",
        "hd",
        "mobile"
      ],
      "urls": {
        "raw": "https://raw.githubusercontent.com/ddh4r4m/wallpaper-collection/main/collection/wallpapers/gaming/071.jpg",
        "thumb": "https://raw.githubusercontent.com/ddh4r4m/wallpaper-collection/main/collection/thumbnails/gaming/071.jpg"
      },
      "metadata": {
        "dimensions": {
          "width": 1080,
          "height": 1920
        },
        "file_size": 529073,
        "format": "JPEG",
        "added_at": "2025-07-17T00:03:58.975352",
        "hash": "b7d550cc5bbd85944d840ac324083acd",
        "source": "migrated"
      }
    },
    {
      "id": "gaming_072",
      "category": "gaming",
      "title": "Gaming Wallpaper 072",
      "tags": [
        "gaming",
        "wallpaper",
        "hd",
        "mobile"
      ],
      "urls": {
        "raw": "https://raw.githubusercontent.com/ddh4r4m/wallpaper-collection/main/collection/wallpapers/gaming/072.jpg",
        "thumb": "https://raw.githubusercontent.com/ddh4r4m/wallpaper-collection/main/collection/thumbnails/gaming/072.jpg"
      },
      "metadata": {
        "dimensions": {
          "width": 1080,
          "height": 1920
        },
        "file_size": 103660,
        "format": "JPEG",
        "added_at": "2025-07-17T00:03:59.264838",
        "hash": "9218a903e0900d3639fdbc3a452bfb59",
        "source": "migrated"
      }
    },
    {
      "id": "gaming_073",
      "category": "gaming",
      "title": "Gaming Wallpaper 073",
      "tags": [
        "gaming",
        "wallpaper",
        "hd",
        "mobile"
      ],
      "urls": {
        "raw": "https://raw.githubusercontent.com/ddh4r4m/wallpaper-collection/main/collection/wallpapers/gaming/073.jpg",
        "thumb": "https://raw.githubusercontent.com/ddh4r4m/wallpaper-collection/main/collection/thumbnails/gaming/073.jpg"
      },
      "metadata": {
        "dimensions": {
          "width": 1080,
          "height": 1920
        },
        "file_size": 301902,
        "format": "JPEG",
        "added_at": "2025-07-17T00:03:59.493472",
        "hash": "6c595a8041999e4a24e9b3237bc53956",
        "source": "migrated"
      }
    }
  ]
}