{
  "meta": {
    "version": "1.0",
    "generated_at": "2025-07-28T22:48:38.208699",
    "page": 74,
    "per_page": 15,
    "total_pages": 183,
    "total_count": 2737,
    "count_on_page": 15,
    "categories": 22,
    "has_next": true,
    "has_prev": true,
    "next_page_url": "/api/v1/all/pages/75.json",
    "prev_page_url": "/api/v1/all/pages/73.json"
  },
  "data": [
    {
      "id": "art_064",
      "category": "art",
      "title": "Art Wallpaper",
      "tags": [
        "art",
        "unsplash",
        "hd",
        "mobile"
      ],
      "metadata": {
        "dimensions": {
          "width": 1080,
          "height": 1633
        },
        "file_size": 133139,
        "format": "JPEG",
        "added_at": "2025-07-17T22:54:48.591238",
        "hash": "c62395ba2237af175a04af84904e2ba3",
        "photographer": "Unknown"
      },
      "urls": {
        "raw": "https://media.githubusercontent.com/media/ddh4r4m/wallpaper-collection/main/collection/wallpapers/art/064.jpg",
        "thumb": "https://media.githubusercontent.com/media/ddh4r4m/wallpaper-collection/main/collection/thumbnails/art/064.jpg"
      }
    },
    {
      "id": "art_065",
      "category": "art",
      "title": "Art Wallpaper",
      "tags": [
        "art",
        "unsplash",
        "hd",
        "mobile"
      ],
      "metadata": {
        "dimensions": {
          "width": 1080,
          "height": 670
        },
        "file_size": 244780,
        "format": "JPEG",
        "added_at": "2025-07-17T22:54:49.999943",
        "hash": "0d7207d24730f83388cbf28022122d28",
        "photographer": "Unknown"
      },
      "urls": {
        "raw": "https://media.githubusercontent.com/media/ddh4r4m/wallpaper-collection/main/collection/wallpapers/art/065.jpg",
        "thumb": "https://media.githubusercontent.com/media/ddh4r4m/wallpaper-collection/main/collection/thumbnails/art/065.jpg"
      }
    },
    {
      "id": "art_066",
      "category": "art",
      "title": "Art Wallpaper",
      "tags": [
        "art",
        "unsplash",
        "hd",
        "mobile"
      ],
      "metadata": {
        "dimensions": {
          "width": 1080,
          "height": 1480
        },
        "file_size": 370624,
        "format": "JPEG",
        "added_at": "2025-07-17T22:54:51.462916",
        "hash": "febc0150a09dadb4b4047ef2ab1119b0",
        "photographer": "Unknown"
      },
      "urls": {
        "raw": "https://media.githubusercontent.com/media/ddh4r4m/wallpaper-collection/main/collection/wallpapers/art/066.jpg",
        "thumb": "https://media.githubusercontent.com/media/ddh4r4m/wallpaper-collection/main/collection/thumbnails/art/066.jpg"
      }
    },
    {
      "id": "art_067",
      "category": "art",
      "title": "Art Wallpaper",
      "tags": [
        "art",
        "unsplash",
        "hd",
        "mobile"
      ],
      "metadata": {
        "dimensions": {
          "width": 1080,
          "height": 720
        },
        "file_size": 56437,
        "format": "JPEG",
        "added_at": "2025-07-17T22:54:53.902786",
        "hash": "5984047b09ff2ac7038f7a113a8f5d59",
        "photographer": "Unknown"
      },
      "urls": {
        "raw": "https://media.githubusercontent.com/media/ddh4r4m/wallpaper-collection/main/collection/wallpapers/art/067.jpg",
        "thumb": "https://media.githubusercontent.com/media/ddh4r4m/wallpaper-collection/main/collection/thumbnails/art/067.jpg"
      }
    },
    {
      "id": "art_068",
      "category": "art",
      "title": "Art Wallpaper",
      "tags": [
        "art",
        "unsplash",
        "hd",
        "mobile"
      ],
      "metadata": {
        "dimensions": {
          "width": 1080,
          "height": 1620
        },
        "file_size": 235910,
        "format": "JPEG",
        "added_at": "2025-07-17T22:54:56.455681",
        "hash": "ed46a642b52e897d3fdbb9dadb75fce3",
        "photographer": "Unknown"
      },
      "urls": {
        "raw": "https://media.githubusercontent.com/media/ddh4r4m/wallpaper-collection/main/collection/wallpapers/art/068.jpg",
        "thumb": "https://media.githubusercontent.com/media/ddh4r4m/wallpaper-collection/main/collection/thumbnails/art/068.jpg"
      }
    },
    {
      "id": "art_069",
      "category": "art",
      "title": "Art Wallpaper",
      "tags": [
        "art",
        "unsplash",
        "hd",
        "mobile"
      ],
      "metadata": {
        "dimensions": {
          "width": 1080,
          "height": 1080
        },
        "file_size": 400892,
        "format": "JPEG",
        "added_at": "2025-07-17T22:54:58.952678",
        "hash": "787512dddd570967bcc250ec64505dbf",
        "photographer": "Unknown"
      },
      "urls": {
        "raw": "https://media.githubusercontent.com/media/ddh4r4m/wallpaper-collection/main/collection/wallpapers/art/069.jpg",
        "thumb": "https://media.githubusercontent.com/media/ddh4r4m/wallpaper-collection/main/collection/thumbnails/art/069.jpg"
      }
    },
    {
      "id": "art_070",
      "category": "art",
      "title": "Art Wallpaper",
      "tags": [
        "art",
        "unsplash",
        "hd",
        "mobile"
      ],
      "metadata": {
        "dimensions": {
          "width": 1080,
          "height": 1616
        },
        "file_size": 82013,
        "format": "JPEG",
        "added_at": "2025-07-17T22:55:02.518210",
        "hash": "481174804260a5533560877bb22f221c",
        "photographer": "Unknown"
      },
      "urls": {
        "raw": "https://media.githubusercontent.com/media/ddh4r4m/wallpaper-collection/main/collection/wallpapers/art/070.jpg",
        "thumb": "https://media.githubusercontent.com/media/ddh4r4m/wallpaper-collection/main/collection/thumbnails/art/070.jpg"
      }
    },
    {
      "id": "art_071",
      "category": "art",
      "title": "Art Wallpaper",
      "tags": [
        "art",
        "unsplash",
        "hd",
        "mobile"
      ],
      "metadata": {
        "dimensions": {
          "width": 1080,
          "height": 1618
        },
        "file_size": 198934,
        "format": "JPEG",
        "added_at": "2025-07-17T22:55:04.985464",
        "hash": "be29267c72090bbe34c6d0f6b1144b01",
        "photographer": "Unknown"
      },
      "urls": {
        "raw": "https://media.githubusercontent.com/media/ddh4r4m/wallpaper-collection/main/collection/wallpapers/art/071.jpg",
        "thumb": "https://media.githubusercontent.com/media/ddh4r4m/wallpaper-collection/main/collection/thumbnails/art/071.jpg"
      }
    },
    {
      "id": "art_072",
      "category": "art",
      "title": "Art Wallpaper",
      "tags": [
        "art",
        "unsplash",
        "hd",
        "mobile"
      ],
      "metadata": {
        "dimensions": {
          "width": 1080,
          "height": 720
        },
        "file_size": 140934,
        "format": "JPEG",
        "added_at": "2025-07-17T22:55:07.320966",
        "hash": "c6f198b66b95b28423aa437b69b6e753",
        "photographer": "Unknown"
      },
      "urls": {
        "raw": "https://media.githubusercontent.com/media/ddh4r4m/wallpaper-collection/main/collection/wallpapers/art/072.jpg",
        "thumb": "https://media.githubusercontent.com/media/ddh4r4m/wallpaper-collection/main/collection/thumbnails/art/072.jpg"
      }
    },
    {
      "id": "art_073",
      "category": "art",
      "title": "Quick sketch study... - Reddit AI",
      "tags": [
        "art",
        "ai-generated",
        "hd",
        "mobile",
        "community"
      ],
      "metadata": {
        "dimensions": {
          "width": 1080,
          "height": 1325
        },
        "file_size": 83602,
        "format": "JPEG",
        "added_at": "2025-07-18T00:33:57.373711",
        "hash": "5d4f159d58b3a9bacdaf5447feb76bc7",
        "ai_source": "reddit",
        "ai_generated": true,
        "community_score": 177
      },
      "urls": {
        "raw": "https://media.githubusercontent.com/media/ddh4r4m/wallpaper-collection/main/collection/wallpapers/art/073.jpg",
        "thumb": "https://media.githubusercontent.com/media/ddh4r4m/wallpaper-collection/main/collection/thumbnails/art/073.jpg"
      }
    },
    {
      "id": "art_074",
      "category": "art",
      "title": "Study - Lasso tool is my fav - Reddit AI",
      "tags": [
        "art",
        "ai-generated",
        "hd",
        "mobile",
        "community"
      ],
      "metadata": {
        "dimensions": {
          "width": 1080,
          "height": 1528
        },
        "file_size": 180226,
        "format": "JPEG",
        "added_at": "2025-07-18T00:33:59.835599",
        "hash": "8843b9817460d65f5a65eef88778d397",
        "ai_source": "reddit",
        "ai_generated": true,
        "community_score": 37
      },
      "urls": {
        "raw": "https://media.githubusercontent.com/media/ddh4r4m/wallpaper-collection/main/collection/wallpapers/art/074.jpg",
        "thumb": "https://media.githubusercontent.com/media/ddh4r4m/wallpaper-collection/main/collection/thumbnails/art/074.jpg"
      }
    },
    {
      "id": "art_075",
      "category": "art",
      "title": "Blue - Reddit AI",
      "tags": [
        "art",
        "ai-generated",
        "hd",
        "mobile",
        "community"
      ],
      "metadata": {
        "dimensions": {
          "width": 1080,
          "height": 1800
        },
        "file_size": 132833,
        "format": "JPEG",
        "added_at": "2025-07-18T00:34:01.484623",
        "hash": "8c8d11c46d759b2c8f62b9c562ffd5a9",
        "ai_source": "reddit",
        "ai_generated": true,
        "community_score": 36
      },
      "urls": {
        "raw": "https://media.githubusercontent.com/media/ddh4r4m/wallpaper-collection/main/collection/wallpapers/art/075.jpg",
        "thumb": "https://media.githubusercontent.com/media/ddh4r4m/wallpaper-collection/main/collection/thumbnails/art/075.jpg"
      }
    },
    {
      "id": "art_076",
      "category": "art",
      "title": "\u201cBefore the Void\u201d by me, blend - Reddit AI",
      "tags": [
        "art",
        "ai-generated",
        "hd",
        "mobile",
        "community"
      ],
      "metadata": {
        "dimensions": {
          "width": 1080,
          "height": 1728
        },
        "file_size": 222504,
        "format": "JPEG",
        "added_at": "2025-07-18T00:34:02.934895",
        "hash": "277d4a1c95965863ea026d6b20b01cc0",
        "ai_source": "reddit",
        "ai_generated": true,
        "community_score": 580
      },
      "urls": {
        "raw": "https://media.githubusercontent.com/media/ddh4r4m/wallpaper-collection/main/collection/wallpapers/art/076.jpg",
        "thumb": "https://media.githubusercontent.com/media/ddh4r4m/wallpaper-collection/main/collection/thumbnails/art/076.jpg"
      }
    },
    {
      "id": "art_077",
      "category": "art",
      "title": "I quit my j*b to do art. Was i - Reddit AI",
      "tags": [
        "art",
        "ai-generated",
        "hd",
        "mobile",
        "community"
      ],
      "metadata": {
        "dimensions": {
          "width": 1080,
          "height": 1441
        },
        "file_size": 276311,
        "format": "JPEG",
        "added_at": "2025-07-18T00:34:04.100273",
        "hash": "1f9e92605022e4cc08390361ae7cef25",
        "ai_source": "reddit",
        "ai_generated": true,
        "community_score": 4017
      },
      "urls": {
        "raw": "https://media.githubusercontent.com/media/ddh4r4m/wallpaper-collection/main/collection/wallpapers/art/077.jpg",
        "thumb": "https://media.githubusercontent.com/media/ddh4r4m/wallpaper-collection/main/collection/thumbnails/art/077.jpg"
      }
    },
    {
      "id": "art_078",
      "category": "art",
      "title": "Glowing - Reddit AI",
      "tags": [
        "art",
        "ai-generated",
        "hd",
        "mobile",
        "community"
      ],
      "metadata": {
        "dimensions": {
          "width": 1062,
          "height": 1920
        },
        "file_size": 184604,
        "format": "JPEG",
        "added_at": "2025-07-18T00:34:05.398336",
        "hash": "d058bfc7401eeb3999a32855068b168c",
        "ai_source": "reddit",
        "ai_generated": true,
        "community_score": 272
      },
      "urls": {
        "raw": "https://media.githubusercontent.com/media/ddh4r4m/wallpaper-collection/main/collection/wallpapers/art/078.jpg",
        "thumb": "https://media.githubusercontent.com/media/ddh4r4m/wallpaper-collection/main/collection/thumbnails/art/078.jpg"
      }
    }
  ]
}