{
  "meta": {
    "version": "1.0",
    "generated_at": "2025-07-28T21:27:34.814586",
    "page": 75,
    "per_page": 15,
    "total_pages": 177,
    "total_count": 2647,
    "count_on_page": 15,
    "categories": 21,
    "has_next": true,
    "has_prev": true,
    "next_page_url": "/api/v1/all/pages/76.json",
    "prev_page_url": "/api/v1/all/pages/74.json"
  },
  "data": [
    {
      "id": "art_079",
      "category": "art",
      "title": "Any advice on how/what to impr - Reddit AI",
      "tags": [
        "art",
        "ai-generated",
        "hd",
        "mobile",
        "community"
      ],
      "metadata": {
        "dimensions": {
          "width": 1080,
          "height": 833
        },
        "file_size": 149415,
        "format": "JPEG",
        "added_at": "2025-07-18T00:34:06.968914",
        "hash": "5c840e266402d0e18e8825c8dc645e3e",
        "ai_source": "reddit",
        "ai_generated": true,
        "community_score": 47
      },
      "urls": {
        "raw": "https://media.githubusercontent.com/media/ddh4r4m/wallpaper-collection/main/collection/wallpapers/art/079.jpg",
        "thumb": "https://media.githubusercontent.com/media/ddh4r4m/wallpaper-collection/main/collection/thumbnails/art/079.jpg"
      }
    },
    {
      "id": "art_080",
      "category": "art",
      "title": "a more sketchy sketch tdy:D - Reddit AI",
      "tags": [
        "art",
        "ai-generated",
        "hd",
        "mobile",
        "community"
      ],
      "metadata": {
        "dimensions": {
          "width": 1080,
          "height": 1920
        },
        "file_size": 253286,
        "format": "JPEG",
        "added_at": "2025-07-18T00:34:11.192760",
        "hash": "4e19a4d93cad4854818422f112f03dcf",
        "ai_source": "reddit",
        "ai_generated": true,
        "community_score": 12
      },
      "urls": {
        "raw": "https://media.githubusercontent.com/media/ddh4r4m/wallpaper-collection/main/collection/wallpapers/art/080.jpg",
        "thumb": "https://media.githubusercontent.com/media/ddh4r4m/wallpaper-collection/main/collection/thumbnails/art/080.jpg"
      }
    },
    {
      "id": "art_081",
      "category": "art",
      "title": "Art-Nouveau-Inspired art I did - Reddit AI",
      "tags": [
        "art",
        "ai-generated",
        "hd",
        "mobile",
        "community"
      ],
      "metadata": {
        "dimensions": {
          "width": 1080,
          "height": 1398
        },
        "file_size": 373473,
        "format": "JPEG",
        "added_at": "2025-07-19T11:47:27.602654",
        "hash": "4ea93b762e4f209254a73f56052e740c",
        "ai_source": "reddit",
        "ai_generated": true,
        "community_score": 220
      },
      "urls": {
        "raw": "https://media.githubusercontent.com/media/ddh4r4m/wallpaper-collection/main/collection/wallpapers/art/081.jpg",
        "thumb": "https://media.githubusercontent.com/media/ddh4r4m/wallpaper-collection/main/collection/thumbnails/art/081.jpg"
      }
    },
    {
      "id": "art_082",
      "category": "art",
      "title": "Architectural drawing done by  - Reddit AI",
      "tags": [
        "art",
        "ai-generated",
        "hd",
        "mobile",
        "community"
      ],
      "metadata": {
        "dimensions": {
          "width": 1080,
          "height": 1393
        },
        "file_size": 298188,
        "format": "JPEG",
        "added_at": "2025-07-19T11:47:28.855751",
        "hash": "f6c073d01f5e8390f9f85099fe9baa37",
        "ai_source": "reddit",
        "ai_generated": true,
        "community_score": 362
      },
      "urls": {
        "raw": "https://media.githubusercontent.com/media/ddh4r4m/wallpaper-collection/main/collection/wallpapers/art/082.jpg",
        "thumb": "https://media.githubusercontent.com/media/ddh4r4m/wallpaper-collection/main/collection/thumbnails/art/082.jpg"
      }
    },
    {
      "id": "art_083",
      "category": "art",
      "title": "Mascarilla oc \ud83d\udd25 - Reddit AI",
      "tags": [
        "art",
        "ai-generated",
        "hd",
        "mobile",
        "community"
      ],
      "metadata": {
        "dimensions": {
          "width": 1080,
          "height": 1528
        },
        "file_size": 184250,
        "format": "JPEG",
        "added_at": "2025-07-19T11:47:30.959047",
        "hash": "03b2edc402f52c7a908cd89439ed0626",
        "ai_source": "reddit",
        "ai_generated": true,
        "community_score": 101
      },
      "urls": {
        "raw": "https://media.githubusercontent.com/media/ddh4r4m/wallpaper-collection/main/collection/wallpapers/art/083.jpg",
        "thumb": "https://media.githubusercontent.com/media/ddh4r4m/wallpaper-collection/main/collection/thumbnails/art/083.jpg"
      }
    },
    {
      "id": "art_084",
      "category": "art",
      "title": "Would you eat this ramen? - Reddit AI",
      "tags": [
        "art",
        "ai-generated",
        "hd",
        "mobile",
        "community"
      ],
      "metadata": {
        "dimensions": {
          "width": 1080,
          "height": 870
        },
        "file_size": 165625,
        "format": "JPEG",
        "added_at": "2025-07-19T11:47:32.329802",
        "hash": "d6391c36632c3d1584ab4f8f1837ca3a",
        "ai_source": "reddit",
        "ai_generated": true,
        "community_score": 15
      },
      "urls": {
        "raw": "https://media.githubusercontent.com/media/ddh4r4m/wallpaper-collection/main/collection/wallpapers/art/084.jpg",
        "thumb": "https://media.githubusercontent.com/media/ddh4r4m/wallpaper-collection/main/collection/thumbnails/art/084.jpg"
      }
    },
    {
      "id": "art_085",
      "category": "art",
      "title": "Glitchflies - Reddit AI",
      "tags": [
        "art",
        "ai-generated",
        "hd",
        "mobile",
        "community"
      ],
      "metadata": {
        "dimensions": {
          "width": 1080,
          "height": 1523
        },
        "file_size": 274173,
        "format": "JPEG",
        "added_at": "2025-07-19T11:47:34.217936",
        "hash": "26f52b500f72bac311d4ac527f6d7c03",
        "ai_source": "reddit",
        "ai_generated": true,
        "community_score": 122
      },
      "urls": {
        "raw": "https://media.githubusercontent.com/media/ddh4r4m/wallpaper-collection/main/collection/wallpapers/art/085.jpg",
        "thumb": "https://media.githubusercontent.com/media/ddh4r4m/wallpaper-collection/main/collection/thumbnails/art/085.jpg"
      }
    },
    {
      "id": "art_086",
      "category": "art",
      "title": "is this cloth good? - Reddit AI",
      "tags": [
        "art",
        "ai-generated",
        "hd",
        "mobile",
        "community"
      ],
      "metadata": {
        "dimensions": {
          "width": 1080,
          "height": 950
        },
        "file_size": 65880,
        "format": "JPEG",
        "added_at": "2025-07-19T11:47:35.594389",
        "hash": "f96470332e61a32eb86c024b0b624744",
        "ai_source": "reddit",
        "ai_generated": true,
        "community_score": 19
      },
      "urls": {
        "raw": "https://media.githubusercontent.com/media/ddh4r4m/wallpaper-collection/main/collection/wallpapers/art/086.jpg",
        "thumb": "https://media.githubusercontent.com/media/ddh4r4m/wallpaper-collection/main/collection/thumbnails/art/086.jpg"
      }
    },
    {
      "id": "art_087",
      "category": "art",
      "title": "Something I am working on - Reddit AI",
      "tags": [
        "art",
        "ai-generated",
        "hd",
        "mobile",
        "community"
      ],
      "metadata": {
        "dimensions": {
          "width": 887,
          "height": 1920
        },
        "file_size": 159850,
        "format": "JPEG",
        "added_at": "2025-07-19T11:47:36.967075",
        "hash": "d16acdce44e340a4d2de4d59f03667ca",
        "ai_source": "reddit",
        "ai_generated": true,
        "community_score": 12
      },
      "urls": {
        "raw": "https://media.githubusercontent.com/media/ddh4r4m/wallpaper-collection/main/collection/wallpapers/art/087.jpg",
        "thumb": "https://media.githubusercontent.com/media/ddh4r4m/wallpaper-collection/main/collection/thumbnails/art/087.jpg"
      }
    },
    {
      "id": "art_088",
      "category": "art",
      "title": "One of my newest pieces - Reddit AI",
      "tags": [
        "art",
        "ai-generated",
        "hd",
        "mobile",
        "community"
      ],
      "metadata": {
        "dimensions": {
          "width": 1080,
          "height": 1528
        },
        "file_size": 158578,
        "format": "JPEG",
        "added_at": "2025-07-19T11:47:38.448165",
        "hash": "e28ee67a2129133dc47af5d64792130c",
        "ai_source": "reddit",
        "ai_generated": true,
        "community_score": 9
      },
      "urls": {
        "raw": "https://media.githubusercontent.com/media/ddh4r4m/wallpaper-collection/main/collection/wallpapers/art/088.jpg",
        "thumb": "https://media.githubusercontent.com/media/ddh4r4m/wallpaper-collection/main/collection/thumbnails/art/088.jpg"
      }
    },
    {
      "id": "art_089",
      "category": "art",
      "title": "Full illustration I did for a  - Reddit AI",
      "tags": [
        "art",
        "ai-generated",
        "hd",
        "mobile",
        "community"
      ],
      "metadata": {
        "dimensions": {
          "width": 1080,
          "height": 618
        },
        "file_size": 195299,
        "format": "JPEG",
        "added_at": "2025-07-19T11:47:40.010566",
        "hash": "796bca7f3b3b9acc3a829cd9b4792592",
        "ai_source": "reddit",
        "ai_generated": true,
        "community_score": 203
      },
      "urls": {
        "raw": "https://media.githubusercontent.com/media/ddh4r4m/wallpaper-collection/main/collection/wallpapers/art/089.jpg",
        "thumb": "https://media.githubusercontent.com/media/ddh4r4m/wallpaper-collection/main/collection/thumbnails/art/089.jpg"
      }
    },
    {
      "id": "art_090",
      "category": "art",
      "title": "Untitled (I need help finding  - Reddit AI",
      "tags": [
        "art",
        "ai-generated",
        "hd",
        "mobile",
        "community"
      ],
      "metadata": {
        "dimensions": {
          "width": 1080,
          "height": 1080
        },
        "file_size": 408691,
        "format": "JPEG",
        "added_at": "2025-07-19T11:47:41.680697",
        "hash": "c10ed8724f2f4b911d71ade8f4547ee4",
        "ai_source": "reddit",
        "ai_generated": true,
        "community_score": 4
      },
      "urls": {
        "raw": "https://media.githubusercontent.com/media/ddh4r4m/wallpaper-collection/main/collection/wallpapers/art/090.jpg",
        "thumb": "https://media.githubusercontent.com/media/ddh4r4m/wallpaper-collection/main/collection/thumbnails/art/090.jpg"
      }
    },
    {
      "id": "cars_001",
      "category": "cars",
      "title": "Cars Wallpaper 001",
      "tags": [
        "cars",
        "wallpaper",
        "hd",
        "mobile"
      ],
      "urls": {
        "raw": "https://media.githubusercontent.com/media/ddh4r4m/wallpaper-collection/main/collection/wallpapers/cars/001.jpg",
        "thumb": "https://media.githubusercontent.com/media/ddh4r4m/wallpaper-collection/main/collection/thumbnails/cars/001.jpg"
      },
      "metadata": {
        "dimensions": {
          "width": 1080,
          "height": 1920
        },
        "file_size": 323887,
        "format": "JPEG",
        "added_at": "2025-07-17T00:03:05.161760",
        "hash": "48390cf133ccda4e68c34d2576cc09a2",
        "source": "migrated"
      }
    },
    {
      "id": "cars_002",
      "category": "cars",
      "title": "Cars Wallpaper 002",
      "tags": [
        "cars",
        "wallpaper",
        "hd",
        "mobile"
      ],
      "urls": {
        "raw": "https://media.githubusercontent.com/media/ddh4r4m/wallpaper-collection/main/collection/wallpapers/cars/002.jpg",
        "thumb": "https://media.githubusercontent.com/media/ddh4r4m/wallpaper-collection/main/collection/thumbnails/cars/002.jpg"
      },
      "metadata": {
        "dimensions": {
          "width": 1080,
          "height": 1920
        },
        "file_size": 209375,
        "format": "JPEG",
        "added_at": "2025-07-17T00:03:05.459570",
        "hash": "b058a44ed0bc65e7eb286613c7168860",
        "source": "migrated"
      }
    },
    {
      "id": "cars_003",
      "category": "cars",
      "title": "Cars Wallpaper 003",
      "tags": [
        "cars",
        "wallpaper",
        "hd",
        "mobile"
      ],
      "urls": {
        "raw": "https://media.githubusercontent.com/media/ddh4r4m/wallpaper-collection/main/collection/wallpapers/cars/003.jpg",
        "thumb": "https://media.githubusercontent.com/media/ddh4r4m/wallpaper-collection/main/collection/thumbnails/cars/003.jpg"
      },
      "metadata": {
        "dimensions": {
          "width": 1080,
          "height": 1920
        },
        "file_size": 212307,
        "format": "JPEG",
        "added_at": "2025-07-17T00:03:05.656166",
        "hash": "4b502a2f44889d491baa26e01e651def",
        "source": "migrated"
      }
    }
  ]
}