{
  "meta": {
    "version": "1.0",
    "generated_at": "2025-07-28T22:48:38.208699",
    "page": 76,
    "per_page": 15,
    "total_pages": 183,
    "total_count": 2737,
    "count_on_page": 15,
    "categories": 22,
    "has_next": true,
    "has_prev": true,
    "next_page_url": "/api/v1/all/pages/77.json",
    "prev_page_url": "/api/v1/all/pages/75.json"
  },
  "data": [
    {
      "id": "cars_004",
      "category": "cars",
      "title": "Cars Wallpaper 004",
      "tags": [
        "cars",
        "wallpaper",
        "hd",
        "mobile"
      ],
      "urls": {
        "raw": "https://media.githubusercontent.com/media/ddh4r4m/wallpaper-collection/main/collection/wallpapers/cars/004.jpg",
        "thumb": "https://media.githubusercontent.com/media/ddh4r4m/wallpaper-collection/main/collection/thumbnails/cars/004.jpg"
      },
      "metadata": {
        "dimensions": {
          "width": 1080,
          "height": 1920
        },
        "file_size": 246325,
        "format": "JPEG",
        "added_at": "2025-07-17T00:03:05.896679",
        "hash": "22ad96e0f693951f5fb4bc1b8cdcd788",
        "source": "migrated"
      }
    },
    {
      "id": "cars_005",
      "category": "cars",
      "title": "Cars Wallpaper 005",
      "tags": [
        "cars",
        "wallpaper",
        "hd",
        "mobile"
      ],
      "urls": {
        "raw": "https://media.githubusercontent.com/media/ddh4r4m/wallpaper-collection/main/collection/wallpapers/cars/005.jpg",
        "thumb": "https://media.githubusercontent.com/media/ddh4r4m/wallpaper-collection/main/collection/thumbnails/cars/005.jpg"
      },
      "metadata": {
        "dimensions": {
          "width": 1080,
          "height": 1920
        },
        "file_size": 214497,
        "format": "JPEG",
        "added_at": "2025-07-17T00:03:06.105394",
        "hash": "422b548aeec90542295969e3a1c2ce39",
        "source": "migrated"
      }
    },
    {
      "id": "cars_006",
      "category": "cars",
      "title": "Cars Wallpaper 006",
      "tags": [
        "cars",
        "wallpaper",
        "hd",
        "mobile"
      ],
      "urls": {
        "raw": "https://media.githubusercontent.com/media/ddh4r4m/wallpaper-collection/main/collection/wallpapers/cars/006.jpg",
        "thumb": "https://media.githubusercontent.com/media/ddh4r4m/wallpaper-collection/main/collection/thumbnails/cars/006.jpg"
      },
      "metadata": {
        "dimensions": {
          "width": 1080,
          "height": 1920
        },
        "file_size": 158269,
        "format": "JPEG",
        "added_at": "2025-07-17T00:03:06.542913",
        "hash": "a6ccf382192543b284f1ad6524d4e0d5",
        "source": "migrated"
      }
    },
    {
      "id": "cars_007",
      "category": "cars",
      "title": "Cars Wallpaper 007",
      "tags": [
        "cars",
        "wallpaper",
        "hd",
        "mobile"
      ],
      "urls": {
        "raw": "https://media.githubusercontent.com/media/ddh4r4m/wallpaper-collection/main/collection/wallpapers/cars/007.jpg",
        "thumb": "https://media.githubusercontent.com/media/ddh4r4m/wallpaper-collection/main/collection/thumbnails/cars/007.jpg"
      },
      "metadata": {
        "dimensions": {
          "width": 1080,
          "height": 1920
        },
        "file_size": 143348,
        "format": "JPEG",
        "added_at": "2025-07-17T00:03:06.831036",
        "hash": "6d844d603e9929159e47381554de35e5",
        "source": "migrated"
      }
    },
    {
      "id": "cars_008",
      "category": "cars",
      "title": "Cars Wallpaper 008",
      "tags": [
        "cars",
        "wallpaper",
        "hd",
        "mobile"
      ],
      "urls": {
        "raw": "https://media.githubusercontent.com/media/ddh4r4m/wallpaper-collection/main/collection/wallpapers/cars/008.jpg",
        "thumb": "https://media.githubusercontent.com/media/ddh4r4m/wallpaper-collection/main/collection/thumbnails/cars/008.jpg"
      },
      "metadata": {
        "dimensions": {
          "width": 1080,
          "height": 1920
        },
        "file_size": 286126,
        "format": "JPEG",
        "added_at": "2025-07-17T00:03:07.032944",
        "hash": "fbbcb3d2cfc285f19e4426466db1aedd",
        "source": "migrated"
      }
    },
    {
      "id": "cars_009",
      "category": "cars",
      "title": "Cars Wallpaper 009",
      "tags": [
        "cars",
        "wallpaper",
        "hd",
        "mobile"
      ],
      "urls": {
        "raw": "https://media.githubusercontent.com/media/ddh4r4m/wallpaper-collection/main/collection/wallpapers/cars/009.jpg",
        "thumb": "https://media.githubusercontent.com/media/ddh4r4m/wallpaper-collection/main/collection/thumbnails/cars/009.jpg"
      },
      "metadata": {
        "dimensions": {
          "width": 1080,
          "height": 1920
        },
        "file_size": 364488,
        "format": "JPEG",
        "added_at": "2025-07-17T00:03:07.248285",
        "hash": "357105247b7ebc82ae3ae232cc671153",
        "source": "migrated"
      }
    },
    {
      "id": "cars_010",
      "category": "cars",
      "title": "Cars Wallpaper 010",
      "tags": [
        "cars",
        "wallpaper",
        "hd",
        "mobile"
      ],
      "urls": {
        "raw": "https://media.githubusercontent.com/media/ddh4r4m/wallpaper-collection/main/collection/wallpapers/cars/010.jpg",
        "thumb": "https://media.githubusercontent.com/media/ddh4r4m/wallpaper-collection/main/collection/thumbnails/cars/010.jpg"
      },
      "metadata": {
        "dimensions": {
          "width": 1080,
          "height": 1920
        },
        "file_size": 256900,
        "format": "JPEG",
        "added_at": "2025-07-17T00:03:07.506017",
        "hash": "98e85b0e6f4547589baf4a9e8ef8b934",
        "source": "migrated"
      }
    },
    {
      "id": "cars_011",
      "category": "cars",
      "title": "Cars Wallpaper 011",
      "tags": [
        "cars",
        "wallpaper",
        "hd",
        "mobile"
      ],
      "urls": {
        "raw": "https://media.githubusercontent.com/media/ddh4r4m/wallpaper-collection/main/collection/wallpapers/cars/011.jpg",
        "thumb": "https://media.githubusercontent.com/media/ddh4r4m/wallpaper-collection/main/collection/thumbnails/cars/011.jpg"
      },
      "metadata": {
        "dimensions": {
          "width": 1080,
          "height": 1920
        },
        "file_size": 208921,
        "format": "JPEG",
        "added_at": "2025-07-17T00:03:07.829928",
        "hash": "9f809d9ca0bd5188b5b62a7b06f70037",
        "source": "migrated"
      }
    },
    {
      "id": "cars_012",
      "category": "cars",
      "title": "Cars Wallpaper 012",
      "tags": [
        "cars",
        "wallpaper",
        "hd",
        "mobile"
      ],
      "urls": {
        "raw": "https://media.githubusercontent.com/media/ddh4r4m/wallpaper-collection/main/collection/wallpapers/cars/012.jpg",
        "thumb": "https://media.githubusercontent.com/media/ddh4r4m/wallpaper-collection/main/collection/thumbnails/cars/012.jpg"
      },
      "metadata": {
        "dimensions": {
          "width": 1080,
          "height": 1920
        },
        "file_size": 151467,
        "format": "JPEG",
        "added_at": "2025-07-17T00:03:08.176226",
        "hash": "34b63082be1700bdc9301bbded51f031",
        "source": "migrated"
      }
    },
    {
      "id": "cars_013",
      "category": "cars",
      "title": "Cars Wallpaper 013",
      "tags": [
        "cars",
        "wallpaper",
        "hd",
        "mobile"
      ],
      "urls": {
        "raw": "https://media.githubusercontent.com/media/ddh4r4m/wallpaper-collection/main/collection/wallpapers/cars/013.jpg",
        "thumb": "https://media.githubusercontent.com/media/ddh4r4m/wallpaper-collection/main/collection/thumbnails/cars/013.jpg"
      },
      "metadata": {
        "dimensions": {
          "width": 1080,
          "height": 1920
        },
        "file_size": 286027,
        "format": "JPEG",
        "added_at": "2025-07-17T00:03:08.632046",
        "hash": "cf1c3de82320f463c5251c989cc62e13",
        "source": "migrated"
      }
    },
    {
      "id": "cars_014",
      "category": "cars",
      "title": "Cars Wallpaper 014",
      "tags": [
        "cars",
        "wallpaper",
        "hd",
        "mobile"
      ],
      "urls": {
        "raw": "https://media.githubusercontent.com/media/ddh4r4m/wallpaper-collection/main/collection/wallpapers/cars/014.jpg",
        "thumb": "https://media.githubusercontent.com/media/ddh4r4m/wallpaper-collection/main/collection/thumbnails/cars/014.jpg"
      },
      "metadata": {
        "dimensions": {
          "width": 1080,
          "height": 1920
        },
        "file_size": 272959,
        "format": "JPEG",
        "added_at": "2025-07-17T00:03:08.912826",
        "hash": "0b8cf85bfff49363a36c56475d0be664",
        "source": "migrated"
      }
    },
    {
      "id": "cars_015",
      "category": "cars",
      "title": "Cars Wallpaper 015",
      "tags": [
        "cars",
        "wallpaper",
        "hd",
        "mobile"
      ],
      "urls": {
        "raw": "https://media.githubusercontent.com/media/ddh4r4m/wallpaper-collection/main/collection/wallpapers/cars/015.jpg",
        "thumb": "https://media.githubusercontent.com/media/ddh4r4m/wallpaper-collection/main/collection/thumbnails/cars/015.jpg"
      },
      "metadata": {
        "dimensions": {
          "width": 1080,
          "height": 1920
        },
        "file_size": 241339,
        "format": "JPEG",
        "added_at": "2025-07-17T00:03:09.109804",
        "hash": "5ae93e85a2f28feafb386711f7448607",
        "source": "migrated"
      }
    },
    {
      "id": "cars_016",
      "category": "cars",
      "title": "Cars Wallpaper 016",
      "tags": [
        "cars",
        "wallpaper",
        "hd",
        "mobile"
      ],
      "urls": {
        "raw": "https://media.githubusercontent.com/media/ddh4r4m/wallpaper-collection/main/collection/wallpapers/cars/016.jpg",
        "thumb": "https://media.githubusercontent.com/media/ddh4r4m/wallpaper-collection/main/collection/thumbnails/cars/016.jpg"
      },
      "metadata": {
        "dimensions": {
          "width": 1080,
          "height": 1920
        },
        "file_size": 166924,
        "format": "JPEG",
        "added_at": "2025-07-17T00:03:09.239473",
        "hash": "05b9d8e75606ab7f7ae59aadf9bd7c90",
        "source": "migrated"
      }
    },
    {
      "id": "cars_017",
      "category": "cars",
      "title": "Cars Wallpaper 017",
      "tags": [
        "cars",
        "wallpaper",
        "hd",
        "mobile"
      ],
      "urls": {
        "raw": "https://media.githubusercontent.com/media/ddh4r4m/wallpaper-collection/main/collection/wallpapers/cars/017.jpg",
        "thumb": "https://media.githubusercontent.com/media/ddh4r4m/wallpaper-collection/main/collection/thumbnails/cars/017.jpg"
      },
      "metadata": {
        "dimensions": {
          "width": 1080,
          "height": 1920
        },
        "file_size": 202024,
        "format": "JPEG",
        "added_at": "2025-07-17T00:03:09.438054",
        "hash": "fbc1ecef96af1bffd1ffcd8a5b01e1aa",
        "source": "migrated"
      }
    },
    {
      "id": "cars_018",
      "category": "cars",
      "title": "Cars Wallpaper 018",
      "tags": [
        "cars",
        "wallpaper",
        "hd",
        "mobile"
      ],
      "urls": {
        "raw": "https://media.githubusercontent.com/media/ddh4r4m/wallpaper-collection/main/collection/wallpapers/cars/018.jpg",
        "thumb": "https://media.githubusercontent.com/media/ddh4r4m/wallpaper-collection/main/collection/thumbnails/cars/018.jpg"
      },
      "metadata": {
        "dimensions": {
          "width": 1080,
          "height": 1920
        },
        "file_size": 172727,
        "format": "JPEG",
        "added_at": "2025-07-17T00:03:09.875995",
        "hash": "523096820c5379430a54bb3163562cae",
        "source": "migrated"
      }
    }
  ]
}