{
  "meta": {
    "version": "1.0",
    "generated_at": "2025-07-28T22:48:38.208699",
    "page": 77,
    "per_page": 15,
    "total_pages": 183,
    "total_count": 2737,
    "count_on_page": 15,
    "categories": 22,
    "has_next": true,
    "has_prev": true,
    "next_page_url": "/api/v1/all/pages/78.json",
    "prev_page_url": "/api/v1/all/pages/76.json"
  },
  "data": [
    {
      "id": "cars_019",
      "category": "cars",
      "title": "Cars Wallpaper 019",
      "tags": [
        "cars",
        "wallpaper",
        "hd",
        "mobile"
      ],
      "urls": {
        "raw": "https://media.githubusercontent.com/media/ddh4r4m/wallpaper-collection/main/collection/wallpapers/cars/019.jpg",
        "thumb": "https://media.githubusercontent.com/media/ddh4r4m/wallpaper-collection/main/collection/thumbnails/cars/019.jpg"
      },
      "metadata": {
        "dimensions": {
          "width": 1080,
          "height": 1920
        },
        "file_size": 197412,
        "format": "JPEG",
        "added_at": "2025-07-17T00:03:10.014076",
        "hash": "5136b693f0dc12d409b8afc3e0c6bb84",
        "source": "migrated"
      }
    },
    {
      "id": "cars_020",
      "category": "cars",
      "title": "Cars Wallpaper 020",
      "tags": [
        "cars",
        "wallpaper",
        "hd",
        "mobile"
      ],
      "urls": {
        "raw": "https://media.githubusercontent.com/media/ddh4r4m/wallpaper-collection/main/collection/wallpapers/cars/020.jpg",
        "thumb": "https://media.githubusercontent.com/media/ddh4r4m/wallpaper-collection/main/collection/thumbnails/cars/020.jpg"
      },
      "metadata": {
        "dimensions": {
          "width": 1080,
          "height": 1920
        },
        "file_size": 122818,
        "format": "JPEG",
        "added_at": "2025-07-17T00:03:10.203159",
        "hash": "a778f3038893ad12823a560475a5db9f",
        "source": "migrated"
      }
    },
    {
      "id": "cars_021",
      "category": "cars",
      "title": "Cars Wallpaper 021",
      "tags": [
        "cars",
        "wallpaper",
        "hd",
        "mobile"
      ],
      "urls": {
        "raw": "https://media.githubusercontent.com/media/ddh4r4m/wallpaper-collection/main/collection/wallpapers/cars/021.jpg",
        "thumb": "https://media.githubusercontent.com/media/ddh4r4m/wallpaper-collection/main/collection/thumbnails/cars/021.jpg"
      },
      "metadata": {
        "dimensions": {
          "width": 1080,
          "height": 1920
        },
        "file_size": 415389,
        "format": "JPEG",
        "added_at": "2025-07-17T00:03:10.537536",
        "hash": "be90126d1ac942fb0f1986b6069ca752",
        "source": "migrated"
      }
    },
    {
      "id": "cars_022",
      "category": "cars",
      "title": "Cars Wallpaper 022",
      "tags": [
        "cars",
        "wallpaper",
        "hd",
        "mobile"
      ],
      "urls": {
        "raw": "https://media.githubusercontent.com/media/ddh4r4m/wallpaper-collection/main/collection/wallpapers/cars/022.jpg",
        "thumb": "https://media.githubusercontent.com/media/ddh4r4m/wallpaper-collection/main/collection/thumbnails/cars/022.jpg"
      },
      "metadata": {
        "dimensions": {
          "width": 1080,
          "height": 1920
        },
        "file_size": 200431,
        "format": "JPEG",
        "added_at": "2025-07-17T00:03:11.022355",
        "hash": "3cc576dd5787e99bf1bdded6558edb94",
        "source": "migrated"
      }
    },
    {
      "id": "cars_023",
      "category": "cars",
      "title": "Cars Wallpaper 023",
      "tags": [
        "cars",
        "wallpaper",
        "hd",
        "mobile"
      ],
      "urls": {
        "raw": "https://media.githubusercontent.com/media/ddh4r4m/wallpaper-collection/main/collection/wallpapers/cars/023.jpg",
        "thumb": "https://media.githubusercontent.com/media/ddh4r4m/wallpaper-collection/main/collection/thumbnails/cars/023.jpg"
      },
      "metadata": {
        "dimensions": {
          "width": 1080,
          "height": 1920
        },
        "file_size": 239765,
        "format": "JPEG",
        "added_at": "2025-07-17T00:03:11.239666",
        "hash": "ce3c58877cceb1ba1a85098c358f21bd",
        "source": "migrated"
      }
    },
    {
      "id": "cars_024",
      "category": "cars",
      "title": "Cars Wallpaper 024",
      "tags": [
        "cars",
        "wallpaper",
        "hd",
        "mobile"
      ],
      "urls": {
        "raw": "https://media.githubusercontent.com/media/ddh4r4m/wallpaper-collection/main/collection/wallpapers/cars/024.jpg",
        "thumb": "https://media.githubusercontent.com/media/ddh4r4m/wallpaper-collection/main/collection/thumbnails/cars/024.jpg"
      },
      "metadata": {
        "dimensions": {
          "width": 1080,
          "height": 1920
        },
        "file_size": 182558,
        "format": "JPEG",
        "added_at": "2025-07-17T00:03:11.681162",
        "hash": "b1205eb9d0d82c4bb558b5171f5792fe",
        "source": "migrated"
      }
    },
    {
      "id": "cars_025",
      "category": "cars",
      "title": "Cars Wallpaper 025",
      "tags": [
        "cars",
        "wallpaper",
        "hd",
        "mobile"
      ],
      "urls": {
        "raw": "https://media.githubusercontent.com/media/ddh4r4m/wallpaper-collection/main/collection/wallpapers/cars/025.jpg",
        "thumb": "https://media.githubusercontent.com/media/ddh4r4m/wallpaper-collection/main/collection/thumbnails/cars/025.jpg"
      },
      "metadata": {
        "dimensions": {
          "width": 1080,
          "height": 1920
        },
        "file_size": 347956,
        "format": "JPEG",
        "added_at": "2025-07-17T00:03:11.984041",
        "hash": "d219e7f1be927ec466ea8f4cbb2aa2fb",
        "source": "migrated"
      }
    },
    {
      "id": "cars_026",
      "category": "cars",
      "title": "Cars Wallpaper 026",
      "tags": [
        "cars",
        "wallpaper",
        "hd",
        "mobile"
      ],
      "urls": {
        "raw": "https://media.githubusercontent.com/media/ddh4r4m/wallpaper-collection/main/collection/wallpapers/cars/026.jpg",
        "thumb": "https://media.githubusercontent.com/media/ddh4r4m/wallpaper-collection/main/collection/thumbnails/cars/026.jpg"
      },
      "metadata": {
        "dimensions": {
          "width": 1080,
          "height": 1920
        },
        "file_size": 248201,
        "format": "JPEG",
        "added_at": "2025-07-17T00:03:12.258754",
        "hash": "6bc0282026fac9e25a67aff526e8f239",
        "source": "migrated"
      }
    },
    {
      "id": "cars_027",
      "category": "cars",
      "title": "Cars Wallpaper 027",
      "tags": [
        "cars",
        "wallpaper",
        "hd",
        "mobile"
      ],
      "urls": {
        "raw": "https://media.githubusercontent.com/media/ddh4r4m/wallpaper-collection/main/collection/wallpapers/cars/027.jpg",
        "thumb": "https://media.githubusercontent.com/media/ddh4r4m/wallpaper-collection/main/collection/thumbnails/cars/027.jpg"
      },
      "metadata": {
        "dimensions": {
          "width": 1080,
          "height": 1920
        },
        "file_size": 251704,
        "format": "JPEG",
        "added_at": "2025-07-17T00:03:12.566808",
        "hash": "2cf85877faa35f23247e9d68c4efa6a5",
        "source": "migrated"
      }
    },
    {
      "id": "cars_028",
      "category": "cars",
      "title": "Cars Wallpaper 028",
      "tags": [
        "cars",
        "wallpaper",
        "hd",
        "mobile"
      ],
      "urls": {
        "raw": "https://media.githubusercontent.com/media/ddh4r4m/wallpaper-collection/main/collection/wallpapers/cars/028.jpg",
        "thumb": "https://media.githubusercontent.com/media/ddh4r4m/wallpaper-collection/main/collection/thumbnails/cars/028.jpg"
      },
      "metadata": {
        "dimensions": {
          "width": 1080,
          "height": 1920
        },
        "file_size": 478729,
        "format": "JPEG",
        "added_at": "2025-07-17T00:03:12.818483",
        "hash": "65d196e704a6e4d8474c0bdd3dc6b50a",
        "source": "migrated"
      }
    },
    {
      "id": "cars_029",
      "category": "cars",
      "title": "Cars Wallpaper 029",
      "tags": [
        "cars",
        "wallpaper",
        "hd",
        "mobile"
      ],
      "urls": {
        "raw": "https://media.githubusercontent.com/media/ddh4r4m/wallpaper-collection/main/collection/wallpapers/cars/029.jpg",
        "thumb": "https://media.githubusercontent.com/media/ddh4r4m/wallpaper-collection/main/collection/thumbnails/cars/029.jpg"
      },
      "metadata": {
        "dimensions": {
          "width": 1080,
          "height": 1920
        },
        "file_size": 232244,
        "format": "JPEG",
        "added_at": "2025-07-17T00:03:12.987486",
        "hash": "ea39dee455952708e6198bff9cc35cb3",
        "source": "migrated"
      }
    },
    {
      "id": "cars_030",
      "category": "cars",
      "title": "Cars Wallpaper",
      "tags": [
        "cars",
        "unsplash",
        "hd",
        "mobile"
      ],
      "metadata": {
        "dimensions": {
          "width": 1080,
          "height": 1620
        },
        "file_size": 349413,
        "format": "JPEG",
        "added_at": "2025-07-17T22:00:45.802324",
        "hash": "95531e617d9c6272ed8d85c395820216",
        "photographer": "Unknown"
      },
      "urls": {
        "raw": "https://media.githubusercontent.com/media/ddh4r4m/wallpaper-collection/main/collection/wallpapers/cars/030.jpg",
        "thumb": "https://media.githubusercontent.com/media/ddh4r4m/wallpaper-collection/main/collection/thumbnails/cars/030.jpg"
      }
    },
    {
      "id": "cars_031",
      "category": "cars",
      "title": "Cars Wallpaper",
      "tags": [
        "cars",
        "unsplash",
        "hd",
        "mobile"
      ],
      "metadata": {
        "dimensions": {
          "width": 1080,
          "height": 1620
        },
        "file_size": 243351,
        "format": "JPEG",
        "added_at": "2025-07-17T22:00:48.244993",
        "hash": "553cee5cfd0a8347aad9c74caa06f05a",
        "photographer": "Unknown"
      },
      "urls": {
        "raw": "https://media.githubusercontent.com/media/ddh4r4m/wallpaper-collection/main/collection/wallpapers/cars/031.jpg",
        "thumb": "https://media.githubusercontent.com/media/ddh4r4m/wallpaper-collection/main/collection/thumbnails/cars/031.jpg"
      }
    },
    {
      "id": "cars_032",
      "category": "cars",
      "title": "Cars Wallpaper",
      "tags": [
        "cars",
        "unsplash",
        "hd",
        "mobile"
      ],
      "metadata": {
        "dimensions": {
          "width": 1080,
          "height": 675
        },
        "file_size": 43957,
        "format": "JPEG",
        "added_at": "2025-07-17T22:00:52.738694",
        "hash": "2e5cd685cce11d40b5510ed27dd6c69f",
        "photographer": "Unknown"
      },
      "urls": {
        "raw": "https://media.githubusercontent.com/media/ddh4r4m/wallpaper-collection/main/collection/wallpapers/cars/032.jpg",
        "thumb": "https://media.githubusercontent.com/media/ddh4r4m/wallpaper-collection/main/collection/thumbnails/cars/032.jpg"
      }
    },
    {
      "id": "cars_033",
      "category": "cars",
      "title": "Cars Wallpaper",
      "tags": [
        "cars",
        "unsplash",
        "hd",
        "mobile"
      ],
      "metadata": {
        "dimensions": {
          "width": 1080,
          "height": 1619
        },
        "file_size": 156484,
        "format": "JPEG",
        "added_at": "2025-07-17T22:00:55.576897",
        "hash": "e8bcb4347f6552b216e2c60503586d2d",
        "photographer": "Unknown"
      },
      "urls": {
        "raw": "https://media.githubusercontent.com/media/ddh4r4m/wallpaper-collection/main/collection/wallpapers/cars/033.jpg",
        "thumb": "https://media.githubusercontent.com/media/ddh4r4m/wallpaper-collection/main/collection/thumbnails/cars/033.jpg"
      }
    }
  ]
}