{
  "meta": {
    "version": "1.0",
    "generated_at": "2025-07-19T12:26:57.111378",
    "page": 78,
    "per_page": 15,
    "total_pages": 160,
    "total_count": 2387,
    "count_on_page": 15,
    "categories": 19,
    "has_next": true,
    "has_prev": true,
    "next_page_url": "/api/v1/all/pages/79.json",
    "prev_page_url": "/api/v1/all/pages/77.json"
  },
  "data": [
    {
      "id": "cars_034",
      "category": "cars",
      "title": "Cars Wallpaper",
      "tags": [
        "cars",
        "unsplash",
        "hd",
        "mobile"
      ],
      "metadata": {
        "dimensions": {
          "width": 1080,
          "height": 720
        },
        "file_size": 189095,
        "format": "JPEG",
        "added_at": "2025-07-17T22:01:00.018038",
        "hash": "b4a6cbedbe6fdb08002c5537495b995b",
        "photographer": "Unknown"
      },
      "urls": {
        "raw": "https://media.githubusercontent.com/media/ddh4r4m/wallpaper-collection/main/collection/wallpapers/cars/034.jpg",
        "thumb": "https://media.githubusercontent.com/media/ddh4r4m/wallpaper-collection/main/collection/thumbnails/cars/034.jpg"
      }
    },
    {
      "id": "cars_035",
      "category": "cars",
      "title": "Cars Wallpaper",
      "tags": [
        "cars",
        "unsplash",
        "hd",
        "mobile"
      ],
      "metadata": {
        "dimensions": {
          "width": 1080,
          "height": 720
        },
        "file_size": 98785,
        "format": "JPEG",
        "added_at": "2025-07-17T22:01:02.562038",
        "hash": "0ff1c3f2354472b76bf385e4b48aa296",
        "photographer": "Unknown"
      },
      "urls": {
        "raw": "https://media.githubusercontent.com/media/ddh4r4m/wallpaper-collection/main/collection/wallpapers/cars/035.jpg",
        "thumb": "https://media.githubusercontent.com/media/ddh4r4m/wallpaper-collection/main/collection/thumbnails/cars/035.jpg"
      }
    },
    {
      "id": "cars_036",
      "category": "cars",
      "title": "Cars Wallpaper",
      "tags": [
        "cars",
        "unsplash",
        "hd",
        "mobile"
      ],
      "metadata": {
        "dimensions": {
          "width": 1080,
          "height": 810
        },
        "file_size": 222716,
        "format": "JPEG",
        "added_at": "2025-07-17T22:01:06.061671",
        "hash": "be86bf1ac8da9962221ccffcd6c9578e",
        "photographer": "Unknown"
      },
      "urls": {
        "raw": "https://media.githubusercontent.com/media/ddh4r4m/wallpaper-collection/main/collection/wallpapers/cars/036.jpg",
        "thumb": "https://media.githubusercontent.com/media/ddh4r4m/wallpaper-collection/main/collection/thumbnails/cars/036.jpg"
      }
    },
    {
      "id": "cars_037",
      "category": "cars",
      "title": "Cars Wallpaper",
      "tags": [
        "cars",
        "unsplash",
        "hd",
        "mobile"
      ],
      "metadata": {
        "dimensions": {
          "width": 1080,
          "height": 1620
        },
        "file_size": 153254,
        "format": "JPEG",
        "added_at": "2025-07-17T22:01:08.403799",
        "hash": "8b82b31368c58d194f6605a039996e97",
        "photographer": "Unknown"
      },
      "urls": {
        "raw": "https://media.githubusercontent.com/media/ddh4r4m/wallpaper-collection/main/collection/wallpapers/cars/037.jpg",
        "thumb": "https://media.githubusercontent.com/media/ddh4r4m/wallpaper-collection/main/collection/thumbnails/cars/037.jpg"
      }
    },
    {
      "id": "cars_038",
      "category": "cars",
      "title": "Cars Wallpaper",
      "tags": [
        "cars",
        "unsplash",
        "hd",
        "mobile"
      ],
      "metadata": {
        "dimensions": {
          "width": 1080,
          "height": 720
        },
        "file_size": 102196,
        "format": "JPEG",
        "added_at": "2025-07-17T22:01:12.870305",
        "hash": "660a8a49b08c9a55e37a5cf6d3cf7c1d",
        "photographer": "Unknown"
      },
      "urls": {
        "raw": "https://media.githubusercontent.com/media/ddh4r4m/wallpaper-collection/main/collection/wallpapers/cars/038.jpg",
        "thumb": "https://media.githubusercontent.com/media/ddh4r4m/wallpaper-collection/main/collection/thumbnails/cars/038.jpg"
      }
    },
    {
      "id": "cars_039",
      "category": "cars",
      "title": "Cars Wallpaper",
      "tags": [
        "cars",
        "unsplash",
        "hd",
        "mobile"
      ],
      "metadata": {
        "dimensions": {
          "width": 1080,
          "height": 608
        },
        "file_size": 96003,
        "format": "JPEG",
        "added_at": "2025-07-17T22:01:15.388677",
        "hash": "e32972310023a4b00a91758150bada08",
        "photographer": "Unknown"
      },
      "urls": {
        "raw": "https://media.githubusercontent.com/media/ddh4r4m/wallpaper-collection/main/collection/wallpapers/cars/039.jpg",
        "thumb": "https://media.githubusercontent.com/media/ddh4r4m/wallpaper-collection/main/collection/thumbnails/cars/039.jpg"
      }
    },
    {
      "id": "cars_040",
      "category": "cars",
      "title": "Cars Wallpaper",
      "tags": [
        "cars",
        "unsplash",
        "hd",
        "mobile"
      ],
      "metadata": {
        "dimensions": {
          "width": 1080,
          "height": 1620
        },
        "file_size": 349413,
        "format": "JPEG",
        "added_at": "2025-07-17T22:07:39.593946",
        "hash": "95531e617d9c6272ed8d85c395820216",
        "photographer": "Unknown"
      },
      "urls": {
        "raw": "https://media.githubusercontent.com/media/ddh4r4m/wallpaper-collection/main/collection/wallpapers/cars/040.jpg",
        "thumb": "https://media.githubusercontent.com/media/ddh4r4m/wallpaper-collection/main/collection/thumbnails/cars/040.jpg"
      }
    },
    {
      "id": "cars_041",
      "category": "cars",
      "title": "Cars Wallpaper",
      "tags": [
        "cars",
        "unsplash",
        "hd",
        "mobile"
      ],
      "metadata": {
        "dimensions": {
          "width": 1080,
          "height": 1620
        },
        "file_size": 243351,
        "format": "JPEG",
        "added_at": "2025-07-17T22:07:58.545170",
        "hash": "553cee5cfd0a8347aad9c74caa06f05a",
        "photographer": "Unknown"
      },
      "urls": {
        "raw": "https://media.githubusercontent.com/media/ddh4r4m/wallpaper-collection/main/collection/wallpapers/cars/041.jpg",
        "thumb": "https://media.githubusercontent.com/media/ddh4r4m/wallpaper-collection/main/collection/thumbnails/cars/041.jpg"
      }
    },
    {
      "id": "cars_042",
      "category": "cars",
      "title": "Cars Wallpaper",
      "tags": [
        "cars",
        "unsplash",
        "hd",
        "mobile"
      ],
      "metadata": {
        "dimensions": {
          "width": 1080,
          "height": 1621
        },
        "file_size": 214963,
        "format": "JPEG",
        "added_at": "2025-07-17T22:08:02.278447",
        "hash": "7e9e7a156f4de7c67615a383224fa23d",
        "photographer": "Unknown"
      },
      "urls": {
        "raw": "https://media.githubusercontent.com/media/ddh4r4m/wallpaper-collection/main/collection/wallpapers/cars/042.jpg",
        "thumb": "https://media.githubusercontent.com/media/ddh4r4m/wallpaper-collection/main/collection/thumbnails/cars/042.jpg"
      }
    },
    {
      "id": "cars_043",
      "category": "cars",
      "title": "Cars Wallpaper",
      "tags": [
        "cars",
        "unsplash",
        "hd",
        "mobile"
      ],
      "metadata": {
        "dimensions": {
          "width": 1080,
          "height": 733
        },
        "file_size": 121661,
        "format": "JPEG",
        "added_at": "2025-07-17T22:08:06.639509",
        "hash": "903ed47e253e7b6f9c6c3e968bf2a745",
        "photographer": "Unknown"
      },
      "urls": {
        "raw": "https://media.githubusercontent.com/media/ddh4r4m/wallpaper-collection/main/collection/wallpapers/cars/043.jpg",
        "thumb": "https://media.githubusercontent.com/media/ddh4r4m/wallpaper-collection/main/collection/thumbnails/cars/043.jpg"
      }
    },
    {
      "id": "cars_044",
      "category": "cars",
      "title": "Cars Wallpaper",
      "tags": [
        "cars",
        "unsplash",
        "hd",
        "mobile"
      ],
      "metadata": {
        "dimensions": {
          "width": 1080,
          "height": 669
        },
        "file_size": 129375,
        "format": "JPEG",
        "added_at": "2025-07-17T22:08:14.664615",
        "hash": "80feec74e3a1ee295755d7816d455600",
        "photographer": "Unknown"
      },
      "urls": {
        "raw": "https://media.githubusercontent.com/media/ddh4r4m/wallpaper-collection/main/collection/wallpapers/cars/044.jpg",
        "thumb": "https://media.githubusercontent.com/media/ddh4r4m/wallpaper-collection/main/collection/thumbnails/cars/044.jpg"
      }
    },
    {
      "id": "cars_045",
      "category": "cars",
      "title": "Cars Wallpaper",
      "tags": [
        "cars",
        "unsplash",
        "hd",
        "mobile"
      ],
      "metadata": {
        "dimensions": {
          "width": 1080,
          "height": 675
        },
        "file_size": 43957,
        "format": "JPEG",
        "added_at": "2025-07-17T22:08:20.436313",
        "hash": "2e5cd685cce11d40b5510ed27dd6c69f",
        "photographer": "Unknown"
      },
      "urls": {
        "raw": "https://media.githubusercontent.com/media/ddh4r4m/wallpaper-collection/main/collection/wallpapers/cars/045.jpg",
        "thumb": "https://media.githubusercontent.com/media/ddh4r4m/wallpaper-collection/main/collection/thumbnails/cars/045.jpg"
      }
    },
    {
      "id": "cars_046",
      "category": "cars",
      "title": "Cars Wallpaper",
      "tags": [
        "cars",
        "unsplash",
        "hd",
        "mobile"
      ],
      "metadata": {
        "dimensions": {
          "width": 1080,
          "height": 1619
        },
        "file_size": 156484,
        "format": "JPEG",
        "added_at": "2025-07-17T22:08:34.787673",
        "hash": "e8bcb4347f6552b216e2c60503586d2d",
        "photographer": "Unknown"
      },
      "urls": {
        "raw": "https://media.githubusercontent.com/media/ddh4r4m/wallpaper-collection/main/collection/wallpapers/cars/046.jpg",
        "thumb": "https://media.githubusercontent.com/media/ddh4r4m/wallpaper-collection/main/collection/thumbnails/cars/046.jpg"
      }
    },
    {
      "id": "cars_047",
      "category": "cars",
      "title": "Cars Wallpaper",
      "tags": [
        "cars",
        "unsplash",
        "hd",
        "mobile"
      ],
      "metadata": {
        "dimensions": {
          "width": 1080,
          "height": 1620
        },
        "file_size": 349413,
        "format": "JPEG",
        "added_at": "2025-07-17T22:09:52.765603",
        "hash": "95531e617d9c6272ed8d85c395820216",
        "photographer": "Unknown"
      },
      "urls": {
        "raw": "https://media.githubusercontent.com/media/ddh4r4m/wallpaper-collection/main/collection/wallpapers/cars/047.jpg",
        "thumb": "https://media.githubusercontent.com/media/ddh4r4m/wallpaper-collection/main/collection/thumbnails/cars/047.jpg"
      }
    },
    {
      "id": "cars_048",
      "category": "cars",
      "title": "Cars Wallpaper",
      "tags": [
        "cars",
        "unsplash",
        "hd",
        "mobile"
      ],
      "metadata": {
        "dimensions": {
          "width": 1080,
          "height": 1620
        },
        "file_size": 243351,
        "format": "JPEG",
        "added_at": "2025-07-17T22:10:18.228295",
        "hash": "553cee5cfd0a8347aad9c74caa06f05a",
        "photographer": "Unknown"
      },
      "urls": {
        "raw": "https://media.githubusercontent.com/media/ddh4r4m/wallpaper-collection/main/collection/wallpapers/cars/048.jpg",
        "thumb": "https://media.githubusercontent.com/media/ddh4r4m/wallpaper-collection/main/collection/thumbnails/cars/048.jpg"
      }
    }
  ]
}