{
  "meta": {
    "version": "1.0",
    "generated_at": "2025-07-17T00:06:19.072196",
    "page": 79,
    "per_page": 15,
    "total_pages": 117,
    "total_count": 1751,
    "count_on_page": 15,
    "categories": 17,
    "has_next": true,
    "has_prev": true,
    "next_page_url": "/api/v1/all/pages/80.json",
    "prev_page_url": "/api/v1/all/pages/78.json"
  },
  "data": [
    {
      "id": "nature_042",
      "category": "nature",
      "title": "Nature Wallpaper 042",
      "tags": [
        "nature",
        "wallpaper",
        "hd",
        "mobile"
      ],
      "urls": {
        "raw": "https://raw.githubusercontent.com/ddh4r4m/wallpaper-collection/main/collection/wallpapers/nature/042.jpg",
        "thumb": "https://raw.githubusercontent.com/ddh4r4m/wallpaper-collection/main/collection/thumbnails/nature/042.jpg"
      },
      "metadata": {
        "dimensions": {
          "width": 1080,
          "height": 1920
        },
        "file_size": 376300,
        "format": "JPEG",
        "added_at": "2025-07-17T00:04:14.676072",
        "hash": "eb1d98b830542e1c73f38b62126d5669",
        "source": "migrated"
      }
    },
    {
      "id": "nature_043",
      "category": "nature",
      "title": "Nature Wallpaper 043",
      "tags": [
        "nature",
        "wallpaper",
        "hd",
        "mobile"
      ],
      "urls": {
        "raw": "https://raw.githubusercontent.com/ddh4r4m/wallpaper-collection/main/collection/wallpapers/nature/043.jpg",
        "thumb": "https://raw.githubusercontent.com/ddh4r4m/wallpaper-collection/main/collection/thumbnails/nature/043.jpg"
      },
      "metadata": {
        "dimensions": {
          "width": 1080,
          "height": 1920
        },
        "file_size": 612132,
        "format": "JPEG",
        "added_at": "2025-07-17T00:04:14.750963",
        "hash": "f64a1c67b35e13ef47f5f346beddd9cd",
        "source": "migrated"
      }
    },
    {
      "id": "nature_044",
      "category": "nature",
      "title": "Nature Wallpaper 044",
      "tags": [
        "nature",
        "wallpaper",
        "hd",
        "mobile"
      ],
      "urls": {
        "raw": "https://raw.githubusercontent.com/ddh4r4m/wallpaper-collection/main/collection/wallpapers/nature/044.jpg",
        "thumb": "https://raw.githubusercontent.com/ddh4r4m/wallpaper-collection/main/collection/thumbnails/nature/044.jpg"
      },
      "metadata": {
        "dimensions": {
          "width": 1080,
          "height": 1920
        },
        "file_size": 538561,
        "format": "JPEG",
        "added_at": "2025-07-17T00:04:14.820990",
        "hash": "173543eb8687abf0972651094f06cec1",
        "source": "migrated"
      }
    },
    {
      "id": "nature_045",
      "category": "nature",
      "title": "Nature Wallpaper 045",
      "tags": [
        "nature",
        "wallpaper",
        "hd",
        "mobile"
      ],
      "urls": {
        "raw": "https://raw.githubusercontent.com/ddh4r4m/wallpaper-collection/main/collection/wallpapers/nature/045.jpg",
        "thumb": "https://raw.githubusercontent.com/ddh4r4m/wallpaper-collection/main/collection/thumbnails/nature/045.jpg"
      },
      "metadata": {
        "dimensions": {
          "width": 1080,
          "height": 1920
        },
        "file_size": 349224,
        "format": "JPEG",
        "added_at": "2025-07-17T00:04:14.880269",
        "hash": "f6b8bad9f94bc6d24c7b871c85ba6868",
        "source": "migrated"
      }
    },
    {
      "id": "nature_046",
      "category": "nature",
      "title": "Nature Wallpaper 046",
      "tags": [
        "nature",
        "wallpaper",
        "hd",
        "mobile"
      ],
      "urls": {
        "raw": "https://raw.githubusercontent.com/ddh4r4m/wallpaper-collection/main/collection/wallpapers/nature/046.jpg",
        "thumb": "https://raw.githubusercontent.com/ddh4r4m/wallpaper-collection/main/collection/thumbnails/nature/046.jpg"
      },
      "metadata": {
        "dimensions": {
          "width": 1080,
          "height": 1920
        },
        "file_size": 631902,
        "format": "JPEG",
        "added_at": "2025-07-17T00:04:14.955711",
        "hash": "ab604dad7a9e9e51f0fbb0ec419f4bdd",
        "source": "migrated"
      }
    },
    {
      "id": "nature_047",
      "category": "nature",
      "title": "Nature Wallpaper 047",
      "tags": [
        "nature",
        "wallpaper",
        "hd",
        "mobile"
      ],
      "urls": {
        "raw": "https://raw.githubusercontent.com/ddh4r4m/wallpaper-collection/main/collection/wallpapers/nature/047.jpg",
        "thumb": "https://raw.githubusercontent.com/ddh4r4m/wallpaper-collection/main/collection/thumbnails/nature/047.jpg"
      },
      "metadata": {
        "dimensions": {
          "width": 1080,
          "height": 1920
        },
        "file_size": 653356,
        "format": "JPEG",
        "added_at": "2025-07-17T00:04:15.031589",
        "hash": "0df3618f71cc4f56047b7d99bf743548",
        "source": "migrated"
      }
    },
    {
      "id": "nature_048",
      "category": "nature",
      "title": "Nature Wallpaper 048",
      "tags": [
        "nature",
        "wallpaper",
        "hd",
        "mobile"
      ],
      "urls": {
        "raw": "https://raw.githubusercontent.com/ddh4r4m/wallpaper-collection/main/collection/wallpapers/nature/048.jpg",
        "thumb": "https://raw.githubusercontent.com/ddh4r4m/wallpaper-collection/main/collection/thumbnails/nature/048.jpg"
      },
      "metadata": {
        "dimensions": {
          "width": 1080,
          "height": 1920
        },
        "file_size": 346189,
        "format": "JPEG",
        "added_at": "2025-07-17T00:04:15.092762",
        "hash": "74ef50819a9e449ac6f98937c63ffeb5",
        "source": "migrated"
      }
    },
    {
      "id": "nature_049",
      "category": "nature",
      "title": "Nature Wallpaper 049",
      "tags": [
        "nature",
        "wallpaper",
        "hd",
        "mobile"
      ],
      "urls": {
        "raw": "https://raw.githubusercontent.com/ddh4r4m/wallpaper-collection/main/collection/wallpapers/nature/049.jpg",
        "thumb": "https://raw.githubusercontent.com/ddh4r4m/wallpaper-collection/main/collection/thumbnails/nature/049.jpg"
      },
      "metadata": {
        "dimensions": {
          "width": 1080,
          "height": 1920
        },
        "file_size": 620668,
        "format": "JPEG",
        "added_at": "2025-07-17T00:04:15.169070",
        "hash": "101d08e39c0c7261d920fb6e065be108",
        "source": "migrated"
      }
    },
    {
      "id": "nature_050",
      "category": "nature",
      "title": "Nature Wallpaper 050",
      "tags": [
        "nature",
        "wallpaper",
        "hd",
        "mobile"
      ],
      "urls": {
        "raw": "https://raw.githubusercontent.com/ddh4r4m/wallpaper-collection/main/collection/wallpapers/nature/050.jpg",
        "thumb": "https://raw.githubusercontent.com/ddh4r4m/wallpaper-collection/main/collection/thumbnails/nature/050.jpg"
      },
      "metadata": {
        "dimensions": {
          "width": 1080,
          "height": 1920
        },
        "file_size": 736221,
        "format": "JPEG",
        "added_at": "2025-07-17T00:04:15.248796",
        "hash": "1a9b3d6bf5abee28249fb016883204b8",
        "source": "migrated"
      }
    },
    {
      "id": "nature_051",
      "category": "nature",
      "title": "Nature Wallpaper 051",
      "tags": [
        "nature",
        "wallpaper",
        "hd",
        "mobile"
      ],
      "urls": {
        "raw": "https://raw.githubusercontent.com/ddh4r4m/wallpaper-collection/main/collection/wallpapers/nature/051.jpg",
        "thumb": "https://raw.githubusercontent.com/ddh4r4m/wallpaper-collection/main/collection/thumbnails/nature/051.jpg"
      },
      "metadata": {
        "dimensions": {
          "width": 1080,
          "height": 1920
        },
        "file_size": 761396,
        "format": "JPEG",
        "added_at": "2025-07-17T00:04:15.330847",
        "hash": "21be02eb2eee5c7c44631e89a69777ac",
        "source": "migrated"
      }
    },
    {
      "id": "nature_052",
      "category": "nature",
      "title": "Nature Wallpaper 052",
      "tags": [
        "nature",
        "wallpaper",
        "hd",
        "mobile"
      ],
      "urls": {
        "raw": "https://raw.githubusercontent.com/ddh4r4m/wallpaper-collection/main/collection/wallpapers/nature/052.jpg",
        "thumb": "https://raw.githubusercontent.com/ddh4r4m/wallpaper-collection/main/collection/thumbnails/nature/052.jpg"
      },
      "metadata": {
        "dimensions": {
          "width": 1080,
          "height": 1920
        },
        "file_size": 544093,
        "format": "JPEG",
        "added_at": "2025-07-17T00:04:15.401446",
        "hash": "f00cf58a4861ccd19b3803b8dfb2d1f1",
        "source": "migrated"
      }
    },
    {
      "id": "nature_053",
      "category": "nature",
      "title": "Nature Wallpaper 053",
      "tags": [
        "nature",
        "wallpaper",
        "hd",
        "mobile"
      ],
      "urls": {
        "raw": "https://raw.githubusercontent.com/ddh4r4m/wallpaper-collection/main/collection/wallpapers/nature/053.jpg",
        "thumb": "https://raw.githubusercontent.com/ddh4r4m/wallpaper-collection/main/collection/thumbnails/nature/053.jpg"
      },
      "metadata": {
        "dimensions": {
          "width": 1080,
          "height": 1920
        },
        "file_size": 470110,
        "format": "JPEG",
        "added_at": "2025-07-17T00:04:15.465468",
        "hash": "c5d27db7d2337ad9d9db77b580fbb05e",
        "source": "migrated"
      }
    },
    {
      "id": "nature_054",
      "category": "nature",
      "title": "Nature Wallpaper 054",
      "tags": [
        "nature",
        "wallpaper",
        "hd",
        "mobile"
      ],
      "urls": {
        "raw": "https://raw.githubusercontent.com/ddh4r4m/wallpaper-collection/main/collection/wallpapers/nature/054.jpg",
        "thumb": "https://raw.githubusercontent.com/ddh4r4m/wallpaper-collection/main/collection/thumbnails/nature/054.jpg"
      },
      "metadata": {
        "dimensions": {
          "width": 1080,
          "height": 1920
        },
        "file_size": 143331,
        "format": "JPEG",
        "added_at": "2025-07-17T00:04:15.514740",
        "hash": "bfd1482fc1192bbe9c7613792a8b4eb0",
        "source": "migrated"
      }
    },
    {
      "id": "nature_055",
      "category": "nature",
      "title": "Nature Wallpaper 055",
      "tags": [
        "nature",
        "wallpaper",
        "hd",
        "mobile"
      ],
      "urls": {
        "raw": "https://raw.githubusercontent.com/ddh4r4m/wallpaper-collection/main/collection/wallpapers/nature/055.jpg",
        "thumb": "https://raw.githubusercontent.com/ddh4r4m/wallpaper-collection/main/collection/thumbnails/nature/055.jpg"
      },
      "metadata": {
        "dimensions": {
          "width": 1080,
          "height": 1920
        },
        "file_size": 835258,
        "format": "JPEG",
        "added_at": "2025-07-17T00:04:15.598472",
        "hash": "af92a49ca4077de1212d1fce39173e8e",
        "source": "migrated"
      }
    },
    {
      "id": "nature_056",
      "category": "nature",
      "title": "Nature Wallpaper 056",
      "tags": [
        "nature",
        "wallpaper",
        "hd",
        "mobile"
      ],
      "urls": {
        "raw": "https://raw.githubusercontent.com/ddh4r4m/wallpaper-collection/main/collection/wallpapers/nature/056.jpg",
        "thumb": "https://raw.githubusercontent.com/ddh4r4m/wallpaper-collection/main/collection/thumbnails/nature/056.jpg"
      },
      "metadata": {
        "dimensions": {
          "width": 1080,
          "height": 1920
        },
        "file_size": 349498,
        "format": "JPEG",
        "added_at": "2025-07-17T00:04:15.660782",
        "hash": "5e12bbcae553f9333f9cfeb1e8bc60e6",
        "source": "migrated"
      }
    }
  ]
}