{
  "meta": {
    "version": "1.0",
    "generated_at": "2025-07-28T22:48:38.208699",
    "page": 8,
    "per_page": 15,
    "total_pages": 183,
    "total_count": 2737,
    "count_on_page": 15,
    "categories": 22,
    "has_next": true,
    "has_prev": true,
    "next_page_url": "/api/v1/all/pages/9.json",
    "prev_page_url": "/api/v1/all/pages/7.json"
  },
  "data": [
    {
      "id": "4k_106",
      "category": "4k",
      "title": "4K Wallpaper 106",
      "tags": [
        "4k",
        "wallpaper",
        "curated",
        "hd",
        "portrait"
      ],
      "metadata": {
        "dimensions": {
          "width": 1080,
          "height": 1920
        },
        "file_size": 407839,
        "format": "JPEG",
        "added_at": "2025-07-16T22:15:29.816298",
        "hash": "bfa8fe57d9f312f1571cd6aba9c35f95"
      },
      "urls": {
        "raw": "https://media.githubusercontent.com/media/ddh4r4m/wallpaper-collection/main/collection/wallpapers/4k/106.jpg",
        "thumb": "https://media.githubusercontent.com/media/ddh4r4m/wallpaper-collection/main/collection/thumbnails/4k/106.jpg"
      }
    },
    {
      "id": "4k_107",
      "category": "4k",
      "title": "4K Wallpaper 107",
      "tags": [
        "4k",
        "wallpaper",
        "curated",
        "hd",
        "portrait"
      ],
      "metadata": {
        "dimensions": {
          "width": 1080,
          "height": 1920
        },
        "file_size": 173972,
        "format": "JPEG",
        "added_at": "2025-07-16T22:15:29.970322",
        "hash": "7c1c388ad2770335a0c59693094da28b"
      },
      "urls": {
        "raw": "https://media.githubusercontent.com/media/ddh4r4m/wallpaper-collection/main/collection/wallpapers/4k/107.jpg",
        "thumb": "https://media.githubusercontent.com/media/ddh4r4m/wallpaper-collection/main/collection/thumbnails/4k/107.jpg"
      }
    },
    {
      "id": "4k_108",
      "category": "4k",
      "title": "4K Wallpaper 108",
      "tags": [
        "4k",
        "wallpaper",
        "curated",
        "hd",
        "portrait"
      ],
      "metadata": {
        "dimensions": {
          "width": 1080,
          "height": 1920
        },
        "file_size": 449138,
        "format": "JPEG",
        "added_at": "2025-07-16T22:15:30.132234",
        "hash": "aed8e0c6b6c5ea514aefac5f65e8b946"
      },
      "urls": {
        "raw": "https://media.githubusercontent.com/media/ddh4r4m/wallpaper-collection/main/collection/wallpapers/4k/108.jpg",
        "thumb": "https://media.githubusercontent.com/media/ddh4r4m/wallpaper-collection/main/collection/thumbnails/4k/108.jpg"
      }
    },
    {
      "id": "4k_109",
      "category": "4k",
      "title": "4K Wallpaper 109",
      "tags": [
        "4k",
        "wallpaper",
        "curated",
        "hd",
        "portrait"
      ],
      "metadata": {
        "dimensions": {
          "width": 1080,
          "height": 1920
        },
        "file_size": 729813,
        "format": "JPEG",
        "added_at": "2025-07-16T22:15:30.312463",
        "hash": "d48d3d4e6e75086d9a9c0bb75ca00f06"
      },
      "urls": {
        "raw": "https://media.githubusercontent.com/media/ddh4r4m/wallpaper-collection/main/collection/wallpapers/4k/109.jpg",
        "thumb": "https://media.githubusercontent.com/media/ddh4r4m/wallpaper-collection/main/collection/thumbnails/4k/109.jpg"
      }
    },
    {
      "id": "4k_110",
      "category": "4k",
      "title": "4K Wallpaper 110",
      "tags": [
        "4k"
      ],
      "urls": {
        "raw": "https://media.githubusercontent.com/media/ddh4r4m/wallpaper-collection/main/collection/wallpapers/4k/110.jpg",
        "thumb": "https://media.githubusercontent.com/media/ddh4r4m/wallpaper-collection/main/collection/thumbnails/4k/110.jpg"
      },
      "metadata": {
        "added_at": "2025-07-17T00:41:05.432631",
        "file_size": 98252,
        "dimensions": {
          "width": 1080,
          "height": 1920
        }
      }
    },
    {
      "id": "4k_111",
      "category": "4k",
      "title": "4K Wallpaper 111",
      "tags": [
        "4k"
      ],
      "urls": {
        "raw": "https://media.githubusercontent.com/media/ddh4r4m/wallpaper-collection/main/collection/wallpapers/4k/111.jpg",
        "thumb": "https://media.githubusercontent.com/media/ddh4r4m/wallpaper-collection/main/collection/thumbnails/4k/111.jpg"
      },
      "metadata": {
        "added_at": "2025-07-17T00:41:05.432650",
        "file_size": 375080,
        "dimensions": {
          "width": 1080,
          "height": 1920
        }
      }
    },
    {
      "id": "4k_112",
      "category": "4k",
      "title": "4K Wallpaper 112",
      "tags": [
        "4k"
      ],
      "urls": {
        "raw": "https://media.githubusercontent.com/media/ddh4r4m/wallpaper-collection/main/collection/wallpapers/4k/112.jpg",
        "thumb": "https://media.githubusercontent.com/media/ddh4r4m/wallpaper-collection/main/collection/thumbnails/4k/112.jpg"
      },
      "metadata": {
        "added_at": "2025-07-17T00:41:05.432662",
        "file_size": 224713,
        "dimensions": {
          "width": 1080,
          "height": 1920
        }
      }
    },
    {
      "id": "4k_113",
      "category": "4k",
      "title": "4K Wallpaper 113",
      "tags": [
        "4k"
      ],
      "urls": {
        "raw": "https://media.githubusercontent.com/media/ddh4r4m/wallpaper-collection/main/collection/wallpapers/4k/113.jpg",
        "thumb": "https://media.githubusercontent.com/media/ddh4r4m/wallpaper-collection/main/collection/thumbnails/4k/113.jpg"
      },
      "metadata": {
        "added_at": "2025-07-17T00:41:05.432671",
        "file_size": 495047,
        "dimensions": {
          "width": 1080,
          "height": 1920
        }
      }
    },
    {
      "id": "4k_114",
      "category": "4k",
      "title": "4K Wallpaper 114",
      "tags": [
        "4k"
      ],
      "urls": {
        "raw": "https://media.githubusercontent.com/media/ddh4r4m/wallpaper-collection/main/collection/wallpapers/4k/114.jpg",
        "thumb": "https://media.githubusercontent.com/media/ddh4r4m/wallpaper-collection/main/collection/thumbnails/4k/114.jpg"
      },
      "metadata": {
        "added_at": "2025-07-17T00:41:05.432681",
        "file_size": 355534,
        "dimensions": {
          "width": 1080,
          "height": 1920
        }
      }
    },
    {
      "id": "4k_115",
      "category": "4k",
      "title": "4K Wallpaper 115",
      "tags": [
        "4k"
      ],
      "urls": {
        "raw": "https://media.githubusercontent.com/media/ddh4r4m/wallpaper-collection/main/collection/wallpapers/4k/115.jpg",
        "thumb": "https://media.githubusercontent.com/media/ddh4r4m/wallpaper-collection/main/collection/thumbnails/4k/115.jpg"
      },
      "metadata": {
        "added_at": "2025-07-17T00:41:05.432693",
        "file_size": 242883,
        "dimensions": {
          "width": 1080,
          "height": 1920
        }
      }
    },
    {
      "id": "4k_116",
      "category": "4k",
      "title": "4K Wallpaper 116",
      "tags": [
        "4k"
      ],
      "urls": {
        "raw": "https://media.githubusercontent.com/media/ddh4r4m/wallpaper-collection/main/collection/wallpapers/4k/116.jpg",
        "thumb": "https://media.githubusercontent.com/media/ddh4r4m/wallpaper-collection/main/collection/thumbnails/4k/116.jpg"
      },
      "metadata": {
        "added_at": "2025-07-17T00:41:05.432705",
        "file_size": 332378,
        "dimensions": {
          "width": 1080,
          "height": 1920
        }
      }
    },
    {
      "id": "4k_117",
      "category": "4k",
      "title": "4K Wallpaper 117",
      "tags": [
        "4k"
      ],
      "urls": {
        "raw": "https://media.githubusercontent.com/media/ddh4r4m/wallpaper-collection/main/collection/wallpapers/4k/117.jpg",
        "thumb": "https://media.githubusercontent.com/media/ddh4r4m/wallpaper-collection/main/collection/thumbnails/4k/117.jpg"
      },
      "metadata": {
        "added_at": "2025-07-17T00:41:05.432716",
        "file_size": 193455,
        "dimensions": {
          "width": 1080,
          "height": 1920
        }
      }
    },
    {
      "id": "4k_118",
      "category": "4k",
      "title": "4K Wallpaper 118",
      "tags": [
        "4k"
      ],
      "urls": {
        "raw": "https://media.githubusercontent.com/media/ddh4r4m/wallpaper-collection/main/collection/wallpapers/4k/118.jpg",
        "thumb": "https://media.githubusercontent.com/media/ddh4r4m/wallpaper-collection/main/collection/thumbnails/4k/118.jpg"
      },
      "metadata": {
        "added_at": "2025-07-17T00:41:05.432728",
        "file_size": 292862,
        "dimensions": {
          "width": 1080,
          "height": 1920
        }
      }
    },
    {
      "id": "4k_119",
      "category": "4k",
      "title": "4K Wallpaper 119",
      "tags": [
        "4k"
      ],
      "urls": {
        "raw": "https://media.githubusercontent.com/media/ddh4r4m/wallpaper-collection/main/collection/wallpapers/4k/119.jpg",
        "thumb": "https://media.githubusercontent.com/media/ddh4r4m/wallpaper-collection/main/collection/thumbnails/4k/119.jpg"
      },
      "metadata": {
        "added_at": "2025-07-17T00:41:05.432739",
        "file_size": 117642,
        "dimensions": {
          "width": 1080,
          "height": 1920
        }
      }
    },
    {
      "id": "4k_120",
      "category": "4k",
      "title": "4K Wallpaper 120",
      "tags": [
        "4k"
      ],
      "urls": {
        "raw": "https://media.githubusercontent.com/media/ddh4r4m/wallpaper-collection/main/collection/wallpapers/4k/120.jpg",
        "thumb": "https://media.githubusercontent.com/media/ddh4r4m/wallpaper-collection/main/collection/thumbnails/4k/120.jpg"
      },
      "metadata": {
        "added_at": "2025-07-17T00:41:05.432750",
        "file_size": 235401,
        "dimensions": {
          "width": 1080,
          "height": 1920
        }
      }
    }
  ]
}