{
  "meta": {
    "version": "1.0",
    "generated_at": "2025-07-28T23:12:02.393375",
    "page": 81,
    "per_page": 15,
    "total_pages": 183,
    "total_count": 2743,
    "count_on_page": 15,
    "categories": 22,
    "has_next": true,
    "has_prev": true,
    "next_page_url": "/api/v1/all/pages/82.json",
    "prev_page_url": "/api/v1/all/pages/80.json"
  },
  "data": [
    {
      "id": "cars_073",
      "category": "cars",
      "title": "Cars Wallpaper",
      "tags": [
        "cars",
        "unsplash",
        "hd",
        "mobile"
      ],
      "metadata": {
        "dimensions": {
          "width": 1080,
          "height": 608
        },
        "file_size": 96003,
        "format": "JPEG",
        "added_at": "2025-07-17T22:52:02.114191",
        "hash": "e32972310023a4b00a91758150bada08",
        "photographer": "Unknown"
      },
      "urls": {
        "raw": "https://media.githubusercontent.com/media/ddh4r4m/wallpaper-collection/main/collection/wallpapers/cars/073.jpg",
        "thumb": "https://media.githubusercontent.com/media/ddh4r4m/wallpaper-collection/main/collection/thumbnails/cars/073.jpg"
      }
    },
    {
      "id": "cars_074",
      "category": "cars",
      "title": "Cars Wallpaper",
      "tags": [
        "cars",
        "unsplash",
        "hd",
        "mobile"
      ],
      "metadata": {
        "dimensions": {
          "width": 1080,
          "height": 1620
        },
        "file_size": 244713,
        "format": "JPEG",
        "added_at": "2025-07-17T22:52:04.497562",
        "hash": "962376eab35cf34ae2170977ed57f273",
        "photographer": "Unknown"
      },
      "urls": {
        "raw": "https://media.githubusercontent.com/media/ddh4r4m/wallpaper-collection/main/collection/wallpapers/cars/074.jpg",
        "thumb": "https://media.githubusercontent.com/media/ddh4r4m/wallpaper-collection/main/collection/thumbnails/cars/074.jpg"
      }
    },
    {
      "id": "cars_075",
      "category": "cars",
      "title": "Cars Wallpaper",
      "tags": [
        "cars",
        "unsplash",
        "hd",
        "mobile"
      ],
      "metadata": {
        "dimensions": {
          "width": 1080,
          "height": 1620
        },
        "file_size": 349413,
        "format": "JPEG",
        "added_at": "2025-07-18T00:38:51.981277",
        "hash": "95531e617d9c6272ed8d85c395820216",
        "photographer": "Unknown"
      },
      "urls": {
        "raw": "https://media.githubusercontent.com/media/ddh4r4m/wallpaper-collection/main/collection/wallpapers/cars/075.jpg",
        "thumb": "https://media.githubusercontent.com/media/ddh4r4m/wallpaper-collection/main/collection/thumbnails/cars/075.jpg"
      }
    },
    {
      "id": "cars_076",
      "category": "cars",
      "title": "Cars Wallpaper",
      "tags": [
        "cars",
        "unsplash",
        "hd",
        "mobile"
      ],
      "metadata": {
        "dimensions": {
          "width": 1080,
          "height": 1620
        },
        "file_size": 243351,
        "format": "JPEG",
        "added_at": "2025-07-18T00:38:54.544750",
        "hash": "553cee5cfd0a8347aad9c74caa06f05a",
        "photographer": "Unknown"
      },
      "urls": {
        "raw": "https://media.githubusercontent.com/media/ddh4r4m/wallpaper-collection/main/collection/wallpapers/cars/076.jpg",
        "thumb": "https://media.githubusercontent.com/media/ddh4r4m/wallpaper-collection/main/collection/thumbnails/cars/076.jpg"
      }
    },
    {
      "id": "cars_077",
      "category": "cars",
      "title": "Cars Wallpaper",
      "tags": [
        "cars",
        "unsplash",
        "hd",
        "mobile"
      ],
      "metadata": {
        "dimensions": {
          "width": 1080,
          "height": 675
        },
        "file_size": 43957,
        "format": "JPEG",
        "added_at": "2025-07-18T00:38:59.542280",
        "hash": "2e5cd685cce11d40b5510ed27dd6c69f",
        "photographer": "Unknown"
      },
      "urls": {
        "raw": "https://media.githubusercontent.com/media/ddh4r4m/wallpaper-collection/main/collection/wallpapers/cars/077.jpg",
        "thumb": "https://media.githubusercontent.com/media/ddh4r4m/wallpaper-collection/main/collection/thumbnails/cars/077.jpg"
      }
    },
    {
      "id": "cars_078",
      "category": "cars",
      "title": "Cars Wallpaper",
      "tags": [
        "cars",
        "unsplash",
        "hd",
        "mobile"
      ],
      "metadata": {
        "dimensions": {
          "width": 1080,
          "height": 1619
        },
        "file_size": 156484,
        "format": "JPEG",
        "added_at": "2025-07-18T00:39:02.291973",
        "hash": "e8bcb4347f6552b216e2c60503586d2d",
        "photographer": "Unknown"
      },
      "urls": {
        "raw": "https://media.githubusercontent.com/media/ddh4r4m/wallpaper-collection/main/collection/wallpapers/cars/078.jpg",
        "thumb": "https://media.githubusercontent.com/media/ddh4r4m/wallpaper-collection/main/collection/thumbnails/cars/078.jpg"
      }
    },
    {
      "id": "cars_079",
      "category": "cars",
      "title": "Cars Wallpaper",
      "tags": [
        "cars",
        "unsplash",
        "hd",
        "mobile"
      ],
      "metadata": {
        "dimensions": {
          "width": 1080,
          "height": 720
        },
        "file_size": 189095,
        "format": "JPEG",
        "added_at": "2025-07-18T00:39:06.944276",
        "hash": "b4a6cbedbe6fdb08002c5537495b995b",
        "photographer": "Unknown"
      },
      "urls": {
        "raw": "https://media.githubusercontent.com/media/ddh4r4m/wallpaper-collection/main/collection/wallpapers/cars/079.jpg",
        "thumb": "https://media.githubusercontent.com/media/ddh4r4m/wallpaper-collection/main/collection/thumbnails/cars/079.jpg"
      }
    },
    {
      "id": "cars_080",
      "category": "cars",
      "title": "Cars Wallpaper",
      "tags": [
        "cars",
        "unsplash",
        "hd",
        "mobile"
      ],
      "metadata": {
        "dimensions": {
          "width": 1080,
          "height": 720
        },
        "file_size": 98785,
        "format": "JPEG",
        "added_at": "2025-07-18T00:39:10.125142",
        "hash": "0ff1c3f2354472b76bf385e4b48aa296",
        "photographer": "Unknown"
      },
      "urls": {
        "raw": "https://media.githubusercontent.com/media/ddh4r4m/wallpaper-collection/main/collection/wallpapers/cars/080.jpg",
        "thumb": "https://media.githubusercontent.com/media/ddh4r4m/wallpaper-collection/main/collection/thumbnails/cars/080.jpg"
      }
    },
    {
      "id": "cars_081",
      "category": "cars",
      "title": "Cars Wallpaper",
      "tags": [
        "cars",
        "unsplash",
        "hd",
        "mobile"
      ],
      "metadata": {
        "dimensions": {
          "width": 1080,
          "height": 810
        },
        "file_size": 222716,
        "format": "JPEG",
        "added_at": "2025-07-18T00:39:13.841243",
        "hash": "be86bf1ac8da9962221ccffcd6c9578e",
        "photographer": "Unknown"
      },
      "urls": {
        "raw": "https://media.githubusercontent.com/media/ddh4r4m/wallpaper-collection/main/collection/wallpapers/cars/081.jpg",
        "thumb": "https://media.githubusercontent.com/media/ddh4r4m/wallpaper-collection/main/collection/thumbnails/cars/081.jpg"
      }
    },
    {
      "id": "cars_082",
      "category": "cars",
      "title": "Cars Wallpaper",
      "tags": [
        "cars",
        "unsplash",
        "hd",
        "mobile"
      ],
      "metadata": {
        "dimensions": {
          "width": 1080,
          "height": 1620
        },
        "file_size": 153254,
        "format": "JPEG",
        "added_at": "2025-07-18T00:39:16.602660",
        "hash": "8b82b31368c58d194f6605a039996e97",
        "photographer": "Unknown"
      },
      "urls": {
        "raw": "https://media.githubusercontent.com/media/ddh4r4m/wallpaper-collection/main/collection/wallpapers/cars/082.jpg",
        "thumb": "https://media.githubusercontent.com/media/ddh4r4m/wallpaper-collection/main/collection/thumbnails/cars/082.jpg"
      }
    },
    {
      "id": "cars_083",
      "category": "cars",
      "title": "Cars Wallpaper",
      "tags": [
        "cars",
        "unsplash",
        "hd",
        "mobile"
      ],
      "metadata": {
        "dimensions": {
          "width": 1080,
          "height": 720
        },
        "file_size": 102196,
        "format": "JPEG",
        "added_at": "2025-07-18T00:39:21.186981",
        "hash": "660a8a49b08c9a55e37a5cf6d3cf7c1d",
        "photographer": "Unknown"
      },
      "urls": {
        "raw": "https://media.githubusercontent.com/media/ddh4r4m/wallpaper-collection/main/collection/wallpapers/cars/083.jpg",
        "thumb": "https://media.githubusercontent.com/media/ddh4r4m/wallpaper-collection/main/collection/thumbnails/cars/083.jpg"
      }
    },
    {
      "id": "cars_084",
      "category": "cars",
      "title": "Cars Wallpaper",
      "tags": [
        "cars",
        "unsplash",
        "hd",
        "mobile"
      ],
      "metadata": {
        "dimensions": {
          "width": 1080,
          "height": 608
        },
        "file_size": 96003,
        "format": "JPEG",
        "added_at": "2025-07-18T00:39:23.767208",
        "hash": "e32972310023a4b00a91758150bada08",
        "photographer": "Unknown"
      },
      "urls": {
        "raw": "https://media.githubusercontent.com/media/ddh4r4m/wallpaper-collection/main/collection/wallpapers/cars/084.jpg",
        "thumb": "https://media.githubusercontent.com/media/ddh4r4m/wallpaper-collection/main/collection/thumbnails/cars/084.jpg"
      }
    },
    {
      "id": "cyberpunk_001",
      "category": "cyberpunk",
      "title": "Cyberpunk Wallpaper 001",
      "tags": [
        "cyberpunk",
        "wallpaper",
        "hd",
        "mobile"
      ],
      "urls": {
        "raw": "https://media.githubusercontent.com/media/ddh4r4m/wallpaper-collection/main/collection/wallpapers/cyberpunk/001.jpg",
        "thumb": "https://media.githubusercontent.com/media/ddh4r4m/wallpaper-collection/main/collection/thumbnails/cyberpunk/001.jpg"
      },
      "metadata": {
        "dimensions": {
          "width": 1080,
          "height": 1920
        },
        "file_size": 203969,
        "format": "JPEG",
        "added_at": "2025-07-17T00:03:13.123584",
        "hash": "49a9ff9537576d4351b377827c1368db",
        "source": "migrated"
      }
    },
    {
      "id": "cyberpunk_002",
      "category": "cyberpunk",
      "title": "Cyberpunk Wallpaper 002",
      "tags": [
        "cyberpunk",
        "wallpaper",
        "hd",
        "mobile"
      ],
      "urls": {
        "raw": "https://media.githubusercontent.com/media/ddh4r4m/wallpaper-collection/main/collection/wallpapers/cyberpunk/002.jpg",
        "thumb": "https://media.githubusercontent.com/media/ddh4r4m/wallpaper-collection/main/collection/thumbnails/cyberpunk/002.jpg"
      },
      "metadata": {
        "dimensions": {
          "width": 1080,
          "height": 1920
        },
        "file_size": 209069,
        "format": "JPEG",
        "added_at": "2025-07-17T00:03:13.425153",
        "hash": "6a060363e2cf6738fa5144b6e7ebc869",
        "source": "migrated"
      }
    },
    {
      "id": "cyberpunk_003",
      "category": "cyberpunk",
      "title": "Cyberpunk Wallpaper 003",
      "tags": [
        "cyberpunk",
        "wallpaper",
        "hd",
        "mobile"
      ],
      "urls": {
        "raw": "https://media.githubusercontent.com/media/ddh4r4m/wallpaper-collection/main/collection/wallpapers/cyberpunk/003.jpg",
        "thumb": "https://media.githubusercontent.com/media/ddh4r4m/wallpaper-collection/main/collection/thumbnails/cyberpunk/003.jpg"
      },
      "metadata": {
        "dimensions": {
          "width": 1080,
          "height": 1920
        },
        "file_size": 203034,
        "format": "JPEG",
        "added_at": "2025-07-17T00:03:13.592443",
        "hash": "ac23a01f18f13b7944df1fb3b5195f0c",
        "source": "migrated"
      }
    }
  ]
}