{
  "meta": {
    "version": "1.0",
    "generated_at": "2025-07-28T22:48:38.208699",
    "page": 82,
    "per_page": 15,
    "total_pages": 183,
    "total_count": 2737,
    "count_on_page": 15,
    "categories": 22,
    "has_next": true,
    "has_prev": true,
    "next_page_url": "/api/v1/all/pages/83.json",
    "prev_page_url": "/api/v1/all/pages/81.json"
  },
  "data": [
    {
      "id": "cyberpunk_010",
      "category": "cyberpunk",
      "title": "Cyberpunk Wallpaper 010",
      "tags": [
        "cyberpunk",
        "wallpaper",
        "hd",
        "mobile"
      ],
      "urls": {
        "raw": "https://media.githubusercontent.com/media/ddh4r4m/wallpaper-collection/main/collection/wallpapers/cyberpunk/010.jpg",
        "thumb": "https://media.githubusercontent.com/media/ddh4r4m/wallpaper-collection/main/collection/thumbnails/cyberpunk/010.jpg"
      },
      "metadata": {
        "dimensions": {
          "width": 1080,
          "height": 1920
        },
        "file_size": 226005,
        "format": "JPEG",
        "added_at": "2025-07-17T00:03:15.711259",
        "hash": "5a708832aac114806a588b9708202e28",
        "source": "migrated"
      }
    },
    {
      "id": "cyberpunk_011",
      "category": "cyberpunk",
      "title": "Cyberpunk Wallpaper 011",
      "tags": [
        "cyberpunk",
        "wallpaper",
        "hd",
        "mobile"
      ],
      "urls": {
        "raw": "https://media.githubusercontent.com/media/ddh4r4m/wallpaper-collection/main/collection/wallpapers/cyberpunk/011.jpg",
        "thumb": "https://media.githubusercontent.com/media/ddh4r4m/wallpaper-collection/main/collection/thumbnails/cyberpunk/011.jpg"
      },
      "metadata": {
        "dimensions": {
          "width": 1080,
          "height": 1920
        },
        "file_size": 302312,
        "format": "JPEG",
        "added_at": "2025-07-17T00:03:15.892641",
        "hash": "d7d4e6bd10584b9ab1f500b37075622e",
        "source": "migrated"
      }
    },
    {
      "id": "cyberpunk_012",
      "category": "cyberpunk",
      "title": "Cyberpunk Wallpaper 012",
      "tags": [
        "cyberpunk",
        "wallpaper",
        "hd",
        "mobile"
      ],
      "urls": {
        "raw": "https://media.githubusercontent.com/media/ddh4r4m/wallpaper-collection/main/collection/wallpapers/cyberpunk/012.jpg",
        "thumb": "https://media.githubusercontent.com/media/ddh4r4m/wallpaper-collection/main/collection/thumbnails/cyberpunk/012.jpg"
      },
      "metadata": {
        "dimensions": {
          "width": 1080,
          "height": 1920
        },
        "file_size": 71009,
        "format": "JPEG",
        "added_at": "2025-07-17T00:03:16.513612",
        "hash": "101fe0e445b28883176b013042d5c2e8",
        "source": "migrated"
      }
    },
    {
      "id": "cyberpunk_013",
      "category": "cyberpunk",
      "title": "Cyberpunk Wallpaper 013",
      "tags": [
        "cyberpunk",
        "wallpaper",
        "hd",
        "mobile"
      ],
      "urls": {
        "raw": "https://media.githubusercontent.com/media/ddh4r4m/wallpaper-collection/main/collection/wallpapers/cyberpunk/013.jpg",
        "thumb": "https://media.githubusercontent.com/media/ddh4r4m/wallpaper-collection/main/collection/thumbnails/cyberpunk/013.jpg"
      },
      "metadata": {
        "dimensions": {
          "width": 1080,
          "height": 1920
        },
        "file_size": 44356,
        "format": "JPEG",
        "added_at": "2025-07-17T00:03:16.654990",
        "hash": "884a2486a171c20fd7960cd2527fdc3d",
        "source": "migrated"
      }
    },
    {
      "id": "cyberpunk_014",
      "category": "cyberpunk",
      "title": "Cyberpunk Wallpaper 014",
      "tags": [
        "cyberpunk",
        "wallpaper",
        "hd",
        "mobile"
      ],
      "urls": {
        "raw": "https://media.githubusercontent.com/media/ddh4r4m/wallpaper-collection/main/collection/wallpapers/cyberpunk/014.jpg",
        "thumb": "https://media.githubusercontent.com/media/ddh4r4m/wallpaper-collection/main/collection/thumbnails/cyberpunk/014.jpg"
      },
      "metadata": {
        "dimensions": {
          "width": 1080,
          "height": 1920
        },
        "file_size": 238239,
        "format": "JPEG",
        "added_at": "2025-07-17T00:03:16.799524",
        "hash": "683bbc57e58eba24418cccca5894aaaf",
        "source": "migrated"
      }
    },
    {
      "id": "cyberpunk_015",
      "category": "cyberpunk",
      "title": "Cyberpunk Wallpaper 015",
      "tags": [
        "cyberpunk",
        "wallpaper",
        "hd",
        "mobile"
      ],
      "urls": {
        "raw": "https://media.githubusercontent.com/media/ddh4r4m/wallpaper-collection/main/collection/wallpapers/cyberpunk/015.jpg",
        "thumb": "https://media.githubusercontent.com/media/ddh4r4m/wallpaper-collection/main/collection/thumbnails/cyberpunk/015.jpg"
      },
      "metadata": {
        "dimensions": {
          "width": 1080,
          "height": 1920
        },
        "file_size": 164882,
        "format": "JPEG",
        "added_at": "2025-07-17T00:03:17.035388",
        "hash": "fbfccfc3d0443bd37f9e6943196cfe66",
        "source": "migrated"
      }
    },
    {
      "id": "cyberpunk_016",
      "category": "cyberpunk",
      "title": "Cyberpunk Wallpaper 016",
      "tags": [
        "cyberpunk",
        "wallpaper",
        "hd",
        "mobile"
      ],
      "urls": {
        "raw": "https://media.githubusercontent.com/media/ddh4r4m/wallpaper-collection/main/collection/wallpapers/cyberpunk/016.jpg",
        "thumb": "https://media.githubusercontent.com/media/ddh4r4m/wallpaper-collection/main/collection/thumbnails/cyberpunk/016.jpg"
      },
      "metadata": {
        "dimensions": {
          "width": 1080,
          "height": 1920
        },
        "file_size": 290366,
        "format": "JPEG",
        "added_at": "2025-07-17T00:03:17.208490",
        "hash": "795dfeb734849989817b13d1867fb7cf",
        "source": "migrated"
      }
    },
    {
      "id": "cyberpunk_017",
      "category": "cyberpunk",
      "title": "Cyberpunk Wallpaper 017",
      "tags": [
        "cyberpunk",
        "wallpaper",
        "hd",
        "mobile"
      ],
      "urls": {
        "raw": "https://media.githubusercontent.com/media/ddh4r4m/wallpaper-collection/main/collection/wallpapers/cyberpunk/017.jpg",
        "thumb": "https://media.githubusercontent.com/media/ddh4r4m/wallpaper-collection/main/collection/thumbnails/cyberpunk/017.jpg"
      },
      "metadata": {
        "dimensions": {
          "width": 1080,
          "height": 1920
        },
        "file_size": 344601,
        "format": "JPEG",
        "added_at": "2025-07-17T00:03:17.354669",
        "hash": "7d2c1a8b684c45d4a7b41f9a8e3500ed",
        "source": "migrated"
      }
    },
    {
      "id": "cyberpunk_018",
      "category": "cyberpunk",
      "title": "Cyberpunk Wallpaper 018",
      "tags": [
        "cyberpunk",
        "wallpaper",
        "hd",
        "mobile"
      ],
      "urls": {
        "raw": "https://media.githubusercontent.com/media/ddh4r4m/wallpaper-collection/main/collection/wallpapers/cyberpunk/018.jpg",
        "thumb": "https://media.githubusercontent.com/media/ddh4r4m/wallpaper-collection/main/collection/thumbnails/cyberpunk/018.jpg"
      },
      "metadata": {
        "dimensions": {
          "width": 1080,
          "height": 1920
        },
        "file_size": 137643,
        "format": "JPEG",
        "added_at": "2025-07-17T00:03:17.635731",
        "hash": "eed26aa4366f1fb08a357bc4064976d5",
        "source": "migrated"
      }
    },
    {
      "id": "cyberpunk_019",
      "category": "cyberpunk",
      "title": "Cyberpunk Wallpaper 019",
      "tags": [
        "cyberpunk",
        "wallpaper",
        "hd",
        "mobile"
      ],
      "urls": {
        "raw": "https://media.githubusercontent.com/media/ddh4r4m/wallpaper-collection/main/collection/wallpapers/cyberpunk/019.jpg",
        "thumb": "https://media.githubusercontent.com/media/ddh4r4m/wallpaper-collection/main/collection/thumbnails/cyberpunk/019.jpg"
      },
      "metadata": {
        "dimensions": {
          "width": 1080,
          "height": 1920
        },
        "file_size": 71469,
        "format": "JPEG",
        "added_at": "2025-07-17T00:03:17.859590",
        "hash": "449e4ab081ad0b4bd29f6ae982c528ce",
        "source": "migrated"
      }
    },
    {
      "id": "cyberpunk_020",
      "category": "cyberpunk",
      "title": "Cyberpunk Wallpaper 020",
      "tags": [
        "cyberpunk",
        "wallpaper",
        "hd",
        "mobile"
      ],
      "urls": {
        "raw": "https://media.githubusercontent.com/media/ddh4r4m/wallpaper-collection/main/collection/wallpapers/cyberpunk/020.jpg",
        "thumb": "https://media.githubusercontent.com/media/ddh4r4m/wallpaper-collection/main/collection/thumbnails/cyberpunk/020.jpg"
      },
      "metadata": {
        "dimensions": {
          "width": 1080,
          "height": 1920
        },
        "file_size": 117182,
        "format": "JPEG",
        "added_at": "2025-07-17T00:03:18.149647",
        "hash": "4eb4e0195eb949c2c74ddba017106956",
        "source": "migrated"
      }
    },
    {
      "id": "cyberpunk_021",
      "category": "cyberpunk",
      "title": "Cyberpunk Wallpaper 021",
      "tags": [
        "cyberpunk",
        "wallpaper",
        "hd",
        "mobile"
      ],
      "urls": {
        "raw": "https://media.githubusercontent.com/media/ddh4r4m/wallpaper-collection/main/collection/wallpapers/cyberpunk/021.jpg",
        "thumb": "https://media.githubusercontent.com/media/ddh4r4m/wallpaper-collection/main/collection/thumbnails/cyberpunk/021.jpg"
      },
      "metadata": {
        "dimensions": {
          "width": 1080,
          "height": 1920
        },
        "file_size": 12528,
        "format": "JPEG",
        "added_at": "2025-07-17T00:03:18.368508",
        "hash": "cac523e421c5473a768f325e67e5d2e3",
        "source": "migrated"
      }
    },
    {
      "id": "cyberpunk_022",
      "category": "cyberpunk",
      "title": "Cyberpunk Wallpaper 022",
      "tags": [
        "cyberpunk",
        "wallpaper",
        "hd",
        "mobile"
      ],
      "urls": {
        "raw": "https://media.githubusercontent.com/media/ddh4r4m/wallpaper-collection/main/collection/wallpapers/cyberpunk/022.jpg",
        "thumb": "https://media.githubusercontent.com/media/ddh4r4m/wallpaper-collection/main/collection/thumbnails/cyberpunk/022.jpg"
      },
      "metadata": {
        "dimensions": {
          "width": 1080,
          "height": 1920
        },
        "file_size": 296671,
        "format": "JPEG",
        "added_at": "2025-07-17T00:03:18.795791",
        "hash": "b540eee8e60f95c958569ab842b78556",
        "source": "migrated"
      }
    },
    {
      "id": "cyberpunk_023",
      "category": "cyberpunk",
      "title": "Cyberpunk Wallpaper 023",
      "tags": [
        "cyberpunk",
        "wallpaper",
        "hd",
        "mobile"
      ],
      "urls": {
        "raw": "https://media.githubusercontent.com/media/ddh4r4m/wallpaper-collection/main/collection/wallpapers/cyberpunk/023.jpg",
        "thumb": "https://media.githubusercontent.com/media/ddh4r4m/wallpaper-collection/main/collection/thumbnails/cyberpunk/023.jpg"
      },
      "metadata": {
        "dimensions": {
          "width": 1080,
          "height": 1920
        },
        "file_size": 208797,
        "format": "JPEG",
        "added_at": "2025-07-17T00:03:19.043863",
        "hash": "3e93a3181f938d5994822fa3d1fd7ee6",
        "source": "migrated"
      }
    },
    {
      "id": "cyberpunk_024",
      "category": "cyberpunk",
      "title": "Cyberpunk Wallpaper 024",
      "tags": [
        "cyberpunk",
        "wallpaper",
        "hd",
        "mobile"
      ],
      "urls": {
        "raw": "https://media.githubusercontent.com/media/ddh4r4m/wallpaper-collection/main/collection/wallpapers/cyberpunk/024.jpg",
        "thumb": "https://media.githubusercontent.com/media/ddh4r4m/wallpaper-collection/main/collection/thumbnails/cyberpunk/024.jpg"
      },
      "metadata": {
        "dimensions": {
          "width": 1080,
          "height": 1920
        },
        "file_size": 137912,
        "format": "JPEG",
        "added_at": "2025-07-17T00:03:19.282154",
        "hash": "3d5d85b9da77213a9b9038c0aea9179d",
        "source": "migrated"
      }
    }
  ]
}