{
  "meta": {
    "version": "1.0",
    "generated_at": "2025-07-28T23:12:02.393375",
    "page": 83,
    "per_page": 15,
    "total_pages": 183,
    "total_count": 2743,
    "count_on_page": 15,
    "categories": 22,
    "has_next": true,
    "has_prev": true,
    "next_page_url": "/api/v1/all/pages/84.json",
    "prev_page_url": "/api/v1/all/pages/82.json"
  },
  "data": [
    {
      "id": "cyberpunk_019",
      "category": "cyberpunk",
      "title": "Cyberpunk Wallpaper 019",
      "tags": [
        "cyberpunk",
        "wallpaper",
        "hd",
        "mobile"
      ],
      "urls": {
        "raw": "https://media.githubusercontent.com/media/ddh4r4m/wallpaper-collection/main/collection/wallpapers/cyberpunk/019.jpg",
        "thumb": "https://media.githubusercontent.com/media/ddh4r4m/wallpaper-collection/main/collection/thumbnails/cyberpunk/019.jpg"
      },
      "metadata": {
        "dimensions": {
          "width": 1080,
          "height": 1920
        },
        "file_size": 71469,
        "format": "JPEG",
        "added_at": "2025-07-17T00:03:17.859590",
        "hash": "449e4ab081ad0b4bd29f6ae982c528ce",
        "source": "migrated"
      }
    },
    {
      "id": "cyberpunk_020",
      "category": "cyberpunk",
      "title": "Cyberpunk Wallpaper 020",
      "tags": [
        "cyberpunk",
        "wallpaper",
        "hd",
        "mobile"
      ],
      "urls": {
        "raw": "https://media.githubusercontent.com/media/ddh4r4m/wallpaper-collection/main/collection/wallpapers/cyberpunk/020.jpg",
        "thumb": "https://media.githubusercontent.com/media/ddh4r4m/wallpaper-collection/main/collection/thumbnails/cyberpunk/020.jpg"
      },
      "metadata": {
        "dimensions": {
          "width": 1080,
          "height": 1920
        },
        "file_size": 117182,
        "format": "JPEG",
        "added_at": "2025-07-17T00:03:18.149647",
        "hash": "4eb4e0195eb949c2c74ddba017106956",
        "source": "migrated"
      }
    },
    {
      "id": "cyberpunk_021",
      "category": "cyberpunk",
      "title": "Cyberpunk Wallpaper 021",
      "tags": [
        "cyberpunk",
        "wallpaper",
        "hd",
        "mobile"
      ],
      "urls": {
        "raw": "https://media.githubusercontent.com/media/ddh4r4m/wallpaper-collection/main/collection/wallpapers/cyberpunk/021.jpg",
        "thumb": "https://media.githubusercontent.com/media/ddh4r4m/wallpaper-collection/main/collection/thumbnails/cyberpunk/021.jpg"
      },
      "metadata": {
        "dimensions": {
          "width": 1080,
          "height": 1920
        },
        "file_size": 12528,
        "format": "JPEG",
        "added_at": "2025-07-17T00:03:18.368508",
        "hash": "cac523e421c5473a768f325e67e5d2e3",
        "source": "migrated"
      }
    },
    {
      "id": "cyberpunk_022",
      "category": "cyberpunk",
      "title": "Cyberpunk Wallpaper 022",
      "tags": [
        "cyberpunk",
        "wallpaper",
        "hd",
        "mobile"
      ],
      "urls": {
        "raw": "https://media.githubusercontent.com/media/ddh4r4m/wallpaper-collection/main/collection/wallpapers/cyberpunk/022.jpg",
        "thumb": "https://media.githubusercontent.com/media/ddh4r4m/wallpaper-collection/main/collection/thumbnails/cyberpunk/022.jpg"
      },
      "metadata": {
        "dimensions": {
          "width": 1080,
          "height": 1920
        },
        "file_size": 296671,
        "format": "JPEG",
        "added_at": "2025-07-17T00:03:18.795791",
        "hash": "b540eee8e60f95c958569ab842b78556",
        "source": "migrated"
      }
    },
    {
      "id": "cyberpunk_023",
      "category": "cyberpunk",
      "title": "Cyberpunk Wallpaper 023",
      "tags": [
        "cyberpunk",
        "wallpaper",
        "hd",
        "mobile"
      ],
      "urls": {
        "raw": "https://media.githubusercontent.com/media/ddh4r4m/wallpaper-collection/main/collection/wallpapers/cyberpunk/023.jpg",
        "thumb": "https://media.githubusercontent.com/media/ddh4r4m/wallpaper-collection/main/collection/thumbnails/cyberpunk/023.jpg"
      },
      "metadata": {
        "dimensions": {
          "width": 1080,
          "height": 1920
        },
        "file_size": 208797,
        "format": "JPEG",
        "added_at": "2025-07-17T00:03:19.043863",
        "hash": "3e93a3181f938d5994822fa3d1fd7ee6",
        "source": "migrated"
      }
    },
    {
      "id": "cyberpunk_024",
      "category": "cyberpunk",
      "title": "Cyberpunk Wallpaper 024",
      "tags": [
        "cyberpunk",
        "wallpaper",
        "hd",
        "mobile"
      ],
      "urls": {
        "raw": "https://media.githubusercontent.com/media/ddh4r4m/wallpaper-collection/main/collection/wallpapers/cyberpunk/024.jpg",
        "thumb": "https://media.githubusercontent.com/media/ddh4r4m/wallpaper-collection/main/collection/thumbnails/cyberpunk/024.jpg"
      },
      "metadata": {
        "dimensions": {
          "width": 1080,
          "height": 1920
        },
        "file_size": 137912,
        "format": "JPEG",
        "added_at": "2025-07-17T00:03:19.282154",
        "hash": "3d5d85b9da77213a9b9038c0aea9179d",
        "source": "migrated"
      }
    },
    {
      "id": "cyberpunk_025",
      "category": "cyberpunk",
      "title": "Cyberpunk Wallpaper 025",
      "tags": [
        "cyberpunk",
        "wallpaper",
        "hd",
        "mobile"
      ],
      "urls": {
        "raw": "https://media.githubusercontent.com/media/ddh4r4m/wallpaper-collection/main/collection/wallpapers/cyberpunk/025.jpg",
        "thumb": "https://media.githubusercontent.com/media/ddh4r4m/wallpaper-collection/main/collection/thumbnails/cyberpunk/025.jpg"
      },
      "metadata": {
        "dimensions": {
          "width": 1080,
          "height": 1920
        },
        "file_size": 164535,
        "format": "JPEG",
        "added_at": "2025-07-17T00:03:19.537895",
        "hash": "0dda1521a0a0433c2e8d6509817bf048",
        "source": "migrated"
      }
    },
    {
      "id": "cyberpunk_026",
      "category": "cyberpunk",
      "title": "Cyberpunk Wallpaper 026",
      "tags": [
        "cyberpunk",
        "wallpaper",
        "hd",
        "mobile"
      ],
      "urls": {
        "raw": "https://media.githubusercontent.com/media/ddh4r4m/wallpaper-collection/main/collection/wallpapers/cyberpunk/026.jpg",
        "thumb": "https://media.githubusercontent.com/media/ddh4r4m/wallpaper-collection/main/collection/thumbnails/cyberpunk/026.jpg"
      },
      "metadata": {
        "dimensions": {
          "width": 1080,
          "height": 1920
        },
        "file_size": 276647,
        "format": "JPEG",
        "added_at": "2025-07-17T00:03:19.733729",
        "hash": "785570e6c03296ad11258c027cdd2bd6",
        "source": "migrated"
      }
    },
    {
      "id": "cyberpunk_027",
      "category": "cyberpunk",
      "title": "Cyberpunk Wallpaper 027",
      "tags": [
        "cyberpunk",
        "wallpaper",
        "hd",
        "mobile"
      ],
      "urls": {
        "raw": "https://media.githubusercontent.com/media/ddh4r4m/wallpaper-collection/main/collection/wallpapers/cyberpunk/027.jpg",
        "thumb": "https://media.githubusercontent.com/media/ddh4r4m/wallpaper-collection/main/collection/thumbnails/cyberpunk/027.jpg"
      },
      "metadata": {
        "dimensions": {
          "width": 1080,
          "height": 1920
        },
        "file_size": 232990,
        "format": "JPEG",
        "added_at": "2025-07-17T00:03:20.066481",
        "hash": "b96227a7fa9783239a8c47612eea4961",
        "source": "migrated"
      }
    },
    {
      "id": "cyberpunk_028",
      "category": "cyberpunk",
      "title": "Cyberpunk Wallpaper 028",
      "tags": [
        "cyberpunk",
        "wallpaper",
        "hd",
        "mobile"
      ],
      "urls": {
        "raw": "https://media.githubusercontent.com/media/ddh4r4m/wallpaper-collection/main/collection/wallpapers/cyberpunk/028.jpg",
        "thumb": "https://media.githubusercontent.com/media/ddh4r4m/wallpaper-collection/main/collection/thumbnails/cyberpunk/028.jpg"
      },
      "metadata": {
        "dimensions": {
          "width": 1080,
          "height": 1920
        },
        "file_size": 160603,
        "format": "JPEG",
        "added_at": "2025-07-17T00:03:20.377826",
        "hash": "cc046b820dc51cdd4588d15dc596a78d",
        "source": "migrated"
      }
    },
    {
      "id": "cyberpunk_029",
      "category": "cyberpunk",
      "title": "Cyberpunk Wallpaper 029",
      "tags": [
        "cyberpunk",
        "wallpaper",
        "hd",
        "mobile"
      ],
      "urls": {
        "raw": "https://media.githubusercontent.com/media/ddh4r4m/wallpaper-collection/main/collection/wallpapers/cyberpunk/029.jpg",
        "thumb": "https://media.githubusercontent.com/media/ddh4r4m/wallpaper-collection/main/collection/thumbnails/cyberpunk/029.jpg"
      },
      "metadata": {
        "dimensions": {
          "width": 1080,
          "height": 1920
        },
        "file_size": 294797,
        "format": "JPEG",
        "added_at": "2025-07-17T00:03:21.117138",
        "hash": "c358655e8376bd3027a4de5b5c6a8b4e",
        "source": "migrated"
      }
    },
    {
      "id": "cyberpunk_030",
      "category": "cyberpunk",
      "title": "Cyberpunk Wallpaper 030",
      "tags": [
        "cyberpunk",
        "wallpaper",
        "hd",
        "mobile"
      ],
      "urls": {
        "raw": "https://media.githubusercontent.com/media/ddh4r4m/wallpaper-collection/main/collection/wallpapers/cyberpunk/030.jpg",
        "thumb": "https://media.githubusercontent.com/media/ddh4r4m/wallpaper-collection/main/collection/thumbnails/cyberpunk/030.jpg"
      },
      "metadata": {
        "dimensions": {
          "width": 1080,
          "height": 1920
        },
        "file_size": 170985,
        "format": "JPEG",
        "added_at": "2025-07-17T00:03:21.342563",
        "hash": "2fec49bbb5b9ca346df06e8cd2b6c83d",
        "source": "migrated"
      }
    },
    {
      "id": "cyberpunk_031",
      "category": "cyberpunk",
      "title": "Cyberpunk Wallpaper 031",
      "tags": [
        "cyberpunk",
        "wallpaper",
        "hd",
        "mobile"
      ],
      "urls": {
        "raw": "https://media.githubusercontent.com/media/ddh4r4m/wallpaper-collection/main/collection/wallpapers/cyberpunk/031.jpg",
        "thumb": "https://media.githubusercontent.com/media/ddh4r4m/wallpaper-collection/main/collection/thumbnails/cyberpunk/031.jpg"
      },
      "metadata": {
        "dimensions": {
          "width": 1080,
          "height": 1920
        },
        "file_size": 150672,
        "format": "JPEG",
        "added_at": "2025-07-17T00:03:21.538702",
        "hash": "1f57b15e788af7d6a787d6bab4b2846d",
        "source": "migrated"
      }
    },
    {
      "id": "cyberpunk_032",
      "category": "cyberpunk",
      "title": "Cyberpunk Wallpaper 032",
      "tags": [
        "cyberpunk",
        "wallpaper",
        "hd",
        "mobile"
      ],
      "urls": {
        "raw": "https://media.githubusercontent.com/media/ddh4r4m/wallpaper-collection/main/collection/wallpapers/cyberpunk/032.jpg",
        "thumb": "https://media.githubusercontent.com/media/ddh4r4m/wallpaper-collection/main/collection/thumbnails/cyberpunk/032.jpg"
      },
      "metadata": {
        "dimensions": {
          "width": 1080,
          "height": 1920
        },
        "file_size": 131457,
        "format": "JPEG",
        "added_at": "2025-07-17T00:03:21.668942",
        "hash": "4cd7540faa827d19fdb78d407c1032a4",
        "source": "migrated"
      }
    },
    {
      "id": "cyberpunk_033",
      "category": "cyberpunk",
      "title": "Cyberpunk Wallpaper 033",
      "tags": [
        "cyberpunk",
        "wallpaper",
        "hd",
        "mobile"
      ],
      "urls": {
        "raw": "https://media.githubusercontent.com/media/ddh4r4m/wallpaper-collection/main/collection/wallpapers/cyberpunk/033.jpg",
        "thumb": "https://media.githubusercontent.com/media/ddh4r4m/wallpaper-collection/main/collection/thumbnails/cyberpunk/033.jpg"
      },
      "metadata": {
        "dimensions": {
          "width": 1080,
          "height": 1920
        },
        "file_size": 41109,
        "format": "JPEG",
        "added_at": "2025-07-17T00:03:22.258089",
        "hash": "1d9404d7d1123180762c0faaea84a566",
        "source": "migrated"
      }
    }
  ]
}