{
  "meta": {
    "version": "1.0",
    "generated_at": "2025-07-28T23:12:02.393375",
    "page": 84,
    "per_page": 15,
    "total_pages": 183,
    "total_count": 2743,
    "count_on_page": 15,
    "categories": 22,
    "has_next": true,
    "has_prev": true,
    "next_page_url": "/api/v1/all/pages/85.json",
    "prev_page_url": "/api/v1/all/pages/83.json"
  },
  "data": [
    {
      "id": "cyberpunk_034",
      "category": "cyberpunk",
      "title": "Cyberpunk Wallpaper 034",
      "tags": [
        "cyberpunk",
        "wallpaper",
        "hd",
        "mobile"
      ],
      "urls": {
        "raw": "https://media.githubusercontent.com/media/ddh4r4m/wallpaper-collection/main/collection/wallpapers/cyberpunk/034.jpg",
        "thumb": "https://media.githubusercontent.com/media/ddh4r4m/wallpaper-collection/main/collection/thumbnails/cyberpunk/034.jpg"
      },
      "metadata": {
        "dimensions": {
          "width": 1080,
          "height": 1920
        },
        "file_size": 373795,
        "format": "JPEG",
        "added_at": "2025-07-17T00:03:22.527825",
        "hash": "7583baec3e719842a9132c03ffd52ed9",
        "source": "migrated"
      }
    },
    {
      "id": "cyberpunk_035",
      "category": "cyberpunk",
      "title": "Cyberpunk Wallpaper 035",
      "tags": [
        "cyberpunk",
        "wallpaper",
        "hd",
        "mobile"
      ],
      "urls": {
        "raw": "https://media.githubusercontent.com/media/ddh4r4m/wallpaper-collection/main/collection/wallpapers/cyberpunk/035.jpg",
        "thumb": "https://media.githubusercontent.com/media/ddh4r4m/wallpaper-collection/main/collection/thumbnails/cyberpunk/035.jpg"
      },
      "metadata": {
        "dimensions": {
          "width": 1080,
          "height": 1920
        },
        "file_size": 385734,
        "format": "JPEG",
        "added_at": "2025-07-17T00:03:22.782053",
        "hash": "9653965c040bc0a7db543beb48f9f569",
        "source": "migrated"
      }
    },
    {
      "id": "cyberpunk_036",
      "category": "cyberpunk",
      "title": "Cyberpunk Wallpaper 036",
      "tags": [
        "cyberpunk",
        "wallpaper",
        "hd",
        "mobile"
      ],
      "urls": {
        "raw": "https://media.githubusercontent.com/media/ddh4r4m/wallpaper-collection/main/collection/wallpapers/cyberpunk/036.jpg",
        "thumb": "https://media.githubusercontent.com/media/ddh4r4m/wallpaper-collection/main/collection/thumbnails/cyberpunk/036.jpg"
      },
      "metadata": {
        "dimensions": {
          "width": 1080,
          "height": 1920
        },
        "file_size": 158209,
        "format": "JPEG",
        "added_at": "2025-07-17T00:03:23.109439",
        "hash": "b5c2a547b607721b61a23ce9d48f2f33",
        "source": "migrated"
      }
    },
    {
      "id": "cyberpunk_037",
      "category": "cyberpunk",
      "title": "Cyberpunk Wallpaper 037",
      "tags": [
        "cyberpunk",
        "wallpaper",
        "hd",
        "mobile"
      ],
      "urls": {
        "raw": "https://media.githubusercontent.com/media/ddh4r4m/wallpaper-collection/main/collection/wallpapers/cyberpunk/037.jpg",
        "thumb": "https://media.githubusercontent.com/media/ddh4r4m/wallpaper-collection/main/collection/thumbnails/cyberpunk/037.jpg"
      },
      "metadata": {
        "dimensions": {
          "width": 1080,
          "height": 1920
        },
        "file_size": 324441,
        "format": "JPEG",
        "added_at": "2025-07-17T00:03:23.363668",
        "hash": "384a60245f5476312628f0ae2d277172",
        "source": "migrated"
      }
    },
    {
      "id": "cyberpunk_038",
      "category": "cyberpunk",
      "title": "Cyberpunk Wallpaper 038",
      "tags": [
        "cyberpunk",
        "wallpaper",
        "hd",
        "mobile"
      ],
      "urls": {
        "raw": "https://media.githubusercontent.com/media/ddh4r4m/wallpaper-collection/main/collection/wallpapers/cyberpunk/038.jpg",
        "thumb": "https://media.githubusercontent.com/media/ddh4r4m/wallpaper-collection/main/collection/thumbnails/cyberpunk/038.jpg"
      },
      "metadata": {
        "dimensions": {
          "width": 1080,
          "height": 1920
        },
        "file_size": 253392,
        "format": "JPEG",
        "added_at": "2025-07-17T00:03:23.526947",
        "hash": "5d8de134a84090ece90e2b45c2a9fd22",
        "source": "migrated"
      }
    },
    {
      "id": "cyberpunk_039",
      "category": "cyberpunk",
      "title": "Cyberpunk Wallpaper 039",
      "tags": [
        "cyberpunk",
        "wallpaper",
        "hd",
        "mobile"
      ],
      "urls": {
        "raw": "https://media.githubusercontent.com/media/ddh4r4m/wallpaper-collection/main/collection/wallpapers/cyberpunk/039.jpg",
        "thumb": "https://media.githubusercontent.com/media/ddh4r4m/wallpaper-collection/main/collection/thumbnails/cyberpunk/039.jpg"
      },
      "metadata": {
        "dimensions": {
          "width": 1080,
          "height": 1920
        },
        "file_size": 89923,
        "format": "JPEG",
        "added_at": "2025-07-17T00:03:23.800055",
        "hash": "6108a1bf10ab40eb51fa9775f28130a1",
        "source": "migrated"
      }
    },
    {
      "id": "cyberpunk_040",
      "category": "cyberpunk",
      "title": "Cyberpunk Wallpaper 040",
      "tags": [
        "cyberpunk",
        "wallpaper",
        "hd",
        "mobile"
      ],
      "urls": {
        "raw": "https://media.githubusercontent.com/media/ddh4r4m/wallpaper-collection/main/collection/wallpapers/cyberpunk/040.jpg",
        "thumb": "https://media.githubusercontent.com/media/ddh4r4m/wallpaper-collection/main/collection/thumbnails/cyberpunk/040.jpg"
      },
      "metadata": {
        "dimensions": {
          "width": 1080,
          "height": 1920
        },
        "file_size": 321657,
        "format": "JPEG",
        "added_at": "2025-07-17T00:03:24.001980",
        "hash": "97bcfa4f3055d8f56ac387bde21f8744",
        "source": "migrated"
      }
    },
    {
      "id": "cyberpunk_041",
      "category": "cyberpunk",
      "title": "Cyberpunk Wallpaper 041",
      "tags": [
        "cyberpunk",
        "wallpaper",
        "hd",
        "mobile"
      ],
      "urls": {
        "raw": "https://media.githubusercontent.com/media/ddh4r4m/wallpaper-collection/main/collection/wallpapers/cyberpunk/041.jpg",
        "thumb": "https://media.githubusercontent.com/media/ddh4r4m/wallpaper-collection/main/collection/thumbnails/cyberpunk/041.jpg"
      },
      "metadata": {
        "dimensions": {
          "width": 1080,
          "height": 1920
        },
        "file_size": 289682,
        "format": "JPEG",
        "added_at": "2025-07-17T00:03:24.328288",
        "hash": "eab6e0a52adee421d5567195b4650fe0",
        "source": "migrated"
      }
    },
    {
      "id": "cyberpunk_042",
      "category": "cyberpunk",
      "title": "Cyberpunk Wallpaper",
      "tags": [
        "cyberpunk",
        "unsplash",
        "hd",
        "mobile"
      ],
      "metadata": {
        "dimensions": {
          "width": 1080,
          "height": 1619
        },
        "file_size": 212377,
        "format": "JPEG",
        "added_at": "2025-07-17T22:11:52.342246",
        "hash": "922476d084cacb2b5848f0af3334d89a",
        "photographer": "Unknown"
      },
      "urls": {
        "raw": "https://media.githubusercontent.com/media/ddh4r4m/wallpaper-collection/main/collection/wallpapers/cyberpunk/042.jpg",
        "thumb": "https://media.githubusercontent.com/media/ddh4r4m/wallpaper-collection/main/collection/thumbnails/cyberpunk/042.jpg"
      }
    },
    {
      "id": "cyberpunk_043",
      "category": "cyberpunk",
      "title": "Cyberpunk Wallpaper",
      "tags": [
        "cyberpunk",
        "unsplash",
        "hd",
        "mobile"
      ],
      "metadata": {
        "dimensions": {
          "width": 1080,
          "height": 720
        },
        "file_size": 106676,
        "format": "JPEG",
        "added_at": "2025-07-17T22:12:02.220995",
        "hash": "db85abc4ae0adf7286cf9a98fa9414e2",
        "photographer": "Unknown"
      },
      "urls": {
        "raw": "https://media.githubusercontent.com/media/ddh4r4m/wallpaper-collection/main/collection/wallpapers/cyberpunk/043.jpg",
        "thumb": "https://media.githubusercontent.com/media/ddh4r4m/wallpaper-collection/main/collection/thumbnails/cyberpunk/043.jpg"
      }
    },
    {
      "id": "cyberpunk_044",
      "category": "cyberpunk",
      "title": "Cyberpunk Wallpaper",
      "tags": [
        "cyberpunk",
        "unsplash",
        "hd",
        "mobile"
      ],
      "metadata": {
        "dimensions": {
          "width": 1080,
          "height": 656
        },
        "file_size": 140865,
        "format": "JPEG",
        "added_at": "2025-07-17T22:12:17.028990",
        "hash": "3f46ed84235201977eb2515992191c42",
        "photographer": "Unknown"
      },
      "urls": {
        "raw": "https://media.githubusercontent.com/media/ddh4r4m/wallpaper-collection/main/collection/wallpapers/cyberpunk/044.jpg",
        "thumb": "https://media.githubusercontent.com/media/ddh4r4m/wallpaper-collection/main/collection/thumbnails/cyberpunk/044.jpg"
      }
    },
    {
      "id": "cyberpunk_045",
      "category": "cyberpunk",
      "title": "Cyberpunk Wallpaper",
      "tags": [
        "cyberpunk",
        "unsplash",
        "hd",
        "mobile"
      ],
      "metadata": {
        "dimensions": {
          "width": 1080,
          "height": 1620
        },
        "file_size": 144004,
        "format": "JPEG",
        "added_at": "2025-07-17T22:12:27.388920",
        "hash": "ebcc70f7d986bd5051e610f49e0269b7",
        "photographer": "Unknown"
      },
      "urls": {
        "raw": "https://media.githubusercontent.com/media/ddh4r4m/wallpaper-collection/main/collection/wallpapers/cyberpunk/045.jpg",
        "thumb": "https://media.githubusercontent.com/media/ddh4r4m/wallpaper-collection/main/collection/thumbnails/cyberpunk/045.jpg"
      }
    },
    {
      "id": "cyberpunk_046",
      "category": "cyberpunk",
      "title": "Cyberpunk Wallpaper",
      "tags": [
        "cyberpunk",
        "unsplash",
        "hd",
        "mobile"
      ],
      "metadata": {
        "dimensions": {
          "width": 1080,
          "height": 1170
        },
        "file_size": 229971,
        "format": "JPEG",
        "added_at": "2025-07-17T22:12:45.621145",
        "hash": "605878f35afefbb67c2000be1d9b1be0",
        "photographer": "Unknown"
      },
      "urls": {
        "raw": "https://media.githubusercontent.com/media/ddh4r4m/wallpaper-collection/main/collection/wallpapers/cyberpunk/046.jpg",
        "thumb": "https://media.githubusercontent.com/media/ddh4r4m/wallpaper-collection/main/collection/thumbnails/cyberpunk/046.jpg"
      }
    },
    {
      "id": "cyberpunk_047",
      "category": "cyberpunk",
      "title": "Cyberpunk Wallpaper",
      "tags": [
        "cyberpunk",
        "unsplash",
        "hd",
        "mobile"
      ],
      "metadata": {
        "dimensions": {
          "width": 1080,
          "height": 1619
        },
        "file_size": 212377,
        "format": "JPEG",
        "added_at": "2025-07-17T22:31:00.829170",
        "hash": "922476d084cacb2b5848f0af3334d89a",
        "photographer": "Unknown"
      },
      "urls": {
        "raw": "https://media.githubusercontent.com/media/ddh4r4m/wallpaper-collection/main/collection/wallpapers/cyberpunk/047.jpg",
        "thumb": "https://media.githubusercontent.com/media/ddh4r4m/wallpaper-collection/main/collection/thumbnails/cyberpunk/047.jpg"
      }
    },
    {
      "id": "cyberpunk_048",
      "category": "cyberpunk",
      "title": "Cyberpunk Wallpaper",
      "tags": [
        "cyberpunk",
        "unsplash",
        "hd",
        "mobile"
      ],
      "metadata": {
        "dimensions": {
          "width": 1080,
          "height": 720
        },
        "file_size": 106676,
        "format": "JPEG",
        "added_at": "2025-07-17T22:31:03.111043",
        "hash": "db85abc4ae0adf7286cf9a98fa9414e2",
        "photographer": "Unknown"
      },
      "urls": {
        "raw": "https://media.githubusercontent.com/media/ddh4r4m/wallpaper-collection/main/collection/wallpapers/cyberpunk/048.jpg",
        "thumb": "https://media.githubusercontent.com/media/ddh4r4m/wallpaper-collection/main/collection/thumbnails/cyberpunk/048.jpg"
      }
    }
  ]
}