{
  "meta": {
    "version": "1.0",
    "generated_at": "2025-07-19T12:26:57.111378",
    "page": 87,
    "per_page": 15,
    "total_pages": 160,
    "total_count": 2387,
    "count_on_page": 15,
    "categories": 19,
    "has_next": true,
    "has_prev": true,
    "next_page_url": "/api/v1/all/pages/88.json",
    "prev_page_url": "/api/v1/all/pages/86.json"
  },
  "data": [
    {
      "id": "cyberpunk_085",
      "category": "cyberpunk",
      "title": "ethereal fantasy concept art of  anime a - Civitai AI",
      "tags": [
        "cyberpunk",
        "ai-generated",
        "civitai",
        "stable-diffusion",
        "hd",
        "mobile",
        "zhongshi-xl-v4-best",
        "community-rated"
      ],
      "metadata": {
        "dimensions": {
          "width": 960,
          "height": 1200
        },
        "file_size": 221047,
        "format": "JPEG",
        "added_at": "2025-07-19T11:59:19.237676",
        "hash": "134e65f001cc9c3c1f004eb5636a1ce1",
        "ai_source": "civitai",
        "ai_generated": true,
        "source_platform": "civitai.com",
        "ai_prompt": "ethereal fantasy concept art of  anime artwork lazypos ,best quality, masterpiece, extremely detailed,professional  art,professional painting,an extremely delicate and beautiful,dynamic,great lighting",
        "ai_model": "ZhongShi XL v4 BEST",
        "civitai_stats": {
          "cryCount": 19,
          "laughCount": 49,
          "likeCount": 605,
          "dislikeCount": 0,
          "heartCount": 126,
          "commentCount": 0
        }
      },
      "urls": {
        "raw": "https://media.githubusercontent.com/media/ddh4r4m/wallpaper-collection/main/collection/wallpapers/cyberpunk/085.jpg",
        "thumb": "https://media.githubusercontent.com/media/ddh4r4m/wallpaper-collection/main/collection/thumbnails/cyberpunk/085.jpg"
      }
    },
    {
      "id": "cyberpunk_086",
      "category": "cyberpunk",
      "title": "ethereal fantasy concept art of  anime a - Civitai AI",
      "tags": [
        "cyberpunk",
        "ai-generated",
        "civitai",
        "stable-diffusion",
        "hd",
        "mobile",
        "zhongshi-xl-v4-best",
        "community-rated"
      ],
      "metadata": {
        "dimensions": {
          "width": 960,
          "height": 1200
        },
        "file_size": 228837,
        "format": "JPEG",
        "added_at": "2025-07-19T11:59:20.925923",
        "hash": "5c8e1d092796abaebde67f6465b9f467",
        "ai_source": "civitai",
        "ai_generated": true,
        "source_platform": "civitai.com",
        "ai_prompt": "ethereal fantasy concept art of  anime artwork lazypos ,best quality, masterpiece, extremely detailed,professional  art,professional painting,an extremely delicate and beautiful,dynamic,great lighting",
        "ai_model": "ZhongShi XL v4 BEST",
        "civitai_stats": {
          "cryCount": 10,
          "laughCount": 37,
          "likeCount": 589,
          "dislikeCount": 0,
          "heartCount": 109,
          "commentCount": 1
        }
      },
      "urls": {
        "raw": "https://media.githubusercontent.com/media/ddh4r4m/wallpaper-collection/main/collection/wallpapers/cyberpunk/086.jpg",
        "thumb": "https://media.githubusercontent.com/media/ddh4r4m/wallpaper-collection/main/collection/thumbnails/cyberpunk/086.jpg"
      }
    },
    {
      "id": "cyberpunk_087",
      "category": "cyberpunk",
      "title": "Cyberpunk AI Art - Civitai",
      "tags": [
        "cyberpunk",
        "ai-generated",
        "civitai",
        "stable-diffusion",
        "hd",
        "mobile",
        "community-rated"
      ],
      "metadata": {
        "dimensions": {
          "width": 1080,
          "height": 1080
        },
        "file_size": 281478,
        "format": "JPEG",
        "added_at": "2025-07-19T11:59:22.481152",
        "hash": "b6f91e98d920edd7ac208a506169f298",
        "ai_source": "civitai",
        "ai_generated": true,
        "source_platform": "civitai.com",
        "civitai_stats": {
          "cryCount": 14,
          "laughCount": 43,
          "likeCount": 448,
          "dislikeCount": 0,
          "heartCount": 107,
          "commentCount": 0
        }
      },
      "urls": {
        "raw": "https://media.githubusercontent.com/media/ddh4r4m/wallpaper-collection/main/collection/wallpapers/cyberpunk/087.jpg",
        "thumb": "https://media.githubusercontent.com/media/ddh4r4m/wallpaper-collection/main/collection/thumbnails/cyberpunk/087.jpg"
      }
    },
    {
      "id": "cyberpunk_088",
      "category": "cyberpunk",
      "title": "ethereal fantasy concept art of  anime a - Civitai AI",
      "tags": [
        "cyberpunk",
        "ai-generated",
        "civitai",
        "stable-diffusion",
        "hd",
        "mobile",
        "zhongshi-xl-v4-best",
        "community-rated"
      ],
      "metadata": {
        "dimensions": {
          "width": 960,
          "height": 1200
        },
        "file_size": 239004,
        "format": "JPEG",
        "added_at": "2025-07-19T11:59:23.879349",
        "hash": "568543b45e51e334a82778100125ac9e",
        "ai_source": "civitai",
        "ai_generated": true,
        "source_platform": "civitai.com",
        "ai_prompt": "ethereal fantasy concept art of  anime artwork lazypos ,best quality, masterpiece, extremely detailed,professional  art,professional painting,an extremely delicate and beautiful,dynamic,great lighting",
        "ai_model": "ZhongShi XL v4 BEST",
        "civitai_stats": {
          "cryCount": 16,
          "laughCount": 29,
          "likeCount": 448,
          "dislikeCount": 0,
          "heartCount": 102,
          "commentCount": 0
        }
      },
      "urls": {
        "raw": "https://media.githubusercontent.com/media/ddh4r4m/wallpaper-collection/main/collection/wallpapers/cyberpunk/088.jpg",
        "thumb": "https://media.githubusercontent.com/media/ddh4r4m/wallpaper-collection/main/collection/thumbnails/cyberpunk/088.jpg"
      }
    },
    {
      "id": "dark_001",
      "category": "dark",
      "title": "Dark Wallpaper 001",
      "tags": [
        "dark",
        "wallpaper",
        "hd",
        "mobile"
      ],
      "urls": {
        "raw": "https://media.githubusercontent.com/media/ddh4r4m/wallpaper-collection/main/collection/wallpapers/dark/001.jpg",
        "thumb": "https://media.githubusercontent.com/media/ddh4r4m/wallpaper-collection/main/collection/thumbnails/dark/001.jpg"
      },
      "metadata": {
        "dimensions": {
          "width": 1080,
          "height": 1920
        },
        "file_size": 145438,
        "format": "JPEG",
        "added_at": "2025-07-17T00:03:24.379390",
        "hash": "c1b34475ae76640a88e9a54150d6368c",
        "source": "migrated"
      }
    },
    {
      "id": "dark_002",
      "category": "dark",
      "title": "Dark Wallpaper 002",
      "tags": [
        "dark",
        "wallpaper",
        "hd",
        "mobile"
      ],
      "urls": {
        "raw": "https://media.githubusercontent.com/media/ddh4r4m/wallpaper-collection/main/collection/wallpapers/dark/002.jpg",
        "thumb": "https://media.githubusercontent.com/media/ddh4r4m/wallpaper-collection/main/collection/thumbnails/dark/002.jpg"
      },
      "metadata": {
        "dimensions": {
          "width": 1080,
          "height": 1920
        },
        "file_size": 494371,
        "format": "JPEG",
        "added_at": "2025-07-17T00:03:24.610265",
        "hash": "63a446c28896ffb29cb5eb8a05694ee6",
        "source": "migrated"
      }
    },
    {
      "id": "dark_003",
      "category": "dark",
      "title": "Dark Wallpaper 003",
      "tags": [
        "dark",
        "wallpaper",
        "hd",
        "mobile"
      ],
      "urls": {
        "raw": "https://media.githubusercontent.com/media/ddh4r4m/wallpaper-collection/main/collection/wallpapers/dark/003.jpg",
        "thumb": "https://media.githubusercontent.com/media/ddh4r4m/wallpaper-collection/main/collection/thumbnails/dark/003.jpg"
      },
      "metadata": {
        "dimensions": {
          "width": 1080,
          "height": 1920
        },
        "file_size": 96954,
        "format": "JPEG",
        "added_at": "2025-07-17T00:03:24.656358",
        "hash": "b3e086f124fa320e7840026a325def94",
        "source": "migrated"
      }
    },
    {
      "id": "dark_004",
      "category": "dark",
      "title": "Dark Wallpaper 004",
      "tags": [
        "dark",
        "wallpaper",
        "hd",
        "mobile"
      ],
      "urls": {
        "raw": "https://media.githubusercontent.com/media/ddh4r4m/wallpaper-collection/main/collection/wallpapers/dark/004.jpg",
        "thumb": "https://media.githubusercontent.com/media/ddh4r4m/wallpaper-collection/main/collection/thumbnails/dark/004.jpg"
      },
      "metadata": {
        "dimensions": {
          "width": 1080,
          "height": 1920
        },
        "file_size": 194793,
        "format": "JPEG",
        "added_at": "2025-07-17T00:03:24.710099",
        "hash": "b9ea99181ffc303cb49e0889a7441e9c",
        "source": "migrated"
      }
    },
    {
      "id": "dark_005",
      "category": "dark",
      "title": "Dark Wallpaper 005",
      "tags": [
        "dark",
        "wallpaper",
        "hd",
        "mobile"
      ],
      "urls": {
        "raw": "https://media.githubusercontent.com/media/ddh4r4m/wallpaper-collection/main/collection/wallpapers/dark/005.jpg",
        "thumb": "https://media.githubusercontent.com/media/ddh4r4m/wallpaper-collection/main/collection/thumbnails/dark/005.jpg"
      },
      "metadata": {
        "dimensions": {
          "width": 1080,
          "height": 1920
        },
        "file_size": 176750,
        "format": "JPEG",
        "added_at": "2025-07-17T00:03:24.848591",
        "hash": "3682d678675ef12607a5ff7e9bab7e67",
        "source": "migrated"
      }
    },
    {
      "id": "dark_006",
      "category": "dark",
      "title": "Dark Wallpaper 006",
      "tags": [
        "dark",
        "wallpaper",
        "hd",
        "mobile"
      ],
      "urls": {
        "raw": "https://media.githubusercontent.com/media/ddh4r4m/wallpaper-collection/main/collection/wallpapers/dark/006.jpg",
        "thumb": "https://media.githubusercontent.com/media/ddh4r4m/wallpaper-collection/main/collection/thumbnails/dark/006.jpg"
      },
      "metadata": {
        "dimensions": {
          "width": 1080,
          "height": 1920
        },
        "file_size": 274613,
        "format": "JPEG",
        "added_at": "2025-07-17T00:03:24.903904",
        "hash": "fe2d9dca44fd43aec0fa00f97904b8c4",
        "source": "migrated"
      }
    },
    {
      "id": "dark_007",
      "category": "dark",
      "title": "Dark Wallpaper 007",
      "tags": [
        "dark",
        "wallpaper",
        "hd",
        "mobile"
      ],
      "urls": {
        "raw": "https://media.githubusercontent.com/media/ddh4r4m/wallpaper-collection/main/collection/wallpapers/dark/007.jpg",
        "thumb": "https://media.githubusercontent.com/media/ddh4r4m/wallpaper-collection/main/collection/thumbnails/dark/007.jpg"
      },
      "metadata": {
        "dimensions": {
          "width": 1080,
          "height": 1920
        },
        "file_size": 507412,
        "format": "JPEG",
        "added_at": "2025-07-17T00:03:24.973227",
        "hash": "d2ac0343137a71585334c3e49dd303f8",
        "source": "migrated"
      }
    },
    {
      "id": "dark_008",
      "category": "dark",
      "title": "Dark Wallpaper 008",
      "tags": [
        "dark",
        "wallpaper",
        "hd",
        "mobile"
      ],
      "urls": {
        "raw": "https://media.githubusercontent.com/media/ddh4r4m/wallpaper-collection/main/collection/wallpapers/dark/008.jpg",
        "thumb": "https://media.githubusercontent.com/media/ddh4r4m/wallpaper-collection/main/collection/thumbnails/dark/008.jpg"
      },
      "metadata": {
        "dimensions": {
          "width": 1080,
          "height": 1920
        },
        "file_size": 132650,
        "format": "JPEG",
        "added_at": "2025-07-17T00:03:25.025872",
        "hash": "0b90c54aaef7b6dc7bf6bfa3bc0ab620",
        "source": "migrated"
      }
    },
    {
      "id": "dark_009",
      "category": "dark",
      "title": "Dark Wallpaper 009",
      "tags": [
        "dark",
        "wallpaper",
        "hd",
        "mobile"
      ],
      "urls": {
        "raw": "https://media.githubusercontent.com/media/ddh4r4m/wallpaper-collection/main/collection/wallpapers/dark/009.jpg",
        "thumb": "https://media.githubusercontent.com/media/ddh4r4m/wallpaper-collection/main/collection/thumbnails/dark/009.jpg"
      },
      "metadata": {
        "dimensions": {
          "width": 1080,
          "height": 1920
        },
        "file_size": 209230,
        "format": "JPEG",
        "added_at": "2025-07-17T00:03:25.080134",
        "hash": "fb214381822887f370e39478ab6e0bcc",
        "source": "migrated"
      }
    },
    {
      "id": "dark_010",
      "category": "dark",
      "title": "Dark Wallpaper 010",
      "tags": [
        "dark",
        "wallpaper",
        "hd",
        "mobile"
      ],
      "urls": {
        "raw": "https://media.githubusercontent.com/media/ddh4r4m/wallpaper-collection/main/collection/wallpapers/dark/010.jpg",
        "thumb": "https://media.githubusercontent.com/media/ddh4r4m/wallpaper-collection/main/collection/thumbnails/dark/010.jpg"
      },
      "metadata": {
        "dimensions": {
          "width": 1080,
          "height": 1920
        },
        "file_size": 248782,
        "format": "JPEG",
        "added_at": "2025-07-17T00:03:25.135648",
        "hash": "45983d84486180d2f5253a105b57f585",
        "source": "migrated"
      }
    },
    {
      "id": "dark_011",
      "category": "dark",
      "title": "Dark Wallpaper 011",
      "tags": [
        "dark",
        "wallpaper",
        "hd",
        "mobile"
      ],
      "urls": {
        "raw": "https://media.githubusercontent.com/media/ddh4r4m/wallpaper-collection/main/collection/wallpapers/dark/011.jpg",
        "thumb": "https://media.githubusercontent.com/media/ddh4r4m/wallpaper-collection/main/collection/thumbnails/dark/011.jpg"
      },
      "metadata": {
        "dimensions": {
          "width": 1080,
          "height": 1920
        },
        "file_size": 147840,
        "format": "JPEG",
        "added_at": "2025-07-17T00:03:25.297872",
        "hash": "82baee0b06e21f18fb18779df26b97bf",
        "source": "migrated"
      }
    }
  ]
}