{
  "meta": {
    "version": "1.0",
    "generated_at": "2025-07-28T22:48:38.208699",
    "page": 88,
    "per_page": 15,
    "total_pages": 183,
    "total_count": 2737,
    "count_on_page": 15,
    "categories": 22,
    "has_next": true,
    "has_prev": true,
    "next_page_url": "/api/v1/all/pages/89.json",
    "prev_page_url": "/api/v1/all/pages/87.json"
  },
  "data": [
    {
      "id": "dark_012",
      "category": "dark",
      "title": "Dark Wallpaper 012",
      "tags": [
        "dark",
        "wallpaper",
        "hd",
        "mobile"
      ],
      "urls": {
        "raw": "https://media.githubusercontent.com/media/ddh4r4m/wallpaper-collection/main/collection/wallpapers/dark/012.jpg",
        "thumb": "https://media.githubusercontent.com/media/ddh4r4m/wallpaper-collection/main/collection/thumbnails/dark/012.jpg"
      },
      "metadata": {
        "dimensions": {
          "width": 1080,
          "height": 1920
        },
        "file_size": 180171,
        "format": "JPEG",
        "added_at": "2025-07-17T00:03:25.350409",
        "hash": "cb395f55abc381700a8395aa225180b9",
        "source": "migrated"
      }
    },
    {
      "id": "dark_013",
      "category": "dark",
      "title": "Dark Wallpaper 013",
      "tags": [
        "dark",
        "wallpaper",
        "hd",
        "mobile"
      ],
      "urls": {
        "raw": "https://media.githubusercontent.com/media/ddh4r4m/wallpaper-collection/main/collection/wallpapers/dark/013.jpg",
        "thumb": "https://media.githubusercontent.com/media/ddh4r4m/wallpaper-collection/main/collection/thumbnails/dark/013.jpg"
      },
      "metadata": {
        "dimensions": {
          "width": 1080,
          "height": 1920
        },
        "file_size": 100707,
        "format": "JPEG",
        "added_at": "2025-07-17T00:03:25.396759",
        "hash": "554c83d7b2438920b57407dbdc812b67",
        "source": "migrated"
      }
    },
    {
      "id": "dark_014",
      "category": "dark",
      "title": "Dark Wallpaper 014",
      "tags": [
        "dark",
        "wallpaper",
        "hd",
        "mobile"
      ],
      "urls": {
        "raw": "https://media.githubusercontent.com/media/ddh4r4m/wallpaper-collection/main/collection/wallpapers/dark/014.jpg",
        "thumb": "https://media.githubusercontent.com/media/ddh4r4m/wallpaper-collection/main/collection/thumbnails/dark/014.jpg"
      },
      "metadata": {
        "dimensions": {
          "width": 1080,
          "height": 1920
        },
        "file_size": 169956,
        "format": "JPEG",
        "added_at": "2025-07-17T00:03:25.447283",
        "hash": "abd6ed2afe09eb2a56aa0b0532b8aff4",
        "source": "migrated"
      }
    },
    {
      "id": "dark_015",
      "category": "dark",
      "title": "Dark Wallpaper 015",
      "tags": [
        "dark",
        "wallpaper",
        "hd",
        "mobile"
      ],
      "urls": {
        "raw": "https://media.githubusercontent.com/media/ddh4r4m/wallpaper-collection/main/collection/wallpapers/dark/015.jpg",
        "thumb": "https://media.githubusercontent.com/media/ddh4r4m/wallpaper-collection/main/collection/thumbnails/dark/015.jpg"
      },
      "metadata": {
        "dimensions": {
          "width": 1080,
          "height": 1920
        },
        "file_size": 186418,
        "format": "JPEG",
        "added_at": "2025-07-17T00:03:25.498805",
        "hash": "1aa6a3fd1dff7b179139b01802117f94",
        "source": "migrated"
      }
    },
    {
      "id": "dark_016",
      "category": "dark",
      "title": "Dark Wallpaper 016",
      "tags": [
        "dark",
        "wallpaper",
        "hd",
        "mobile"
      ],
      "urls": {
        "raw": "https://media.githubusercontent.com/media/ddh4r4m/wallpaper-collection/main/collection/wallpapers/dark/016.jpg",
        "thumb": "https://media.githubusercontent.com/media/ddh4r4m/wallpaper-collection/main/collection/thumbnails/dark/016.jpg"
      },
      "metadata": {
        "dimensions": {
          "width": 1080,
          "height": 1920
        },
        "file_size": 324513,
        "format": "JPEG",
        "added_at": "2025-07-17T00:03:25.780019",
        "hash": "04b3d5c9d6a0091a9d98720120de5b22",
        "source": "migrated"
      }
    },
    {
      "id": "dark_017",
      "category": "dark",
      "title": "Dark Wallpaper 017",
      "tags": [
        "dark",
        "wallpaper",
        "hd",
        "mobile"
      ],
      "urls": {
        "raw": "https://media.githubusercontent.com/media/ddh4r4m/wallpaper-collection/main/collection/wallpapers/dark/017.jpg",
        "thumb": "https://media.githubusercontent.com/media/ddh4r4m/wallpaper-collection/main/collection/thumbnails/dark/017.jpg"
      },
      "metadata": {
        "dimensions": {
          "width": 1080,
          "height": 1920
        },
        "file_size": 245180,
        "format": "JPEG",
        "added_at": "2025-07-17T00:03:26.044960",
        "hash": "d3c15f31c246eb9430814567b5f50ad1",
        "source": "migrated"
      }
    },
    {
      "id": "dark_018",
      "category": "dark",
      "title": "Dark Wallpaper 018",
      "tags": [
        "dark",
        "wallpaper",
        "hd",
        "mobile"
      ],
      "urls": {
        "raw": "https://media.githubusercontent.com/media/ddh4r4m/wallpaper-collection/main/collection/wallpapers/dark/018.jpg",
        "thumb": "https://media.githubusercontent.com/media/ddh4r4m/wallpaper-collection/main/collection/thumbnails/dark/018.jpg"
      },
      "metadata": {
        "dimensions": {
          "width": 1080,
          "height": 1920
        },
        "file_size": 256966,
        "format": "JPEG",
        "added_at": "2025-07-17T00:03:26.099701",
        "hash": "3d647a8acea2141578b4ae65df28c3c6",
        "source": "migrated"
      }
    },
    {
      "id": "dark_019",
      "category": "dark",
      "title": "Dark Wallpaper 019",
      "tags": [
        "dark",
        "wallpaper",
        "hd",
        "mobile"
      ],
      "urls": {
        "raw": "https://media.githubusercontent.com/media/ddh4r4m/wallpaper-collection/main/collection/wallpapers/dark/019.jpg",
        "thumb": "https://media.githubusercontent.com/media/ddh4r4m/wallpaper-collection/main/collection/thumbnails/dark/019.jpg"
      },
      "metadata": {
        "dimensions": {
          "width": 1080,
          "height": 1920
        },
        "file_size": 177159,
        "format": "JPEG",
        "added_at": "2025-07-17T00:03:26.546469",
        "hash": "ba723038d73eab42a2218d8c19302ab1",
        "source": "migrated"
      }
    },
    {
      "id": "dark_020",
      "category": "dark",
      "title": "Dark Wallpaper 020",
      "tags": [
        "dark",
        "wallpaper",
        "hd",
        "mobile"
      ],
      "urls": {
        "raw": "https://media.githubusercontent.com/media/ddh4r4m/wallpaper-collection/main/collection/wallpapers/dark/020.jpg",
        "thumb": "https://media.githubusercontent.com/media/ddh4r4m/wallpaper-collection/main/collection/thumbnails/dark/020.jpg"
      },
      "metadata": {
        "dimensions": {
          "width": 1080,
          "height": 1920
        },
        "file_size": 180812,
        "format": "JPEG",
        "added_at": "2025-07-17T00:03:26.749902",
        "hash": "1e21c9719266e763e786ac049e4e10ae",
        "source": "migrated"
      }
    },
    {
      "id": "dark_021",
      "category": "dark",
      "title": "Dark Wallpaper 021",
      "tags": [
        "dark",
        "wallpaper",
        "hd",
        "mobile"
      ],
      "urls": {
        "raw": "https://media.githubusercontent.com/media/ddh4r4m/wallpaper-collection/main/collection/wallpapers/dark/021.jpg",
        "thumb": "https://media.githubusercontent.com/media/ddh4r4m/wallpaper-collection/main/collection/thumbnails/dark/021.jpg"
      },
      "metadata": {
        "dimensions": {
          "width": 1080,
          "height": 1920
        },
        "file_size": 142529,
        "format": "JPEG",
        "added_at": "2025-07-17T00:03:26.893225",
        "hash": "f5dc4eb4c071f63ae670e931f07212bd",
        "source": "migrated"
      }
    },
    {
      "id": "dark_022",
      "category": "dark",
      "title": "Dark Wallpaper 022",
      "tags": [
        "dark",
        "wallpaper",
        "hd",
        "mobile"
      ],
      "urls": {
        "raw": "https://media.githubusercontent.com/media/ddh4r4m/wallpaper-collection/main/collection/wallpapers/dark/022.jpg",
        "thumb": "https://media.githubusercontent.com/media/ddh4r4m/wallpaper-collection/main/collection/thumbnails/dark/022.jpg"
      },
      "metadata": {
        "dimensions": {
          "width": 1080,
          "height": 1920
        },
        "file_size": 182307,
        "format": "JPEG",
        "added_at": "2025-07-17T00:03:26.945454",
        "hash": "a41ad906c581c5cdb63efb7a49f2ba4a",
        "source": "migrated"
      }
    },
    {
      "id": "dark_023",
      "category": "dark",
      "title": "Dark Wallpaper 023",
      "tags": [
        "dark",
        "wallpaper",
        "hd",
        "mobile"
      ],
      "urls": {
        "raw": "https://media.githubusercontent.com/media/ddh4r4m/wallpaper-collection/main/collection/wallpapers/dark/023.jpg",
        "thumb": "https://media.githubusercontent.com/media/ddh4r4m/wallpaper-collection/main/collection/thumbnails/dark/023.jpg"
      },
      "metadata": {
        "dimensions": {
          "width": 1080,
          "height": 1920
        },
        "file_size": 186669,
        "format": "JPEG",
        "added_at": "2025-07-17T00:03:27.000994",
        "hash": "c8396bfb19cdcaba0c36f0c948e25264",
        "source": "migrated"
      }
    },
    {
      "id": "dark_024",
      "category": "dark",
      "title": "Dark Wallpaper 024",
      "tags": [
        "dark",
        "wallpaper",
        "hd",
        "mobile"
      ],
      "urls": {
        "raw": "https://media.githubusercontent.com/media/ddh4r4m/wallpaper-collection/main/collection/wallpapers/dark/024.jpg",
        "thumb": "https://media.githubusercontent.com/media/ddh4r4m/wallpaper-collection/main/collection/thumbnails/dark/024.jpg"
      },
      "metadata": {
        "dimensions": {
          "width": 1080,
          "height": 1920
        },
        "file_size": 153757,
        "format": "JPEG",
        "added_at": "2025-07-17T00:03:27.050776",
        "hash": "938c2de05d8547d8361003cef81d319f",
        "source": "migrated"
      }
    },
    {
      "id": "dark_025",
      "category": "dark",
      "title": "Dark Wallpaper 025",
      "tags": [
        "dark",
        "wallpaper",
        "hd",
        "mobile"
      ],
      "urls": {
        "raw": "https://media.githubusercontent.com/media/ddh4r4m/wallpaper-collection/main/collection/wallpapers/dark/025.jpg",
        "thumb": "https://media.githubusercontent.com/media/ddh4r4m/wallpaper-collection/main/collection/thumbnails/dark/025.jpg"
      },
      "metadata": {
        "dimensions": {
          "width": 1080,
          "height": 1920
        },
        "file_size": 293262,
        "format": "JPEG",
        "added_at": "2025-07-17T00:03:27.193551",
        "hash": "12834a1a6439c10f6bbc5f88407e581c",
        "source": "migrated"
      }
    },
    {
      "id": "dark_026",
      "category": "dark",
      "title": "Dark Wallpaper 026",
      "tags": [
        "dark",
        "wallpaper",
        "hd",
        "mobile"
      ],
      "urls": {
        "raw": "https://media.githubusercontent.com/media/ddh4r4m/wallpaper-collection/main/collection/wallpapers/dark/026.jpg",
        "thumb": "https://media.githubusercontent.com/media/ddh4r4m/wallpaper-collection/main/collection/thumbnails/dark/026.jpg"
      },
      "metadata": {
        "dimensions": {
          "width": 1080,
          "height": 1920
        },
        "file_size": 318748,
        "format": "JPEG",
        "added_at": "2025-07-17T00:03:27.587740",
        "hash": "855e4e57f5163c30ae1dcf18aa066481",
        "source": "migrated"
      }
    }
  ]
}