{
  "meta": {
    "version": "1.0",
    "generated_at": "2025-07-28T23:12:02.393375",
    "page": 90,
    "per_page": 15,
    "total_pages": 183,
    "total_count": 2743,
    "count_on_page": 15,
    "categories": 22,
    "has_next": true,
    "has_prev": true,
    "next_page_url": "/api/v1/all/pages/91.json",
    "prev_page_url": "/api/v1/all/pages/89.json"
  },
  "data": [
    {
      "id": "dark_036",
      "category": "dark",
      "title": "Dark Wallpaper 036",
      "tags": [
        "dark",
        "wallpaper",
        "hd",
        "mobile"
      ],
      "urls": {
        "raw": "https://media.githubusercontent.com/media/ddh4r4m/wallpaper-collection/main/collection/wallpapers/dark/036.jpg",
        "thumb": "https://media.githubusercontent.com/media/ddh4r4m/wallpaper-collection/main/collection/thumbnails/dark/036.jpg"
      },
      "metadata": {
        "dimensions": {
          "width": 1080,
          "height": 1920
        },
        "file_size": 415079,
        "format": "JPEG",
        "added_at": "2025-07-17T00:03:29.255383",
        "hash": "15b51d63263b6ccc9b6854231102b81b",
        "source": "migrated"
      }
    },
    {
      "id": "dark_037",
      "category": "dark",
      "title": "Dark Wallpaper 037",
      "tags": [
        "dark",
        "wallpaper",
        "hd",
        "mobile"
      ],
      "urls": {
        "raw": "https://media.githubusercontent.com/media/ddh4r4m/wallpaper-collection/main/collection/wallpapers/dark/037.jpg",
        "thumb": "https://media.githubusercontent.com/media/ddh4r4m/wallpaper-collection/main/collection/thumbnails/dark/037.jpg"
      },
      "metadata": {
        "dimensions": {
          "width": 1080,
          "height": 1920
        },
        "file_size": 162858,
        "format": "JPEG",
        "added_at": "2025-07-17T00:03:29.306134",
        "hash": "43232ddb5c4442ea520a017e23e251c9",
        "source": "migrated"
      }
    },
    {
      "id": "dark_038",
      "category": "dark",
      "title": "Dark Wallpaper 038",
      "tags": [
        "dark",
        "wallpaper",
        "hd",
        "mobile"
      ],
      "urls": {
        "raw": "https://media.githubusercontent.com/media/ddh4r4m/wallpaper-collection/main/collection/wallpapers/dark/038.jpg",
        "thumb": "https://media.githubusercontent.com/media/ddh4r4m/wallpaper-collection/main/collection/thumbnails/dark/038.jpg"
      },
      "metadata": {
        "dimensions": {
          "width": 1080,
          "height": 1920
        },
        "file_size": 300545,
        "format": "JPEG",
        "added_at": "2025-07-17T00:03:29.519871",
        "hash": "4cb6b591d04dcde31cc9725b802b18ad",
        "source": "migrated"
      }
    },
    {
      "id": "dark_039",
      "category": "dark",
      "title": "Dark Wallpaper 039",
      "tags": [
        "dark",
        "wallpaper",
        "hd",
        "mobile"
      ],
      "urls": {
        "raw": "https://media.githubusercontent.com/media/ddh4r4m/wallpaper-collection/main/collection/wallpapers/dark/039.jpg",
        "thumb": "https://media.githubusercontent.com/media/ddh4r4m/wallpaper-collection/main/collection/thumbnails/dark/039.jpg"
      },
      "metadata": {
        "dimensions": {
          "width": 1080,
          "height": 1920
        },
        "file_size": 134619,
        "format": "JPEG",
        "added_at": "2025-07-17T00:03:29.569937",
        "hash": "ff9f732272ac853b3f83934a399b35f6",
        "source": "migrated"
      }
    },
    {
      "id": "dark_040",
      "category": "dark",
      "title": "Dark Wallpaper 040",
      "tags": [
        "dark",
        "wallpaper",
        "hd",
        "mobile"
      ],
      "urls": {
        "raw": "https://media.githubusercontent.com/media/ddh4r4m/wallpaper-collection/main/collection/wallpapers/dark/040.jpg",
        "thumb": "https://media.githubusercontent.com/media/ddh4r4m/wallpaper-collection/main/collection/thumbnails/dark/040.jpg"
      },
      "metadata": {
        "dimensions": {
          "width": 1080,
          "height": 1920
        },
        "file_size": 99905,
        "format": "JPEG",
        "added_at": "2025-07-17T00:03:29.620730",
        "hash": "ca45a58a19cc278ca730918fe8faa97b",
        "source": "migrated"
      }
    },
    {
      "id": "dark_041",
      "category": "dark",
      "title": "Dark Wallpaper 041",
      "tags": [
        "dark",
        "wallpaper",
        "hd",
        "mobile"
      ],
      "urls": {
        "raw": "https://media.githubusercontent.com/media/ddh4r4m/wallpaper-collection/main/collection/wallpapers/dark/041.jpg",
        "thumb": "https://media.githubusercontent.com/media/ddh4r4m/wallpaper-collection/main/collection/thumbnails/dark/041.jpg"
      },
      "metadata": {
        "dimensions": {
          "width": 1080,
          "height": 1920
        },
        "file_size": 194178,
        "format": "JPEG",
        "added_at": "2025-07-17T00:03:30.309589",
        "hash": "639087942727a044df2c13fe559372c8",
        "source": "migrated"
      }
    },
    {
      "id": "dark_042",
      "category": "dark",
      "title": "Dark Wallpaper 042",
      "tags": [
        "dark",
        "wallpaper",
        "hd",
        "mobile"
      ],
      "urls": {
        "raw": "https://media.githubusercontent.com/media/ddh4r4m/wallpaper-collection/main/collection/wallpapers/dark/042.jpg",
        "thumb": "https://media.githubusercontent.com/media/ddh4r4m/wallpaper-collection/main/collection/thumbnails/dark/042.jpg"
      },
      "metadata": {
        "dimensions": {
          "width": 1080,
          "height": 1920
        },
        "file_size": 443383,
        "format": "JPEG",
        "added_at": "2025-07-17T00:03:30.562345",
        "hash": "0e790b1df0d7d0b9e61ef4a7d8bb3344",
        "source": "migrated"
      }
    },
    {
      "id": "dark_043",
      "category": "dark",
      "title": "Dark Wallpaper 043",
      "tags": [
        "dark",
        "wallpaper",
        "hd",
        "mobile"
      ],
      "urls": {
        "raw": "https://media.githubusercontent.com/media/ddh4r4m/wallpaper-collection/main/collection/wallpapers/dark/043.jpg",
        "thumb": "https://media.githubusercontent.com/media/ddh4r4m/wallpaper-collection/main/collection/thumbnails/dark/043.jpg"
      },
      "metadata": {
        "dimensions": {
          "width": 1080,
          "height": 1920
        },
        "file_size": 223702,
        "format": "JPEG",
        "added_at": "2025-07-17T00:03:30.617292",
        "hash": "35a3e38185bd7a49b5d10ff010adc902",
        "source": "migrated"
      }
    },
    {
      "id": "dark_044",
      "category": "dark",
      "title": "Dark Wallpaper 044",
      "tags": [
        "dark",
        "wallpaper",
        "hd",
        "mobile"
      ],
      "urls": {
        "raw": "https://media.githubusercontent.com/media/ddh4r4m/wallpaper-collection/main/collection/wallpapers/dark/044.jpg",
        "thumb": "https://media.githubusercontent.com/media/ddh4r4m/wallpaper-collection/main/collection/thumbnails/dark/044.jpg"
      },
      "metadata": {
        "dimensions": {
          "width": 1080,
          "height": 1920
        },
        "file_size": 297989,
        "format": "JPEG",
        "added_at": "2025-07-17T00:03:31.063286",
        "hash": "a1eb18689c063de990299ba4838a30e9",
        "source": "migrated"
      }
    },
    {
      "id": "dark_045",
      "category": "dark",
      "title": "Dark Wallpaper 045",
      "tags": [
        "dark",
        "wallpaper",
        "hd",
        "mobile"
      ],
      "urls": {
        "raw": "https://media.githubusercontent.com/media/ddh4r4m/wallpaper-collection/main/collection/wallpapers/dark/045.jpg",
        "thumb": "https://media.githubusercontent.com/media/ddh4r4m/wallpaper-collection/main/collection/thumbnails/dark/045.jpg"
      },
      "metadata": {
        "dimensions": {
          "width": 1080,
          "height": 1920
        },
        "file_size": 258781,
        "format": "JPEG",
        "added_at": "2025-07-17T00:03:31.118562",
        "hash": "500dc1b6fdbb3f3b75c3c419c8afc9d0",
        "source": "migrated"
      }
    },
    {
      "id": "dark_046",
      "category": "dark",
      "title": "Dark Wallpaper 046",
      "tags": [
        "dark",
        "wallpaper",
        "hd",
        "mobile"
      ],
      "urls": {
        "raw": "https://media.githubusercontent.com/media/ddh4r4m/wallpaper-collection/main/collection/wallpapers/dark/046.jpg",
        "thumb": "https://media.githubusercontent.com/media/ddh4r4m/wallpaper-collection/main/collection/thumbnails/dark/046.jpg"
      },
      "metadata": {
        "dimensions": {
          "width": 1080,
          "height": 1920
        },
        "file_size": 141151,
        "format": "JPEG",
        "added_at": "2025-07-17T00:03:31.166191",
        "hash": "9ef514967800cdf14823988a8642740e",
        "source": "migrated"
      }
    },
    {
      "id": "dark_047",
      "category": "dark",
      "title": "Dark Wallpaper 047",
      "tags": [
        "dark",
        "wallpaper",
        "hd",
        "mobile"
      ],
      "urls": {
        "raw": "https://media.githubusercontent.com/media/ddh4r4m/wallpaper-collection/main/collection/wallpapers/dark/047.jpg",
        "thumb": "https://media.githubusercontent.com/media/ddh4r4m/wallpaper-collection/main/collection/thumbnails/dark/047.jpg"
      },
      "metadata": {
        "dimensions": {
          "width": 1080,
          "height": 1920
        },
        "file_size": 281554,
        "format": "JPEG",
        "added_at": "2025-07-17T00:03:31.388591",
        "hash": "e4c3c9aa8b00d883103db8f399ec926d",
        "source": "migrated"
      }
    },
    {
      "id": "dark_048",
      "category": "dark",
      "title": "Dark Wallpaper 048",
      "tags": [
        "dark",
        "wallpaper",
        "hd",
        "mobile"
      ],
      "urls": {
        "raw": "https://media.githubusercontent.com/media/ddh4r4m/wallpaper-collection/main/collection/wallpapers/dark/048.jpg",
        "thumb": "https://media.githubusercontent.com/media/ddh4r4m/wallpaper-collection/main/collection/thumbnails/dark/048.jpg"
      },
      "metadata": {
        "dimensions": {
          "width": 1080,
          "height": 1920
        },
        "file_size": 207966,
        "format": "JPEG",
        "added_at": "2025-07-17T00:03:31.553943",
        "hash": "215260dd19dace8cc5ecbc98da105531",
        "source": "migrated"
      }
    },
    {
      "id": "dark_049",
      "category": "dark",
      "title": "Dark Wallpaper 049",
      "tags": [
        "dark",
        "wallpaper",
        "hd",
        "mobile"
      ],
      "urls": {
        "raw": "https://media.githubusercontent.com/media/ddh4r4m/wallpaper-collection/main/collection/wallpapers/dark/049.jpg",
        "thumb": "https://media.githubusercontent.com/media/ddh4r4m/wallpaper-collection/main/collection/thumbnails/dark/049.jpg"
      },
      "metadata": {
        "dimensions": {
          "width": 1080,
          "height": 1920
        },
        "file_size": 262289,
        "format": "JPEG",
        "added_at": "2025-07-17T00:03:31.743026",
        "hash": "135c4e5bac0a1c2b74d352a3e6381f5e",
        "source": "migrated"
      }
    },
    {
      "id": "dark_050",
      "category": "dark",
      "title": "Dark Wallpaper 050",
      "tags": [
        "dark",
        "wallpaper",
        "hd",
        "mobile"
      ],
      "urls": {
        "raw": "https://media.githubusercontent.com/media/ddh4r4m/wallpaper-collection/main/collection/wallpapers/dark/050.jpg",
        "thumb": "https://media.githubusercontent.com/media/ddh4r4m/wallpaper-collection/main/collection/thumbnails/dark/050.jpg"
      },
      "metadata": {
        "dimensions": {
          "width": 1080,
          "height": 1920
        },
        "file_size": 368662,
        "format": "JPEG",
        "added_at": "2025-07-17T00:03:32.150289",
        "hash": "58c5e1e238bc18efd2a6057e4e840999",
        "source": "migrated"
      }
    }
  ]
}