{
  "meta": {
    "version": "1.0",
    "generated_at": "2025-07-28T23:12:02.393375",
    "page": 91,
    "per_page": 15,
    "total_pages": 183,
    "total_count": 2743,
    "count_on_page": 15,
    "categories": 22,
    "has_next": true,
    "has_prev": true,
    "next_page_url": "/api/v1/all/pages/92.json",
    "prev_page_url": "/api/v1/all/pages/90.json"
  },
  "data": [
    {
      "id": "dark_051",
      "category": "dark",
      "title": "Dark Wallpaper 051",
      "tags": [
        "dark",
        "wallpaper",
        "hd",
        "mobile"
      ],
      "urls": {
        "raw": "https://media.githubusercontent.com/media/ddh4r4m/wallpaper-collection/main/collection/wallpapers/dark/051.jpg",
        "thumb": "https://media.githubusercontent.com/media/ddh4r4m/wallpaper-collection/main/collection/thumbnails/dark/051.jpg"
      },
      "metadata": {
        "dimensions": {
          "width": 1080,
          "height": 1920
        },
        "file_size": 135220,
        "format": "JPEG",
        "added_at": "2025-07-17T00:03:32.199539",
        "hash": "f3d4ff02c1a252cfddfbc0195e47b912",
        "source": "migrated"
      }
    },
    {
      "id": "dark_052",
      "category": "dark",
      "title": "Dark Wallpaper 052",
      "tags": [
        "dark",
        "wallpaper",
        "hd",
        "mobile"
      ],
      "urls": {
        "raw": "https://media.githubusercontent.com/media/ddh4r4m/wallpaper-collection/main/collection/wallpapers/dark/052.jpg",
        "thumb": "https://media.githubusercontent.com/media/ddh4r4m/wallpaper-collection/main/collection/thumbnails/dark/052.jpg"
      },
      "metadata": {
        "dimensions": {
          "width": 1080,
          "height": 1920
        },
        "file_size": 176517,
        "format": "JPEG",
        "added_at": "2025-07-17T00:03:32.251424",
        "hash": "6f6ab59922953200540348c20021dbff",
        "source": "migrated"
      }
    },
    {
      "id": "dark_053",
      "category": "dark",
      "title": "Dark Wallpaper 053",
      "tags": [
        "dark",
        "wallpaper",
        "hd",
        "mobile"
      ],
      "urls": {
        "raw": "https://media.githubusercontent.com/media/ddh4r4m/wallpaper-collection/main/collection/wallpapers/dark/053.jpg",
        "thumb": "https://media.githubusercontent.com/media/ddh4r4m/wallpaper-collection/main/collection/thumbnails/dark/053.jpg"
      },
      "metadata": {
        "dimensions": {
          "width": 1080,
          "height": 1920
        },
        "file_size": 145777,
        "format": "JPEG",
        "added_at": "2025-07-17T00:03:32.300075",
        "hash": "edec3fe06d34a2c6e1d325cfe01ab1b8",
        "source": "migrated"
      }
    },
    {
      "id": "dark_054",
      "category": "dark",
      "title": "Dark Wallpaper 054",
      "tags": [
        "dark",
        "wallpaper",
        "hd",
        "mobile"
      ],
      "urls": {
        "raw": "https://media.githubusercontent.com/media/ddh4r4m/wallpaper-collection/main/collection/wallpapers/dark/054.jpg",
        "thumb": "https://media.githubusercontent.com/media/ddh4r4m/wallpaper-collection/main/collection/thumbnails/dark/054.jpg"
      },
      "metadata": {
        "dimensions": {
          "width": 1080,
          "height": 1920
        },
        "file_size": 527046,
        "format": "JPEG",
        "added_at": "2025-07-17T00:03:32.370498",
        "hash": "73b882a77b4df9113979e22eeb91aab6",
        "source": "migrated"
      }
    },
    {
      "id": "dark_055",
      "category": "dark",
      "title": "Dark Wallpaper 055",
      "tags": [
        "dark",
        "wallpaper",
        "hd",
        "mobile"
      ],
      "urls": {
        "raw": "https://media.githubusercontent.com/media/ddh4r4m/wallpaper-collection/main/collection/wallpapers/dark/055.jpg",
        "thumb": "https://media.githubusercontent.com/media/ddh4r4m/wallpaper-collection/main/collection/thumbnails/dark/055.jpg"
      },
      "metadata": {
        "dimensions": {
          "width": 1080,
          "height": 1920
        },
        "file_size": 505804,
        "format": "JPEG",
        "added_at": "2025-07-17T00:03:32.618389",
        "hash": "9505bc6a82b8cb706af6bb481d63d530",
        "source": "migrated"
      }
    },
    {
      "id": "dark_056",
      "category": "dark",
      "title": "Dark Wallpaper 056",
      "tags": [
        "dark",
        "wallpaper",
        "hd",
        "mobile"
      ],
      "urls": {
        "raw": "https://media.githubusercontent.com/media/ddh4r4m/wallpaper-collection/main/collection/wallpapers/dark/056.jpg",
        "thumb": "https://media.githubusercontent.com/media/ddh4r4m/wallpaper-collection/main/collection/thumbnails/dark/056.jpg"
      },
      "metadata": {
        "dimensions": {
          "width": 1080,
          "height": 1920
        },
        "file_size": 436876,
        "format": "JPEG",
        "added_at": "2025-07-17T00:03:32.887034",
        "hash": "266c3124053cee009877609ac5e6b486",
        "source": "migrated"
      }
    },
    {
      "id": "dark_057",
      "category": "dark",
      "title": "Dark Wallpaper 057",
      "tags": [
        "dark",
        "wallpaper",
        "hd",
        "mobile"
      ],
      "urls": {
        "raw": "https://media.githubusercontent.com/media/ddh4r4m/wallpaper-collection/main/collection/wallpapers/dark/057.jpg",
        "thumb": "https://media.githubusercontent.com/media/ddh4r4m/wallpaper-collection/main/collection/thumbnails/dark/057.jpg"
      },
      "metadata": {
        "dimensions": {
          "width": 1080,
          "height": 1920
        },
        "file_size": 347958,
        "format": "JPEG",
        "added_at": "2025-07-17T00:03:33.092049",
        "hash": "3ed014e14a4297452f68a12ef9848150",
        "source": "migrated"
      }
    },
    {
      "id": "dark_058",
      "category": "dark",
      "title": "Dark Wallpaper 058",
      "tags": [
        "dark",
        "wallpaper",
        "hd",
        "mobile"
      ],
      "urls": {
        "raw": "https://media.githubusercontent.com/media/ddh4r4m/wallpaper-collection/main/collection/wallpapers/dark/058.jpg",
        "thumb": "https://media.githubusercontent.com/media/ddh4r4m/wallpaper-collection/main/collection/thumbnails/dark/058.jpg"
      },
      "metadata": {
        "dimensions": {
          "width": 1080,
          "height": 1920
        },
        "file_size": 317662,
        "format": "JPEG",
        "added_at": "2025-07-17T00:03:33.699606",
        "hash": "3e0a2f33aead648406da10362fb0504d",
        "source": "migrated"
      }
    },
    {
      "id": "dark_059",
      "category": "dark",
      "title": "Dark Wallpaper 059",
      "tags": [
        "dark",
        "wallpaper",
        "hd",
        "mobile"
      ],
      "urls": {
        "raw": "https://media.githubusercontent.com/media/ddh4r4m/wallpaper-collection/main/collection/wallpapers/dark/059.jpg",
        "thumb": "https://media.githubusercontent.com/media/ddh4r4m/wallpaper-collection/main/collection/thumbnails/dark/059.jpg"
      },
      "metadata": {
        "dimensions": {
          "width": 1080,
          "height": 1920
        },
        "file_size": 420946,
        "format": "JPEG",
        "added_at": "2025-07-17T00:03:34.068874",
        "hash": "dc051478a548aee3b4990465ebb5e27e",
        "source": "migrated"
      }
    },
    {
      "id": "dark_060",
      "category": "dark",
      "title": "Dark Wallpaper 060",
      "tags": [
        "dark",
        "wallpaper",
        "hd",
        "mobile"
      ],
      "urls": {
        "raw": "https://media.githubusercontent.com/media/ddh4r4m/wallpaper-collection/main/collection/wallpapers/dark/060.jpg",
        "thumb": "https://media.githubusercontent.com/media/ddh4r4m/wallpaper-collection/main/collection/thumbnails/dark/060.jpg"
      },
      "metadata": {
        "dimensions": {
          "width": 1080,
          "height": 1920
        },
        "file_size": 253820,
        "format": "JPEG",
        "added_at": "2025-07-17T00:03:34.270143",
        "hash": "7914166feef932943aba0c4ecdb3137a",
        "source": "migrated"
      }
    },
    {
      "id": "dark_061",
      "category": "dark",
      "title": "Dark Wallpaper 061",
      "tags": [
        "dark",
        "wallpaper",
        "hd",
        "mobile"
      ],
      "urls": {
        "raw": "https://media.githubusercontent.com/media/ddh4r4m/wallpaper-collection/main/collection/wallpapers/dark/061.jpg",
        "thumb": "https://media.githubusercontent.com/media/ddh4r4m/wallpaper-collection/main/collection/thumbnails/dark/061.jpg"
      },
      "metadata": {
        "dimensions": {
          "width": 1080,
          "height": 1920
        },
        "file_size": 160991,
        "format": "JPEG",
        "added_at": "2025-07-17T00:03:34.674077",
        "hash": "79fe3b1ad54d4e9135abf0c18b3dd894",
        "source": "migrated"
      }
    },
    {
      "id": "dark_062",
      "category": "dark",
      "title": "Dark Wallpaper 062",
      "tags": [
        "dark",
        "wallpaper",
        "hd",
        "mobile"
      ],
      "urls": {
        "raw": "https://media.githubusercontent.com/media/ddh4r4m/wallpaper-collection/main/collection/wallpapers/dark/062.jpg",
        "thumb": "https://media.githubusercontent.com/media/ddh4r4m/wallpaper-collection/main/collection/thumbnails/dark/062.jpg"
      },
      "metadata": {
        "dimensions": {
          "width": 1080,
          "height": 1920
        },
        "file_size": 512728,
        "format": "JPEG",
        "added_at": "2025-07-17T00:03:35.431752",
        "hash": "7eebc489ff43775edc7ea336ca4af2f1",
        "source": "migrated"
      }
    },
    {
      "id": "dark_063",
      "category": "dark",
      "title": "Dark Wallpaper 063",
      "tags": [
        "dark",
        "wallpaper",
        "hd",
        "mobile"
      ],
      "urls": {
        "raw": "https://media.githubusercontent.com/media/ddh4r4m/wallpaper-collection/main/collection/wallpapers/dark/063.jpg",
        "thumb": "https://media.githubusercontent.com/media/ddh4r4m/wallpaper-collection/main/collection/thumbnails/dark/063.jpg"
      },
      "metadata": {
        "dimensions": {
          "width": 1080,
          "height": 1920
        },
        "file_size": 258960,
        "format": "JPEG",
        "added_at": "2025-07-17T00:03:35.942566",
        "hash": "63d93f723eb6ef93ea8b5fd9a26cd27b",
        "source": "migrated"
      }
    },
    {
      "id": "dark_064",
      "category": "dark",
      "title": "Dark Wallpaper 064",
      "tags": [
        "dark",
        "wallpaper",
        "hd",
        "mobile"
      ],
      "urls": {
        "raw": "https://media.githubusercontent.com/media/ddh4r4m/wallpaper-collection/main/collection/wallpapers/dark/064.jpg",
        "thumb": "https://media.githubusercontent.com/media/ddh4r4m/wallpaper-collection/main/collection/thumbnails/dark/064.jpg"
      },
      "metadata": {
        "dimensions": {
          "width": 1080,
          "height": 1920
        },
        "file_size": 214480,
        "format": "JPEG",
        "added_at": "2025-07-17T00:03:36.204149",
        "hash": "0fa17f0029e805d36c88b43cf3190d51",
        "source": "migrated"
      }
    },
    {
      "id": "dark_065",
      "category": "dark",
      "title": "Dark Wallpaper 065",
      "tags": [
        "dark",
        "wallpaper",
        "hd",
        "mobile"
      ],
      "urls": {
        "raw": "https://media.githubusercontent.com/media/ddh4r4m/wallpaper-collection/main/collection/wallpapers/dark/065.jpg",
        "thumb": "https://media.githubusercontent.com/media/ddh4r4m/wallpaper-collection/main/collection/thumbnails/dark/065.jpg"
      },
      "metadata": {
        "dimensions": {
          "width": 1080,
          "height": 1920
        },
        "file_size": 199409,
        "format": "JPEG",
        "added_at": "2025-07-17T00:03:36.526702",
        "hash": "9872e503b2ce828f9c19b5a7f32a262b",
        "source": "migrated"
      }
    }
  ]
}