{
  "meta": {
    "version": "1.0",
    "generated_at": "2025-07-28T23:12:02.393375",
    "page": 92,
    "per_page": 15,
    "total_pages": 183,
    "total_count": 2743,
    "count_on_page": 15,
    "categories": 22,
    "has_next": true,
    "has_prev": true,
    "next_page_url": "/api/v1/all/pages/93.json",
    "prev_page_url": "/api/v1/all/pages/91.json"
  },
  "data": [
    {
      "id": "dark_066",
      "category": "dark",
      "title": "Dark Wallpaper 066",
      "tags": [
        "dark",
        "wallpaper",
        "hd",
        "mobile"
      ],
      "urls": {
        "raw": "https://media.githubusercontent.com/media/ddh4r4m/wallpaper-collection/main/collection/wallpapers/dark/066.jpg",
        "thumb": "https://media.githubusercontent.com/media/ddh4r4m/wallpaper-collection/main/collection/thumbnails/dark/066.jpg"
      },
      "metadata": {
        "dimensions": {
          "width": 1080,
          "height": 1920
        },
        "file_size": 313191,
        "format": "JPEG",
        "added_at": "2025-07-17T00:03:36.691356",
        "hash": "522b628fbe91ffff115d42c54134810b",
        "source": "migrated"
      }
    },
    {
      "id": "dark_067",
      "category": "dark",
      "title": "Dark Wallpaper 067",
      "tags": [
        "dark",
        "wallpaper",
        "hd",
        "mobile"
      ],
      "urls": {
        "raw": "https://media.githubusercontent.com/media/ddh4r4m/wallpaper-collection/main/collection/wallpapers/dark/067.jpg",
        "thumb": "https://media.githubusercontent.com/media/ddh4r4m/wallpaper-collection/main/collection/thumbnails/dark/067.jpg"
      },
      "metadata": {
        "dimensions": {
          "width": 1080,
          "height": 1920
        },
        "file_size": 248225,
        "format": "JPEG",
        "added_at": "2025-07-17T00:03:36.856489",
        "hash": "2b8f9673e9cb9f5151283a444a3db3b4",
        "source": "migrated"
      }
    },
    {
      "id": "dark_068",
      "category": "dark",
      "title": "Dark Wallpaper 068",
      "tags": [
        "dark",
        "wallpaper",
        "hd",
        "mobile"
      ],
      "urls": {
        "raw": "https://media.githubusercontent.com/media/ddh4r4m/wallpaper-collection/main/collection/wallpapers/dark/068.jpg",
        "thumb": "https://media.githubusercontent.com/media/ddh4r4m/wallpaper-collection/main/collection/thumbnails/dark/068.jpg"
      },
      "metadata": {
        "dimensions": {
          "width": 1080,
          "height": 1920
        },
        "file_size": 242014,
        "format": "JPEG",
        "added_at": "2025-07-17T00:03:37.038176",
        "hash": "662c2d2870bc4b70d7aee2bd2609fd99",
        "source": "migrated"
      }
    },
    {
      "id": "dark_069",
      "category": "dark",
      "title": "Dark Wallpaper 069",
      "tags": [
        "dark",
        "wallpaper",
        "hd",
        "mobile"
      ],
      "urls": {
        "raw": "https://media.githubusercontent.com/media/ddh4r4m/wallpaper-collection/main/collection/wallpapers/dark/069.jpg",
        "thumb": "https://media.githubusercontent.com/media/ddh4r4m/wallpaper-collection/main/collection/thumbnails/dark/069.jpg"
      },
      "metadata": {
        "dimensions": {
          "width": 1080,
          "height": 1920
        },
        "file_size": 61582,
        "format": "JPEG",
        "added_at": "2025-07-17T00:03:37.213894",
        "hash": "20f04eab6eb5535f304215ddc2154bf8",
        "source": "migrated"
      }
    },
    {
      "id": "dark_070",
      "category": "dark",
      "title": "Dark Wallpaper 070",
      "tags": [
        "dark",
        "wallpaper",
        "hd",
        "mobile"
      ],
      "urls": {
        "raw": "https://media.githubusercontent.com/media/ddh4r4m/wallpaper-collection/main/collection/wallpapers/dark/070.jpg",
        "thumb": "https://media.githubusercontent.com/media/ddh4r4m/wallpaper-collection/main/collection/thumbnails/dark/070.jpg"
      },
      "metadata": {
        "dimensions": {
          "width": 1080,
          "height": 1920
        },
        "file_size": 364287,
        "format": "JPEG",
        "added_at": "2025-07-17T00:03:37.519883",
        "hash": "f497e0ca4202aff94bd1883c94add225",
        "source": "migrated"
      }
    },
    {
      "id": "dark_071",
      "category": "dark",
      "title": "Dark Wallpaper 071",
      "tags": [
        "dark",
        "wallpaper",
        "hd",
        "mobile"
      ],
      "urls": {
        "raw": "https://media.githubusercontent.com/media/ddh4r4m/wallpaper-collection/main/collection/wallpapers/dark/071.jpg",
        "thumb": "https://media.githubusercontent.com/media/ddh4r4m/wallpaper-collection/main/collection/thumbnails/dark/071.jpg"
      },
      "metadata": {
        "dimensions": {
          "width": 1080,
          "height": 1920
        },
        "file_size": 220294,
        "format": "JPEG",
        "added_at": "2025-07-17T00:03:38.014073",
        "hash": "aed979f20b8e19216b0e7dc49c77558d",
        "source": "migrated"
      }
    },
    {
      "id": "dark_072",
      "category": "dark",
      "title": "Dark Wallpaper 072",
      "tags": [
        "dark",
        "wallpaper",
        "hd",
        "mobile"
      ],
      "urls": {
        "raw": "https://media.githubusercontent.com/media/ddh4r4m/wallpaper-collection/main/collection/wallpapers/dark/072.jpg",
        "thumb": "https://media.githubusercontent.com/media/ddh4r4m/wallpaper-collection/main/collection/thumbnails/dark/072.jpg"
      },
      "metadata": {
        "dimensions": {
          "width": 1080,
          "height": 1920
        },
        "file_size": 130895,
        "format": "JPEG",
        "added_at": "2025-07-17T00:03:38.212819",
        "hash": "9c0eed4b86d3d10a0f0b6c450d13f545",
        "source": "migrated"
      }
    },
    {
      "id": "dark_073",
      "category": "dark",
      "title": "Dark Wallpaper 073",
      "tags": [
        "dark",
        "wallpaper",
        "hd",
        "mobile"
      ],
      "urls": {
        "raw": "https://media.githubusercontent.com/media/ddh4r4m/wallpaper-collection/main/collection/wallpapers/dark/073.jpg",
        "thumb": "https://media.githubusercontent.com/media/ddh4r4m/wallpaper-collection/main/collection/thumbnails/dark/073.jpg"
      },
      "metadata": {
        "dimensions": {
          "width": 1080,
          "height": 1920
        },
        "file_size": 267727,
        "format": "JPEG",
        "added_at": "2025-07-17T00:03:38.456803",
        "hash": "63e90e68dcff0fc82231567e32c021e7",
        "source": "migrated"
      }
    },
    {
      "id": "dark_074",
      "category": "dark",
      "title": "Dark Wallpaper 074",
      "tags": [
        "dark",
        "wallpaper",
        "hd",
        "mobile"
      ],
      "urls": {
        "raw": "https://media.githubusercontent.com/media/ddh4r4m/wallpaper-collection/main/collection/wallpapers/dark/074.jpg",
        "thumb": "https://media.githubusercontent.com/media/ddh4r4m/wallpaper-collection/main/collection/thumbnails/dark/074.jpg"
      },
      "metadata": {
        "dimensions": {
          "width": 1080,
          "height": 1920
        },
        "file_size": 215396,
        "format": "JPEG",
        "added_at": "2025-07-17T00:03:38.781550",
        "hash": "a267faaed3b78a8b47544fb8000df345",
        "source": "migrated"
      }
    },
    {
      "id": "dark_075",
      "category": "dark",
      "title": "Dark Wallpaper 075",
      "tags": [
        "dark",
        "wallpaper",
        "hd",
        "mobile"
      ],
      "urls": {
        "raw": "https://media.githubusercontent.com/media/ddh4r4m/wallpaper-collection/main/collection/wallpapers/dark/075.jpg",
        "thumb": "https://media.githubusercontent.com/media/ddh4r4m/wallpaper-collection/main/collection/thumbnails/dark/075.jpg"
      },
      "metadata": {
        "dimensions": {
          "width": 1080,
          "height": 1920
        },
        "file_size": 212331,
        "format": "JPEG",
        "added_at": "2025-07-17T00:03:39.118942",
        "hash": "19358f04562fb8fad038a8dc103e98b1",
        "source": "migrated"
      }
    },
    {
      "id": "dark_076",
      "category": "dark",
      "title": "Dark Wallpaper 076",
      "tags": [
        "dark",
        "wallpaper",
        "hd",
        "mobile"
      ],
      "urls": {
        "raw": "https://media.githubusercontent.com/media/ddh4r4m/wallpaper-collection/main/collection/wallpapers/dark/076.jpg",
        "thumb": "https://media.githubusercontent.com/media/ddh4r4m/wallpaper-collection/main/collection/thumbnails/dark/076.jpg"
      },
      "metadata": {
        "dimensions": {
          "width": 1080,
          "height": 1920
        },
        "file_size": 266232,
        "format": "JPEG",
        "added_at": "2025-07-17T00:03:39.582519",
        "hash": "9d7d2b29cf63695ad4a0942fd7c32a35",
        "source": "migrated"
      }
    },
    {
      "id": "dark_077",
      "category": "dark",
      "title": "Dark Wallpaper 077",
      "tags": [
        "dark",
        "wallpaper",
        "hd",
        "mobile"
      ],
      "urls": {
        "raw": "https://media.githubusercontent.com/media/ddh4r4m/wallpaper-collection/main/collection/wallpapers/dark/077.jpg",
        "thumb": "https://media.githubusercontent.com/media/ddh4r4m/wallpaper-collection/main/collection/thumbnails/dark/077.jpg"
      },
      "metadata": {
        "dimensions": {
          "width": 1080,
          "height": 1920
        },
        "file_size": 294669,
        "format": "JPEG",
        "added_at": "2025-07-17T00:03:39.780746",
        "hash": "207863db362e6d4d0317e7825ad37ec8",
        "source": "migrated"
      }
    },
    {
      "id": "dark_078",
      "category": "dark",
      "title": "Dark Wallpaper 078",
      "tags": [
        "dark",
        "wallpaper",
        "hd",
        "mobile"
      ],
      "urls": {
        "raw": "https://media.githubusercontent.com/media/ddh4r4m/wallpaper-collection/main/collection/wallpapers/dark/078.jpg",
        "thumb": "https://media.githubusercontent.com/media/ddh4r4m/wallpaper-collection/main/collection/thumbnails/dark/078.jpg"
      },
      "metadata": {
        "dimensions": {
          "width": 1080,
          "height": 1920
        },
        "file_size": 262975,
        "format": "JPEG",
        "added_at": "2025-07-17T00:03:39.974911",
        "hash": "f9c65b62c8d7245f2c10ae38cfab37dc",
        "source": "migrated"
      }
    },
    {
      "id": "dark_079",
      "category": "dark",
      "title": "Dark Wallpaper 079",
      "tags": [
        "dark",
        "wallpaper",
        "hd",
        "mobile"
      ],
      "urls": {
        "raw": "https://media.githubusercontent.com/media/ddh4r4m/wallpaper-collection/main/collection/wallpapers/dark/079.jpg",
        "thumb": "https://media.githubusercontent.com/media/ddh4r4m/wallpaper-collection/main/collection/thumbnails/dark/079.jpg"
      },
      "metadata": {
        "dimensions": {
          "width": 1080,
          "height": 1920
        },
        "file_size": 191191,
        "format": "JPEG",
        "added_at": "2025-07-17T00:03:40.138784",
        "hash": "5475f1f72a65bb44c834866ee7b755a8",
        "source": "migrated"
      }
    },
    {
      "id": "dark_080",
      "category": "dark",
      "title": "Dark Wallpaper 080",
      "tags": [
        "dark",
        "wallpaper",
        "hd",
        "mobile"
      ],
      "urls": {
        "raw": "https://media.githubusercontent.com/media/ddh4r4m/wallpaper-collection/main/collection/wallpapers/dark/080.jpg",
        "thumb": "https://media.githubusercontent.com/media/ddh4r4m/wallpaper-collection/main/collection/thumbnails/dark/080.jpg"
      },
      "metadata": {
        "dimensions": {
          "width": 1080,
          "height": 1920
        },
        "file_size": 188962,
        "format": "JPEG",
        "added_at": "2025-07-17T00:03:40.292183",
        "hash": "f545ebaf2a336037c6feb2b90fe6927a",
        "source": "migrated"
      }
    }
  ]
}