{
  "meta": {
    "version": "1.0",
    "generated_at": "2025-07-28T23:12:02.393375",
    "page": 93,
    "per_page": 15,
    "total_pages": 183,
    "total_count": 2743,
    "count_on_page": 15,
    "categories": 22,
    "has_next": true,
    "has_prev": true,
    "next_page_url": "/api/v1/all/pages/94.json",
    "prev_page_url": "/api/v1/all/pages/92.json"
  },
  "data": [
    {
      "id": "dark_081",
      "category": "dark",
      "title": "Edgar Allan Poe - Art by me - Reddit AI",
      "tags": [
        "dark",
        "ai-generated",
        "hd",
        "mobile",
        "community"
      ],
      "metadata": {
        "dimensions": {
          "width": 1080,
          "height": 959
        },
        "file_size": 97916,
        "format": "JPEG",
        "added_at": "2025-07-18T00:29:29.253804",
        "hash": "89d206ce49637b66bad50f9fcc676f64",
        "ai_source": "reddit",
        "ai_generated": true,
        "community_score": 13
      },
      "urls": {
        "raw": "https://media.githubusercontent.com/media/ddh4r4m/wallpaper-collection/main/collection/wallpapers/dark/081.jpg",
        "thumb": "https://media.githubusercontent.com/media/ddh4r4m/wallpaper-collection/main/collection/thumbnails/dark/081.jpg"
      }
    },
    {
      "id": "dark_082",
      "category": "dark",
      "title": "Skull, Vincent van Gogh, 1887. - Reddit AI",
      "tags": [
        "dark",
        "ai-generated",
        "hd",
        "mobile",
        "community"
      ],
      "metadata": {
        "dimensions": {
          "width": 882,
          "height": 1200
        },
        "file_size": 180159,
        "format": "JPEG",
        "added_at": "2025-07-18T00:29:30.561450",
        "hash": "3061d5c941e19ecfefd078bb0b050546",
        "ai_source": "reddit",
        "ai_generated": true,
        "community_score": 19
      },
      "urls": {
        "raw": "https://media.githubusercontent.com/media/ddh4r4m/wallpaper-collection/main/collection/wallpapers/dark/082.jpg",
        "thumb": "https://media.githubusercontent.com/media/ddh4r4m/wallpaper-collection/main/collection/thumbnails/dark/082.jpg"
      }
    },
    {
      "id": "dark_083",
      "category": "dark",
      "title": "Satan in Red, Edward Hopper, 1 - Reddit AI",
      "tags": [
        "dark",
        "ai-generated",
        "hd",
        "mobile",
        "community"
      ],
      "metadata": {
        "dimensions": {
          "width": 1080,
          "height": 1453
        },
        "file_size": 310815,
        "format": "JPEG",
        "added_at": "2025-07-18T00:29:32.046647",
        "hash": "588a4021bd3d4c9b305d07983ce0ff77",
        "ai_source": "reddit",
        "ai_generated": true,
        "community_score": 12
      },
      "urls": {
        "raw": "https://media.githubusercontent.com/media/ddh4r4m/wallpaper-collection/main/collection/wallpapers/dark/083.jpg",
        "thumb": "https://media.githubusercontent.com/media/ddh4r4m/wallpaper-collection/main/collection/thumbnails/dark/083.jpg"
      }
    },
    {
      "id": "dark_084",
      "category": "dark",
      "title": "The Meaning of Night, Rene Mag - Reddit AI",
      "tags": [
        "dark",
        "ai-generated",
        "hd",
        "mobile",
        "community"
      ],
      "metadata": {
        "dimensions": {
          "width": 1080,
          "height": 1458
        },
        "file_size": 431687,
        "format": "JPEG",
        "added_at": "2025-07-18T00:29:34.687462",
        "hash": "7df51e8c3b5f629e009cd024a6bede3e",
        "ai_source": "reddit",
        "ai_generated": true,
        "community_score": 13
      },
      "urls": {
        "raw": "https://media.githubusercontent.com/media/ddh4r4m/wallpaper-collection/main/collection/wallpapers/dark/084.jpg",
        "thumb": "https://media.githubusercontent.com/media/ddh4r4m/wallpaper-collection/main/collection/thumbnails/dark/084.jpg"
      }
    },
    {
      "id": "dark_085",
      "category": "dark",
      "title": "The Flayed Angel, Jacques Fabi - Reddit AI",
      "tags": [
        "dark",
        "ai-generated",
        "hd",
        "mobile",
        "community"
      ],
      "metadata": {
        "dimensions": {
          "width": 1080,
          "height": 1337
        },
        "file_size": 464185,
        "format": "JPEG",
        "added_at": "2025-07-18T00:29:38.691136",
        "hash": "9c100d3e612a9dc8e47fa2bd27b58a9b",
        "ai_source": "reddit",
        "ai_generated": true,
        "community_score": 24
      },
      "urls": {
        "raw": "https://media.githubusercontent.com/media/ddh4r4m/wallpaper-collection/main/collection/wallpapers/dark/085.jpg",
        "thumb": "https://media.githubusercontent.com/media/ddh4r4m/wallpaper-collection/main/collection/thumbnails/dark/085.jpg"
      }
    },
    {
      "id": "dark_086",
      "category": "dark",
      "title": "Edgar Allan Poe - Art by me - Reddit AI",
      "tags": [
        "dark",
        "ai-generated",
        "hd",
        "mobile",
        "community"
      ],
      "metadata": {
        "dimensions": {
          "width": 1080,
          "height": 959
        },
        "file_size": 97916,
        "format": "JPEG",
        "added_at": "2025-07-19T11:47:01.907401",
        "hash": "89d206ce49637b66bad50f9fcc676f64",
        "ai_source": "reddit",
        "ai_generated": true,
        "community_score": 12
      },
      "urls": {
        "raw": "https://media.githubusercontent.com/media/ddh4r4m/wallpaper-collection/main/collection/wallpapers/dark/086.jpg",
        "thumb": "https://media.githubusercontent.com/media/ddh4r4m/wallpaper-collection/main/collection/thumbnails/dark/086.jpg"
      }
    },
    {
      "id": "dark_087",
      "category": "dark",
      "title": "Skull, Vincent van Gogh, 1887. - Reddit AI",
      "tags": [
        "dark",
        "ai-generated",
        "hd",
        "mobile",
        "community"
      ],
      "metadata": {
        "dimensions": {
          "width": 882,
          "height": 1200
        },
        "file_size": 180159,
        "format": "JPEG",
        "added_at": "2025-07-19T11:47:02.981661",
        "hash": "3061d5c941e19ecfefd078bb0b050546",
        "ai_source": "reddit",
        "ai_generated": true,
        "community_score": 19
      },
      "urls": {
        "raw": "https://media.githubusercontent.com/media/ddh4r4m/wallpaper-collection/main/collection/wallpapers/dark/087.jpg",
        "thumb": "https://media.githubusercontent.com/media/ddh4r4m/wallpaper-collection/main/collection/thumbnails/dark/087.jpg"
      }
    },
    {
      "id": "dark_088",
      "category": "dark",
      "title": "Satan in Red, Edward Hopper, 1 - Reddit AI",
      "tags": [
        "dark",
        "ai-generated",
        "hd",
        "mobile",
        "community"
      ],
      "metadata": {
        "dimensions": {
          "width": 1080,
          "height": 1453
        },
        "file_size": 310815,
        "format": "JPEG",
        "added_at": "2025-07-19T11:47:04.142429",
        "hash": "588a4021bd3d4c9b305d07983ce0ff77",
        "ai_source": "reddit",
        "ai_generated": true,
        "community_score": 10
      },
      "urls": {
        "raw": "https://media.githubusercontent.com/media/ddh4r4m/wallpaper-collection/main/collection/wallpapers/dark/088.jpg",
        "thumb": "https://media.githubusercontent.com/media/ddh4r4m/wallpaper-collection/main/collection/thumbnails/dark/088.jpg"
      }
    },
    {
      "id": "dark_089",
      "category": "dark",
      "title": "The Meaning of Night, Rene Mag - Reddit AI",
      "tags": [
        "dark",
        "ai-generated",
        "hd",
        "mobile",
        "community"
      ],
      "metadata": {
        "dimensions": {
          "width": 1080,
          "height": 1458
        },
        "file_size": 431687,
        "format": "JPEG",
        "added_at": "2025-07-19T11:47:06.326296",
        "hash": "7df51e8c3b5f629e009cd024a6bede3e",
        "ai_source": "reddit",
        "ai_generated": true,
        "community_score": 14
      },
      "urls": {
        "raw": "https://media.githubusercontent.com/media/ddh4r4m/wallpaper-collection/main/collection/wallpapers/dark/089.jpg",
        "thumb": "https://media.githubusercontent.com/media/ddh4r4m/wallpaper-collection/main/collection/thumbnails/dark/089.jpg"
      }
    },
    {
      "id": "dark_090",
      "category": "dark",
      "title": "The Flayed Angel, Jacques Fabi - Reddit AI",
      "tags": [
        "dark",
        "ai-generated",
        "hd",
        "mobile",
        "community"
      ],
      "metadata": {
        "dimensions": {
          "width": 1080,
          "height": 1337
        },
        "file_size": 464185,
        "format": "JPEG",
        "added_at": "2025-07-19T11:47:09.529658",
        "hash": "9c100d3e612a9dc8e47fa2bd27b58a9b",
        "ai_source": "reddit",
        "ai_generated": true,
        "community_score": 24
      },
      "urls": {
        "raw": "https://media.githubusercontent.com/media/ddh4r4m/wallpaper-collection/main/collection/wallpapers/dark/090.jpg",
        "thumb": "https://media.githubusercontent.com/media/ddh4r4m/wallpaper-collection/main/collection/thumbnails/dark/090.jpg"
      }
    },
    {
      "id": "gaming_001",
      "category": "gaming",
      "title": "Gaming Wallpaper 001",
      "tags": [
        "gaming",
        "wallpaper",
        "hd",
        "mobile"
      ],
      "urls": {
        "raw": "https://media.githubusercontent.com/media/ddh4r4m/wallpaper-collection/main/collection/wallpapers/gaming/001.jpg",
        "thumb": "https://media.githubusercontent.com/media/ddh4r4m/wallpaper-collection/main/collection/thumbnails/gaming/001.jpg"
      },
      "metadata": {
        "dimensions": {
          "width": 1080,
          "height": 1920
        },
        "file_size": 367817,
        "format": "JPEG",
        "added_at": "2025-07-17T00:03:40.484613",
        "hash": "aa8b9e6ea5950f327b74fd0803083e7d",
        "source": "migrated"
      }
    },
    {
      "id": "gaming_002",
      "category": "gaming",
      "title": "Gaming Wallpaper 002",
      "tags": [
        "gaming",
        "wallpaper",
        "hd",
        "mobile"
      ],
      "urls": {
        "raw": "https://media.githubusercontent.com/media/ddh4r4m/wallpaper-collection/main/collection/wallpapers/gaming/002.jpg",
        "thumb": "https://media.githubusercontent.com/media/ddh4r4m/wallpaper-collection/main/collection/thumbnails/gaming/002.jpg"
      },
      "metadata": {
        "dimensions": {
          "width": 1080,
          "height": 1920
        },
        "file_size": 295008,
        "format": "JPEG",
        "added_at": "2025-07-17T00:03:40.729302",
        "hash": "a038d153b3124eebba41e8ac626b4ede",
        "source": "migrated"
      }
    },
    {
      "id": "gaming_003",
      "category": "gaming",
      "title": "Gaming Wallpaper 003",
      "tags": [
        "gaming",
        "wallpaper",
        "hd",
        "mobile"
      ],
      "urls": {
        "raw": "https://media.githubusercontent.com/media/ddh4r4m/wallpaper-collection/main/collection/wallpapers/gaming/003.jpg",
        "thumb": "https://media.githubusercontent.com/media/ddh4r4m/wallpaper-collection/main/collection/thumbnails/gaming/003.jpg"
      },
      "metadata": {
        "dimensions": {
          "width": 1080,
          "height": 1920
        },
        "file_size": 216972,
        "format": "JPEG",
        "added_at": "2025-07-17T00:03:41.012928",
        "hash": "1cb38b2a1cd52ab3ac1c679c624696b9",
        "source": "migrated"
      }
    },
    {
      "id": "gaming_004",
      "category": "gaming",
      "title": "Gaming Wallpaper 004",
      "tags": [
        "gaming",
        "wallpaper",
        "hd",
        "mobile"
      ],
      "urls": {
        "raw": "https://media.githubusercontent.com/media/ddh4r4m/wallpaper-collection/main/collection/wallpapers/gaming/004.jpg",
        "thumb": "https://media.githubusercontent.com/media/ddh4r4m/wallpaper-collection/main/collection/thumbnails/gaming/004.jpg"
      },
      "metadata": {
        "dimensions": {
          "width": 1080,
          "height": 1920
        },
        "file_size": 257938,
        "format": "JPEG",
        "added_at": "2025-07-17T00:03:41.167756",
        "hash": "8bcc15e227cd4bc293a834d97240bfd8",
        "source": "migrated"
      }
    },
    {
      "id": "gaming_005",
      "category": "gaming",
      "title": "Gaming Wallpaper 005",
      "tags": [
        "gaming",
        "wallpaper",
        "hd",
        "mobile"
      ],
      "urls": {
        "raw": "https://media.githubusercontent.com/media/ddh4r4m/wallpaper-collection/main/collection/wallpapers/gaming/005.jpg",
        "thumb": "https://media.githubusercontent.com/media/ddh4r4m/wallpaper-collection/main/collection/thumbnails/gaming/005.jpg"
      },
      "metadata": {
        "dimensions": {
          "width": 1080,
          "height": 1920
        },
        "file_size": 323079,
        "format": "JPEG",
        "added_at": "2025-07-17T00:03:41.443412",
        "hash": "3c104c307968ca996a44dcb8953c90f0",
        "source": "migrated"
      }
    }
  ]
}