{
  "meta": {
    "version": "1.0",
    "generated_at": "2025-07-28T23:12:02.393375",
    "page": 96,
    "per_page": 15,
    "total_pages": 183,
    "total_count": 2743,
    "count_on_page": 15,
    "categories": 22,
    "has_next": true,
    "has_prev": true,
    "next_page_url": "/api/v1/all/pages/97.json",
    "prev_page_url": "/api/v1/all/pages/95.json"
  },
  "data": [
    {
      "id": "gaming_036",
      "category": "gaming",
      "title": "Gaming Wallpaper 036",
      "tags": [
        "gaming",
        "wallpaper",
        "hd",
        "mobile"
      ],
      "urls": {
        "raw": "https://media.githubusercontent.com/media/ddh4r4m/wallpaper-collection/main/collection/wallpapers/gaming/036.jpg",
        "thumb": "https://media.githubusercontent.com/media/ddh4r4m/wallpaper-collection/main/collection/thumbnails/gaming/036.jpg"
      },
      "metadata": {
        "dimensions": {
          "width": 1080,
          "height": 1920
        },
        "file_size": 287668,
        "format": "JPEG",
        "added_at": "2025-07-17T00:03:49.470369",
        "hash": "ff031666dcf91fa2b1d9247d28d859bf",
        "source": "migrated"
      }
    },
    {
      "id": "gaming_037",
      "category": "gaming",
      "title": "Gaming Wallpaper 037",
      "tags": [
        "gaming",
        "wallpaper",
        "hd",
        "mobile"
      ],
      "urls": {
        "raw": "https://media.githubusercontent.com/media/ddh4r4m/wallpaper-collection/main/collection/wallpapers/gaming/037.jpg",
        "thumb": "https://media.githubusercontent.com/media/ddh4r4m/wallpaper-collection/main/collection/thumbnails/gaming/037.jpg"
      },
      "metadata": {
        "dimensions": {
          "width": 1080,
          "height": 1920
        },
        "file_size": 487535,
        "format": "JPEG",
        "added_at": "2025-07-17T00:03:49.729149",
        "hash": "d6227304f031aeb8596de39d0e427e06",
        "source": "migrated"
      }
    },
    {
      "id": "gaming_038",
      "category": "gaming",
      "title": "Gaming Wallpaper 038",
      "tags": [
        "gaming",
        "wallpaper",
        "hd",
        "mobile"
      ],
      "urls": {
        "raw": "https://media.githubusercontent.com/media/ddh4r4m/wallpaper-collection/main/collection/wallpapers/gaming/038.jpg",
        "thumb": "https://media.githubusercontent.com/media/ddh4r4m/wallpaper-collection/main/collection/thumbnails/gaming/038.jpg"
      },
      "metadata": {
        "dimensions": {
          "width": 1080,
          "height": 1920
        },
        "file_size": 424300,
        "format": "JPEG",
        "added_at": "2025-07-17T00:03:49.880523",
        "hash": "c88a0b162f7d3065eaba4415db6ea6db",
        "source": "migrated"
      }
    },
    {
      "id": "gaming_039",
      "category": "gaming",
      "title": "Gaming Wallpaper 039",
      "tags": [
        "gaming",
        "wallpaper",
        "hd",
        "mobile"
      ],
      "urls": {
        "raw": "https://media.githubusercontent.com/media/ddh4r4m/wallpaper-collection/main/collection/wallpapers/gaming/039.jpg",
        "thumb": "https://media.githubusercontent.com/media/ddh4r4m/wallpaper-collection/main/collection/thumbnails/gaming/039.jpg"
      },
      "metadata": {
        "dimensions": {
          "width": 1080,
          "height": 1920
        },
        "file_size": 319957,
        "format": "JPEG",
        "added_at": "2025-07-17T00:03:50.082524",
        "hash": "f2759891c3d5e080daa23e5043be0913",
        "source": "migrated"
      }
    },
    {
      "id": "gaming_040",
      "category": "gaming",
      "title": "Gaming Wallpaper 040",
      "tags": [
        "gaming",
        "wallpaper",
        "hd",
        "mobile"
      ],
      "urls": {
        "raw": "https://media.githubusercontent.com/media/ddh4r4m/wallpaper-collection/main/collection/wallpapers/gaming/040.jpg",
        "thumb": "https://media.githubusercontent.com/media/ddh4r4m/wallpaper-collection/main/collection/thumbnails/gaming/040.jpg"
      },
      "metadata": {
        "dimensions": {
          "width": 1080,
          "height": 1920
        },
        "file_size": 175395,
        "format": "JPEG",
        "added_at": "2025-07-17T00:03:50.345331",
        "hash": "3946957e253d7fd7fa67d491e50e9856",
        "source": "migrated"
      }
    },
    {
      "id": "gaming_041",
      "category": "gaming",
      "title": "Gaming Wallpaper 041",
      "tags": [
        "gaming",
        "wallpaper",
        "hd",
        "mobile"
      ],
      "urls": {
        "raw": "https://media.githubusercontent.com/media/ddh4r4m/wallpaper-collection/main/collection/wallpapers/gaming/041.jpg",
        "thumb": "https://media.githubusercontent.com/media/ddh4r4m/wallpaper-collection/main/collection/thumbnails/gaming/041.jpg"
      },
      "metadata": {
        "dimensions": {
          "width": 1080,
          "height": 1920
        },
        "file_size": 392444,
        "format": "JPEG",
        "added_at": "2025-07-17T00:03:50.554735",
        "hash": "3eaf6db6db719a50eb7803b2d739dc90",
        "source": "migrated"
      }
    },
    {
      "id": "gaming_042",
      "category": "gaming",
      "title": "Gaming Wallpaper 042",
      "tags": [
        "gaming",
        "wallpaper",
        "hd",
        "mobile"
      ],
      "urls": {
        "raw": "https://media.githubusercontent.com/media/ddh4r4m/wallpaper-collection/main/collection/wallpapers/gaming/042.jpg",
        "thumb": "https://media.githubusercontent.com/media/ddh4r4m/wallpaper-collection/main/collection/thumbnails/gaming/042.jpg"
      },
      "metadata": {
        "dimensions": {
          "width": 1080,
          "height": 1920
        },
        "file_size": 228783,
        "format": "JPEG",
        "added_at": "2025-07-17T00:03:51.057003",
        "hash": "4c0c3b3b4d26e9c888f1abf8f0cb352d",
        "source": "migrated"
      }
    },
    {
      "id": "gaming_043",
      "category": "gaming",
      "title": "Gaming Wallpaper 043",
      "tags": [
        "gaming",
        "wallpaper",
        "hd",
        "mobile"
      ],
      "urls": {
        "raw": "https://media.githubusercontent.com/media/ddh4r4m/wallpaper-collection/main/collection/wallpapers/gaming/043.jpg",
        "thumb": "https://media.githubusercontent.com/media/ddh4r4m/wallpaper-collection/main/collection/thumbnails/gaming/043.jpg"
      },
      "metadata": {
        "dimensions": {
          "width": 1080,
          "height": 1920
        },
        "file_size": 333824,
        "format": "JPEG",
        "added_at": "2025-07-17T00:03:51.515178",
        "hash": "d9cb08b613a110db7def8b5bf452b374",
        "source": "migrated"
      }
    },
    {
      "id": "gaming_044",
      "category": "gaming",
      "title": "Gaming Wallpaper 044",
      "tags": [
        "gaming",
        "wallpaper",
        "hd",
        "mobile"
      ],
      "urls": {
        "raw": "https://media.githubusercontent.com/media/ddh4r4m/wallpaper-collection/main/collection/wallpapers/gaming/044.jpg",
        "thumb": "https://media.githubusercontent.com/media/ddh4r4m/wallpaper-collection/main/collection/thumbnails/gaming/044.jpg"
      },
      "metadata": {
        "dimensions": {
          "width": 1080,
          "height": 1920
        },
        "file_size": 273696,
        "format": "JPEG",
        "added_at": "2025-07-17T00:03:51.826112",
        "hash": "9666593cccd2be624532f8b702d4e351",
        "source": "migrated"
      }
    },
    {
      "id": "gaming_045",
      "category": "gaming",
      "title": "Gaming Wallpaper 045",
      "tags": [
        "gaming",
        "wallpaper",
        "hd",
        "mobile"
      ],
      "urls": {
        "raw": "https://media.githubusercontent.com/media/ddh4r4m/wallpaper-collection/main/collection/wallpapers/gaming/045.jpg",
        "thumb": "https://media.githubusercontent.com/media/ddh4r4m/wallpaper-collection/main/collection/thumbnails/gaming/045.jpg"
      },
      "metadata": {
        "dimensions": {
          "width": 1080,
          "height": 1920
        },
        "file_size": 376567,
        "format": "JPEG",
        "added_at": "2025-07-17T00:03:52.079640",
        "hash": "c23d9018418382d547d1adf4db7a2a93",
        "source": "migrated"
      }
    },
    {
      "id": "gaming_046",
      "category": "gaming",
      "title": "Gaming Wallpaper 046",
      "tags": [
        "gaming",
        "wallpaper",
        "hd",
        "mobile"
      ],
      "urls": {
        "raw": "https://media.githubusercontent.com/media/ddh4r4m/wallpaper-collection/main/collection/wallpapers/gaming/046.jpg",
        "thumb": "https://media.githubusercontent.com/media/ddh4r4m/wallpaper-collection/main/collection/thumbnails/gaming/046.jpg"
      },
      "metadata": {
        "dimensions": {
          "width": 1080,
          "height": 1920
        },
        "file_size": 308849,
        "format": "JPEG",
        "added_at": "2025-07-17T00:03:52.285804",
        "hash": "13fe042b9eba624a301bb2ecf67070ab",
        "source": "migrated"
      }
    },
    {
      "id": "gaming_047",
      "category": "gaming",
      "title": "Gaming Wallpaper 047",
      "tags": [
        "gaming",
        "wallpaper",
        "hd",
        "mobile"
      ],
      "urls": {
        "raw": "https://media.githubusercontent.com/media/ddh4r4m/wallpaper-collection/main/collection/wallpapers/gaming/047.jpg",
        "thumb": "https://media.githubusercontent.com/media/ddh4r4m/wallpaper-collection/main/collection/thumbnails/gaming/047.jpg"
      },
      "metadata": {
        "dimensions": {
          "width": 1080,
          "height": 1920
        },
        "file_size": 172236,
        "format": "JPEG",
        "added_at": "2025-07-17T00:03:52.475921",
        "hash": "d16b2fe2c1bec004129cea1e89cfd6d1",
        "source": "migrated"
      }
    },
    {
      "id": "gaming_048",
      "category": "gaming",
      "title": "Gaming Wallpaper 048",
      "tags": [
        "gaming",
        "wallpaper",
        "hd",
        "mobile"
      ],
      "urls": {
        "raw": "https://media.githubusercontent.com/media/ddh4r4m/wallpaper-collection/main/collection/wallpapers/gaming/048.jpg",
        "thumb": "https://media.githubusercontent.com/media/ddh4r4m/wallpaper-collection/main/collection/thumbnails/gaming/048.jpg"
      },
      "metadata": {
        "dimensions": {
          "width": 1080,
          "height": 1920
        },
        "file_size": 172608,
        "format": "JPEG",
        "added_at": "2025-07-17T00:03:52.670683",
        "hash": "f85104c2765ffb9949914dde7a62b99d",
        "source": "migrated"
      }
    },
    {
      "id": "gaming_049",
      "category": "gaming",
      "title": "Gaming Wallpaper 049",
      "tags": [
        "gaming",
        "wallpaper",
        "hd",
        "mobile"
      ],
      "urls": {
        "raw": "https://media.githubusercontent.com/media/ddh4r4m/wallpaper-collection/main/collection/wallpapers/gaming/049.jpg",
        "thumb": "https://media.githubusercontent.com/media/ddh4r4m/wallpaper-collection/main/collection/thumbnails/gaming/049.jpg"
      },
      "metadata": {
        "dimensions": {
          "width": 1080,
          "height": 1920
        },
        "file_size": 313529,
        "format": "JPEG",
        "added_at": "2025-07-17T00:03:52.909519",
        "hash": "9a7cd009d9f6a39195dba8e3a8042f8e",
        "source": "migrated"
      }
    },
    {
      "id": "gaming_050",
      "category": "gaming",
      "title": "Gaming Wallpaper 050",
      "tags": [
        "gaming",
        "wallpaper",
        "hd",
        "mobile"
      ],
      "urls": {
        "raw": "https://media.githubusercontent.com/media/ddh4r4m/wallpaper-collection/main/collection/wallpapers/gaming/050.jpg",
        "thumb": "https://media.githubusercontent.com/media/ddh4r4m/wallpaper-collection/main/collection/thumbnails/gaming/050.jpg"
      },
      "metadata": {
        "dimensions": {
          "width": 1080,
          "height": 1920
        },
        "file_size": 228613,
        "format": "JPEG",
        "added_at": "2025-07-17T00:03:53.198472",
        "hash": "f515ccfa30d9f83b5d5de31d5f0764d6",
        "source": "migrated"
      }
    }
  ]
}