{
  "meta": {
    "version": "1.0",
    "generated_at": "2025-07-28T23:12:02.393375",
    "page": 97,
    "per_page": 15,
    "total_pages": 183,
    "total_count": 2743,
    "count_on_page": 15,
    "categories": 22,
    "has_next": true,
    "has_prev": true,
    "next_page_url": "/api/v1/all/pages/98.json",
    "prev_page_url": "/api/v1/all/pages/96.json"
  },
  "data": [
    {
      "id": "gaming_051",
      "category": "gaming",
      "title": "Gaming Wallpaper 051",
      "tags": [
        "gaming",
        "wallpaper",
        "hd",
        "mobile"
      ],
      "urls": {
        "raw": "https://media.githubusercontent.com/media/ddh4r4m/wallpaper-collection/main/collection/wallpapers/gaming/051.jpg",
        "thumb": "https://media.githubusercontent.com/media/ddh4r4m/wallpaper-collection/main/collection/thumbnails/gaming/051.jpg"
      },
      "metadata": {
        "dimensions": {
          "width": 1080,
          "height": 1920
        },
        "file_size": 224973,
        "format": "JPEG",
        "added_at": "2025-07-17T00:03:53.394390",
        "hash": "e1d53859b8de3097414df71c662f0513",
        "source": "migrated"
      }
    },
    {
      "id": "gaming_052",
      "category": "gaming",
      "title": "Gaming Wallpaper 052",
      "tags": [
        "gaming",
        "wallpaper",
        "hd",
        "mobile"
      ],
      "urls": {
        "raw": "https://media.githubusercontent.com/media/ddh4r4m/wallpaper-collection/main/collection/wallpapers/gaming/052.jpg",
        "thumb": "https://media.githubusercontent.com/media/ddh4r4m/wallpaper-collection/main/collection/thumbnails/gaming/052.jpg"
      },
      "metadata": {
        "dimensions": {
          "width": 1080,
          "height": 1920
        },
        "file_size": 103605,
        "format": "JPEG",
        "added_at": "2025-07-17T00:03:53.625812",
        "hash": "a92776c21a628a79aa0edad245a948ee",
        "source": "migrated"
      }
    },
    {
      "id": "gaming_053",
      "category": "gaming",
      "title": "Gaming Wallpaper 053",
      "tags": [
        "gaming",
        "wallpaper",
        "hd",
        "mobile"
      ],
      "urls": {
        "raw": "https://media.githubusercontent.com/media/ddh4r4m/wallpaper-collection/main/collection/wallpapers/gaming/053.jpg",
        "thumb": "https://media.githubusercontent.com/media/ddh4r4m/wallpaper-collection/main/collection/thumbnails/gaming/053.jpg"
      },
      "metadata": {
        "dimensions": {
          "width": 1080,
          "height": 1920
        },
        "file_size": 180848,
        "format": "JPEG",
        "added_at": "2025-07-17T00:03:53.807228",
        "hash": "a5f44679aec995055bd126da420b8c5d",
        "source": "migrated"
      }
    },
    {
      "id": "gaming_054",
      "category": "gaming",
      "title": "Gaming Wallpaper 054",
      "tags": [
        "gaming",
        "wallpaper",
        "hd",
        "mobile"
      ],
      "urls": {
        "raw": "https://media.githubusercontent.com/media/ddh4r4m/wallpaper-collection/main/collection/wallpapers/gaming/054.jpg",
        "thumb": "https://media.githubusercontent.com/media/ddh4r4m/wallpaper-collection/main/collection/thumbnails/gaming/054.jpg"
      },
      "metadata": {
        "dimensions": {
          "width": 1080,
          "height": 1920
        },
        "file_size": 83910,
        "format": "JPEG",
        "added_at": "2025-07-17T00:03:53.984754",
        "hash": "e6971be5e37f4a2da5bab1dfb4340b3b",
        "source": "migrated"
      }
    },
    {
      "id": "gaming_055",
      "category": "gaming",
      "title": "Gaming Wallpaper 055",
      "tags": [
        "gaming",
        "wallpaper",
        "hd",
        "mobile"
      ],
      "urls": {
        "raw": "https://media.githubusercontent.com/media/ddh4r4m/wallpaper-collection/main/collection/wallpapers/gaming/055.jpg",
        "thumb": "https://media.githubusercontent.com/media/ddh4r4m/wallpaper-collection/main/collection/thumbnails/gaming/055.jpg"
      },
      "metadata": {
        "dimensions": {
          "width": 1080,
          "height": 1920
        },
        "file_size": 315881,
        "format": "JPEG",
        "added_at": "2025-07-17T00:03:54.187744",
        "hash": "a68fca8de1852cb9a11813df40176c96",
        "source": "migrated"
      }
    },
    {
      "id": "gaming_056",
      "category": "gaming",
      "title": "Gaming Wallpaper 056",
      "tags": [
        "gaming",
        "wallpaper",
        "hd",
        "mobile"
      ],
      "urls": {
        "raw": "https://media.githubusercontent.com/media/ddh4r4m/wallpaper-collection/main/collection/wallpapers/gaming/056.jpg",
        "thumb": "https://media.githubusercontent.com/media/ddh4r4m/wallpaper-collection/main/collection/thumbnails/gaming/056.jpg"
      },
      "metadata": {
        "dimensions": {
          "width": 1080,
          "height": 1920
        },
        "file_size": 238654,
        "format": "JPEG",
        "added_at": "2025-07-17T00:03:54.419942",
        "hash": "ce6bb9f2d283442143998ff93978fe34",
        "source": "migrated"
      }
    },
    {
      "id": "gaming_057",
      "category": "gaming",
      "title": "Gaming Wallpaper 057",
      "tags": [
        "gaming",
        "wallpaper",
        "hd",
        "mobile"
      ],
      "urls": {
        "raw": "https://media.githubusercontent.com/media/ddh4r4m/wallpaper-collection/main/collection/wallpapers/gaming/057.jpg",
        "thumb": "https://media.githubusercontent.com/media/ddh4r4m/wallpaper-collection/main/collection/thumbnails/gaming/057.jpg"
      },
      "metadata": {
        "dimensions": {
          "width": 1080,
          "height": 1920
        },
        "file_size": 411479,
        "format": "JPEG",
        "added_at": "2025-07-17T00:03:54.609783",
        "hash": "c6b227495198b34d852872b6e7038515",
        "source": "migrated"
      }
    },
    {
      "id": "gaming_058",
      "category": "gaming",
      "title": "Gaming Wallpaper 058",
      "tags": [
        "gaming",
        "wallpaper",
        "hd",
        "mobile"
      ],
      "urls": {
        "raw": "https://media.githubusercontent.com/media/ddh4r4m/wallpaper-collection/main/collection/wallpapers/gaming/058.jpg",
        "thumb": "https://media.githubusercontent.com/media/ddh4r4m/wallpaper-collection/main/collection/thumbnails/gaming/058.jpg"
      },
      "metadata": {
        "dimensions": {
          "width": 1080,
          "height": 1920
        },
        "file_size": 163245,
        "format": "JPEG",
        "added_at": "2025-07-17T00:03:55.074942",
        "hash": "fb425ea9f9ea2f4f76e7e59adda49a19",
        "source": "migrated"
      }
    },
    {
      "id": "gaming_059",
      "category": "gaming",
      "title": "Gaming Wallpaper 059",
      "tags": [
        "gaming",
        "wallpaper",
        "hd",
        "mobile"
      ],
      "urls": {
        "raw": "https://media.githubusercontent.com/media/ddh4r4m/wallpaper-collection/main/collection/wallpapers/gaming/059.jpg",
        "thumb": "https://media.githubusercontent.com/media/ddh4r4m/wallpaper-collection/main/collection/thumbnails/gaming/059.jpg"
      },
      "metadata": {
        "dimensions": {
          "width": 1080,
          "height": 1920
        },
        "file_size": 221578,
        "format": "JPEG",
        "added_at": "2025-07-17T00:03:55.504433",
        "hash": "b066a64a4f8943dd8f4cdf8681b4636f",
        "source": "migrated"
      }
    },
    {
      "id": "gaming_060",
      "category": "gaming",
      "title": "Gaming Wallpaper 060",
      "tags": [
        "gaming",
        "wallpaper",
        "hd",
        "mobile"
      ],
      "urls": {
        "raw": "https://media.githubusercontent.com/media/ddh4r4m/wallpaper-collection/main/collection/wallpapers/gaming/060.jpg",
        "thumb": "https://media.githubusercontent.com/media/ddh4r4m/wallpaper-collection/main/collection/thumbnails/gaming/060.jpg"
      },
      "metadata": {
        "dimensions": {
          "width": 1080,
          "height": 1920
        },
        "file_size": 492415,
        "format": "JPEG",
        "added_at": "2025-07-17T00:03:55.950235",
        "hash": "f14598a18f830a8d3b289f3757fcd96e",
        "source": "migrated"
      }
    },
    {
      "id": "gaming_061",
      "category": "gaming",
      "title": "Gaming Wallpaper 061",
      "tags": [
        "gaming",
        "wallpaper",
        "hd",
        "mobile"
      ],
      "urls": {
        "raw": "https://media.githubusercontent.com/media/ddh4r4m/wallpaper-collection/main/collection/wallpapers/gaming/061.jpg",
        "thumb": "https://media.githubusercontent.com/media/ddh4r4m/wallpaper-collection/main/collection/thumbnails/gaming/061.jpg"
      },
      "metadata": {
        "dimensions": {
          "width": 1080,
          "height": 1920
        },
        "file_size": 144059,
        "format": "JPEG",
        "added_at": "2025-07-17T00:03:56.129325",
        "hash": "b4c0f7afd42a078ab69b876a12f4731f",
        "source": "migrated"
      }
    },
    {
      "id": "gaming_062",
      "category": "gaming",
      "title": "Gaming Wallpaper 062",
      "tags": [
        "gaming",
        "wallpaper",
        "hd",
        "mobile"
      ],
      "urls": {
        "raw": "https://media.githubusercontent.com/media/ddh4r4m/wallpaper-collection/main/collection/wallpapers/gaming/062.jpg",
        "thumb": "https://media.githubusercontent.com/media/ddh4r4m/wallpaper-collection/main/collection/thumbnails/gaming/062.jpg"
      },
      "metadata": {
        "dimensions": {
          "width": 1080,
          "height": 1920
        },
        "file_size": 272188,
        "format": "JPEG",
        "added_at": "2025-07-17T00:03:56.850335",
        "hash": "482fc81c19832dee6dcd5f2243d2f1cb",
        "source": "migrated"
      }
    },
    {
      "id": "gaming_063",
      "category": "gaming",
      "title": "Gaming Wallpaper 063",
      "tags": [
        "gaming",
        "wallpaper",
        "hd",
        "mobile"
      ],
      "urls": {
        "raw": "https://media.githubusercontent.com/media/ddh4r4m/wallpaper-collection/main/collection/wallpapers/gaming/063.jpg",
        "thumb": "https://media.githubusercontent.com/media/ddh4r4m/wallpaper-collection/main/collection/thumbnails/gaming/063.jpg"
      },
      "metadata": {
        "dimensions": {
          "width": 1080,
          "height": 1920
        },
        "file_size": 249948,
        "format": "JPEG",
        "added_at": "2025-07-17T00:03:56.991538",
        "hash": "f6f04431db616229657bb62648b01cb4",
        "source": "migrated"
      }
    },
    {
      "id": "gaming_064",
      "category": "gaming",
      "title": "Gaming Wallpaper 064",
      "tags": [
        "gaming",
        "wallpaper",
        "hd",
        "mobile"
      ],
      "urls": {
        "raw": "https://media.githubusercontent.com/media/ddh4r4m/wallpaper-collection/main/collection/wallpapers/gaming/064.jpg",
        "thumb": "https://media.githubusercontent.com/media/ddh4r4m/wallpaper-collection/main/collection/thumbnails/gaming/064.jpg"
      },
      "metadata": {
        "dimensions": {
          "width": 1080,
          "height": 1920
        },
        "file_size": 200743,
        "format": "JPEG",
        "added_at": "2025-07-17T00:03:57.152599",
        "hash": "29364a3a6eb5139aa8629b448d84ae40",
        "source": "migrated"
      }
    },
    {
      "id": "gaming_065",
      "category": "gaming",
      "title": "Gaming Wallpaper 065",
      "tags": [
        "gaming",
        "wallpaper",
        "hd",
        "mobile"
      ],
      "urls": {
        "raw": "https://media.githubusercontent.com/media/ddh4r4m/wallpaper-collection/main/collection/wallpapers/gaming/065.jpg",
        "thumb": "https://media.githubusercontent.com/media/ddh4r4m/wallpaper-collection/main/collection/thumbnails/gaming/065.jpg"
      },
      "metadata": {
        "dimensions": {
          "width": 1080,
          "height": 1920
        },
        "file_size": 117678,
        "format": "JPEG",
        "added_at": "2025-07-17T00:03:57.307627",
        "hash": "7ee0502fef0e2ad552a6f1f32edbf25b",
        "source": "migrated"
      }
    }
  ]
}