{
  "meta": {
    "version": "1.0",
    "generated_at": "2025-07-28T23:12:02.393375",
    "page": 98,
    "per_page": 15,
    "total_pages": 183,
    "total_count": 2743,
    "count_on_page": 15,
    "categories": 22,
    "has_next": true,
    "has_prev": true,
    "next_page_url": "/api/v1/all/pages/99.json",
    "prev_page_url": "/api/v1/all/pages/97.json"
  },
  "data": [
    {
      "id": "gaming_066",
      "category": "gaming",
      "title": "Gaming Wallpaper 066",
      "tags": [
        "gaming",
        "wallpaper",
        "hd",
        "mobile"
      ],
      "urls": {
        "raw": "https://media.githubusercontent.com/media/ddh4r4m/wallpaper-collection/main/collection/wallpapers/gaming/066.jpg",
        "thumb": "https://media.githubusercontent.com/media/ddh4r4m/wallpaper-collection/main/collection/thumbnails/gaming/066.jpg"
      },
      "metadata": {
        "dimensions": {
          "width": 1080,
          "height": 1920
        },
        "file_size": 275237,
        "format": "JPEG",
        "added_at": "2025-07-17T00:03:57.450452",
        "hash": "cbc5bc774f09a7d017e4abcad27cf71d",
        "source": "migrated"
      }
    },
    {
      "id": "gaming_067",
      "category": "gaming",
      "title": "Gaming Wallpaper 067",
      "tags": [
        "gaming",
        "wallpaper",
        "hd",
        "mobile"
      ],
      "urls": {
        "raw": "https://media.githubusercontent.com/media/ddh4r4m/wallpaper-collection/main/collection/wallpapers/gaming/067.jpg",
        "thumb": "https://media.githubusercontent.com/media/ddh4r4m/wallpaper-collection/main/collection/thumbnails/gaming/067.jpg"
      },
      "metadata": {
        "dimensions": {
          "width": 1080,
          "height": 1920
        },
        "file_size": 215444,
        "format": "JPEG",
        "added_at": "2025-07-17T00:03:57.529195",
        "hash": "9d5cf8461d44a721bcb23d659f9e16c2",
        "source": "migrated"
      }
    },
    {
      "id": "gaming_068",
      "category": "gaming",
      "title": "Gaming Wallpaper 068",
      "tags": [
        "gaming",
        "wallpaper",
        "hd",
        "mobile"
      ],
      "urls": {
        "raw": "https://media.githubusercontent.com/media/ddh4r4m/wallpaper-collection/main/collection/wallpapers/gaming/068.jpg",
        "thumb": "https://media.githubusercontent.com/media/ddh4r4m/wallpaper-collection/main/collection/thumbnails/gaming/068.jpg"
      },
      "metadata": {
        "dimensions": {
          "width": 1080,
          "height": 1920
        },
        "file_size": 238485,
        "format": "JPEG",
        "added_at": "2025-07-17T00:03:58.225573",
        "hash": "5c1374488faa64c9f5aa49ef0a28982a",
        "source": "migrated"
      }
    },
    {
      "id": "gaming_069",
      "category": "gaming",
      "title": "Gaming Wallpaper 069",
      "tags": [
        "gaming",
        "wallpaper",
        "hd",
        "mobile"
      ],
      "urls": {
        "raw": "https://media.githubusercontent.com/media/ddh4r4m/wallpaper-collection/main/collection/wallpapers/gaming/069.jpg",
        "thumb": "https://media.githubusercontent.com/media/ddh4r4m/wallpaper-collection/main/collection/thumbnails/gaming/069.jpg"
      },
      "metadata": {
        "dimensions": {
          "width": 1080,
          "height": 1920
        },
        "file_size": 404546,
        "format": "JPEG",
        "added_at": "2025-07-17T00:03:58.505307",
        "hash": "834a8beda8a9cb70fbdcc37024f323b1",
        "source": "migrated"
      }
    },
    {
      "id": "gaming_070",
      "category": "gaming",
      "title": "Gaming Wallpaper 070",
      "tags": [
        "gaming",
        "wallpaper",
        "hd",
        "mobile"
      ],
      "urls": {
        "raw": "https://media.githubusercontent.com/media/ddh4r4m/wallpaper-collection/main/collection/wallpapers/gaming/070.jpg",
        "thumb": "https://media.githubusercontent.com/media/ddh4r4m/wallpaper-collection/main/collection/thumbnails/gaming/070.jpg"
      },
      "metadata": {
        "dimensions": {
          "width": 1080,
          "height": 1920
        },
        "file_size": 131464,
        "format": "JPEG",
        "added_at": "2025-07-17T00:03:58.769215",
        "hash": "3e3a2ebb057c60fd078b51a8471d4da3",
        "source": "migrated"
      }
    },
    {
      "id": "gaming_071",
      "category": "gaming",
      "title": "Gaming Wallpaper 071",
      "tags": [
        "gaming",
        "wallpaper",
        "hd",
        "mobile"
      ],
      "urls": {
        "raw": "https://media.githubusercontent.com/media/ddh4r4m/wallpaper-collection/main/collection/wallpapers/gaming/071.jpg",
        "thumb": "https://media.githubusercontent.com/media/ddh4r4m/wallpaper-collection/main/collection/thumbnails/gaming/071.jpg"
      },
      "metadata": {
        "dimensions": {
          "width": 1080,
          "height": 1920
        },
        "file_size": 529073,
        "format": "JPEG",
        "added_at": "2025-07-17T00:03:58.975352",
        "hash": "b7d550cc5bbd85944d840ac324083acd",
        "source": "migrated"
      }
    },
    {
      "id": "gaming_072",
      "category": "gaming",
      "title": "Gaming Wallpaper 072",
      "tags": [
        "gaming",
        "wallpaper",
        "hd",
        "mobile"
      ],
      "urls": {
        "raw": "https://media.githubusercontent.com/media/ddh4r4m/wallpaper-collection/main/collection/wallpapers/gaming/072.jpg",
        "thumb": "https://media.githubusercontent.com/media/ddh4r4m/wallpaper-collection/main/collection/thumbnails/gaming/072.jpg"
      },
      "metadata": {
        "dimensions": {
          "width": 1080,
          "height": 1920
        },
        "file_size": 103660,
        "format": "JPEG",
        "added_at": "2025-07-17T00:03:59.264838",
        "hash": "9218a903e0900d3639fdbc3a452bfb59",
        "source": "migrated"
      }
    },
    {
      "id": "gaming_073",
      "category": "gaming",
      "title": "Gaming Wallpaper 073",
      "tags": [
        "gaming",
        "wallpaper",
        "hd",
        "mobile"
      ],
      "urls": {
        "raw": "https://media.githubusercontent.com/media/ddh4r4m/wallpaper-collection/main/collection/wallpapers/gaming/073.jpg",
        "thumb": "https://media.githubusercontent.com/media/ddh4r4m/wallpaper-collection/main/collection/thumbnails/gaming/073.jpg"
      },
      "metadata": {
        "dimensions": {
          "width": 1080,
          "height": 1920
        },
        "file_size": 301902,
        "format": "JPEG",
        "added_at": "2025-07-17T00:03:59.493472",
        "hash": "6c595a8041999e4a24e9b3237bc53956",
        "source": "migrated"
      }
    },
    {
      "id": "gaming_074",
      "category": "gaming",
      "title": "Gaming Wallpaper 074",
      "tags": [
        "gaming",
        "wallpaper",
        "hd",
        "mobile"
      ],
      "urls": {
        "raw": "https://media.githubusercontent.com/media/ddh4r4m/wallpaper-collection/main/collection/wallpapers/gaming/074.jpg",
        "thumb": "https://media.githubusercontent.com/media/ddh4r4m/wallpaper-collection/main/collection/thumbnails/gaming/074.jpg"
      },
      "metadata": {
        "dimensions": {
          "width": 1080,
          "height": 1920
        },
        "file_size": 317329,
        "format": "JPEG",
        "added_at": "2025-07-17T00:03:59.792003",
        "hash": "69e6a3093e2580216258f2cb5170d385",
        "source": "migrated"
      }
    },
    {
      "id": "gaming_075",
      "category": "gaming",
      "title": "Gaming Wallpaper 075",
      "tags": [
        "gaming",
        "wallpaper",
        "hd",
        "mobile"
      ],
      "urls": {
        "raw": "https://media.githubusercontent.com/media/ddh4r4m/wallpaper-collection/main/collection/wallpapers/gaming/075.jpg",
        "thumb": "https://media.githubusercontent.com/media/ddh4r4m/wallpaper-collection/main/collection/thumbnails/gaming/075.jpg"
      },
      "metadata": {
        "dimensions": {
          "width": 1080,
          "height": 1920
        },
        "file_size": 35834,
        "format": "JPEG",
        "added_at": "2025-07-17T00:03:59.999485",
        "hash": "b4d75bffb2cd69d72f7ccc92962ef9d2",
        "source": "migrated"
      }
    },
    {
      "id": "gaming_076",
      "category": "gaming",
      "title": "Gaming Wallpaper 076",
      "tags": [
        "gaming",
        "wallpaper",
        "hd",
        "mobile"
      ],
      "urls": {
        "raw": "https://media.githubusercontent.com/media/ddh4r4m/wallpaper-collection/main/collection/wallpapers/gaming/076.jpg",
        "thumb": "https://media.githubusercontent.com/media/ddh4r4m/wallpaper-collection/main/collection/thumbnails/gaming/076.jpg"
      },
      "metadata": {
        "dimensions": {
          "width": 1080,
          "height": 1920
        },
        "file_size": 617679,
        "format": "JPEG",
        "added_at": "2025-07-17T00:04:00.225084",
        "hash": "d3be692e87b6405ea040b1028df7c680",
        "source": "migrated"
      }
    },
    {
      "id": "gaming_077",
      "category": "gaming",
      "title": "Gaming Wallpaper",
      "tags": [
        "gaming",
        "unsplash",
        "hd",
        "mobile"
      ],
      "metadata": {
        "dimensions": {
          "width": 1080,
          "height": 720
        },
        "file_size": 90489,
        "format": "JPEG",
        "added_at": "2025-07-18T00:30:28.731568",
        "hash": "fec21c45cc583f13ab7297731e69b54b",
        "photographer": "Unknown"
      },
      "urls": {
        "raw": "https://media.githubusercontent.com/media/ddh4r4m/wallpaper-collection/main/collection/wallpapers/gaming/077.jpg",
        "thumb": "https://media.githubusercontent.com/media/ddh4r4m/wallpaper-collection/main/collection/thumbnails/gaming/077.jpg"
      }
    },
    {
      "id": "gaming_078",
      "category": "gaming",
      "title": "Gaming Wallpaper",
      "tags": [
        "gaming",
        "unsplash",
        "hd",
        "mobile"
      ],
      "metadata": {
        "dimensions": {
          "width": 1080,
          "height": 720
        },
        "file_size": 127693,
        "format": "JPEG",
        "added_at": "2025-07-18T00:30:31.033033",
        "hash": "99a4fc308971f1bf5907e977ff9c166e",
        "photographer": "Unknown"
      },
      "urls": {
        "raw": "https://media.githubusercontent.com/media/ddh4r4m/wallpaper-collection/main/collection/wallpapers/gaming/078.jpg",
        "thumb": "https://media.githubusercontent.com/media/ddh4r4m/wallpaper-collection/main/collection/thumbnails/gaming/078.jpg"
      }
    },
    {
      "id": "gaming_079",
      "category": "gaming",
      "title": "Gaming Wallpaper",
      "tags": [
        "gaming",
        "unsplash",
        "hd",
        "mobile"
      ],
      "metadata": {
        "dimensions": {
          "width": 1080,
          "height": 720
        },
        "file_size": 74328,
        "format": "JPEG",
        "added_at": "2025-07-18T00:30:34.466734",
        "hash": "3e0eb1ae4e68c908776f80caa69ff600",
        "photographer": "Unknown"
      },
      "urls": {
        "raw": "https://media.githubusercontent.com/media/ddh4r4m/wallpaper-collection/main/collection/wallpapers/gaming/079.jpg",
        "thumb": "https://media.githubusercontent.com/media/ddh4r4m/wallpaper-collection/main/collection/thumbnails/gaming/079.jpg"
      }
    },
    {
      "id": "gaming_080",
      "category": "gaming",
      "title": "Gaming Wallpaper",
      "tags": [
        "gaming",
        "unsplash",
        "hd",
        "mobile"
      ],
      "metadata": {
        "dimensions": {
          "width": 1080,
          "height": 689
        },
        "file_size": 58291,
        "format": "JPEG",
        "added_at": "2025-07-18T00:30:36.764478",
        "hash": "e84f6af6d6527ac97e10bcff24929bd6",
        "photographer": "Unknown"
      },
      "urls": {
        "raw": "https://media.githubusercontent.com/media/ddh4r4m/wallpaper-collection/main/collection/wallpapers/gaming/080.jpg",
        "thumb": "https://media.githubusercontent.com/media/ddh4r4m/wallpaper-collection/main/collection/thumbnails/gaming/080.jpg"
      }
    }
  ]
}