{
  "meta": {
    "version": "1.0",
    "generated_at": "2025-07-28T23:12:02.393375",
    "page": 99,
    "per_page": 15,
    "total_pages": 183,
    "total_count": 2743,
    "count_on_page": 15,
    "categories": 22,
    "has_next": true,
    "has_prev": true,
    "next_page_url": "/api/v1/all/pages/100.json",
    "prev_page_url": "/api/v1/all/pages/98.json"
  },
  "data": [
    {
      "id": "gaming_081",
      "category": "gaming",
      "title": "Gaming Wallpaper",
      "tags": [
        "gaming",
        "unsplash",
        "hd",
        "mobile"
      ],
      "metadata": {
        "dimensions": {
          "width": 1080,
          "height": 720
        },
        "file_size": 90489,
        "format": "JPEG",
        "added_at": "2025-07-18T00:30:39.982295",
        "hash": "fec21c45cc583f13ab7297731e69b54b",
        "photographer": "Unknown"
      },
      "urls": {
        "raw": "https://media.githubusercontent.com/media/ddh4r4m/wallpaper-collection/main/collection/wallpapers/gaming/081.jpg",
        "thumb": "https://media.githubusercontent.com/media/ddh4r4m/wallpaper-collection/main/collection/thumbnails/gaming/081.jpg"
      }
    },
    {
      "id": "gaming_082",
      "category": "gaming",
      "title": "Gaming Wallpaper",
      "tags": [
        "gaming",
        "unsplash",
        "hd",
        "mobile"
      ],
      "metadata": {
        "dimensions": {
          "width": 1080,
          "height": 719
        },
        "file_size": 56718,
        "format": "JPEG",
        "added_at": "2025-07-18T00:30:42.405835",
        "hash": "4933fcc5efdb8ebd77ccafeaee47305f",
        "photographer": "Unknown"
      },
      "urls": {
        "raw": "https://media.githubusercontent.com/media/ddh4r4m/wallpaper-collection/main/collection/wallpapers/gaming/082.jpg",
        "thumb": "https://media.githubusercontent.com/media/ddh4r4m/wallpaper-collection/main/collection/thumbnails/gaming/082.jpg"
      }
    },
    {
      "id": "gaming_083",
      "category": "gaming",
      "title": "Gaming Wallpaper",
      "tags": [
        "gaming",
        "unsplash",
        "hd",
        "mobile"
      ],
      "metadata": {
        "dimensions": {
          "width": 1080,
          "height": 1809
        },
        "file_size": 222012,
        "format": "JPEG",
        "added_at": "2025-07-18T00:30:44.031397",
        "hash": "2d806ab1c7b9a5a9e7a5e80f24053d74",
        "photographer": "Unknown"
      },
      "urls": {
        "raw": "https://media.githubusercontent.com/media/ddh4r4m/wallpaper-collection/main/collection/wallpapers/gaming/083.jpg",
        "thumb": "https://media.githubusercontent.com/media/ddh4r4m/wallpaper-collection/main/collection/thumbnails/gaming/083.jpg"
      }
    },
    {
      "id": "gaming_084",
      "category": "gaming",
      "title": "Gaming Wallpaper",
      "tags": [
        "gaming",
        "unsplash",
        "hd",
        "mobile"
      ],
      "metadata": {
        "dimensions": {
          "width": 1080,
          "height": 723
        },
        "file_size": 55817,
        "format": "JPEG",
        "added_at": "2025-07-18T00:30:46.311152",
        "hash": "904be06127d944d758539ef1dceb2d14",
        "photographer": "Unknown"
      },
      "urls": {
        "raw": "https://media.githubusercontent.com/media/ddh4r4m/wallpaper-collection/main/collection/wallpapers/gaming/084.jpg",
        "thumb": "https://media.githubusercontent.com/media/ddh4r4m/wallpaper-collection/main/collection/thumbnails/gaming/084.jpg"
      }
    },
    {
      "id": "gradient_001",
      "category": "gradient",
      "title": "Gradient Wallpaper 001",
      "tags": [
        "gradient"
      ],
      "urls": {
        "raw": "https://media.githubusercontent.com/media/ddh4r4m/wallpaper-collection/main/collection/wallpapers/gradient/001.jpg",
        "thumb": "https://media.githubusercontent.com/media/ddh4r4m/wallpaper-collection/main/collection/thumbnails/gradient/001.jpg"
      },
      "metadata": {
        "added_at": "2025-07-20T20:51:50.575389",
        "file_size": 85453,
        "dimensions": {
          "width": 675,
          "height": 1200
        }
      }
    },
    {
      "id": "gradient_002",
      "category": "gradient",
      "title": "Gradient Wallpaper 002",
      "tags": [
        "gradient"
      ],
      "urls": {
        "raw": "https://media.githubusercontent.com/media/ddh4r4m/wallpaper-collection/main/collection/wallpapers/gradient/002.jpg",
        "thumb": "https://media.githubusercontent.com/media/ddh4r4m/wallpaper-collection/main/collection/thumbnails/gradient/002.jpg"
      },
      "metadata": {
        "added_at": "2025-07-20T20:51:50.577799",
        "file_size": 301975,
        "dimensions": {
          "width": 591,
          "height": 1280
        }
      }
    },
    {
      "id": "gradient_003",
      "category": "gradient",
      "title": "Gradient Wallpaper 003",
      "tags": [
        "gradient"
      ],
      "urls": {
        "raw": "https://media.githubusercontent.com/media/ddh4r4m/wallpaper-collection/main/collection/wallpapers/gradient/003.jpg",
        "thumb": "https://media.githubusercontent.com/media/ddh4r4m/wallpaper-collection/main/collection/thumbnails/gradient/003.jpg"
      },
      "metadata": {
        "added_at": "2025-07-20T20:51:50.580093",
        "file_size": 301975,
        "dimensions": {
          "width": 591,
          "height": 1280
        }
      }
    },
    {
      "id": "gradient_004",
      "category": "gradient",
      "title": "Gradient Wallpaper 004",
      "tags": [
        "gradient"
      ],
      "urls": {
        "raw": "https://media.githubusercontent.com/media/ddh4r4m/wallpaper-collection/main/collection/wallpapers/gradient/004.jpg",
        "thumb": "https://media.githubusercontent.com/media/ddh4r4m/wallpaper-collection/main/collection/thumbnails/gradient/004.jpg"
      },
      "metadata": {
        "added_at": "2025-07-20T20:51:50.582236",
        "file_size": 113482,
        "dimensions": {
          "width": 736,
          "height": 1595
        }
      }
    },
    {
      "id": "gradient_005",
      "category": "gradient",
      "title": "Gradient Wallpaper 005",
      "tags": [
        "gradient"
      ],
      "urls": {
        "raw": "https://media.githubusercontent.com/media/ddh4r4m/wallpaper-collection/main/collection/wallpapers/gradient/005.jpg",
        "thumb": "https://media.githubusercontent.com/media/ddh4r4m/wallpaper-collection/main/collection/thumbnails/gradient/005.jpg"
      },
      "metadata": {
        "added_at": "2025-07-20T21:26:41.153272",
        "file_size": 147221,
        "dimensions": {
          "width": 1080,
          "height": 1920
        }
      }
    },
    {
      "id": "gradient_006",
      "category": "gradient",
      "title": "Gradient Wallpaper 006",
      "tags": [
        "gradient"
      ],
      "urls": {
        "raw": "https://media.githubusercontent.com/media/ddh4r4m/wallpaper-collection/main/collection/wallpapers/gradient/006.jpg",
        "thumb": "https://media.githubusercontent.com/media/ddh4r4m/wallpaper-collection/main/collection/thumbnails/gradient/006.jpg"
      },
      "metadata": {
        "added_at": "2025-07-20T21:26:41.271881",
        "file_size": 72254,
        "dimensions": {
          "width": 1080,
          "height": 1920
        }
      }
    },
    {
      "id": "gradient_007",
      "category": "gradient",
      "title": "Gradient Wallpaper 007",
      "tags": [
        "gradient"
      ],
      "urls": {
        "raw": "https://media.githubusercontent.com/media/ddh4r4m/wallpaper-collection/main/collection/wallpapers/gradient/007.jpg",
        "thumb": "https://media.githubusercontent.com/media/ddh4r4m/wallpaper-collection/main/collection/thumbnails/gradient/007.jpg"
      },
      "metadata": {
        "added_at": "2025-07-20T21:26:41.456492",
        "file_size": 453373,
        "dimensions": {
          "width": 1080,
          "height": 1920
        }
      }
    },
    {
      "id": "gradient_008",
      "category": "gradient",
      "title": "Gradient Wallpaper 008",
      "tags": [
        "gradient"
      ],
      "urls": {
        "raw": "https://media.githubusercontent.com/media/ddh4r4m/wallpaper-collection/main/collection/wallpapers/gradient/008.jpg",
        "thumb": "https://media.githubusercontent.com/media/ddh4r4m/wallpaper-collection/main/collection/thumbnails/gradient/008.jpg"
      },
      "metadata": {
        "added_at": "2025-07-20T21:26:41.655790",
        "file_size": 377159,
        "dimensions": {
          "width": 1080,
          "height": 1920
        }
      }
    },
    {
      "id": "gradient_009",
      "category": "gradient",
      "title": "Gradient Wallpaper 009",
      "tags": [
        "gradient"
      ],
      "urls": {
        "raw": "https://media.githubusercontent.com/media/ddh4r4m/wallpaper-collection/main/collection/wallpapers/gradient/009.jpg",
        "thumb": "https://media.githubusercontent.com/media/ddh4r4m/wallpaper-collection/main/collection/thumbnails/gradient/009.jpg"
      },
      "metadata": {
        "added_at": "2025-07-20T21:26:41.789919",
        "file_size": 597782,
        "dimensions": {
          "width": 1080,
          "height": 1920
        }
      }
    },
    {
      "id": "gradient_010",
      "category": "gradient",
      "title": "Gradient Wallpaper 010",
      "tags": [
        "gradient"
      ],
      "urls": {
        "raw": "https://media.githubusercontent.com/media/ddh4r4m/wallpaper-collection/main/collection/wallpapers/gradient/010.jpg",
        "thumb": "https://media.githubusercontent.com/media/ddh4r4m/wallpaper-collection/main/collection/thumbnails/gradient/010.jpg"
      },
      "metadata": {
        "added_at": "2025-07-20T21:26:41.920853",
        "file_size": 53775,
        "dimensions": {
          "width": 1080,
          "height": 1920
        }
      }
    },
    {
      "id": "gradient_011",
      "category": "gradient",
      "title": "Gradient Wallpaper 011",
      "tags": [
        "gradient"
      ],
      "urls": {
        "raw": "https://media.githubusercontent.com/media/ddh4r4m/wallpaper-collection/main/collection/wallpapers/gradient/011.jpg",
        "thumb": "https://media.githubusercontent.com/media/ddh4r4m/wallpaper-collection/main/collection/thumbnails/gradient/011.jpg"
      },
      "metadata": {
        "added_at": "2025-07-20T21:26:42.045264",
        "file_size": 343134,
        "dimensions": {
          "width": 1080,
          "height": 1920
        }
      }
    }
  ]
}