{
  "meta": {
    "version": "1.0",
    "generated_at": "2025-07-17T21:14:17.488868",
    "category": "architecture",
    "page": 10,
    "per_page": 15,
    "total_pages": 19,
    "total_count": 275,
    "count_on_page": 15,
    "has_next": true,
    "has_prev": true,
    "next_page_url": "/api/v1/architecture/pages/11.json",
    "prev_page_url": "/api/v1/architecture/pages/9.json"
  },
  "data": [
    {
      "id": "architecture_136",
      "category": "architecture",
      "title": "Architecture Wallpaper 136",
      "tags": [
        "architecture",
        "wallpaper",
        "hd",
        "mobile"
      ],
      "urls": {
        "raw": "https://media.githubusercontent.com/media/ddh4r4m/wallpaper-collection/main/collection/wallpapers/architecture/136.jpg",
        "thumb": "https://media.githubusercontent.com/media/ddh4r4m/wallpaper-collection/main/collection/thumbnails/architecture/136.jpg"
      },
      "metadata": {
        "dimensions": {
          "width": 1080,
          "height": 1920
        },
        "file_size": 335183,
        "format": "JPEG",
        "added_at": "2025-07-17T00:02:53.370057",
        "hash": "b1a9427e28e3edb15f0e52f061f4022f",
        "source": "migrated"
      }
    },
    {
      "id": "architecture_137",
      "category": "architecture",
      "title": "Architecture Wallpaper 137",
      "tags": [
        "architecture",
        "wallpaper",
        "hd",
        "mobile"
      ],
      "urls": {
        "raw": "https://media.githubusercontent.com/media/ddh4r4m/wallpaper-collection/main/collection/wallpapers/architecture/137.jpg",
        "thumb": "https://media.githubusercontent.com/media/ddh4r4m/wallpaper-collection/main/collection/thumbnails/architecture/137.jpg"
      },
      "metadata": {
        "dimensions": {
          "width": 1080,
          "height": 1920
        },
        "file_size": 257003,
        "format": "JPEG",
        "added_at": "2025-07-17T00:02:53.425895",
        "hash": "81c8b4caef0a915618b893ebde85c547",
        "source": "migrated"
      }
    },
    {
      "id": "architecture_138",
      "category": "architecture",
      "title": "Architecture Wallpaper 138",
      "tags": [
        "architecture",
        "wallpaper",
        "hd",
        "mobile"
      ],
      "urls": {
        "raw": "https://media.githubusercontent.com/media/ddh4r4m/wallpaper-collection/main/collection/wallpapers/architecture/138.jpg",
        "thumb": "https://media.githubusercontent.com/media/ddh4r4m/wallpaper-collection/main/collection/thumbnails/architecture/138.jpg"
      },
      "metadata": {
        "dimensions": {
          "width": 1080,
          "height": 1920
        },
        "file_size": 215574,
        "format": "JPEG",
        "added_at": "2025-07-17T00:02:53.482218",
        "hash": "01754b7259ac2601b30d907c33ef9e64",
        "source": "migrated"
      }
    },
    {
      "id": "architecture_139",
      "category": "architecture",
      "title": "Architecture Wallpaper 139",
      "tags": [
        "architecture",
        "wallpaper",
        "hd",
        "mobile"
      ],
      "urls": {
        "raw": "https://media.githubusercontent.com/media/ddh4r4m/wallpaper-collection/main/collection/wallpapers/architecture/139.jpg",
        "thumb": "https://media.githubusercontent.com/media/ddh4r4m/wallpaper-collection/main/collection/thumbnails/architecture/139.jpg"
      },
      "metadata": {
        "dimensions": {
          "width": 1080,
          "height": 1920
        },
        "file_size": 280169,
        "format": "JPEG",
        "added_at": "2025-07-17T00:02:53.538716",
        "hash": "8708dcd1cd437ab9111543ce1de26a79",
        "source": "migrated"
      }
    },
    {
      "id": "architecture_140",
      "category": "architecture",
      "title": "Architecture Wallpaper 140",
      "tags": [
        "architecture",
        "wallpaper",
        "hd",
        "mobile"
      ],
      "urls": {
        "raw": "https://media.githubusercontent.com/media/ddh4r4m/wallpaper-collection/main/collection/wallpapers/architecture/140.jpg",
        "thumb": "https://media.githubusercontent.com/media/ddh4r4m/wallpaper-collection/main/collection/thumbnails/architecture/140.jpg"
      },
      "metadata": {
        "dimensions": {
          "width": 1080,
          "height": 1920
        },
        "file_size": 255845,
        "format": "JPEG",
        "added_at": "2025-07-17T00:02:53.600150",
        "hash": "abf8795cff1fff380abe3c610c75cdcd",
        "source": "migrated"
      }
    },
    {
      "id": "architecture_141",
      "category": "architecture",
      "title": "Architecture Wallpaper 141",
      "tags": [
        "architecture",
        "wallpaper",
        "hd",
        "mobile"
      ],
      "urls": {
        "raw": "https://media.githubusercontent.com/media/ddh4r4m/wallpaper-collection/main/collection/wallpapers/architecture/141.jpg",
        "thumb": "https://media.githubusercontent.com/media/ddh4r4m/wallpaper-collection/main/collection/thumbnails/architecture/141.jpg"
      },
      "metadata": {
        "dimensions": {
          "width": 1080,
          "height": 1920
        },
        "file_size": 484882,
        "format": "JPEG",
        "added_at": "2025-07-17T00:02:53.676814",
        "hash": "32d750cbee6256fe518d5d063cab046f",
        "source": "migrated"
      }
    },
    {
      "id": "architecture_142",
      "category": "architecture",
      "title": "Architecture Wallpaper 142",
      "tags": [
        "architecture",
        "wallpaper",
        "hd",
        "mobile"
      ],
      "urls": {
        "raw": "https://media.githubusercontent.com/media/ddh4r4m/wallpaper-collection/main/collection/wallpapers/architecture/142.jpg",
        "thumb": "https://media.githubusercontent.com/media/ddh4r4m/wallpaper-collection/main/collection/thumbnails/architecture/142.jpg"
      },
      "metadata": {
        "dimensions": {
          "width": 1080,
          "height": 1920
        },
        "file_size": 138373,
        "format": "JPEG",
        "added_at": "2025-07-17T00:02:53.726705",
        "hash": "b55d7ea14fd5161d2d386db87ee74384",
        "source": "migrated"
      }
    },
    {
      "id": "architecture_143",
      "category": "architecture",
      "title": "Architecture Wallpaper 143",
      "tags": [
        "architecture",
        "wallpaper",
        "hd",
        "mobile"
      ],
      "urls": {
        "raw": "https://media.githubusercontent.com/media/ddh4r4m/wallpaper-collection/main/collection/wallpapers/architecture/143.jpg",
        "thumb": "https://media.githubusercontent.com/media/ddh4r4m/wallpaper-collection/main/collection/thumbnails/architecture/143.jpg"
      },
      "metadata": {
        "dimensions": {
          "width": 1080,
          "height": 1920
        },
        "file_size": 394568,
        "format": "JPEG",
        "added_at": "2025-07-17T00:02:53.789431",
        "hash": "bd61ad77cedf7f92b1910b43c33da064",
        "source": "migrated"
      }
    },
    {
      "id": "architecture_144",
      "category": "architecture",
      "title": "Architecture Wallpaper 144",
      "tags": [
        "architecture",
        "wallpaper",
        "hd",
        "mobile"
      ],
      "urls": {
        "raw": "https://media.githubusercontent.com/media/ddh4r4m/wallpaper-collection/main/collection/wallpapers/architecture/144.jpg",
        "thumb": "https://media.githubusercontent.com/media/ddh4r4m/wallpaper-collection/main/collection/thumbnails/architecture/144.jpg"
      },
      "metadata": {
        "dimensions": {
          "width": 1080,
          "height": 1920
        },
        "file_size": 458668,
        "format": "JPEG",
        "added_at": "2025-07-17T00:02:53.857844",
        "hash": "331c235d1243a538a84824efc79c978e",
        "source": "migrated"
      }
    },
    {
      "id": "architecture_145",
      "category": "architecture",
      "title": "Architecture Wallpaper 145",
      "tags": [
        "architecture",
        "wallpaper",
        "hd",
        "mobile"
      ],
      "urls": {
        "raw": "https://media.githubusercontent.com/media/ddh4r4m/wallpaper-collection/main/collection/wallpapers/architecture/145.jpg",
        "thumb": "https://media.githubusercontent.com/media/ddh4r4m/wallpaper-collection/main/collection/thumbnails/architecture/145.jpg"
      },
      "metadata": {
        "dimensions": {
          "width": 1080,
          "height": 1920
        },
        "file_size": 169786,
        "format": "JPEG",
        "added_at": "2025-07-17T00:02:53.908494",
        "hash": "8577aa46cd37d2baeeca24501b2215c8",
        "source": "migrated"
      }
    },
    {
      "id": "architecture_146",
      "category": "architecture",
      "title": "Architecture Wallpaper 146",
      "tags": [
        "architecture",
        "wallpaper",
        "hd",
        "mobile"
      ],
      "urls": {
        "raw": "https://media.githubusercontent.com/media/ddh4r4m/wallpaper-collection/main/collection/wallpapers/architecture/146.jpg",
        "thumb": "https://media.githubusercontent.com/media/ddh4r4m/wallpaper-collection/main/collection/thumbnails/architecture/146.jpg"
      },
      "metadata": {
        "dimensions": {
          "width": 1080,
          "height": 1920
        },
        "file_size": 407251,
        "format": "JPEG",
        "added_at": "2025-07-17T00:02:53.974274",
        "hash": "7f5ee36db444ca2c1edf8e2851464956",
        "source": "migrated"
      }
    },
    {
      "id": "architecture_147",
      "category": "architecture",
      "title": "Architecture Wallpaper 147",
      "tags": [
        "architecture",
        "wallpaper",
        "hd",
        "mobile"
      ],
      "urls": {
        "raw": "https://media.githubusercontent.com/media/ddh4r4m/wallpaper-collection/main/collection/wallpapers/architecture/147.jpg",
        "thumb": "https://media.githubusercontent.com/media/ddh4r4m/wallpaper-collection/main/collection/thumbnails/architecture/147.jpg"
      },
      "metadata": {
        "dimensions": {
          "width": 1080,
          "height": 1920
        },
        "file_size": 496674,
        "format": "JPEG",
        "added_at": "2025-07-17T00:02:54.044108",
        "hash": "b77ac04516389b6fae01c527eb2084a2",
        "source": "migrated"
      }
    },
    {
      "id": "architecture_148",
      "category": "architecture",
      "title": "Architecture Wallpaper 148",
      "tags": [
        "architecture",
        "wallpaper",
        "hd",
        "mobile"
      ],
      "urls": {
        "raw": "https://media.githubusercontent.com/media/ddh4r4m/wallpaper-collection/main/collection/wallpapers/architecture/148.jpg",
        "thumb": "https://media.githubusercontent.com/media/ddh4r4m/wallpaper-collection/main/collection/thumbnails/architecture/148.jpg"
      },
      "metadata": {
        "dimensions": {
          "width": 1080,
          "height": 1920
        },
        "file_size": 463267,
        "format": "JPEG",
        "added_at": "2025-07-17T00:02:54.110571",
        "hash": "d9e1603bf383456d954456b5459ab2ad",
        "source": "migrated"
      }
    },
    {
      "id": "architecture_149",
      "category": "architecture",
      "title": "Architecture Wallpaper 149",
      "tags": [
        "architecture",
        "wallpaper",
        "hd",
        "mobile"
      ],
      "urls": {
        "raw": "https://media.githubusercontent.com/media/ddh4r4m/wallpaper-collection/main/collection/wallpapers/architecture/149.jpg",
        "thumb": "https://media.githubusercontent.com/media/ddh4r4m/wallpaper-collection/main/collection/thumbnails/architecture/149.jpg"
      },
      "metadata": {
        "dimensions": {
          "width": 1080,
          "height": 1920
        },
        "file_size": 319115,
        "format": "JPEG",
        "added_at": "2025-07-17T00:02:54.168597",
        "hash": "81bf3f57f61c8278c584ee24f9a7ad0b",
        "source": "migrated"
      }
    },
    {
      "id": "architecture_150",
      "category": "architecture",
      "title": "Architecture Wallpaper 150",
      "tags": [
        "architecture",
        "wallpaper",
        "hd",
        "mobile"
      ],
      "urls": {
        "raw": "https://media.githubusercontent.com/media/ddh4r4m/wallpaper-collection/main/collection/wallpapers/architecture/150.jpg",
        "thumb": "https://media.githubusercontent.com/media/ddh4r4m/wallpaper-collection/main/collection/thumbnails/architecture/150.jpg"
      },
      "metadata": {
        "dimensions": {
          "width": 1080,
          "height": 1920
        },
        "file_size": 410241,
        "format": "JPEG",
        "added_at": "2025-07-17T00:02:54.232216",
        "hash": "2b0e63e999a275524165077aed064e9a",
        "source": "migrated"
      }
    }
  ]
}