{
  "meta": {
    "version": "1.0",
    "generated_at": "2025-07-17T21:14:17.488868",
    "category": "architecture",
    "page": 11,
    "per_page": 15,
    "total_pages": 19,
    "total_count": 275,
    "count_on_page": 15,
    "has_next": true,
    "has_prev": true,
    "next_page_url": "/api/v1/architecture/pages/12.json",
    "prev_page_url": "/api/v1/architecture/pages/10.json"
  },
  "data": [
    {
      "id": "architecture_151",
      "category": "architecture",
      "title": "Architecture Wallpaper 151",
      "tags": [
        "architecture",
        "wallpaper",
        "hd",
        "mobile"
      ],
      "urls": {
        "raw": "https://media.githubusercontent.com/media/ddh4r4m/wallpaper-collection/main/collection/wallpapers/architecture/151.jpg",
        "thumb": "https://media.githubusercontent.com/media/ddh4r4m/wallpaper-collection/main/collection/thumbnails/architecture/151.jpg"
      },
      "metadata": {
        "dimensions": {
          "width": 1080,
          "height": 1920
        },
        "file_size": 424389,
        "format": "JPEG",
        "added_at": "2025-07-17T00:02:54.295945",
        "hash": "63f31ac7e02796cfba90001ec47e2173",
        "source": "migrated"
      }
    },
    {
      "id": "architecture_152",
      "category": "architecture",
      "title": "Architecture Wallpaper 152",
      "tags": [
        "architecture",
        "wallpaper",
        "hd",
        "mobile"
      ],
      "urls": {
        "raw": "https://media.githubusercontent.com/media/ddh4r4m/wallpaper-collection/main/collection/wallpapers/architecture/152.jpg",
        "thumb": "https://media.githubusercontent.com/media/ddh4r4m/wallpaper-collection/main/collection/thumbnails/architecture/152.jpg"
      },
      "metadata": {
        "dimensions": {
          "width": 1080,
          "height": 1920
        },
        "file_size": 247967,
        "format": "JPEG",
        "added_at": "2025-07-17T00:02:54.350134",
        "hash": "617d816c95a9d1c94d31093c27f53c05",
        "source": "migrated"
      }
    },
    {
      "id": "architecture_153",
      "category": "architecture",
      "title": "Architecture Wallpaper 153",
      "tags": [
        "architecture",
        "wallpaper",
        "hd",
        "mobile"
      ],
      "urls": {
        "raw": "https://media.githubusercontent.com/media/ddh4r4m/wallpaper-collection/main/collection/wallpapers/architecture/153.jpg",
        "thumb": "https://media.githubusercontent.com/media/ddh4r4m/wallpaper-collection/main/collection/thumbnails/architecture/153.jpg"
      },
      "metadata": {
        "dimensions": {
          "width": 1080,
          "height": 1920
        },
        "file_size": 343064,
        "format": "JPEG",
        "added_at": "2025-07-17T00:02:54.411345",
        "hash": "3c587a2ba0ce706b7bf73eacd1452d59",
        "source": "migrated"
      }
    },
    {
      "id": "architecture_154",
      "category": "architecture",
      "title": "Architecture Wallpaper 154",
      "tags": [
        "architecture",
        "wallpaper",
        "hd",
        "mobile"
      ],
      "urls": {
        "raw": "https://media.githubusercontent.com/media/ddh4r4m/wallpaper-collection/main/collection/wallpapers/architecture/154.jpg",
        "thumb": "https://media.githubusercontent.com/media/ddh4r4m/wallpaper-collection/main/collection/thumbnails/architecture/154.jpg"
      },
      "metadata": {
        "dimensions": {
          "width": 1080,
          "height": 1920
        },
        "file_size": 390322,
        "format": "JPEG",
        "added_at": "2025-07-17T00:02:54.472681",
        "hash": "a157841912a79eecaaa34f0ecd76f6db",
        "source": "migrated"
      }
    },
    {
      "id": "architecture_155",
      "category": "architecture",
      "title": "Architecture Wallpaper 155",
      "tags": [
        "architecture",
        "wallpaper",
        "hd",
        "mobile"
      ],
      "urls": {
        "raw": "https://media.githubusercontent.com/media/ddh4r4m/wallpaper-collection/main/collection/wallpapers/architecture/155.jpg",
        "thumb": "https://media.githubusercontent.com/media/ddh4r4m/wallpaper-collection/main/collection/thumbnails/architecture/155.jpg"
      },
      "metadata": {
        "dimensions": {
          "width": 1080,
          "height": 1920
        },
        "file_size": 595794,
        "format": "JPEG",
        "added_at": "2025-07-17T00:02:54.542437",
        "hash": "980dd039e020b19f4f3cc88dfc3462a5",
        "source": "migrated"
      }
    },
    {
      "id": "architecture_156",
      "category": "architecture",
      "title": "Architecture Wallpaper 156",
      "tags": [
        "architecture",
        "wallpaper",
        "hd",
        "mobile"
      ],
      "urls": {
        "raw": "https://media.githubusercontent.com/media/ddh4r4m/wallpaper-collection/main/collection/wallpapers/architecture/156.jpg",
        "thumb": "https://media.githubusercontent.com/media/ddh4r4m/wallpaper-collection/main/collection/thumbnails/architecture/156.jpg"
      },
      "metadata": {
        "dimensions": {
          "width": 1080,
          "height": 1920
        },
        "file_size": 191360,
        "format": "JPEG",
        "added_at": "2025-07-17T00:02:54.600071",
        "hash": "f10bff14dd6c64631baf57423f499c96",
        "source": "migrated"
      }
    },
    {
      "id": "architecture_157",
      "category": "architecture",
      "title": "Architecture Wallpaper 157",
      "tags": [
        "architecture",
        "wallpaper",
        "hd",
        "mobile"
      ],
      "urls": {
        "raw": "https://media.githubusercontent.com/media/ddh4r4m/wallpaper-collection/main/collection/wallpapers/architecture/157.jpg",
        "thumb": "https://media.githubusercontent.com/media/ddh4r4m/wallpaper-collection/main/collection/thumbnails/architecture/157.jpg"
      },
      "metadata": {
        "dimensions": {
          "width": 1080,
          "height": 1920
        },
        "file_size": 190202,
        "format": "JPEG",
        "added_at": "2025-07-17T00:02:54.652308",
        "hash": "2dc153dc1ec5e0f322b877cae97350e7",
        "source": "migrated"
      }
    },
    {
      "id": "architecture_158",
      "category": "architecture",
      "title": "Architecture Wallpaper 158",
      "tags": [
        "architecture",
        "wallpaper",
        "hd",
        "mobile"
      ],
      "urls": {
        "raw": "https://media.githubusercontent.com/media/ddh4r4m/wallpaper-collection/main/collection/wallpapers/architecture/158.jpg",
        "thumb": "https://media.githubusercontent.com/media/ddh4r4m/wallpaper-collection/main/collection/thumbnails/architecture/158.jpg"
      },
      "metadata": {
        "dimensions": {
          "width": 1080,
          "height": 1920
        },
        "file_size": 177872,
        "format": "JPEG",
        "added_at": "2025-07-17T00:02:54.703386",
        "hash": "38f963492f8e91da48a16af1cf1a7862",
        "source": "migrated"
      }
    },
    {
      "id": "architecture_159",
      "category": "architecture",
      "title": "Architecture Wallpaper 159",
      "tags": [
        "architecture",
        "wallpaper",
        "hd",
        "mobile"
      ],
      "urls": {
        "raw": "https://media.githubusercontent.com/media/ddh4r4m/wallpaper-collection/main/collection/wallpapers/architecture/159.jpg",
        "thumb": "https://media.githubusercontent.com/media/ddh4r4m/wallpaper-collection/main/collection/thumbnails/architecture/159.jpg"
      },
      "metadata": {
        "dimensions": {
          "width": 1080,
          "height": 1920
        },
        "file_size": 220638,
        "format": "JPEG",
        "added_at": "2025-07-17T00:02:54.756204",
        "hash": "3f59c67d6ec067ce2a020fb3dc60ea63",
        "source": "migrated"
      }
    },
    {
      "id": "architecture_160",
      "category": "architecture",
      "title": "Architecture Wallpaper 160",
      "tags": [
        "architecture",
        "wallpaper",
        "hd",
        "mobile"
      ],
      "urls": {
        "raw": "https://media.githubusercontent.com/media/ddh4r4m/wallpaper-collection/main/collection/wallpapers/architecture/160.jpg",
        "thumb": "https://media.githubusercontent.com/media/ddh4r4m/wallpaper-collection/main/collection/thumbnails/architecture/160.jpg"
      },
      "metadata": {
        "dimensions": {
          "width": 1080,
          "height": 1920
        },
        "file_size": 228044,
        "format": "JPEG",
        "added_at": "2025-07-17T00:02:54.808114",
        "hash": "058959f885bdb72ebd5a63f5ecedf46b",
        "source": "migrated"
      }
    },
    {
      "id": "architecture_161",
      "category": "architecture",
      "title": "Architecture Wallpaper 161",
      "tags": [
        "architecture",
        "wallpaper",
        "hd",
        "mobile"
      ],
      "urls": {
        "raw": "https://media.githubusercontent.com/media/ddh4r4m/wallpaper-collection/main/collection/wallpapers/architecture/161.jpg",
        "thumb": "https://media.githubusercontent.com/media/ddh4r4m/wallpaper-collection/main/collection/thumbnails/architecture/161.jpg"
      },
      "metadata": {
        "dimensions": {
          "width": 1080,
          "height": 1920
        },
        "file_size": 115510,
        "format": "JPEG",
        "added_at": "2025-07-17T00:02:54.855228",
        "hash": "fe6548e67bde545d0b98b18f1437ad0e",
        "source": "migrated"
      }
    },
    {
      "id": "architecture_162",
      "category": "architecture",
      "title": "Architecture Wallpaper 162",
      "tags": [
        "architecture",
        "wallpaper",
        "hd",
        "mobile"
      ],
      "urls": {
        "raw": "https://media.githubusercontent.com/media/ddh4r4m/wallpaper-collection/main/collection/wallpapers/architecture/162.jpg",
        "thumb": "https://media.githubusercontent.com/media/ddh4r4m/wallpaper-collection/main/collection/thumbnails/architecture/162.jpg"
      },
      "metadata": {
        "dimensions": {
          "width": 1080,
          "height": 1920
        },
        "file_size": 405830,
        "format": "JPEG",
        "added_at": "2025-07-17T00:02:54.918946",
        "hash": "2c1d452e90eb396963d7755be0b8abf6",
        "source": "migrated"
      }
    },
    {
      "id": "architecture_163",
      "category": "architecture",
      "title": "Architecture Wallpaper 163",
      "tags": [
        "architecture",
        "wallpaper",
        "hd",
        "mobile"
      ],
      "urls": {
        "raw": "https://media.githubusercontent.com/media/ddh4r4m/wallpaper-collection/main/collection/wallpapers/architecture/163.jpg",
        "thumb": "https://media.githubusercontent.com/media/ddh4r4m/wallpaper-collection/main/collection/thumbnails/architecture/163.jpg"
      },
      "metadata": {
        "dimensions": {
          "width": 1080,
          "height": 1920
        },
        "file_size": 422176,
        "format": "JPEG",
        "added_at": "2025-07-17T00:02:54.984904",
        "hash": "1b90362d79ea501031c22c0f78a45bb3",
        "source": "migrated"
      }
    },
    {
      "id": "architecture_164",
      "category": "architecture",
      "title": "Architecture Wallpaper 164",
      "tags": [
        "architecture",
        "wallpaper",
        "hd",
        "mobile"
      ],
      "urls": {
        "raw": "https://media.githubusercontent.com/media/ddh4r4m/wallpaper-collection/main/collection/wallpapers/architecture/164.jpg",
        "thumb": "https://media.githubusercontent.com/media/ddh4r4m/wallpaper-collection/main/collection/thumbnails/architecture/164.jpg"
      },
      "metadata": {
        "dimensions": {
          "width": 1080,
          "height": 1920
        },
        "file_size": 253860,
        "format": "JPEG",
        "added_at": "2025-07-17T00:02:55.043143",
        "hash": "8b4f4962bd7d0be1d9d88dc609b381ed",
        "source": "migrated"
      }
    },
    {
      "id": "architecture_165",
      "category": "architecture",
      "title": "Architecture Wallpaper 165",
      "tags": [
        "architecture",
        "wallpaper",
        "hd",
        "mobile"
      ],
      "urls": {
        "raw": "https://media.githubusercontent.com/media/ddh4r4m/wallpaper-collection/main/collection/wallpapers/architecture/165.jpg",
        "thumb": "https://media.githubusercontent.com/media/ddh4r4m/wallpaper-collection/main/collection/thumbnails/architecture/165.jpg"
      },
      "metadata": {
        "dimensions": {
          "width": 1080,
          "height": 1920
        },
        "file_size": 133002,
        "format": "JPEG",
        "added_at": "2025-07-17T00:02:55.091171",
        "hash": "744968bfacbad298feef6ab1e974ff0d",
        "source": "migrated"
      }
    }
  ]
}