{
  "meta": {
    "version": "1.0",
    "generated_at": "2025-07-28T22:48:38.208699",
    "category": "architecture",
    "page": 12,
    "per_page": 15,
    "total_pages": 19,
    "total_count": 275,
    "count_on_page": 15,
    "has_next": true,
    "has_prev": true,
    "next_page_url": "/api/v1/architecture/pages/13.json",
    "prev_page_url": "/api/v1/architecture/pages/11.json"
  },
  "data": [
    {
      "id": "architecture_166",
      "category": "architecture",
      "title": "Architecture Wallpaper 166",
      "tags": [
        "architecture",
        "wallpaper",
        "hd",
        "mobile"
      ],
      "urls": {
        "raw": "https://media.githubusercontent.com/media/ddh4r4m/wallpaper-collection/main/collection/wallpapers/architecture/166.jpg",
        "thumb": "https://media.githubusercontent.com/media/ddh4r4m/wallpaper-collection/main/collection/thumbnails/architecture/166.jpg"
      },
      "metadata": {
        "dimensions": {
          "width": 1080,
          "height": 1920
        },
        "file_size": 354808,
        "format": "JPEG",
        "added_at": "2025-07-17T00:02:55.153239",
        "hash": "347681a1036e3e6798ebba0709094600",
        "source": "migrated"
      }
    },
    {
      "id": "architecture_167",
      "category": "architecture",
      "title": "Architecture Wallpaper 167",
      "tags": [
        "architecture",
        "wallpaper",
        "hd",
        "mobile"
      ],
      "urls": {
        "raw": "https://media.githubusercontent.com/media/ddh4r4m/wallpaper-collection/main/collection/wallpapers/architecture/167.jpg",
        "thumb": "https://media.githubusercontent.com/media/ddh4r4m/wallpaper-collection/main/collection/thumbnails/architecture/167.jpg"
      },
      "metadata": {
        "dimensions": {
          "width": 1080,
          "height": 1920
        },
        "file_size": 200626,
        "format": "JPEG",
        "added_at": "2025-07-17T00:02:55.205675",
        "hash": "0403bae006b7b22c12ef3445895a3ac3",
        "source": "migrated"
      }
    },
    {
      "id": "architecture_168",
      "category": "architecture",
      "title": "Architecture Wallpaper 168",
      "tags": [
        "architecture",
        "wallpaper",
        "hd",
        "mobile"
      ],
      "urls": {
        "raw": "https://media.githubusercontent.com/media/ddh4r4m/wallpaper-collection/main/collection/wallpapers/architecture/168.jpg",
        "thumb": "https://media.githubusercontent.com/media/ddh4r4m/wallpaper-collection/main/collection/thumbnails/architecture/168.jpg"
      },
      "metadata": {
        "dimensions": {
          "width": 1080,
          "height": 1920
        },
        "file_size": 286895,
        "format": "JPEG",
        "added_at": "2025-07-17T00:02:55.263350",
        "hash": "e755bd2f51196b8680f6ebb11ce3e45c",
        "source": "migrated"
      }
    },
    {
      "id": "architecture_169",
      "category": "architecture",
      "title": "Architecture Wallpaper 169",
      "tags": [
        "architecture",
        "wallpaper",
        "hd",
        "mobile"
      ],
      "urls": {
        "raw": "https://media.githubusercontent.com/media/ddh4r4m/wallpaper-collection/main/collection/wallpapers/architecture/169.jpg",
        "thumb": "https://media.githubusercontent.com/media/ddh4r4m/wallpaper-collection/main/collection/thumbnails/architecture/169.jpg"
      },
      "metadata": {
        "dimensions": {
          "width": 1080,
          "height": 1920
        },
        "file_size": 548630,
        "format": "JPEG",
        "added_at": "2025-07-17T00:02:55.333153",
        "hash": "ea7762980cadd422ed9004a725c02a77",
        "source": "migrated"
      }
    },
    {
      "id": "architecture_170",
      "category": "architecture",
      "title": "Architecture Wallpaper 170",
      "tags": [
        "architecture",
        "wallpaper",
        "hd",
        "mobile"
      ],
      "urls": {
        "raw": "https://media.githubusercontent.com/media/ddh4r4m/wallpaper-collection/main/collection/wallpapers/architecture/170.jpg",
        "thumb": "https://media.githubusercontent.com/media/ddh4r4m/wallpaper-collection/main/collection/thumbnails/architecture/170.jpg"
      },
      "metadata": {
        "dimensions": {
          "width": 1080,
          "height": 1920
        },
        "file_size": 556993,
        "format": "JPEG",
        "added_at": "2025-07-17T00:02:55.404611",
        "hash": "84dada6a68d8d0e1c55cd063fe44dfaf",
        "source": "migrated"
      }
    },
    {
      "id": "architecture_171",
      "category": "architecture",
      "title": "Architecture Wallpaper 171",
      "tags": [
        "architecture",
        "wallpaper",
        "hd",
        "mobile"
      ],
      "urls": {
        "raw": "https://media.githubusercontent.com/media/ddh4r4m/wallpaper-collection/main/collection/wallpapers/architecture/171.jpg",
        "thumb": "https://media.githubusercontent.com/media/ddh4r4m/wallpaper-collection/main/collection/thumbnails/architecture/171.jpg"
      },
      "metadata": {
        "dimensions": {
          "width": 1080,
          "height": 1920
        },
        "file_size": 227970,
        "format": "JPEG",
        "added_at": "2025-07-17T00:02:55.456674",
        "hash": "e590c11ac3715bccdb921bc155c15933",
        "source": "migrated"
      }
    },
    {
      "id": "architecture_172",
      "category": "architecture",
      "title": "Architecture Wallpaper 172",
      "tags": [
        "architecture",
        "wallpaper",
        "hd",
        "mobile"
      ],
      "urls": {
        "raw": "https://media.githubusercontent.com/media/ddh4r4m/wallpaper-collection/main/collection/wallpapers/architecture/172.jpg",
        "thumb": "https://media.githubusercontent.com/media/ddh4r4m/wallpaper-collection/main/collection/thumbnails/architecture/172.jpg"
      },
      "metadata": {
        "dimensions": {
          "width": 1080,
          "height": 1920
        },
        "file_size": 395016,
        "format": "JPEG",
        "added_at": "2025-07-17T00:02:55.518328",
        "hash": "ce0fba0efa9ad1dd011ae8d8bce7aac2",
        "source": "migrated"
      }
    },
    {
      "id": "architecture_173",
      "category": "architecture",
      "title": "Architecture Wallpaper 173",
      "tags": [
        "architecture",
        "wallpaper",
        "hd",
        "mobile"
      ],
      "urls": {
        "raw": "https://media.githubusercontent.com/media/ddh4r4m/wallpaper-collection/main/collection/wallpapers/architecture/173.jpg",
        "thumb": "https://media.githubusercontent.com/media/ddh4r4m/wallpaper-collection/main/collection/thumbnails/architecture/173.jpg"
      },
      "metadata": {
        "dimensions": {
          "width": 1080,
          "height": 1920
        },
        "file_size": 413244,
        "format": "JPEG",
        "added_at": "2025-07-17T00:02:55.581788",
        "hash": "8cf11ff1fbddad1c06a99963b9c27642",
        "source": "migrated"
      }
    },
    {
      "id": "architecture_174",
      "category": "architecture",
      "title": "Architecture Wallpaper 174",
      "tags": [
        "architecture",
        "wallpaper",
        "hd",
        "mobile"
      ],
      "urls": {
        "raw": "https://media.githubusercontent.com/media/ddh4r4m/wallpaper-collection/main/collection/wallpapers/architecture/174.jpg",
        "thumb": "https://media.githubusercontent.com/media/ddh4r4m/wallpaper-collection/main/collection/thumbnails/architecture/174.jpg"
      },
      "metadata": {
        "dimensions": {
          "width": 1080,
          "height": 1920
        },
        "file_size": 202776,
        "format": "JPEG",
        "added_at": "2025-07-17T00:02:55.634296",
        "hash": "20f2773fa21b3238b1b82a15915d2c67",
        "source": "migrated"
      }
    },
    {
      "id": "architecture_175",
      "category": "architecture",
      "title": "Architecture Wallpaper 175",
      "tags": [
        "architecture",
        "wallpaper",
        "hd",
        "mobile"
      ],
      "urls": {
        "raw": "https://media.githubusercontent.com/media/ddh4r4m/wallpaper-collection/main/collection/wallpapers/architecture/175.jpg",
        "thumb": "https://media.githubusercontent.com/media/ddh4r4m/wallpaper-collection/main/collection/thumbnails/architecture/175.jpg"
      },
      "metadata": {
        "dimensions": {
          "width": 1080,
          "height": 1920
        },
        "file_size": 214334,
        "format": "JPEG",
        "added_at": "2025-07-17T00:02:55.687609",
        "hash": "f1cab9f67c4edf6ce4613d458139c3f6",
        "source": "migrated"
      }
    },
    {
      "id": "architecture_176",
      "category": "architecture",
      "title": "Architecture Wallpaper 176",
      "tags": [
        "architecture",
        "wallpaper",
        "hd",
        "mobile"
      ],
      "urls": {
        "raw": "https://media.githubusercontent.com/media/ddh4r4m/wallpaper-collection/main/collection/wallpapers/architecture/176.jpg",
        "thumb": "https://media.githubusercontent.com/media/ddh4r4m/wallpaper-collection/main/collection/thumbnails/architecture/176.jpg"
      },
      "metadata": {
        "dimensions": {
          "width": 1080,
          "height": 1920
        },
        "file_size": 393719,
        "format": "JPEG",
        "added_at": "2025-07-17T00:02:55.749800",
        "hash": "b06bdd52a28d69ad3ef384eecf9f9d64",
        "source": "migrated"
      }
    },
    {
      "id": "architecture_177",
      "category": "architecture",
      "title": "Architecture Wallpaper 177",
      "tags": [
        "architecture",
        "wallpaper",
        "hd",
        "mobile"
      ],
      "urls": {
        "raw": "https://media.githubusercontent.com/media/ddh4r4m/wallpaper-collection/main/collection/wallpapers/architecture/177.jpg",
        "thumb": "https://media.githubusercontent.com/media/ddh4r4m/wallpaper-collection/main/collection/thumbnails/architecture/177.jpg"
      },
      "metadata": {
        "dimensions": {
          "width": 1080,
          "height": 1920
        },
        "file_size": 359795,
        "format": "JPEG",
        "added_at": "2025-07-17T00:02:55.809878",
        "hash": "5e88b8b0458284d1bace5a2f59aa86da",
        "source": "migrated"
      }
    },
    {
      "id": "architecture_178",
      "category": "architecture",
      "title": "Architecture Wallpaper 178",
      "tags": [
        "architecture",
        "wallpaper",
        "hd",
        "mobile"
      ],
      "urls": {
        "raw": "https://media.githubusercontent.com/media/ddh4r4m/wallpaper-collection/main/collection/wallpapers/architecture/178.jpg",
        "thumb": "https://media.githubusercontent.com/media/ddh4r4m/wallpaper-collection/main/collection/thumbnails/architecture/178.jpg"
      },
      "metadata": {
        "dimensions": {
          "width": 1080,
          "height": 1920
        },
        "file_size": 301083,
        "format": "JPEG",
        "added_at": "2025-07-17T00:02:55.868458",
        "hash": "d26b20c3249570d1d47fb9ac2b3cc452",
        "source": "migrated"
      }
    },
    {
      "id": "architecture_179",
      "category": "architecture",
      "title": "Architecture Wallpaper 179",
      "tags": [
        "architecture",
        "wallpaper",
        "hd",
        "mobile"
      ],
      "urls": {
        "raw": "https://media.githubusercontent.com/media/ddh4r4m/wallpaper-collection/main/collection/wallpapers/architecture/179.jpg",
        "thumb": "https://media.githubusercontent.com/media/ddh4r4m/wallpaper-collection/main/collection/thumbnails/architecture/179.jpg"
      },
      "metadata": {
        "dimensions": {
          "width": 1080,
          "height": 1920
        },
        "file_size": 301893,
        "format": "JPEG",
        "added_at": "2025-07-17T00:02:55.926538",
        "hash": "409e3cac078bb162744b76f6c6194f7f",
        "source": "migrated"
      }
    },
    {
      "id": "architecture_180",
      "category": "architecture",
      "title": "Architecture Wallpaper 180",
      "tags": [
        "architecture",
        "wallpaper",
        "hd",
        "mobile"
      ],
      "urls": {
        "raw": "https://media.githubusercontent.com/media/ddh4r4m/wallpaper-collection/main/collection/wallpapers/architecture/180.jpg",
        "thumb": "https://media.githubusercontent.com/media/ddh4r4m/wallpaper-collection/main/collection/thumbnails/architecture/180.jpg"
      },
      "metadata": {
        "dimensions": {
          "width": 1080,
          "height": 1920
        },
        "file_size": 175710,
        "format": "JPEG",
        "added_at": "2025-07-17T00:02:55.979332",
        "hash": "d73c61f8edf499f97b6eb847d4b345ae",
        "source": "migrated"
      }
    }
  ]
}