{
  "meta": {
    "version": "1.0",
    "generated_at": "2025-07-28T21:27:34.814586",
    "category": "architecture",
    "page": 13,
    "per_page": 15,
    "total_pages": 19,
    "total_count": 275,
    "count_on_page": 15,
    "has_next": true,
    "has_prev": true,
    "next_page_url": "/api/v1/architecture/pages/14.json",
    "prev_page_url": "/api/v1/architecture/pages/12.json"
  },
  "data": [
    {
      "id": "architecture_181",
      "category": "architecture",
      "title": "Architecture Wallpaper 181",
      "tags": [
        "architecture",
        "wallpaper",
        "hd",
        "mobile"
      ],
      "urls": {
        "raw": "https://media.githubusercontent.com/media/ddh4r4m/wallpaper-collection/main/collection/wallpapers/architecture/181.jpg",
        "thumb": "https://media.githubusercontent.com/media/ddh4r4m/wallpaper-collection/main/collection/thumbnails/architecture/181.jpg"
      },
      "metadata": {
        "dimensions": {
          "width": 1080,
          "height": 1920
        },
        "file_size": 624396,
        "format": "JPEG",
        "added_at": "2025-07-17T00:02:56.053160",
        "hash": "b4c8379c87d6ffc265102af0b748e32b",
        "source": "migrated"
      }
    },
    {
      "id": "architecture_182",
      "category": "architecture",
      "title": "Architecture Wallpaper 182",
      "tags": [
        "architecture",
        "wallpaper",
        "hd",
        "mobile"
      ],
      "urls": {
        "raw": "https://media.githubusercontent.com/media/ddh4r4m/wallpaper-collection/main/collection/wallpapers/architecture/182.jpg",
        "thumb": "https://media.githubusercontent.com/media/ddh4r4m/wallpaper-collection/main/collection/thumbnails/architecture/182.jpg"
      },
      "metadata": {
        "dimensions": {
          "width": 1080,
          "height": 1920
        },
        "file_size": 217171,
        "format": "JPEG",
        "added_at": "2025-07-17T00:02:56.107477",
        "hash": "40f5961417213d8012a92ba74f3b04bc",
        "source": "migrated"
      }
    },
    {
      "id": "architecture_183",
      "category": "architecture",
      "title": "Architecture Wallpaper 183",
      "tags": [
        "architecture",
        "wallpaper",
        "hd",
        "mobile"
      ],
      "urls": {
        "raw": "https://media.githubusercontent.com/media/ddh4r4m/wallpaper-collection/main/collection/wallpapers/architecture/183.jpg",
        "thumb": "https://media.githubusercontent.com/media/ddh4r4m/wallpaper-collection/main/collection/thumbnails/architecture/183.jpg"
      },
      "metadata": {
        "dimensions": {
          "width": 1080,
          "height": 1920
        },
        "file_size": 216416,
        "format": "JPEG",
        "added_at": "2025-07-17T00:02:56.160372",
        "hash": "03524c2600501566977e5476ffc61ba4",
        "source": "migrated"
      }
    },
    {
      "id": "architecture_184",
      "category": "architecture",
      "title": "Architecture Wallpaper 184",
      "tags": [
        "architecture",
        "wallpaper",
        "hd",
        "mobile"
      ],
      "urls": {
        "raw": "https://media.githubusercontent.com/media/ddh4r4m/wallpaper-collection/main/collection/wallpapers/architecture/184.jpg",
        "thumb": "https://media.githubusercontent.com/media/ddh4r4m/wallpaper-collection/main/collection/thumbnails/architecture/184.jpg"
      },
      "metadata": {
        "dimensions": {
          "width": 1080,
          "height": 1920
        },
        "file_size": 498644,
        "format": "JPEG",
        "added_at": "2025-07-17T00:02:56.226654",
        "hash": "ed273bd2be54f87577baa2298c9b14a1",
        "source": "migrated"
      }
    },
    {
      "id": "architecture_185",
      "category": "architecture",
      "title": "Architecture Wallpaper 185",
      "tags": [
        "architecture",
        "wallpaper",
        "hd",
        "mobile"
      ],
      "urls": {
        "raw": "https://media.githubusercontent.com/media/ddh4r4m/wallpaper-collection/main/collection/wallpapers/architecture/185.jpg",
        "thumb": "https://media.githubusercontent.com/media/ddh4r4m/wallpaper-collection/main/collection/thumbnails/architecture/185.jpg"
      },
      "metadata": {
        "dimensions": {
          "width": 1080,
          "height": 1920
        },
        "file_size": 374074,
        "format": "JPEG",
        "added_at": "2025-07-17T00:02:56.291398",
        "hash": "fb98a7074778119059bc98904ad0f2dc",
        "source": "migrated"
      }
    },
    {
      "id": "architecture_186",
      "category": "architecture",
      "title": "Architecture Wallpaper 186",
      "tags": [
        "architecture",
        "wallpaper",
        "hd",
        "mobile"
      ],
      "urls": {
        "raw": "https://media.githubusercontent.com/media/ddh4r4m/wallpaper-collection/main/collection/wallpapers/architecture/186.jpg",
        "thumb": "https://media.githubusercontent.com/media/ddh4r4m/wallpaper-collection/main/collection/thumbnails/architecture/186.jpg"
      },
      "metadata": {
        "dimensions": {
          "width": 1080,
          "height": 1920
        },
        "file_size": 326998,
        "format": "JPEG",
        "added_at": "2025-07-17T00:02:56.350344",
        "hash": "f07fac767c99b61629c54496484f2e32",
        "source": "migrated"
      }
    },
    {
      "id": "architecture_187",
      "category": "architecture",
      "title": "Architecture Wallpaper 187",
      "tags": [
        "architecture",
        "wallpaper",
        "hd",
        "mobile"
      ],
      "urls": {
        "raw": "https://media.githubusercontent.com/media/ddh4r4m/wallpaper-collection/main/collection/wallpapers/architecture/187.jpg",
        "thumb": "https://media.githubusercontent.com/media/ddh4r4m/wallpaper-collection/main/collection/thumbnails/architecture/187.jpg"
      },
      "metadata": {
        "dimensions": {
          "width": 1080,
          "height": 1920
        },
        "file_size": 393801,
        "format": "JPEG",
        "added_at": "2025-07-17T00:02:56.414707",
        "hash": "562f3f6874c8d3420f8da71b65b23243",
        "source": "migrated"
      }
    },
    {
      "id": "architecture_188",
      "category": "architecture",
      "title": "Architecture Wallpaper 188",
      "tags": [
        "architecture",
        "wallpaper",
        "hd",
        "mobile"
      ],
      "urls": {
        "raw": "https://media.githubusercontent.com/media/ddh4r4m/wallpaper-collection/main/collection/wallpapers/architecture/188.jpg",
        "thumb": "https://media.githubusercontent.com/media/ddh4r4m/wallpaper-collection/main/collection/thumbnails/architecture/188.jpg"
      },
      "metadata": {
        "dimensions": {
          "width": 1080,
          "height": 1920
        },
        "file_size": 413818,
        "format": "JPEG",
        "added_at": "2025-07-17T00:02:56.479114",
        "hash": "164f96c6a367cedd850f8e2b62676e28",
        "source": "migrated"
      }
    },
    {
      "id": "architecture_189",
      "category": "architecture",
      "title": "Architecture Wallpaper 189",
      "tags": [
        "architecture",
        "wallpaper",
        "hd",
        "mobile"
      ],
      "urls": {
        "raw": "https://media.githubusercontent.com/media/ddh4r4m/wallpaper-collection/main/collection/wallpapers/architecture/189.jpg",
        "thumb": "https://media.githubusercontent.com/media/ddh4r4m/wallpaper-collection/main/collection/thumbnails/architecture/189.jpg"
      },
      "metadata": {
        "dimensions": {
          "width": 1080,
          "height": 1920
        },
        "file_size": 268229,
        "format": "JPEG",
        "added_at": "2025-07-17T00:02:56.535776",
        "hash": "ccde4c2c95bdd92f95a7b3437c6c68d7",
        "source": "migrated"
      }
    },
    {
      "id": "architecture_190",
      "category": "architecture",
      "title": "Architecture Wallpaper 190",
      "tags": [
        "architecture",
        "wallpaper",
        "hd",
        "mobile"
      ],
      "urls": {
        "raw": "https://media.githubusercontent.com/media/ddh4r4m/wallpaper-collection/main/collection/wallpapers/architecture/190.jpg",
        "thumb": "https://media.githubusercontent.com/media/ddh4r4m/wallpaper-collection/main/collection/thumbnails/architecture/190.jpg"
      },
      "metadata": {
        "dimensions": {
          "width": 1080,
          "height": 1920
        },
        "file_size": 360738,
        "format": "JPEG",
        "added_at": "2025-07-17T00:02:56.597377",
        "hash": "25955da2b27fac8cec623a01450796c5",
        "source": "migrated"
      }
    },
    {
      "id": "architecture_191",
      "category": "architecture",
      "title": "Architecture Wallpaper 191",
      "tags": [
        "architecture",
        "wallpaper",
        "hd",
        "mobile"
      ],
      "urls": {
        "raw": "https://media.githubusercontent.com/media/ddh4r4m/wallpaper-collection/main/collection/wallpapers/architecture/191.jpg",
        "thumb": "https://media.githubusercontent.com/media/ddh4r4m/wallpaper-collection/main/collection/thumbnails/architecture/191.jpg"
      },
      "metadata": {
        "dimensions": {
          "width": 1080,
          "height": 1920
        },
        "file_size": 162341,
        "format": "JPEG",
        "added_at": "2025-07-17T00:02:56.646941",
        "hash": "144e65022a052142e3f2767dc49d7eda",
        "source": "migrated"
      }
    },
    {
      "id": "architecture_192",
      "category": "architecture",
      "title": "Architecture Wallpaper 192",
      "tags": [
        "architecture",
        "wallpaper",
        "hd",
        "mobile"
      ],
      "urls": {
        "raw": "https://media.githubusercontent.com/media/ddh4r4m/wallpaper-collection/main/collection/wallpapers/architecture/192.jpg",
        "thumb": "https://media.githubusercontent.com/media/ddh4r4m/wallpaper-collection/main/collection/thumbnails/architecture/192.jpg"
      },
      "metadata": {
        "dimensions": {
          "width": 1080,
          "height": 1920
        },
        "file_size": 456475,
        "format": "JPEG",
        "added_at": "2025-07-17T00:02:56.711622",
        "hash": "8400e6e525406f395e1def7a90ee1f5f",
        "source": "migrated"
      }
    },
    {
      "id": "architecture_193",
      "category": "architecture",
      "title": "Architecture Wallpaper 193",
      "tags": [
        "architecture",
        "wallpaper",
        "hd",
        "mobile"
      ],
      "urls": {
        "raw": "https://media.githubusercontent.com/media/ddh4r4m/wallpaper-collection/main/collection/wallpapers/architecture/193.jpg",
        "thumb": "https://media.githubusercontent.com/media/ddh4r4m/wallpaper-collection/main/collection/thumbnails/architecture/193.jpg"
      },
      "metadata": {
        "dimensions": {
          "width": 1080,
          "height": 1920
        },
        "file_size": 679760,
        "format": "JPEG",
        "added_at": "2025-07-17T00:02:56.788095",
        "hash": "755ea35c96a6f1d2a6e54b8c8622c50f",
        "source": "migrated"
      }
    },
    {
      "id": "architecture_194",
      "category": "architecture",
      "title": "Architecture Wallpaper 194",
      "tags": [
        "architecture",
        "wallpaper",
        "hd",
        "mobile"
      ],
      "urls": {
        "raw": "https://media.githubusercontent.com/media/ddh4r4m/wallpaper-collection/main/collection/wallpapers/architecture/194.jpg",
        "thumb": "https://media.githubusercontent.com/media/ddh4r4m/wallpaper-collection/main/collection/thumbnails/architecture/194.jpg"
      },
      "metadata": {
        "dimensions": {
          "width": 1080,
          "height": 1920
        },
        "file_size": 252803,
        "format": "JPEG",
        "added_at": "2025-07-17T00:02:56.844476",
        "hash": "4bc9cce940d44a7f602ba864b693bf5c",
        "source": "migrated"
      }
    },
    {
      "id": "architecture_195",
      "category": "architecture",
      "title": "Architecture Wallpaper 195",
      "tags": [
        "architecture",
        "wallpaper",
        "hd",
        "mobile"
      ],
      "urls": {
        "raw": "https://media.githubusercontent.com/media/ddh4r4m/wallpaper-collection/main/collection/wallpapers/architecture/195.jpg",
        "thumb": "https://media.githubusercontent.com/media/ddh4r4m/wallpaper-collection/main/collection/thumbnails/architecture/195.jpg"
      },
      "metadata": {
        "dimensions": {
          "width": 1080,
          "height": 1920
        },
        "file_size": 256417,
        "format": "JPEG",
        "added_at": "2025-07-17T00:02:56.910998",
        "hash": "11761915a0ca6a68a04a532137a85715",
        "source": "migrated"
      }
    }
  ]
}