{
  "meta": {
    "version": "1.0",
    "generated_at": "2025-07-28T22:38:03.579947",
    "category": "architecture",
    "page": 14,
    "per_page": 15,
    "total_pages": 19,
    "total_count": 275,
    "count_on_page": 15,
    "has_next": true,
    "has_prev": true,
    "next_page_url": "/api/v1/architecture/pages/15.json",
    "prev_page_url": "/api/v1/architecture/pages/13.json"
  },
  "data": [
    {
      "id": "architecture_196",
      "category": "architecture",
      "title": "Architecture Wallpaper 196",
      "tags": [
        "architecture",
        "wallpaper",
        "hd",
        "mobile"
      ],
      "urls": {
        "raw": "https://media.githubusercontent.com/media/ddh4r4m/wallpaper-collection/main/collection/wallpapers/architecture/196.jpg",
        "thumb": "https://media.githubusercontent.com/media/ddh4r4m/wallpaper-collection/main/collection/thumbnails/architecture/196.jpg"
      },
      "metadata": {
        "dimensions": {
          "width": 1080,
          "height": 1920
        },
        "file_size": 541882,
        "format": "JPEG",
        "added_at": "2025-07-17T00:02:56.981958",
        "hash": "ddaee9a228efa943d9fde6cc3eda91e6",
        "source": "migrated"
      }
    },
    {
      "id": "architecture_197",
      "category": "architecture",
      "title": "Architecture Wallpaper 197",
      "tags": [
        "architecture",
        "wallpaper",
        "hd",
        "mobile"
      ],
      "urls": {
        "raw": "https://media.githubusercontent.com/media/ddh4r4m/wallpaper-collection/main/collection/wallpapers/architecture/197.jpg",
        "thumb": "https://media.githubusercontent.com/media/ddh4r4m/wallpaper-collection/main/collection/thumbnails/architecture/197.jpg"
      },
      "metadata": {
        "dimensions": {
          "width": 1080,
          "height": 1920
        },
        "file_size": 261255,
        "format": "JPEG",
        "added_at": "2025-07-17T00:02:57.036785",
        "hash": "0220aaf46ed2f711bb6d0fb177a40702",
        "source": "migrated"
      }
    },
    {
      "id": "architecture_198",
      "category": "architecture",
      "title": "Architecture Wallpaper 198",
      "tags": [
        "architecture",
        "wallpaper",
        "hd",
        "mobile"
      ],
      "urls": {
        "raw": "https://media.githubusercontent.com/media/ddh4r4m/wallpaper-collection/main/collection/wallpapers/architecture/198.jpg",
        "thumb": "https://media.githubusercontent.com/media/ddh4r4m/wallpaper-collection/main/collection/thumbnails/architecture/198.jpg"
      },
      "metadata": {
        "dimensions": {
          "width": 1080,
          "height": 1920
        },
        "file_size": 658011,
        "format": "JPEG",
        "added_at": "2025-07-17T00:02:57.115995",
        "hash": "bf98cc453d6f25f9ee50a7281a1cb82b",
        "source": "migrated"
      }
    },
    {
      "id": "architecture_199",
      "category": "architecture",
      "title": "Architecture Wallpaper 199",
      "tags": [
        "architecture",
        "wallpaper",
        "hd",
        "mobile"
      ],
      "urls": {
        "raw": "https://media.githubusercontent.com/media/ddh4r4m/wallpaper-collection/main/collection/wallpapers/architecture/199.jpg",
        "thumb": "https://media.githubusercontent.com/media/ddh4r4m/wallpaper-collection/main/collection/thumbnails/architecture/199.jpg"
      },
      "metadata": {
        "dimensions": {
          "width": 1080,
          "height": 1920
        },
        "file_size": 437830,
        "format": "JPEG",
        "added_at": "2025-07-17T00:02:57.182292",
        "hash": "b56687e10037bcaf1eab2db1b11fb8eb",
        "source": "migrated"
      }
    },
    {
      "id": "architecture_200",
      "category": "architecture",
      "title": "Architecture Wallpaper 200",
      "tags": [
        "architecture",
        "wallpaper",
        "hd",
        "mobile"
      ],
      "urls": {
        "raw": "https://media.githubusercontent.com/media/ddh4r4m/wallpaper-collection/main/collection/wallpapers/architecture/200.jpg",
        "thumb": "https://media.githubusercontent.com/media/ddh4r4m/wallpaper-collection/main/collection/thumbnails/architecture/200.jpg"
      },
      "metadata": {
        "dimensions": {
          "width": 1080,
          "height": 1920
        },
        "file_size": 151930,
        "format": "JPEG",
        "added_at": "2025-07-17T00:02:57.233734",
        "hash": "5b228fb3a42cf493d64334bdee126cdd",
        "source": "migrated"
      }
    },
    {
      "id": "architecture_201",
      "category": "architecture",
      "title": "Architecture Wallpaper 201",
      "tags": [
        "architecture",
        "wallpaper",
        "hd",
        "mobile"
      ],
      "urls": {
        "raw": "https://media.githubusercontent.com/media/ddh4r4m/wallpaper-collection/main/collection/wallpapers/architecture/201.jpg",
        "thumb": "https://media.githubusercontent.com/media/ddh4r4m/wallpaper-collection/main/collection/thumbnails/architecture/201.jpg"
      },
      "metadata": {
        "dimensions": {
          "width": 1080,
          "height": 1920
        },
        "file_size": 363840,
        "format": "JPEG",
        "added_at": "2025-07-17T00:02:57.294414",
        "hash": "64af90cf49cb9e0865ca1ca399b6e31b",
        "source": "migrated"
      }
    },
    {
      "id": "architecture_202",
      "category": "architecture",
      "title": "Architecture Wallpaper 202",
      "tags": [
        "architecture",
        "wallpaper",
        "hd",
        "mobile"
      ],
      "urls": {
        "raw": "https://media.githubusercontent.com/media/ddh4r4m/wallpaper-collection/main/collection/wallpapers/architecture/202.jpg",
        "thumb": "https://media.githubusercontent.com/media/ddh4r4m/wallpaper-collection/main/collection/thumbnails/architecture/202.jpg"
      },
      "metadata": {
        "dimensions": {
          "width": 1080,
          "height": 1920
        },
        "file_size": 371326,
        "format": "JPEG",
        "added_at": "2025-07-17T00:02:57.355659",
        "hash": "a3c3c916906d843b35193574b4d38be1",
        "source": "migrated"
      }
    },
    {
      "id": "architecture_203",
      "category": "architecture",
      "title": "Architecture Wallpaper 203",
      "tags": [
        "architecture",
        "wallpaper",
        "hd",
        "mobile"
      ],
      "urls": {
        "raw": "https://media.githubusercontent.com/media/ddh4r4m/wallpaper-collection/main/collection/wallpapers/architecture/203.jpg",
        "thumb": "https://media.githubusercontent.com/media/ddh4r4m/wallpaper-collection/main/collection/thumbnails/architecture/203.jpg"
      },
      "metadata": {
        "dimensions": {
          "width": 1080,
          "height": 1920
        },
        "file_size": 310382,
        "format": "JPEG",
        "added_at": "2025-07-17T00:02:57.415792",
        "hash": "deb74c067f582902cfbb835e3268970f",
        "source": "migrated"
      }
    },
    {
      "id": "architecture_204",
      "category": "architecture",
      "title": "Architecture Wallpaper 204",
      "tags": [
        "architecture",
        "wallpaper",
        "hd",
        "mobile"
      ],
      "urls": {
        "raw": "https://media.githubusercontent.com/media/ddh4r4m/wallpaper-collection/main/collection/wallpapers/architecture/204.jpg",
        "thumb": "https://media.githubusercontent.com/media/ddh4r4m/wallpaper-collection/main/collection/thumbnails/architecture/204.jpg"
      },
      "metadata": {
        "dimensions": {
          "width": 1080,
          "height": 1920
        },
        "file_size": 371942,
        "format": "JPEG",
        "added_at": "2025-07-17T00:02:57.475995",
        "hash": "f15f8771dcb479e702a63d0324361d2e",
        "source": "migrated"
      }
    },
    {
      "id": "architecture_205",
      "category": "architecture",
      "title": "Architecture Wallpaper 205",
      "tags": [
        "architecture",
        "wallpaper",
        "hd",
        "mobile"
      ],
      "urls": {
        "raw": "https://media.githubusercontent.com/media/ddh4r4m/wallpaper-collection/main/collection/wallpapers/architecture/205.jpg",
        "thumb": "https://media.githubusercontent.com/media/ddh4r4m/wallpaper-collection/main/collection/thumbnails/architecture/205.jpg"
      },
      "metadata": {
        "dimensions": {
          "width": 1080,
          "height": 1920
        },
        "file_size": 454912,
        "format": "JPEG",
        "added_at": "2025-07-17T00:02:57.541581",
        "hash": "b58d013454aa00bc6c510440b57503ae",
        "source": "migrated"
      }
    },
    {
      "id": "architecture_206",
      "category": "architecture",
      "title": "Architecture Wallpaper 206",
      "tags": [
        "architecture",
        "wallpaper",
        "hd",
        "mobile"
      ],
      "urls": {
        "raw": "https://media.githubusercontent.com/media/ddh4r4m/wallpaper-collection/main/collection/wallpapers/architecture/206.jpg",
        "thumb": "https://media.githubusercontent.com/media/ddh4r4m/wallpaper-collection/main/collection/thumbnails/architecture/206.jpg"
      },
      "metadata": {
        "dimensions": {
          "width": 1080,
          "height": 1920
        },
        "file_size": 374040,
        "format": "JPEG",
        "added_at": "2025-07-17T00:02:57.600887",
        "hash": "aad7d6ac24595f4cc4ca96bd063b9543",
        "source": "migrated"
      }
    },
    {
      "id": "architecture_207",
      "category": "architecture",
      "title": "Architecture Wallpaper 207",
      "tags": [
        "architecture",
        "wallpaper",
        "hd",
        "mobile"
      ],
      "urls": {
        "raw": "https://media.githubusercontent.com/media/ddh4r4m/wallpaper-collection/main/collection/wallpapers/architecture/207.jpg",
        "thumb": "https://media.githubusercontent.com/media/ddh4r4m/wallpaper-collection/main/collection/thumbnails/architecture/207.jpg"
      },
      "metadata": {
        "dimensions": {
          "width": 1080,
          "height": 1920
        },
        "file_size": 465261,
        "format": "JPEG",
        "added_at": "2025-07-17T00:02:57.670071",
        "hash": "6adaba6a7a36bd435562d36eae0cfbd2",
        "source": "migrated"
      }
    },
    {
      "id": "architecture_208",
      "category": "architecture",
      "title": "Architecture Wallpaper 208",
      "tags": [
        "architecture",
        "wallpaper",
        "hd",
        "mobile"
      ],
      "urls": {
        "raw": "https://media.githubusercontent.com/media/ddh4r4m/wallpaper-collection/main/collection/wallpapers/architecture/208.jpg",
        "thumb": "https://media.githubusercontent.com/media/ddh4r4m/wallpaper-collection/main/collection/thumbnails/architecture/208.jpg"
      },
      "metadata": {
        "dimensions": {
          "width": 1080,
          "height": 1920
        },
        "file_size": 433227,
        "format": "JPEG",
        "added_at": "2025-07-17T00:02:57.757561",
        "hash": "637be1c0f4801a8aa680426822a6c919",
        "source": "migrated"
      }
    },
    {
      "id": "architecture_209",
      "category": "architecture",
      "title": "Architecture Wallpaper 209",
      "tags": [
        "architecture",
        "wallpaper",
        "hd",
        "mobile"
      ],
      "urls": {
        "raw": "https://media.githubusercontent.com/media/ddh4r4m/wallpaper-collection/main/collection/wallpapers/architecture/209.jpg",
        "thumb": "https://media.githubusercontent.com/media/ddh4r4m/wallpaper-collection/main/collection/thumbnails/architecture/209.jpg"
      },
      "metadata": {
        "dimensions": {
          "width": 1080,
          "height": 1920
        },
        "file_size": 246547,
        "format": "JPEG",
        "added_at": "2025-07-17T00:02:57.834481",
        "hash": "390d496c851b16b437177c1dea2fbc46",
        "source": "migrated"
      }
    },
    {
      "id": "architecture_210",
      "category": "architecture",
      "title": "Architecture Wallpaper 210",
      "tags": [
        "architecture",
        "wallpaper",
        "hd",
        "mobile"
      ],
      "urls": {
        "raw": "https://media.githubusercontent.com/media/ddh4r4m/wallpaper-collection/main/collection/wallpapers/architecture/210.jpg",
        "thumb": "https://media.githubusercontent.com/media/ddh4r4m/wallpaper-collection/main/collection/thumbnails/architecture/210.jpg"
      },
      "metadata": {
        "dimensions": {
          "width": 1080,
          "height": 1920
        },
        "file_size": 414094,
        "format": "JPEG",
        "added_at": "2025-07-17T00:02:57.898957",
        "hash": "aec6dc0eaf585b61fa1858d33c5bb569",
        "source": "migrated"
      }
    }
  ]
}