{
  "meta": {
    "version": "1.0",
    "generated_at": "2025-07-19T12:26:57.111378",
    "category": "architecture",
    "page": 15,
    "per_page": 15,
    "total_pages": 19,
    "total_count": 275,
    "count_on_page": 15,
    "has_next": true,
    "has_prev": true,
    "next_page_url": "/api/v1/architecture/pages/16.json",
    "prev_page_url": "/api/v1/architecture/pages/14.json"
  },
  "data": [
    {
      "id": "architecture_211",
      "category": "architecture",
      "title": "Architecture Wallpaper 211",
      "tags": [
        "architecture",
        "wallpaper",
        "hd",
        "mobile"
      ],
      "urls": {
        "raw": "https://media.githubusercontent.com/media/ddh4r4m/wallpaper-collection/main/collection/wallpapers/architecture/211.jpg",
        "thumb": "https://media.githubusercontent.com/media/ddh4r4m/wallpaper-collection/main/collection/thumbnails/architecture/211.jpg"
      },
      "metadata": {
        "dimensions": {
          "width": 1080,
          "height": 1920
        },
        "file_size": 195988,
        "format": "JPEG",
        "added_at": "2025-07-17T00:02:57.952604",
        "hash": "8b1e4165be8ed6ae534582486e97dd01",
        "source": "migrated"
      }
    },
    {
      "id": "architecture_212",
      "category": "architecture",
      "title": "Architecture Wallpaper 212",
      "tags": [
        "architecture",
        "wallpaper",
        "hd",
        "mobile"
      ],
      "urls": {
        "raw": "https://media.githubusercontent.com/media/ddh4r4m/wallpaper-collection/main/collection/wallpapers/architecture/212.jpg",
        "thumb": "https://media.githubusercontent.com/media/ddh4r4m/wallpaper-collection/main/collection/thumbnails/architecture/212.jpg"
      },
      "metadata": {
        "dimensions": {
          "width": 1080,
          "height": 1920
        },
        "file_size": 290969,
        "format": "JPEG",
        "added_at": "2025-07-17T00:02:58.011519",
        "hash": "7101187175468ff9b436c82ea170e0c3",
        "source": "migrated"
      }
    },
    {
      "id": "architecture_213",
      "category": "architecture",
      "title": "Architecture Wallpaper 213",
      "tags": [
        "architecture",
        "wallpaper",
        "hd",
        "mobile"
      ],
      "urls": {
        "raw": "https://media.githubusercontent.com/media/ddh4r4m/wallpaper-collection/main/collection/wallpapers/architecture/213.jpg",
        "thumb": "https://media.githubusercontent.com/media/ddh4r4m/wallpaper-collection/main/collection/thumbnails/architecture/213.jpg"
      },
      "metadata": {
        "dimensions": {
          "width": 1080,
          "height": 1920
        },
        "file_size": 330059,
        "format": "JPEG",
        "added_at": "2025-07-17T00:02:58.072836",
        "hash": "eddd466b9c6119b5f55d8a9301e61a74",
        "source": "migrated"
      }
    },
    {
      "id": "architecture_214",
      "category": "architecture",
      "title": "Architecture Wallpaper 214",
      "tags": [
        "architecture",
        "wallpaper",
        "hd",
        "mobile"
      ],
      "urls": {
        "raw": "https://media.githubusercontent.com/media/ddh4r4m/wallpaper-collection/main/collection/wallpapers/architecture/214.jpg",
        "thumb": "https://media.githubusercontent.com/media/ddh4r4m/wallpaper-collection/main/collection/thumbnails/architecture/214.jpg"
      },
      "metadata": {
        "dimensions": {
          "width": 1080,
          "height": 1920
        },
        "file_size": 316996,
        "format": "JPEG",
        "added_at": "2025-07-17T00:02:58.133972",
        "hash": "8745d559936de37cc2781e41dc26783d",
        "source": "migrated"
      }
    },
    {
      "id": "architecture_215",
      "category": "architecture",
      "title": "Architecture Wallpaper 215",
      "tags": [
        "architecture",
        "wallpaper",
        "hd",
        "mobile"
      ],
      "urls": {
        "raw": "https://media.githubusercontent.com/media/ddh4r4m/wallpaper-collection/main/collection/wallpapers/architecture/215.jpg",
        "thumb": "https://media.githubusercontent.com/media/ddh4r4m/wallpaper-collection/main/collection/thumbnails/architecture/215.jpg"
      },
      "metadata": {
        "dimensions": {
          "width": 1080,
          "height": 1920
        },
        "file_size": 344850,
        "format": "JPEG",
        "added_at": "2025-07-17T00:02:58.194737",
        "hash": "edd051afaa78b7e0f9655e932e85917b",
        "source": "migrated"
      }
    },
    {
      "id": "architecture_216",
      "category": "architecture",
      "title": "Architecture Wallpaper 216",
      "tags": [
        "architecture",
        "wallpaper",
        "hd",
        "mobile"
      ],
      "urls": {
        "raw": "https://media.githubusercontent.com/media/ddh4r4m/wallpaper-collection/main/collection/wallpapers/architecture/216.jpg",
        "thumb": "https://media.githubusercontent.com/media/ddh4r4m/wallpaper-collection/main/collection/thumbnails/architecture/216.jpg"
      },
      "metadata": {
        "dimensions": {
          "width": 1080,
          "height": 1920
        },
        "file_size": 235775,
        "format": "JPEG",
        "added_at": "2025-07-17T00:02:58.249273",
        "hash": "84d00a4b900607774a2051415567ab11",
        "source": "migrated"
      }
    },
    {
      "id": "architecture_217",
      "category": "architecture",
      "title": "Architecture Wallpaper 217",
      "tags": [
        "architecture",
        "wallpaper",
        "hd",
        "mobile"
      ],
      "urls": {
        "raw": "https://media.githubusercontent.com/media/ddh4r4m/wallpaper-collection/main/collection/wallpapers/architecture/217.jpg",
        "thumb": "https://media.githubusercontent.com/media/ddh4r4m/wallpaper-collection/main/collection/thumbnails/architecture/217.jpg"
      },
      "metadata": {
        "dimensions": {
          "width": 1080,
          "height": 1920
        },
        "file_size": 465547,
        "format": "JPEG",
        "added_at": "2025-07-17T00:02:58.316387",
        "hash": "1a8744a9318909bf1286e78668fac8b9",
        "source": "migrated"
      }
    },
    {
      "id": "architecture_218",
      "category": "architecture",
      "title": "Architecture Wallpaper 218",
      "tags": [
        "architecture",
        "wallpaper",
        "hd",
        "mobile"
      ],
      "urls": {
        "raw": "https://media.githubusercontent.com/media/ddh4r4m/wallpaper-collection/main/collection/wallpapers/architecture/218.jpg",
        "thumb": "https://media.githubusercontent.com/media/ddh4r4m/wallpaper-collection/main/collection/thumbnails/architecture/218.jpg"
      },
      "metadata": {
        "dimensions": {
          "width": 1080,
          "height": 1920
        },
        "file_size": 545634,
        "format": "JPEG",
        "added_at": "2025-07-17T00:02:58.407342",
        "hash": "4bfd8def754048311585881acadda216",
        "source": "migrated"
      }
    },
    {
      "id": "architecture_219",
      "category": "architecture",
      "title": "Architecture Wallpaper 219",
      "tags": [
        "architecture",
        "wallpaper",
        "hd",
        "mobile"
      ],
      "urls": {
        "raw": "https://media.githubusercontent.com/media/ddh4r4m/wallpaper-collection/main/collection/wallpapers/architecture/219.jpg",
        "thumb": "https://media.githubusercontent.com/media/ddh4r4m/wallpaper-collection/main/collection/thumbnails/architecture/219.jpg"
      },
      "metadata": {
        "dimensions": {
          "width": 1080,
          "height": 1920
        },
        "file_size": 429125,
        "format": "JPEG",
        "added_at": "2025-07-17T00:02:58.472049",
        "hash": "3502306fefe6721ecd14247b92f3afee",
        "source": "migrated"
      }
    },
    {
      "id": "architecture_220",
      "category": "architecture",
      "title": "Architecture Wallpaper 220",
      "tags": [
        "architecture",
        "wallpaper",
        "hd",
        "mobile"
      ],
      "urls": {
        "raw": "https://media.githubusercontent.com/media/ddh4r4m/wallpaper-collection/main/collection/wallpapers/architecture/220.jpg",
        "thumb": "https://media.githubusercontent.com/media/ddh4r4m/wallpaper-collection/main/collection/thumbnails/architecture/220.jpg"
      },
      "metadata": {
        "dimensions": {
          "width": 1080,
          "height": 1920
        },
        "file_size": 259397,
        "format": "JPEG",
        "added_at": "2025-07-17T00:02:58.526105",
        "hash": "b4f07271da2928ac5f7ca0637280f2f6",
        "source": "migrated"
      }
    },
    {
      "id": "architecture_221",
      "category": "architecture",
      "title": "Architecture Wallpaper 221",
      "tags": [
        "architecture",
        "wallpaper",
        "hd",
        "mobile"
      ],
      "urls": {
        "raw": "https://media.githubusercontent.com/media/ddh4r4m/wallpaper-collection/main/collection/wallpapers/architecture/221.jpg",
        "thumb": "https://media.githubusercontent.com/media/ddh4r4m/wallpaper-collection/main/collection/thumbnails/architecture/221.jpg"
      },
      "metadata": {
        "dimensions": {
          "width": 1080,
          "height": 1920
        },
        "file_size": 139317,
        "format": "JPEG",
        "added_at": "2025-07-17T00:02:58.573745",
        "hash": "4c5edb4e7288baab46bd6db75976ff21",
        "source": "migrated"
      }
    },
    {
      "id": "architecture_222",
      "category": "architecture",
      "title": "Architecture Wallpaper 222",
      "tags": [
        "architecture",
        "wallpaper",
        "hd",
        "mobile"
      ],
      "urls": {
        "raw": "https://media.githubusercontent.com/media/ddh4r4m/wallpaper-collection/main/collection/wallpapers/architecture/222.jpg",
        "thumb": "https://media.githubusercontent.com/media/ddh4r4m/wallpaper-collection/main/collection/thumbnails/architecture/222.jpg"
      },
      "metadata": {
        "dimensions": {
          "width": 1080,
          "height": 1920
        },
        "file_size": 508988,
        "format": "JPEG",
        "added_at": "2025-07-17T00:02:58.640098",
        "hash": "15ce13102bf127c7a0366ed58ea1ab4e",
        "source": "migrated"
      }
    },
    {
      "id": "architecture_223",
      "category": "architecture",
      "title": "Architecture Wallpaper 223",
      "tags": [
        "architecture",
        "wallpaper",
        "hd",
        "mobile"
      ],
      "urls": {
        "raw": "https://media.githubusercontent.com/media/ddh4r4m/wallpaper-collection/main/collection/wallpapers/architecture/223.jpg",
        "thumb": "https://media.githubusercontent.com/media/ddh4r4m/wallpaper-collection/main/collection/thumbnails/architecture/223.jpg"
      },
      "metadata": {
        "dimensions": {
          "width": 1080,
          "height": 1920
        },
        "file_size": 505946,
        "format": "JPEG",
        "added_at": "2025-07-17T00:02:58.710801",
        "hash": "28b815751901000630f31c8587bf909c",
        "source": "migrated"
      }
    },
    {
      "id": "architecture_224",
      "category": "architecture",
      "title": "Architecture Wallpaper 224",
      "tags": [
        "architecture",
        "wallpaper",
        "hd",
        "mobile"
      ],
      "urls": {
        "raw": "https://media.githubusercontent.com/media/ddh4r4m/wallpaper-collection/main/collection/wallpapers/architecture/224.jpg",
        "thumb": "https://media.githubusercontent.com/media/ddh4r4m/wallpaper-collection/main/collection/thumbnails/architecture/224.jpg"
      },
      "metadata": {
        "dimensions": {
          "width": 1080,
          "height": 1920
        },
        "file_size": 336899,
        "format": "JPEG",
        "added_at": "2025-07-17T00:02:58.771210",
        "hash": "6f8c6ee9f2197d1f0e7f5b3347a2946b",
        "source": "migrated"
      }
    },
    {
      "id": "architecture_225",
      "category": "architecture",
      "title": "Architecture Wallpaper 225",
      "tags": [
        "architecture",
        "wallpaper",
        "hd",
        "mobile"
      ],
      "urls": {
        "raw": "https://media.githubusercontent.com/media/ddh4r4m/wallpaper-collection/main/collection/wallpapers/architecture/225.jpg",
        "thumb": "https://media.githubusercontent.com/media/ddh4r4m/wallpaper-collection/main/collection/thumbnails/architecture/225.jpg"
      },
      "metadata": {
        "dimensions": {
          "width": 1080,
          "height": 1920
        },
        "file_size": 430132,
        "format": "JPEG",
        "added_at": "2025-07-17T00:02:58.837332",
        "hash": "644b304dac8d6bd0768c9568d0075d4d",
        "source": "migrated"
      }
    }
  ]
}