{
  "meta": {
    "version": "1.0",
    "generated_at": "2025-07-17T21:14:17.488868",
    "category": "architecture",
    "page": 16,
    "per_page": 15,
    "total_pages": 19,
    "total_count": 275,
    "count_on_page": 15,
    "has_next": true,
    "has_prev": true,
    "next_page_url": "/api/v1/architecture/pages/17.json",
    "prev_page_url": "/api/v1/architecture/pages/15.json"
  },
  "data": [
    {
      "id": "architecture_226",
      "category": "architecture",
      "title": "Architecture Wallpaper 226",
      "tags": [
        "architecture",
        "wallpaper",
        "hd",
        "mobile"
      ],
      "urls": {
        "raw": "https://media.githubusercontent.com/media/ddh4r4m/wallpaper-collection/main/collection/wallpapers/architecture/226.jpg",
        "thumb": "https://media.githubusercontent.com/media/ddh4r4m/wallpaper-collection/main/collection/thumbnails/architecture/226.jpg"
      },
      "metadata": {
        "dimensions": {
          "width": 1080,
          "height": 1920
        },
        "file_size": 396672,
        "format": "JPEG",
        "added_at": "2025-07-17T00:02:58.904129",
        "hash": "2ba9acae38ed0f2ded2bf87a3a2ee724",
        "source": "migrated"
      }
    },
    {
      "id": "architecture_227",
      "category": "architecture",
      "title": "Architecture Wallpaper 227",
      "tags": [
        "architecture",
        "wallpaper",
        "hd",
        "mobile"
      ],
      "urls": {
        "raw": "https://media.githubusercontent.com/media/ddh4r4m/wallpaper-collection/main/collection/wallpapers/architecture/227.jpg",
        "thumb": "https://media.githubusercontent.com/media/ddh4r4m/wallpaper-collection/main/collection/thumbnails/architecture/227.jpg"
      },
      "metadata": {
        "dimensions": {
          "width": 1080,
          "height": 1920
        },
        "file_size": 450982,
        "format": "JPEG",
        "added_at": "2025-07-17T00:02:58.971416",
        "hash": "96456a29339258b81a60fd4a1bc1d907",
        "source": "migrated"
      }
    },
    {
      "id": "architecture_228",
      "category": "architecture",
      "title": "Architecture Wallpaper 228",
      "tags": [
        "architecture",
        "wallpaper",
        "hd",
        "mobile"
      ],
      "urls": {
        "raw": "https://media.githubusercontent.com/media/ddh4r4m/wallpaper-collection/main/collection/wallpapers/architecture/228.jpg",
        "thumb": "https://media.githubusercontent.com/media/ddh4r4m/wallpaper-collection/main/collection/thumbnails/architecture/228.jpg"
      },
      "metadata": {
        "dimensions": {
          "width": 1080,
          "height": 1920
        },
        "file_size": 331643,
        "format": "JPEG",
        "added_at": "2025-07-17T00:02:59.044509",
        "hash": "8f1ba7d04d3c0934d29ee369c82543ea",
        "source": "migrated"
      }
    },
    {
      "id": "architecture_229",
      "category": "architecture",
      "title": "Architecture Wallpaper 229",
      "tags": [
        "architecture",
        "wallpaper",
        "hd",
        "mobile"
      ],
      "urls": {
        "raw": "https://media.githubusercontent.com/media/ddh4r4m/wallpaper-collection/main/collection/wallpapers/architecture/229.jpg",
        "thumb": "https://media.githubusercontent.com/media/ddh4r4m/wallpaper-collection/main/collection/thumbnails/architecture/229.jpg"
      },
      "metadata": {
        "dimensions": {
          "width": 1080,
          "height": 1920
        },
        "file_size": 511708,
        "format": "JPEG",
        "added_at": "2025-07-17T00:02:59.112498",
        "hash": "0a5c88180d2782574fa47b7e3b60432f",
        "source": "migrated"
      }
    },
    {
      "id": "architecture_230",
      "category": "architecture",
      "title": "Architecture Wallpaper 230",
      "tags": [
        "architecture",
        "wallpaper",
        "hd",
        "mobile"
      ],
      "urls": {
        "raw": "https://media.githubusercontent.com/media/ddh4r4m/wallpaper-collection/main/collection/wallpapers/architecture/230.jpg",
        "thumb": "https://media.githubusercontent.com/media/ddh4r4m/wallpaper-collection/main/collection/thumbnails/architecture/230.jpg"
      },
      "metadata": {
        "dimensions": {
          "width": 1080,
          "height": 1920
        },
        "file_size": 326900,
        "format": "JPEG",
        "added_at": "2025-07-17T00:02:59.172077",
        "hash": "c74a6f2d317c45d0e6b636840c8c053a",
        "source": "migrated"
      }
    },
    {
      "id": "architecture_231",
      "category": "architecture",
      "title": "Architecture Wallpaper 231",
      "tags": [
        "architecture",
        "wallpaper",
        "hd",
        "mobile"
      ],
      "urls": {
        "raw": "https://media.githubusercontent.com/media/ddh4r4m/wallpaper-collection/main/collection/wallpapers/architecture/231.jpg",
        "thumb": "https://media.githubusercontent.com/media/ddh4r4m/wallpaper-collection/main/collection/thumbnails/architecture/231.jpg"
      },
      "metadata": {
        "dimensions": {
          "width": 1080,
          "height": 1920
        },
        "file_size": 396234,
        "format": "JPEG",
        "added_at": "2025-07-17T00:02:59.234989",
        "hash": "c136f6745e0e0bef06f3072f5a1589e1",
        "source": "migrated"
      }
    },
    {
      "id": "architecture_232",
      "category": "architecture",
      "title": "Architecture Wallpaper 232",
      "tags": [
        "architecture",
        "wallpaper",
        "hd",
        "mobile"
      ],
      "urls": {
        "raw": "https://media.githubusercontent.com/media/ddh4r4m/wallpaper-collection/main/collection/wallpapers/architecture/232.jpg",
        "thumb": "https://media.githubusercontent.com/media/ddh4r4m/wallpaper-collection/main/collection/thumbnails/architecture/232.jpg"
      },
      "metadata": {
        "dimensions": {
          "width": 1080,
          "height": 1920
        },
        "file_size": 319571,
        "format": "JPEG",
        "added_at": "2025-07-17T00:02:59.294162",
        "hash": "f098c4b29abb125414f27c0a34b2b223",
        "source": "migrated"
      }
    },
    {
      "id": "architecture_233",
      "category": "architecture",
      "title": "Architecture Wallpaper 233",
      "tags": [
        "architecture",
        "wallpaper",
        "hd",
        "mobile"
      ],
      "urls": {
        "raw": "https://media.githubusercontent.com/media/ddh4r4m/wallpaper-collection/main/collection/wallpapers/architecture/233.jpg",
        "thumb": "https://media.githubusercontent.com/media/ddh4r4m/wallpaper-collection/main/collection/thumbnails/architecture/233.jpg"
      },
      "metadata": {
        "dimensions": {
          "width": 1080,
          "height": 1920
        },
        "file_size": 350633,
        "format": "JPEG",
        "added_at": "2025-07-17T00:02:59.353976",
        "hash": "20507fa9423e983a6fd27752b0fe4e61",
        "source": "migrated"
      }
    },
    {
      "id": "architecture_234",
      "category": "architecture",
      "title": "Architecture Wallpaper 234",
      "tags": [
        "architecture",
        "wallpaper",
        "hd",
        "mobile"
      ],
      "urls": {
        "raw": "https://media.githubusercontent.com/media/ddh4r4m/wallpaper-collection/main/collection/wallpapers/architecture/234.jpg",
        "thumb": "https://media.githubusercontent.com/media/ddh4r4m/wallpaper-collection/main/collection/thumbnails/architecture/234.jpg"
      },
      "metadata": {
        "dimensions": {
          "width": 1080,
          "height": 1920
        },
        "file_size": 685405,
        "format": "JPEG",
        "added_at": "2025-07-17T00:02:59.430596",
        "hash": "da1c9d722a84c6b3fd716bf05f5cf07e",
        "source": "migrated"
      }
    },
    {
      "id": "architecture_235",
      "category": "architecture",
      "title": "Architecture Wallpaper 235",
      "tags": [
        "architecture",
        "wallpaper",
        "hd",
        "mobile"
      ],
      "urls": {
        "raw": "https://media.githubusercontent.com/media/ddh4r4m/wallpaper-collection/main/collection/wallpapers/architecture/235.jpg",
        "thumb": "https://media.githubusercontent.com/media/ddh4r4m/wallpaper-collection/main/collection/thumbnails/architecture/235.jpg"
      },
      "metadata": {
        "dimensions": {
          "width": 1080,
          "height": 1920
        },
        "file_size": 451918,
        "format": "JPEG",
        "added_at": "2025-07-17T00:02:59.506317",
        "hash": "d52b050147e7202f81573281b761b458",
        "source": "migrated"
      }
    },
    {
      "id": "architecture_236",
      "category": "architecture",
      "title": "Architecture Wallpaper 236",
      "tags": [
        "architecture",
        "wallpaper",
        "hd",
        "mobile"
      ],
      "urls": {
        "raw": "https://media.githubusercontent.com/media/ddh4r4m/wallpaper-collection/main/collection/wallpapers/architecture/236.jpg",
        "thumb": "https://media.githubusercontent.com/media/ddh4r4m/wallpaper-collection/main/collection/thumbnails/architecture/236.jpg"
      },
      "metadata": {
        "dimensions": {
          "width": 1080,
          "height": 1920
        },
        "file_size": 378721,
        "format": "JPEG",
        "added_at": "2025-07-17T00:02:59.566241",
        "hash": "3824be7eb60d973bbb0b78c473791016",
        "source": "migrated"
      }
    },
    {
      "id": "architecture_237",
      "category": "architecture",
      "title": "Architecture Wallpaper 237",
      "tags": [
        "architecture",
        "wallpaper",
        "hd",
        "mobile"
      ],
      "urls": {
        "raw": "https://media.githubusercontent.com/media/ddh4r4m/wallpaper-collection/main/collection/wallpapers/architecture/237.jpg",
        "thumb": "https://media.githubusercontent.com/media/ddh4r4m/wallpaper-collection/main/collection/thumbnails/architecture/237.jpg"
      },
      "metadata": {
        "dimensions": {
          "width": 1080,
          "height": 1920
        },
        "file_size": 475378,
        "format": "JPEG",
        "added_at": "2025-07-17T00:02:59.634755",
        "hash": "613a1cb71d0c07751a64cafe2f1c1ce9",
        "source": "migrated"
      }
    },
    {
      "id": "architecture_238",
      "category": "architecture",
      "title": "Architecture Wallpaper 238",
      "tags": [
        "architecture",
        "wallpaper",
        "hd",
        "mobile"
      ],
      "urls": {
        "raw": "https://media.githubusercontent.com/media/ddh4r4m/wallpaper-collection/main/collection/wallpapers/architecture/238.jpg",
        "thumb": "https://media.githubusercontent.com/media/ddh4r4m/wallpaper-collection/main/collection/thumbnails/architecture/238.jpg"
      },
      "metadata": {
        "dimensions": {
          "width": 1080,
          "height": 1920
        },
        "file_size": 389297,
        "format": "JPEG",
        "added_at": "2025-07-17T00:02:59.698742",
        "hash": "a4f7db6459d9b8fd6784461560b9589c",
        "source": "migrated"
      }
    },
    {
      "id": "architecture_239",
      "category": "architecture",
      "title": "Architecture Wallpaper 239",
      "tags": [
        "architecture",
        "wallpaper",
        "hd",
        "mobile"
      ],
      "urls": {
        "raw": "https://media.githubusercontent.com/media/ddh4r4m/wallpaper-collection/main/collection/wallpapers/architecture/239.jpg",
        "thumb": "https://media.githubusercontent.com/media/ddh4r4m/wallpaper-collection/main/collection/thumbnails/architecture/239.jpg"
      },
      "metadata": {
        "dimensions": {
          "width": 1080,
          "height": 1920
        },
        "file_size": 452140,
        "format": "JPEG",
        "added_at": "2025-07-17T00:02:59.764217",
        "hash": "4184af15d5b55807cbb17b788310611c",
        "source": "migrated"
      }
    },
    {
      "id": "architecture_240",
      "category": "architecture",
      "title": "Architecture Wallpaper 240",
      "tags": [
        "architecture",
        "wallpaper",
        "hd",
        "mobile"
      ],
      "urls": {
        "raw": "https://media.githubusercontent.com/media/ddh4r4m/wallpaper-collection/main/collection/wallpapers/architecture/240.jpg",
        "thumb": "https://media.githubusercontent.com/media/ddh4r4m/wallpaper-collection/main/collection/thumbnails/architecture/240.jpg"
      },
      "metadata": {
        "dimensions": {
          "width": 1080,
          "height": 1920
        },
        "file_size": 464530,
        "format": "JPEG",
        "added_at": "2025-07-17T00:02:59.830843",
        "hash": "9ebb5541b0b356d6fadc964f774cff8b",
        "source": "migrated"
      }
    }
  ]
}