{
  "meta": {
    "version": "1.0",
    "generated_at": "2025-07-17T00:06:19.072196",
    "category": "architecture",
    "page": 17,
    "per_page": 15,
    "total_pages": 19,
    "total_count": 275,
    "count_on_page": 15,
    "has_next": true,
    "has_prev": true,
    "next_page_url": "/api/v1/architecture/pages/18.json",
    "prev_page_url": "/api/v1/architecture/pages/16.json"
  },
  "data": [
    {
      "id": "architecture_241",
      "category": "architecture",
      "title": "Architecture Wallpaper 241",
      "tags": [
        "architecture",
        "wallpaper",
        "hd",
        "mobile"
      ],
      "urls": {
        "raw": "https://raw.githubusercontent.com/ddh4r4m/wallpaper-collection/main/collection/wallpapers/architecture/241.jpg",
        "thumb": "https://raw.githubusercontent.com/ddh4r4m/wallpaper-collection/main/collection/thumbnails/architecture/241.jpg"
      },
      "metadata": {
        "dimensions": {
          "width": 1080,
          "height": 1920
        },
        "file_size": 341493,
        "format": "JPEG",
        "added_at": "2025-07-17T00:02:59.891541",
        "hash": "829d8d5e5d6fe109ddaa49cee69b94c2",
        "source": "migrated"
      }
    },
    {
      "id": "architecture_242",
      "category": "architecture",
      "title": "Architecture Wallpaper 242",
      "tags": [
        "architecture",
        "wallpaper",
        "hd",
        "mobile"
      ],
      "urls": {
        "raw": "https://raw.githubusercontent.com/ddh4r4m/wallpaper-collection/main/collection/wallpapers/architecture/242.jpg",
        "thumb": "https://raw.githubusercontent.com/ddh4r4m/wallpaper-collection/main/collection/thumbnails/architecture/242.jpg"
      },
      "metadata": {
        "dimensions": {
          "width": 1080,
          "height": 1920
        },
        "file_size": 279996,
        "format": "JPEG",
        "added_at": "2025-07-17T00:02:59.949692",
        "hash": "2535f50f140abd569cbc3af4829d7fd8",
        "source": "migrated"
      }
    },
    {
      "id": "architecture_243",
      "category": "architecture",
      "title": "Architecture Wallpaper 243",
      "tags": [
        "architecture",
        "wallpaper",
        "hd",
        "mobile"
      ],
      "urls": {
        "raw": "https://raw.githubusercontent.com/ddh4r4m/wallpaper-collection/main/collection/wallpapers/architecture/243.jpg",
        "thumb": "https://raw.githubusercontent.com/ddh4r4m/wallpaper-collection/main/collection/thumbnails/architecture/243.jpg"
      },
      "metadata": {
        "dimensions": {
          "width": 1080,
          "height": 1920
        },
        "file_size": 445608,
        "format": "JPEG",
        "added_at": "2025-07-17T00:03:00.014842",
        "hash": "2b07066507c8ccd6476de34d6a9b46a8",
        "source": "migrated"
      }
    },
    {
      "id": "architecture_244",
      "category": "architecture",
      "title": "Architecture Wallpaper 244",
      "tags": [
        "architecture",
        "wallpaper",
        "hd",
        "mobile"
      ],
      "urls": {
        "raw": "https://raw.githubusercontent.com/ddh4r4m/wallpaper-collection/main/collection/wallpapers/architecture/244.jpg",
        "thumb": "https://raw.githubusercontent.com/ddh4r4m/wallpaper-collection/main/collection/thumbnails/architecture/244.jpg"
      },
      "metadata": {
        "dimensions": {
          "width": 1080,
          "height": 1920
        },
        "file_size": 404363,
        "format": "JPEG",
        "added_at": "2025-07-17T00:03:00.085703",
        "hash": "7839cbe738593556dce4b0e247b62550",
        "source": "migrated"
      }
    },
    {
      "id": "architecture_245",
      "category": "architecture",
      "title": "Architecture Wallpaper 245",
      "tags": [
        "architecture",
        "wallpaper",
        "hd",
        "mobile"
      ],
      "urls": {
        "raw": "https://raw.githubusercontent.com/ddh4r4m/wallpaper-collection/main/collection/wallpapers/architecture/245.jpg",
        "thumb": "https://raw.githubusercontent.com/ddh4r4m/wallpaper-collection/main/collection/thumbnails/architecture/245.jpg"
      },
      "metadata": {
        "dimensions": {
          "width": 1080,
          "height": 1920
        },
        "file_size": 271579,
        "format": "JPEG",
        "added_at": "2025-07-17T00:03:00.142455",
        "hash": "04fb051f51e3038eb301a7f245437663",
        "source": "migrated"
      }
    },
    {
      "id": "architecture_246",
      "category": "architecture",
      "title": "Architecture Wallpaper 246",
      "tags": [
        "architecture",
        "wallpaper",
        "hd",
        "mobile"
      ],
      "urls": {
        "raw": "https://raw.githubusercontent.com/ddh4r4m/wallpaper-collection/main/collection/wallpapers/architecture/246.jpg",
        "thumb": "https://raw.githubusercontent.com/ddh4r4m/wallpaper-collection/main/collection/thumbnails/architecture/246.jpg"
      },
      "metadata": {
        "dimensions": {
          "width": 1080,
          "height": 1920
        },
        "file_size": 662846,
        "format": "JPEG",
        "added_at": "2025-07-17T00:03:00.218142",
        "hash": "c1809a82df088f1e2e4ef6fce74fd915",
        "source": "migrated"
      }
    },
    {
      "id": "architecture_247",
      "category": "architecture",
      "title": "Architecture Wallpaper 247",
      "tags": [
        "architecture",
        "wallpaper",
        "hd",
        "mobile"
      ],
      "urls": {
        "raw": "https://raw.githubusercontent.com/ddh4r4m/wallpaper-collection/main/collection/wallpapers/architecture/247.jpg",
        "thumb": "https://raw.githubusercontent.com/ddh4r4m/wallpaper-collection/main/collection/thumbnails/architecture/247.jpg"
      },
      "metadata": {
        "dimensions": {
          "width": 1080,
          "height": 1920
        },
        "file_size": 188478,
        "format": "JPEG",
        "added_at": "2025-07-17T00:03:00.270443",
        "hash": "3d109eac690e3fe140213580622999d5",
        "source": "migrated"
      }
    },
    {
      "id": "architecture_248",
      "category": "architecture",
      "title": "Architecture Wallpaper 248",
      "tags": [
        "architecture",
        "wallpaper",
        "hd",
        "mobile"
      ],
      "urls": {
        "raw": "https://raw.githubusercontent.com/ddh4r4m/wallpaper-collection/main/collection/wallpapers/architecture/248.jpg",
        "thumb": "https://raw.githubusercontent.com/ddh4r4m/wallpaper-collection/main/collection/thumbnails/architecture/248.jpg"
      },
      "metadata": {
        "dimensions": {
          "width": 1080,
          "height": 1920
        },
        "file_size": 328325,
        "format": "JPEG",
        "added_at": "2025-07-17T00:03:00.333229",
        "hash": "35a3ed523a692111993f54da773d5511",
        "source": "migrated"
      }
    },
    {
      "id": "architecture_249",
      "category": "architecture",
      "title": "Architecture Wallpaper 249",
      "tags": [
        "architecture",
        "wallpaper",
        "hd",
        "mobile"
      ],
      "urls": {
        "raw": "https://raw.githubusercontent.com/ddh4r4m/wallpaper-collection/main/collection/wallpapers/architecture/249.jpg",
        "thumb": "https://raw.githubusercontent.com/ddh4r4m/wallpaper-collection/main/collection/thumbnails/architecture/249.jpg"
      },
      "metadata": {
        "dimensions": {
          "width": 1080,
          "height": 1920
        },
        "file_size": 390974,
        "format": "JPEG",
        "added_at": "2025-07-17T00:03:00.401962",
        "hash": "2c6eaebdcdd047ef51554ed8a14a0c14",
        "source": "migrated"
      }
    },
    {
      "id": "architecture_250",
      "category": "architecture",
      "title": "Architecture Wallpaper 250",
      "tags": [
        "architecture",
        "wallpaper",
        "hd",
        "mobile"
      ],
      "urls": {
        "raw": "https://raw.githubusercontent.com/ddh4r4m/wallpaper-collection/main/collection/wallpapers/architecture/250.jpg",
        "thumb": "https://raw.githubusercontent.com/ddh4r4m/wallpaper-collection/main/collection/thumbnails/architecture/250.jpg"
      },
      "metadata": {
        "dimensions": {
          "width": 1080,
          "height": 1920
        },
        "file_size": 295748,
        "format": "JPEG",
        "added_at": "2025-07-17T00:03:00.462269",
        "hash": "ed6178ed7b95d6815fe844cda404787b",
        "source": "migrated"
      }
    },
    {
      "id": "architecture_251",
      "category": "architecture",
      "title": "Architecture Wallpaper 251",
      "tags": [
        "architecture",
        "wallpaper",
        "hd",
        "mobile"
      ],
      "urls": {
        "raw": "https://raw.githubusercontent.com/ddh4r4m/wallpaper-collection/main/collection/wallpapers/architecture/251.jpg",
        "thumb": "https://raw.githubusercontent.com/ddh4r4m/wallpaper-collection/main/collection/thumbnails/architecture/251.jpg"
      },
      "metadata": {
        "dimensions": {
          "width": 1080,
          "height": 1920
        },
        "file_size": 365837,
        "format": "JPEG",
        "added_at": "2025-07-17T00:03:00.525672",
        "hash": "a245feaa216869a462d4d8405f16a614",
        "source": "migrated"
      }
    },
    {
      "id": "architecture_252",
      "category": "architecture",
      "title": "Architecture Wallpaper 252",
      "tags": [
        "architecture",
        "wallpaper",
        "hd",
        "mobile"
      ],
      "urls": {
        "raw": "https://raw.githubusercontent.com/ddh4r4m/wallpaper-collection/main/collection/wallpapers/architecture/252.jpg",
        "thumb": "https://raw.githubusercontent.com/ddh4r4m/wallpaper-collection/main/collection/thumbnails/architecture/252.jpg"
      },
      "metadata": {
        "dimensions": {
          "width": 1080,
          "height": 1920
        },
        "file_size": 228962,
        "format": "JPEG",
        "added_at": "2025-07-17T00:03:00.578564",
        "hash": "4c3c34c958ca2c1cca97352f48f12638",
        "source": "migrated"
      }
    },
    {
      "id": "architecture_253",
      "category": "architecture",
      "title": "Architecture Wallpaper 253",
      "tags": [
        "architecture",
        "wallpaper",
        "hd",
        "mobile"
      ],
      "urls": {
        "raw": "https://raw.githubusercontent.com/ddh4r4m/wallpaper-collection/main/collection/wallpapers/architecture/253.jpg",
        "thumb": "https://raw.githubusercontent.com/ddh4r4m/wallpaper-collection/main/collection/thumbnails/architecture/253.jpg"
      },
      "metadata": {
        "dimensions": {
          "width": 1080,
          "height": 1920
        },
        "file_size": 428764,
        "format": "JPEG",
        "added_at": "2025-07-17T00:03:00.641905",
        "hash": "ca136089f27d7955312a996c32429540",
        "source": "migrated"
      }
    },
    {
      "id": "architecture_254",
      "category": "architecture",
      "title": "Architecture Wallpaper 254",
      "tags": [
        "architecture",
        "wallpaper",
        "hd",
        "mobile"
      ],
      "urls": {
        "raw": "https://raw.githubusercontent.com/ddh4r4m/wallpaper-collection/main/collection/wallpapers/architecture/254.jpg",
        "thumb": "https://raw.githubusercontent.com/ddh4r4m/wallpaper-collection/main/collection/thumbnails/architecture/254.jpg"
      },
      "metadata": {
        "dimensions": {
          "width": 1080,
          "height": 1920
        },
        "file_size": 198088,
        "format": "JPEG",
        "added_at": "2025-07-17T00:03:00.694753",
        "hash": "8381dc510b56226f49b74555159e29c6",
        "source": "migrated"
      }
    },
    {
      "id": "architecture_255",
      "category": "architecture",
      "title": "Architecture Wallpaper 255",
      "tags": [
        "architecture",
        "wallpaper",
        "hd",
        "mobile"
      ],
      "urls": {
        "raw": "https://raw.githubusercontent.com/ddh4r4m/wallpaper-collection/main/collection/wallpapers/architecture/255.jpg",
        "thumb": "https://raw.githubusercontent.com/ddh4r4m/wallpaper-collection/main/collection/thumbnails/architecture/255.jpg"
      },
      "metadata": {
        "dimensions": {
          "width": 1080,
          "height": 1920
        },
        "file_size": 209977,
        "format": "JPEG",
        "added_at": "2025-07-17T00:03:00.746776",
        "hash": "1e95966ba6e686ac99681a12a7dfe439",
        "source": "migrated"
      }
    }
  ]
}