{
  "meta": {
    "version": "1.0",
    "generated_at": "2025-07-28T23:12:02.393375",
    "category": "architecture",
    "page": 18,
    "per_page": 15,
    "total_pages": 19,
    "total_count": 275,
    "count_on_page": 15,
    "has_next": true,
    "has_prev": true,
    "next_page_url": "/api/v1/architecture/pages/19.json",
    "prev_page_url": "/api/v1/architecture/pages/17.json"
  },
  "data": [
    {
      "id": "architecture_256",
      "category": "architecture",
      "title": "Architecture Wallpaper 256",
      "tags": [
        "architecture",
        "wallpaper",
        "hd",
        "mobile"
      ],
      "urls": {
        "raw": "https://media.githubusercontent.com/media/ddh4r4m/wallpaper-collection/main/collection/wallpapers/architecture/256.jpg",
        "thumb": "https://media.githubusercontent.com/media/ddh4r4m/wallpaper-collection/main/collection/thumbnails/architecture/256.jpg"
      },
      "metadata": {
        "dimensions": {
          "width": 1080,
          "height": 1920
        },
        "file_size": 319842,
        "format": "JPEG",
        "added_at": "2025-07-17T00:03:00.810402",
        "hash": "72bea484237493c4685181804b31d1b4",
        "source": "migrated"
      }
    },
    {
      "id": "architecture_257",
      "category": "architecture",
      "title": "Architecture Wallpaper 257",
      "tags": [
        "architecture",
        "wallpaper",
        "hd",
        "mobile"
      ],
      "urls": {
        "raw": "https://media.githubusercontent.com/media/ddh4r4m/wallpaper-collection/main/collection/wallpapers/architecture/257.jpg",
        "thumb": "https://media.githubusercontent.com/media/ddh4r4m/wallpaper-collection/main/collection/thumbnails/architecture/257.jpg"
      },
      "metadata": {
        "dimensions": {
          "width": 1080,
          "height": 1920
        },
        "file_size": 441971,
        "format": "JPEG",
        "added_at": "2025-07-17T00:03:00.875949",
        "hash": "a05a3969fc7b88483e7b1408e7e72b8e",
        "source": "migrated"
      }
    },
    {
      "id": "architecture_258",
      "category": "architecture",
      "title": "Architecture Wallpaper 258",
      "tags": [
        "architecture",
        "wallpaper",
        "hd",
        "mobile"
      ],
      "urls": {
        "raw": "https://media.githubusercontent.com/media/ddh4r4m/wallpaper-collection/main/collection/wallpapers/architecture/258.jpg",
        "thumb": "https://media.githubusercontent.com/media/ddh4r4m/wallpaper-collection/main/collection/thumbnails/architecture/258.jpg"
      },
      "metadata": {
        "dimensions": {
          "width": 1080,
          "height": 1920
        },
        "file_size": 199901,
        "format": "JPEG",
        "added_at": "2025-07-17T00:03:00.927923",
        "hash": "72db9d1c21427ee9b6a0799cccbd5475",
        "source": "migrated"
      }
    },
    {
      "id": "architecture_259",
      "category": "architecture",
      "title": "Architecture Wallpaper 259",
      "tags": [
        "architecture",
        "wallpaper",
        "hd",
        "mobile"
      ],
      "urls": {
        "raw": "https://media.githubusercontent.com/media/ddh4r4m/wallpaper-collection/main/collection/wallpapers/architecture/259.jpg",
        "thumb": "https://media.githubusercontent.com/media/ddh4r4m/wallpaper-collection/main/collection/thumbnails/architecture/259.jpg"
      },
      "metadata": {
        "dimensions": {
          "width": 1080,
          "height": 1920
        },
        "file_size": 351294,
        "format": "JPEG",
        "added_at": "2025-07-17T00:03:00.988594",
        "hash": "94912920a3035ade8ae52fbdb25c288f",
        "source": "migrated"
      }
    },
    {
      "id": "architecture_260",
      "category": "architecture",
      "title": "Architecture Wallpaper 260",
      "tags": [
        "architecture",
        "wallpaper",
        "hd",
        "mobile"
      ],
      "urls": {
        "raw": "https://media.githubusercontent.com/media/ddh4r4m/wallpaper-collection/main/collection/wallpapers/architecture/260.jpg",
        "thumb": "https://media.githubusercontent.com/media/ddh4r4m/wallpaper-collection/main/collection/thumbnails/architecture/260.jpg"
      },
      "metadata": {
        "dimensions": {
          "width": 1080,
          "height": 1920
        },
        "file_size": 370046,
        "format": "JPEG",
        "added_at": "2025-07-17T00:03:01.047804",
        "hash": "a7a7d3a81c4f0a2c5f1964fbc3241ea6",
        "source": "migrated"
      }
    },
    {
      "id": "architecture_261",
      "category": "architecture",
      "title": "Architecture Wallpaper 261",
      "tags": [
        "architecture",
        "wallpaper",
        "hd",
        "mobile"
      ],
      "urls": {
        "raw": "https://media.githubusercontent.com/media/ddh4r4m/wallpaper-collection/main/collection/wallpapers/architecture/261.jpg",
        "thumb": "https://media.githubusercontent.com/media/ddh4r4m/wallpaper-collection/main/collection/thumbnails/architecture/261.jpg"
      },
      "metadata": {
        "dimensions": {
          "width": 1080,
          "height": 1920
        },
        "file_size": 376584,
        "format": "JPEG",
        "added_at": "2025-07-17T00:03:01.108135",
        "hash": "79a468a59045ce4fdcee5cbbb9124ae5",
        "source": "migrated"
      }
    },
    {
      "id": "architecture_262",
      "category": "architecture",
      "title": "Architecture Wallpaper 262",
      "tags": [
        "architecture",
        "wallpaper",
        "hd",
        "mobile"
      ],
      "urls": {
        "raw": "https://media.githubusercontent.com/media/ddh4r4m/wallpaper-collection/main/collection/wallpapers/architecture/262.jpg",
        "thumb": "https://media.githubusercontent.com/media/ddh4r4m/wallpaper-collection/main/collection/thumbnails/architecture/262.jpg"
      },
      "metadata": {
        "dimensions": {
          "width": 1080,
          "height": 1920
        },
        "file_size": 193124,
        "format": "JPEG",
        "added_at": "2025-07-17T00:03:01.159229",
        "hash": "faae7da49e73f9dab02d0eeb80b5151b",
        "source": "migrated"
      }
    },
    {
      "id": "architecture_263",
      "category": "architecture",
      "title": "Architecture Wallpaper 263",
      "tags": [
        "architecture",
        "wallpaper",
        "hd",
        "mobile"
      ],
      "urls": {
        "raw": "https://media.githubusercontent.com/media/ddh4r4m/wallpaper-collection/main/collection/wallpapers/architecture/263.jpg",
        "thumb": "https://media.githubusercontent.com/media/ddh4r4m/wallpaper-collection/main/collection/thumbnails/architecture/263.jpg"
      },
      "metadata": {
        "dimensions": {
          "width": 1080,
          "height": 1920
        },
        "file_size": 359143,
        "format": "JPEG",
        "added_at": "2025-07-17T00:03:01.219890",
        "hash": "236500096f71ca4183372d95680da2c3",
        "source": "migrated"
      }
    },
    {
      "id": "architecture_264",
      "category": "architecture",
      "title": "Architecture Wallpaper 264",
      "tags": [
        "architecture",
        "wallpaper",
        "hd",
        "mobile"
      ],
      "urls": {
        "raw": "https://media.githubusercontent.com/media/ddh4r4m/wallpaper-collection/main/collection/wallpapers/architecture/264.jpg",
        "thumb": "https://media.githubusercontent.com/media/ddh4r4m/wallpaper-collection/main/collection/thumbnails/architecture/264.jpg"
      },
      "metadata": {
        "dimensions": {
          "width": 1080,
          "height": 1920
        },
        "file_size": 210493,
        "format": "JPEG",
        "added_at": "2025-07-17T00:03:01.273027",
        "hash": "69544ac1ed7c9345c1b9b6adca06ee9e",
        "source": "migrated"
      }
    },
    {
      "id": "architecture_265",
      "category": "architecture",
      "title": "Architecture Wallpaper 265",
      "tags": [
        "architecture",
        "wallpaper",
        "hd",
        "mobile"
      ],
      "urls": {
        "raw": "https://media.githubusercontent.com/media/ddh4r4m/wallpaper-collection/main/collection/wallpapers/architecture/265.jpg",
        "thumb": "https://media.githubusercontent.com/media/ddh4r4m/wallpaper-collection/main/collection/thumbnails/architecture/265.jpg"
      },
      "metadata": {
        "dimensions": {
          "width": 1080,
          "height": 1920
        },
        "file_size": 256355,
        "format": "JPEG",
        "added_at": "2025-07-17T00:03:01.326646",
        "hash": "015e3dd391738170422703f2633c6434",
        "source": "migrated"
      }
    },
    {
      "id": "architecture_266",
      "category": "architecture",
      "title": "Architecture Wallpaper 266",
      "tags": [
        "architecture",
        "wallpaper",
        "hd",
        "mobile"
      ],
      "urls": {
        "raw": "https://media.githubusercontent.com/media/ddh4r4m/wallpaper-collection/main/collection/wallpapers/architecture/266.jpg",
        "thumb": "https://media.githubusercontent.com/media/ddh4r4m/wallpaper-collection/main/collection/thumbnails/architecture/266.jpg"
      },
      "metadata": {
        "dimensions": {
          "width": 1080,
          "height": 1920
        },
        "file_size": 130968,
        "format": "JPEG",
        "added_at": "2025-07-17T00:03:01.375643",
        "hash": "77386512bd88a91363788e0d2241a07f",
        "source": "migrated"
      }
    },
    {
      "id": "architecture_267",
      "category": "architecture",
      "title": "Architecture Wallpaper 267",
      "tags": [
        "architecture",
        "wallpaper",
        "hd",
        "mobile"
      ],
      "urls": {
        "raw": "https://media.githubusercontent.com/media/ddh4r4m/wallpaper-collection/main/collection/wallpapers/architecture/267.jpg",
        "thumb": "https://media.githubusercontent.com/media/ddh4r4m/wallpaper-collection/main/collection/thumbnails/architecture/267.jpg"
      },
      "metadata": {
        "dimensions": {
          "width": 1080,
          "height": 1920
        },
        "file_size": 362473,
        "format": "JPEG",
        "added_at": "2025-07-17T00:03:01.437858",
        "hash": "420cfd1ad3f6e5ba240b80e50a988cb3",
        "source": "migrated"
      }
    },
    {
      "id": "architecture_268",
      "category": "architecture",
      "title": "Architecture Wallpaper 268",
      "tags": [
        "architecture",
        "wallpaper",
        "hd",
        "mobile"
      ],
      "urls": {
        "raw": "https://media.githubusercontent.com/media/ddh4r4m/wallpaper-collection/main/collection/wallpapers/architecture/268.jpg",
        "thumb": "https://media.githubusercontent.com/media/ddh4r4m/wallpaper-collection/main/collection/thumbnails/architecture/268.jpg"
      },
      "metadata": {
        "dimensions": {
          "width": 1080,
          "height": 1920
        },
        "file_size": 204849,
        "format": "JPEG",
        "added_at": "2025-07-17T00:03:01.492395",
        "hash": "2d69a30268a1a31a4ccfe19dff2bd402",
        "source": "migrated"
      }
    },
    {
      "id": "architecture_269",
      "category": "architecture",
      "title": "Architecture Wallpaper 269",
      "tags": [
        "architecture",
        "wallpaper",
        "hd",
        "mobile"
      ],
      "urls": {
        "raw": "https://media.githubusercontent.com/media/ddh4r4m/wallpaper-collection/main/collection/wallpapers/architecture/269.jpg",
        "thumb": "https://media.githubusercontent.com/media/ddh4r4m/wallpaper-collection/main/collection/thumbnails/architecture/269.jpg"
      },
      "metadata": {
        "dimensions": {
          "width": 1080,
          "height": 1920
        },
        "file_size": 397749,
        "format": "JPEG",
        "added_at": "2025-07-17T00:03:01.555880",
        "hash": "4061d7e9ce9ce5b445d83f7c4a1ad0a8",
        "source": "migrated"
      }
    },
    {
      "id": "architecture_270",
      "category": "architecture",
      "title": "Architecture Wallpaper 270",
      "tags": [
        "architecture",
        "wallpaper",
        "hd",
        "mobile"
      ],
      "urls": {
        "raw": "https://media.githubusercontent.com/media/ddh4r4m/wallpaper-collection/main/collection/wallpapers/architecture/270.jpg",
        "thumb": "https://media.githubusercontent.com/media/ddh4r4m/wallpaper-collection/main/collection/thumbnails/architecture/270.jpg"
      },
      "metadata": {
        "dimensions": {
          "width": 1080,
          "height": 1920
        },
        "file_size": 584681,
        "format": "JPEG",
        "added_at": "2025-07-17T00:03:01.630754",
        "hash": "8cfccab275e82ea2a0a068a20c7aa023",
        "source": "migrated"
      }
    }
  ]
}