{
  "meta": {
    "version": "1.0",
    "generated_at": "2025-07-19T12:26:57.111378",
    "category": "architecture",
    "page": 2,
    "per_page": 15,
    "total_pages": 19,
    "total_count": 275,
    "count_on_page": 15,
    "has_next": true,
    "has_prev": true,
    "next_page_url": "/api/v1/architecture/pages/3.json",
    "prev_page_url": "/api/v1/architecture/pages/1.json"
  },
  "data": [
    {
      "id": "architecture_016",
      "category": "architecture",
      "title": "Architecture Wallpaper 016",
      "tags": [
        "architecture",
        "wallpaper",
        "hd",
        "mobile"
      ],
      "urls": {
        "raw": "https://media.githubusercontent.com/media/ddh4r4m/wallpaper-collection/main/collection/wallpapers/architecture/016.jpg",
        "thumb": "https://media.githubusercontent.com/media/ddh4r4m/wallpaper-collection/main/collection/thumbnails/architecture/016.jpg"
      },
      "metadata": {
        "dimensions": {
          "width": 1080,
          "height": 1920
        },
        "file_size": 288069,
        "format": "JPEG",
        "added_at": "2025-07-17T00:02:46.014105",
        "hash": "6b1a14e9f957675035fab74e57e6be64",
        "source": "migrated"
      }
    },
    {
      "id": "architecture_017",
      "category": "architecture",
      "title": "Architecture Wallpaper 017",
      "tags": [
        "architecture",
        "wallpaper",
        "hd",
        "mobile"
      ],
      "urls": {
        "raw": "https://media.githubusercontent.com/media/ddh4r4m/wallpaper-collection/main/collection/wallpapers/architecture/017.jpg",
        "thumb": "https://media.githubusercontent.com/media/ddh4r4m/wallpaper-collection/main/collection/thumbnails/architecture/017.jpg"
      },
      "metadata": {
        "dimensions": {
          "width": 1080,
          "height": 1920
        },
        "file_size": 583544,
        "format": "JPEG",
        "added_at": "2025-07-17T00:02:46.086528",
        "hash": "bcbd05063d67fb205dde1f2786f2ed77",
        "source": "migrated"
      }
    },
    {
      "id": "architecture_018",
      "category": "architecture",
      "title": "Architecture Wallpaper 018",
      "tags": [
        "architecture",
        "wallpaper",
        "hd",
        "mobile"
      ],
      "urls": {
        "raw": "https://media.githubusercontent.com/media/ddh4r4m/wallpaper-collection/main/collection/wallpapers/architecture/018.jpg",
        "thumb": "https://media.githubusercontent.com/media/ddh4r4m/wallpaper-collection/main/collection/thumbnails/architecture/018.jpg"
      },
      "metadata": {
        "dimensions": {
          "width": 1080,
          "height": 1920
        },
        "file_size": 482573,
        "format": "JPEG",
        "added_at": "2025-07-17T00:02:46.152407",
        "hash": "7d5b15cc6fdd0f30dd064264590cead4",
        "source": "migrated"
      }
    },
    {
      "id": "architecture_019",
      "category": "architecture",
      "title": "Architecture Wallpaper 019",
      "tags": [
        "architecture",
        "wallpaper",
        "hd",
        "mobile"
      ],
      "urls": {
        "raw": "https://media.githubusercontent.com/media/ddh4r4m/wallpaper-collection/main/collection/wallpapers/architecture/019.jpg",
        "thumb": "https://media.githubusercontent.com/media/ddh4r4m/wallpaper-collection/main/collection/thumbnails/architecture/019.jpg"
      },
      "metadata": {
        "dimensions": {
          "width": 1080,
          "height": 1920
        },
        "file_size": 256686,
        "format": "JPEG",
        "added_at": "2025-07-17T00:02:46.208541",
        "hash": "dd3bc732331fcc3261f4ae4ea3bdf7a5",
        "source": "migrated"
      }
    },
    {
      "id": "architecture_020",
      "category": "architecture",
      "title": "Architecture Wallpaper 020",
      "tags": [
        "architecture",
        "wallpaper",
        "hd",
        "mobile"
      ],
      "urls": {
        "raw": "https://media.githubusercontent.com/media/ddh4r4m/wallpaper-collection/main/collection/wallpapers/architecture/020.jpg",
        "thumb": "https://media.githubusercontent.com/media/ddh4r4m/wallpaper-collection/main/collection/thumbnails/architecture/020.jpg"
      },
      "metadata": {
        "dimensions": {
          "width": 1080,
          "height": 1920
        },
        "file_size": 288999,
        "format": "JPEG",
        "added_at": "2025-07-17T00:02:46.267625",
        "hash": "5307f26763a0e06eb000237919821d51",
        "source": "migrated"
      }
    },
    {
      "id": "architecture_021",
      "category": "architecture",
      "title": "Architecture Wallpaper 021",
      "tags": [
        "architecture",
        "wallpaper",
        "hd",
        "mobile"
      ],
      "urls": {
        "raw": "https://media.githubusercontent.com/media/ddh4r4m/wallpaper-collection/main/collection/wallpapers/architecture/021.jpg",
        "thumb": "https://media.githubusercontent.com/media/ddh4r4m/wallpaper-collection/main/collection/thumbnails/architecture/021.jpg"
      },
      "metadata": {
        "dimensions": {
          "width": 1080,
          "height": 1920
        },
        "file_size": 396718,
        "format": "JPEG",
        "added_at": "2025-07-17T00:02:46.329958",
        "hash": "4df840c855acc59586bcedba502aac9e",
        "source": "migrated"
      }
    },
    {
      "id": "architecture_022",
      "category": "architecture",
      "title": "Architecture Wallpaper 022",
      "tags": [
        "architecture",
        "wallpaper",
        "hd",
        "mobile"
      ],
      "urls": {
        "raw": "https://media.githubusercontent.com/media/ddh4r4m/wallpaper-collection/main/collection/wallpapers/architecture/022.jpg",
        "thumb": "https://media.githubusercontent.com/media/ddh4r4m/wallpaper-collection/main/collection/thumbnails/architecture/022.jpg"
      },
      "metadata": {
        "dimensions": {
          "width": 1080,
          "height": 1920
        },
        "file_size": 263752,
        "format": "JPEG",
        "added_at": "2025-07-17T00:02:46.387615",
        "hash": "cf16a02cb96e8e943e28a0cc92feba63",
        "source": "migrated"
      }
    },
    {
      "id": "architecture_023",
      "category": "architecture",
      "title": "Architecture Wallpaper 023",
      "tags": [
        "architecture",
        "wallpaper",
        "hd",
        "mobile"
      ],
      "urls": {
        "raw": "https://media.githubusercontent.com/media/ddh4r4m/wallpaper-collection/main/collection/wallpapers/architecture/023.jpg",
        "thumb": "https://media.githubusercontent.com/media/ddh4r4m/wallpaper-collection/main/collection/thumbnails/architecture/023.jpg"
      },
      "metadata": {
        "dimensions": {
          "width": 1080,
          "height": 1920
        },
        "file_size": 369045,
        "format": "JPEG",
        "added_at": "2025-07-17T00:02:46.450427",
        "hash": "1716c652ccf4dd9590b6a66e2ffb503c",
        "source": "migrated"
      }
    },
    {
      "id": "architecture_024",
      "category": "architecture",
      "title": "Architecture Wallpaper 024",
      "tags": [
        "architecture",
        "wallpaper",
        "hd",
        "mobile"
      ],
      "urls": {
        "raw": "https://media.githubusercontent.com/media/ddh4r4m/wallpaper-collection/main/collection/wallpapers/architecture/024.jpg",
        "thumb": "https://media.githubusercontent.com/media/ddh4r4m/wallpaper-collection/main/collection/thumbnails/architecture/024.jpg"
      },
      "metadata": {
        "dimensions": {
          "width": 1080,
          "height": 1920
        },
        "file_size": 381467,
        "format": "JPEG",
        "added_at": "2025-07-17T00:02:46.512515",
        "hash": "d869c15011ee40fea932bc19328ff97b",
        "source": "migrated"
      }
    },
    {
      "id": "architecture_025",
      "category": "architecture",
      "title": "Architecture Wallpaper 025",
      "tags": [
        "architecture",
        "wallpaper",
        "hd",
        "mobile"
      ],
      "urls": {
        "raw": "https://media.githubusercontent.com/media/ddh4r4m/wallpaper-collection/main/collection/wallpapers/architecture/025.jpg",
        "thumb": "https://media.githubusercontent.com/media/ddh4r4m/wallpaper-collection/main/collection/thumbnails/architecture/025.jpg"
      },
      "metadata": {
        "dimensions": {
          "width": 1080,
          "height": 1920
        },
        "file_size": 385126,
        "format": "JPEG",
        "added_at": "2025-07-17T00:02:46.574621",
        "hash": "2b42a9fe934100d1734db91e0dd1cee5",
        "source": "migrated"
      }
    },
    {
      "id": "architecture_026",
      "category": "architecture",
      "title": "Architecture Wallpaper 026",
      "tags": [
        "architecture",
        "wallpaper",
        "hd",
        "mobile"
      ],
      "urls": {
        "raw": "https://media.githubusercontent.com/media/ddh4r4m/wallpaper-collection/main/collection/wallpapers/architecture/026.jpg",
        "thumb": "https://media.githubusercontent.com/media/ddh4r4m/wallpaper-collection/main/collection/thumbnails/architecture/026.jpg"
      },
      "metadata": {
        "dimensions": {
          "width": 1080,
          "height": 1920
        },
        "file_size": 280219,
        "format": "JPEG",
        "added_at": "2025-07-17T00:02:46.630737",
        "hash": "e516be9d063fcf9efdb7f40ecba5770d",
        "source": "migrated"
      }
    },
    {
      "id": "architecture_027",
      "category": "architecture",
      "title": "Architecture Wallpaper 027",
      "tags": [
        "architecture",
        "wallpaper",
        "hd",
        "mobile"
      ],
      "urls": {
        "raw": "https://media.githubusercontent.com/media/ddh4r4m/wallpaper-collection/main/collection/wallpapers/architecture/027.jpg",
        "thumb": "https://media.githubusercontent.com/media/ddh4r4m/wallpaper-collection/main/collection/thumbnails/architecture/027.jpg"
      },
      "metadata": {
        "dimensions": {
          "width": 1080,
          "height": 1920
        },
        "file_size": 384361,
        "format": "JPEG",
        "added_at": "2025-07-17T00:02:46.691067",
        "hash": "9406e5388a93a4a3717d1f115349fa5d",
        "source": "migrated"
      }
    },
    {
      "id": "architecture_028",
      "category": "architecture",
      "title": "Architecture Wallpaper 028",
      "tags": [
        "architecture",
        "wallpaper",
        "hd",
        "mobile"
      ],
      "urls": {
        "raw": "https://media.githubusercontent.com/media/ddh4r4m/wallpaper-collection/main/collection/wallpapers/architecture/028.jpg",
        "thumb": "https://media.githubusercontent.com/media/ddh4r4m/wallpaper-collection/main/collection/thumbnails/architecture/028.jpg"
      },
      "metadata": {
        "dimensions": {
          "width": 1080,
          "height": 1920
        },
        "file_size": 103165,
        "format": "JPEG",
        "added_at": "2025-07-17T00:02:46.737735",
        "hash": "2754253dda553b3e8ad72480b66ab008",
        "source": "migrated"
      }
    },
    {
      "id": "architecture_029",
      "category": "architecture",
      "title": "Architecture Wallpaper 029",
      "tags": [
        "architecture",
        "wallpaper",
        "hd",
        "mobile"
      ],
      "urls": {
        "raw": "https://media.githubusercontent.com/media/ddh4r4m/wallpaper-collection/main/collection/wallpapers/architecture/029.jpg",
        "thumb": "https://media.githubusercontent.com/media/ddh4r4m/wallpaper-collection/main/collection/thumbnails/architecture/029.jpg"
      },
      "metadata": {
        "dimensions": {
          "width": 1080,
          "height": 1920
        },
        "file_size": 253885,
        "format": "JPEG",
        "added_at": "2025-07-17T00:02:46.791288",
        "hash": "1a5babb2384e11c8bbfccc46c18f387a",
        "source": "migrated"
      }
    },
    {
      "id": "architecture_030",
      "category": "architecture",
      "title": "Architecture Wallpaper 030",
      "tags": [
        "architecture",
        "wallpaper",
        "hd",
        "mobile"
      ],
      "urls": {
        "raw": "https://media.githubusercontent.com/media/ddh4r4m/wallpaper-collection/main/collection/wallpapers/architecture/030.jpg",
        "thumb": "https://media.githubusercontent.com/media/ddh4r4m/wallpaper-collection/main/collection/thumbnails/architecture/030.jpg"
      },
      "metadata": {
        "dimensions": {
          "width": 1080,
          "height": 1920
        },
        "file_size": 298071,
        "format": "JPEG",
        "added_at": "2025-07-17T00:02:46.849082",
        "hash": "6e2019b00d444b9a53eb19895707ecb9",
        "source": "migrated"
      }
    }
  ]
}