{
  "meta": {
    "version": "1.0",
    "generated_at": "2025-07-28T22:38:03.579947",
    "category": "architecture",
    "page": 3,
    "per_page": 15,
    "total_pages": 19,
    "total_count": 275,
    "count_on_page": 15,
    "has_next": true,
    "has_prev": true,
    "next_page_url": "/api/v1/architecture/pages/4.json",
    "prev_page_url": "/api/v1/architecture/pages/2.json"
  },
  "data": [
    {
      "id": "architecture_031",
      "category": "architecture",
      "title": "Architecture Wallpaper 031",
      "tags": [
        "architecture",
        "wallpaper",
        "hd",
        "mobile"
      ],
      "urls": {
        "raw": "https://media.githubusercontent.com/media/ddh4r4m/wallpaper-collection/main/collection/wallpapers/architecture/031.jpg",
        "thumb": "https://media.githubusercontent.com/media/ddh4r4m/wallpaper-collection/main/collection/thumbnails/architecture/031.jpg"
      },
      "metadata": {
        "dimensions": {
          "width": 1080,
          "height": 1920
        },
        "file_size": 427601,
        "format": "JPEG",
        "added_at": "2025-07-17T00:02:46.914969",
        "hash": "5583a155cfa150e63b86cbb713e8cd51",
        "source": "migrated"
      }
    },
    {
      "id": "architecture_032",
      "category": "architecture",
      "title": "Architecture Wallpaper 032",
      "tags": [
        "architecture",
        "wallpaper",
        "hd",
        "mobile"
      ],
      "urls": {
        "raw": "https://media.githubusercontent.com/media/ddh4r4m/wallpaper-collection/main/collection/wallpapers/architecture/032.jpg",
        "thumb": "https://media.githubusercontent.com/media/ddh4r4m/wallpaper-collection/main/collection/thumbnails/architecture/032.jpg"
      },
      "metadata": {
        "dimensions": {
          "width": 1080,
          "height": 1920
        },
        "file_size": 299969,
        "format": "JPEG",
        "added_at": "2025-07-17T00:02:46.975895",
        "hash": "256f75c6daa1c901f3d02e9e6e4516c7",
        "source": "migrated"
      }
    },
    {
      "id": "architecture_033",
      "category": "architecture",
      "title": "Architecture Wallpaper 033",
      "tags": [
        "architecture",
        "wallpaper",
        "hd",
        "mobile"
      ],
      "urls": {
        "raw": "https://media.githubusercontent.com/media/ddh4r4m/wallpaper-collection/main/collection/wallpapers/architecture/033.jpg",
        "thumb": "https://media.githubusercontent.com/media/ddh4r4m/wallpaper-collection/main/collection/thumbnails/architecture/033.jpg"
      },
      "metadata": {
        "dimensions": {
          "width": 1080,
          "height": 1920
        },
        "file_size": 360764,
        "format": "JPEG",
        "added_at": "2025-07-17T00:02:47.035926",
        "hash": "8094cfbddc4c9e93ddb94c62add04195",
        "source": "migrated"
      }
    },
    {
      "id": "architecture_034",
      "category": "architecture",
      "title": "Architecture Wallpaper 034",
      "tags": [
        "architecture",
        "wallpaper",
        "hd",
        "mobile"
      ],
      "urls": {
        "raw": "https://media.githubusercontent.com/media/ddh4r4m/wallpaper-collection/main/collection/wallpapers/architecture/034.jpg",
        "thumb": "https://media.githubusercontent.com/media/ddh4r4m/wallpaper-collection/main/collection/thumbnails/architecture/034.jpg"
      },
      "metadata": {
        "dimensions": {
          "width": 1080,
          "height": 1920
        },
        "file_size": 135057,
        "format": "JPEG",
        "added_at": "2025-07-17T00:02:47.085347",
        "hash": "ff3b258560fb028fc6e8c4a5e57fa535",
        "source": "migrated"
      }
    },
    {
      "id": "architecture_035",
      "category": "architecture",
      "title": "Architecture Wallpaper 035",
      "tags": [
        "architecture",
        "wallpaper",
        "hd",
        "mobile"
      ],
      "urls": {
        "raw": "https://media.githubusercontent.com/media/ddh4r4m/wallpaper-collection/main/collection/wallpapers/architecture/035.jpg",
        "thumb": "https://media.githubusercontent.com/media/ddh4r4m/wallpaper-collection/main/collection/thumbnails/architecture/035.jpg"
      },
      "metadata": {
        "dimensions": {
          "width": 1080,
          "height": 1920
        },
        "file_size": 332272,
        "format": "JPEG",
        "added_at": "2025-07-17T00:02:47.143413",
        "hash": "7f2eef30a5bd531cf5e7c0cb41bd883f",
        "source": "migrated"
      }
    },
    {
      "id": "architecture_036",
      "category": "architecture",
      "title": "Architecture Wallpaper 036",
      "tags": [
        "architecture",
        "wallpaper",
        "hd",
        "mobile"
      ],
      "urls": {
        "raw": "https://media.githubusercontent.com/media/ddh4r4m/wallpaper-collection/main/collection/wallpapers/architecture/036.jpg",
        "thumb": "https://media.githubusercontent.com/media/ddh4r4m/wallpaper-collection/main/collection/thumbnails/architecture/036.jpg"
      },
      "metadata": {
        "dimensions": {
          "width": 1080,
          "height": 1920
        },
        "file_size": 103090,
        "format": "JPEG",
        "added_at": "2025-07-17T00:02:47.222977",
        "hash": "b4083c354761582dbeccbf7881a66eae",
        "source": "migrated"
      }
    },
    {
      "id": "architecture_037",
      "category": "architecture",
      "title": "Architecture Wallpaper 037",
      "tags": [
        "architecture",
        "wallpaper",
        "hd",
        "mobile"
      ],
      "urls": {
        "raw": "https://media.githubusercontent.com/media/ddh4r4m/wallpaper-collection/main/collection/wallpapers/architecture/037.jpg",
        "thumb": "https://media.githubusercontent.com/media/ddh4r4m/wallpaper-collection/main/collection/thumbnails/architecture/037.jpg"
      },
      "metadata": {
        "dimensions": {
          "width": 1080,
          "height": 1920
        },
        "file_size": 701479,
        "format": "JPEG",
        "added_at": "2025-07-17T00:02:47.303636",
        "hash": "bde6980a036b5f0ac59d002b70f83fc7",
        "source": "migrated"
      }
    },
    {
      "id": "architecture_038",
      "category": "architecture",
      "title": "Architecture Wallpaper 038",
      "tags": [
        "architecture",
        "wallpaper",
        "hd",
        "mobile"
      ],
      "urls": {
        "raw": "https://media.githubusercontent.com/media/ddh4r4m/wallpaper-collection/main/collection/wallpapers/architecture/038.jpg",
        "thumb": "https://media.githubusercontent.com/media/ddh4r4m/wallpaper-collection/main/collection/thumbnails/architecture/038.jpg"
      },
      "metadata": {
        "dimensions": {
          "width": 1080,
          "height": 1920
        },
        "file_size": 345359,
        "format": "JPEG",
        "added_at": "2025-07-17T00:02:47.364489",
        "hash": "185fa75ccf483369227292ab98feff00",
        "source": "migrated"
      }
    },
    {
      "id": "architecture_039",
      "category": "architecture",
      "title": "Architecture Wallpaper 039",
      "tags": [
        "architecture",
        "wallpaper",
        "hd",
        "mobile"
      ],
      "urls": {
        "raw": "https://media.githubusercontent.com/media/ddh4r4m/wallpaper-collection/main/collection/wallpapers/architecture/039.jpg",
        "thumb": "https://media.githubusercontent.com/media/ddh4r4m/wallpaper-collection/main/collection/thumbnails/architecture/039.jpg"
      },
      "metadata": {
        "dimensions": {
          "width": 1080,
          "height": 1920
        },
        "file_size": 612329,
        "format": "JPEG",
        "added_at": "2025-07-17T00:02:47.440522",
        "hash": "806fb233c8c5a7f6d85f45f827b23545",
        "source": "migrated"
      }
    },
    {
      "id": "architecture_040",
      "category": "architecture",
      "title": "Architecture Wallpaper 040",
      "tags": [
        "architecture",
        "wallpaper",
        "hd",
        "mobile"
      ],
      "urls": {
        "raw": "https://media.githubusercontent.com/media/ddh4r4m/wallpaper-collection/main/collection/wallpapers/architecture/040.jpg",
        "thumb": "https://media.githubusercontent.com/media/ddh4r4m/wallpaper-collection/main/collection/thumbnails/architecture/040.jpg"
      },
      "metadata": {
        "dimensions": {
          "width": 1080,
          "height": 1920
        },
        "file_size": 350243,
        "format": "JPEG",
        "added_at": "2025-07-17T00:02:47.502380",
        "hash": "5dc69a3b29afb4b9400365a6cbf83f6b",
        "source": "migrated"
      }
    },
    {
      "id": "architecture_041",
      "category": "architecture",
      "title": "Architecture Wallpaper 041",
      "tags": [
        "architecture",
        "wallpaper",
        "hd",
        "mobile"
      ],
      "urls": {
        "raw": "https://media.githubusercontent.com/media/ddh4r4m/wallpaper-collection/main/collection/wallpapers/architecture/041.jpg",
        "thumb": "https://media.githubusercontent.com/media/ddh4r4m/wallpaper-collection/main/collection/thumbnails/architecture/041.jpg"
      },
      "metadata": {
        "dimensions": {
          "width": 1080,
          "height": 1920
        },
        "file_size": 357313,
        "format": "JPEG",
        "added_at": "2025-07-17T00:02:47.563433",
        "hash": "fa61f3e9d7ec1c3bbdda568f3b8548c3",
        "source": "migrated"
      }
    },
    {
      "id": "architecture_042",
      "category": "architecture",
      "title": "Architecture Wallpaper 042",
      "tags": [
        "architecture",
        "wallpaper",
        "hd",
        "mobile"
      ],
      "urls": {
        "raw": "https://media.githubusercontent.com/media/ddh4r4m/wallpaper-collection/main/collection/wallpapers/architecture/042.jpg",
        "thumb": "https://media.githubusercontent.com/media/ddh4r4m/wallpaper-collection/main/collection/thumbnails/architecture/042.jpg"
      },
      "metadata": {
        "dimensions": {
          "width": 1080,
          "height": 1920
        },
        "file_size": 184350,
        "format": "JPEG",
        "added_at": "2025-07-17T00:02:47.613360",
        "hash": "bc483989499dbaba74ccc4677cce52c4",
        "source": "migrated"
      }
    },
    {
      "id": "architecture_043",
      "category": "architecture",
      "title": "Architecture Wallpaper 043",
      "tags": [
        "architecture",
        "wallpaper",
        "hd",
        "mobile"
      ],
      "urls": {
        "raw": "https://media.githubusercontent.com/media/ddh4r4m/wallpaper-collection/main/collection/wallpapers/architecture/043.jpg",
        "thumb": "https://media.githubusercontent.com/media/ddh4r4m/wallpaper-collection/main/collection/thumbnails/architecture/043.jpg"
      },
      "metadata": {
        "dimensions": {
          "width": 1080,
          "height": 1920
        },
        "file_size": 424646,
        "format": "JPEG",
        "added_at": "2025-07-17T00:02:47.677327",
        "hash": "88af9da08f219b1bba0dbf71b579f2ff",
        "source": "migrated"
      }
    },
    {
      "id": "architecture_044",
      "category": "architecture",
      "title": "Architecture Wallpaper 044",
      "tags": [
        "architecture",
        "wallpaper",
        "hd",
        "mobile"
      ],
      "urls": {
        "raw": "https://media.githubusercontent.com/media/ddh4r4m/wallpaper-collection/main/collection/wallpapers/architecture/044.jpg",
        "thumb": "https://media.githubusercontent.com/media/ddh4r4m/wallpaper-collection/main/collection/thumbnails/architecture/044.jpg"
      },
      "metadata": {
        "dimensions": {
          "width": 1080,
          "height": 1920
        },
        "file_size": 345174,
        "format": "JPEG",
        "added_at": "2025-07-17T00:02:47.738944",
        "hash": "392c4feddeeaf384c444e8d9342f9ffc",
        "source": "migrated"
      }
    },
    {
      "id": "architecture_045",
      "category": "architecture",
      "title": "Architecture Wallpaper 045",
      "tags": [
        "architecture",
        "wallpaper",
        "hd",
        "mobile"
      ],
      "urls": {
        "raw": "https://media.githubusercontent.com/media/ddh4r4m/wallpaper-collection/main/collection/wallpapers/architecture/045.jpg",
        "thumb": "https://media.githubusercontent.com/media/ddh4r4m/wallpaper-collection/main/collection/thumbnails/architecture/045.jpg"
      },
      "metadata": {
        "dimensions": {
          "width": 1080,
          "height": 1920
        },
        "file_size": 97030,
        "format": "JPEG",
        "added_at": "2025-07-17T00:02:47.788907",
        "hash": "94466f3f87141a1516c8bcb5040413fb",
        "source": "migrated"
      }
    }
  ]
}