{
  "meta": {
    "version": "1.0",
    "generated_at": "2025-07-28T23:12:02.393375",
    "category": "architecture",
    "page": 4,
    "per_page": 15,
    "total_pages": 19,
    "total_count": 275,
    "count_on_page": 15,
    "has_next": true,
    "has_prev": true,
    "next_page_url": "/api/v1/architecture/pages/5.json",
    "prev_page_url": "/api/v1/architecture/pages/3.json"
  },
  "data": [
    {
      "id": "architecture_046",
      "category": "architecture",
      "title": "Architecture Wallpaper 046",
      "tags": [
        "architecture",
        "wallpaper",
        "hd",
        "mobile"
      ],
      "urls": {
        "raw": "https://media.githubusercontent.com/media/ddh4r4m/wallpaper-collection/main/collection/wallpapers/architecture/046.jpg",
        "thumb": "https://media.githubusercontent.com/media/ddh4r4m/wallpaper-collection/main/collection/thumbnails/architecture/046.jpg"
      },
      "metadata": {
        "dimensions": {
          "width": 1080,
          "height": 1920
        },
        "file_size": 229941,
        "format": "JPEG",
        "added_at": "2025-07-17T00:02:47.842491",
        "hash": "851e765b31bff1b09d10facfb6608e70",
        "source": "migrated"
      }
    },
    {
      "id": "architecture_047",
      "category": "architecture",
      "title": "Architecture Wallpaper 047",
      "tags": [
        "architecture",
        "wallpaper",
        "hd",
        "mobile"
      ],
      "urls": {
        "raw": "https://media.githubusercontent.com/media/ddh4r4m/wallpaper-collection/main/collection/wallpapers/architecture/047.jpg",
        "thumb": "https://media.githubusercontent.com/media/ddh4r4m/wallpaper-collection/main/collection/thumbnails/architecture/047.jpg"
      },
      "metadata": {
        "dimensions": {
          "width": 1080,
          "height": 1920
        },
        "file_size": 192425,
        "format": "JPEG",
        "added_at": "2025-07-17T00:02:47.896461",
        "hash": "fc0aae624662b9140af36ee9af013eed",
        "source": "migrated"
      }
    },
    {
      "id": "architecture_048",
      "category": "architecture",
      "title": "Architecture Wallpaper 048",
      "tags": [
        "architecture",
        "wallpaper",
        "hd",
        "mobile"
      ],
      "urls": {
        "raw": "https://media.githubusercontent.com/media/ddh4r4m/wallpaper-collection/main/collection/wallpapers/architecture/048.jpg",
        "thumb": "https://media.githubusercontent.com/media/ddh4r4m/wallpaper-collection/main/collection/thumbnails/architecture/048.jpg"
      },
      "metadata": {
        "dimensions": {
          "width": 1080,
          "height": 1920
        },
        "file_size": 289688,
        "format": "JPEG",
        "added_at": "2025-07-17T00:02:47.955621",
        "hash": "9a86fa06e279d209f986e5ba2ad41443",
        "source": "migrated"
      }
    },
    {
      "id": "architecture_049",
      "category": "architecture",
      "title": "Architecture Wallpaper 049",
      "tags": [
        "architecture",
        "wallpaper",
        "hd",
        "mobile"
      ],
      "urls": {
        "raw": "https://media.githubusercontent.com/media/ddh4r4m/wallpaper-collection/main/collection/wallpapers/architecture/049.jpg",
        "thumb": "https://media.githubusercontent.com/media/ddh4r4m/wallpaper-collection/main/collection/thumbnails/architecture/049.jpg"
      },
      "metadata": {
        "dimensions": {
          "width": 1080,
          "height": 1920
        },
        "file_size": 216275,
        "format": "JPEG",
        "added_at": "2025-07-17T00:02:48.010140",
        "hash": "767c160824773c3aa25394541f1a88d4",
        "source": "migrated"
      }
    },
    {
      "id": "architecture_050",
      "category": "architecture",
      "title": "Architecture Wallpaper 050",
      "tags": [
        "architecture",
        "wallpaper",
        "hd",
        "mobile"
      ],
      "urls": {
        "raw": "https://media.githubusercontent.com/media/ddh4r4m/wallpaper-collection/main/collection/wallpapers/architecture/050.jpg",
        "thumb": "https://media.githubusercontent.com/media/ddh4r4m/wallpaper-collection/main/collection/thumbnails/architecture/050.jpg"
      },
      "metadata": {
        "dimensions": {
          "width": 1080,
          "height": 1920
        },
        "file_size": 264908,
        "format": "JPEG",
        "added_at": "2025-07-17T00:02:48.066485",
        "hash": "69073b66b72d9ed95b77e20c61c1ecf9",
        "source": "migrated"
      }
    },
    {
      "id": "architecture_051",
      "category": "architecture",
      "title": "Architecture Wallpaper 051",
      "tags": [
        "architecture",
        "wallpaper",
        "hd",
        "mobile"
      ],
      "urls": {
        "raw": "https://media.githubusercontent.com/media/ddh4r4m/wallpaper-collection/main/collection/wallpapers/architecture/051.jpg",
        "thumb": "https://media.githubusercontent.com/media/ddh4r4m/wallpaper-collection/main/collection/thumbnails/architecture/051.jpg"
      },
      "metadata": {
        "dimensions": {
          "width": 1080,
          "height": 1920
        },
        "file_size": 229792,
        "format": "JPEG",
        "added_at": "2025-07-17T00:02:48.121653",
        "hash": "7d0d97ae5a6351d618e88999a9c9bfeb",
        "source": "migrated"
      }
    },
    {
      "id": "architecture_052",
      "category": "architecture",
      "title": "Architecture Wallpaper 052",
      "tags": [
        "architecture",
        "wallpaper",
        "hd",
        "mobile"
      ],
      "urls": {
        "raw": "https://media.githubusercontent.com/media/ddh4r4m/wallpaper-collection/main/collection/wallpapers/architecture/052.jpg",
        "thumb": "https://media.githubusercontent.com/media/ddh4r4m/wallpaper-collection/main/collection/thumbnails/architecture/052.jpg"
      },
      "metadata": {
        "dimensions": {
          "width": 1080,
          "height": 1920
        },
        "file_size": 247541,
        "format": "JPEG",
        "added_at": "2025-07-17T00:02:48.178485",
        "hash": "0eeb5da45e4a7f99873a8925734641fa",
        "source": "migrated"
      }
    },
    {
      "id": "architecture_053",
      "category": "architecture",
      "title": "Architecture Wallpaper 053",
      "tags": [
        "architecture",
        "wallpaper",
        "hd",
        "mobile"
      ],
      "urls": {
        "raw": "https://media.githubusercontent.com/media/ddh4r4m/wallpaper-collection/main/collection/wallpapers/architecture/053.jpg",
        "thumb": "https://media.githubusercontent.com/media/ddh4r4m/wallpaper-collection/main/collection/thumbnails/architecture/053.jpg"
      },
      "metadata": {
        "dimensions": {
          "width": 1080,
          "height": 1920
        },
        "file_size": 369259,
        "format": "JPEG",
        "added_at": "2025-07-17T00:02:48.239195",
        "hash": "f1b3eed2577e65d0dcb362368939fef2",
        "source": "migrated"
      }
    },
    {
      "id": "architecture_054",
      "category": "architecture",
      "title": "Architecture Wallpaper 054",
      "tags": [
        "architecture",
        "wallpaper",
        "hd",
        "mobile"
      ],
      "urls": {
        "raw": "https://media.githubusercontent.com/media/ddh4r4m/wallpaper-collection/main/collection/wallpapers/architecture/054.jpg",
        "thumb": "https://media.githubusercontent.com/media/ddh4r4m/wallpaper-collection/main/collection/thumbnails/architecture/054.jpg"
      },
      "metadata": {
        "dimensions": {
          "width": 1080,
          "height": 1920
        },
        "file_size": 191040,
        "format": "JPEG",
        "added_at": "2025-07-17T00:02:48.290388",
        "hash": "93821f9032220eaa92eb7ed87e48c57f",
        "source": "migrated"
      }
    },
    {
      "id": "architecture_055",
      "category": "architecture",
      "title": "Architecture Wallpaper 055",
      "tags": [
        "architecture",
        "wallpaper",
        "hd",
        "mobile"
      ],
      "urls": {
        "raw": "https://media.githubusercontent.com/media/ddh4r4m/wallpaper-collection/main/collection/wallpapers/architecture/055.jpg",
        "thumb": "https://media.githubusercontent.com/media/ddh4r4m/wallpaper-collection/main/collection/thumbnails/architecture/055.jpg"
      },
      "metadata": {
        "dimensions": {
          "width": 1080,
          "height": 1920
        },
        "file_size": 315487,
        "format": "JPEG",
        "added_at": "2025-07-17T00:02:48.348276",
        "hash": "c58ef76f8c2252cddf1773f263cb307f",
        "source": "migrated"
      }
    },
    {
      "id": "architecture_056",
      "category": "architecture",
      "title": "Architecture Wallpaper 056",
      "tags": [
        "architecture",
        "wallpaper",
        "hd",
        "mobile"
      ],
      "urls": {
        "raw": "https://media.githubusercontent.com/media/ddh4r4m/wallpaper-collection/main/collection/wallpapers/architecture/056.jpg",
        "thumb": "https://media.githubusercontent.com/media/ddh4r4m/wallpaper-collection/main/collection/thumbnails/architecture/056.jpg"
      },
      "metadata": {
        "dimensions": {
          "width": 1080,
          "height": 1920
        },
        "file_size": 609078,
        "format": "JPEG",
        "added_at": "2025-07-17T00:02:48.422568",
        "hash": "7a24a13207704de16841dbcb7e7588b1",
        "source": "migrated"
      }
    },
    {
      "id": "architecture_057",
      "category": "architecture",
      "title": "Architecture Wallpaper 057",
      "tags": [
        "architecture",
        "wallpaper",
        "hd",
        "mobile"
      ],
      "urls": {
        "raw": "https://media.githubusercontent.com/media/ddh4r4m/wallpaper-collection/main/collection/wallpapers/architecture/057.jpg",
        "thumb": "https://media.githubusercontent.com/media/ddh4r4m/wallpaper-collection/main/collection/thumbnails/architecture/057.jpg"
      },
      "metadata": {
        "dimensions": {
          "width": 1080,
          "height": 1920
        },
        "file_size": 698756,
        "format": "JPEG",
        "added_at": "2025-07-17T00:02:48.501396",
        "hash": "d7e80ccccf5c0944db47557c3950f4c4",
        "source": "migrated"
      }
    },
    {
      "id": "architecture_058",
      "category": "architecture",
      "title": "Architecture Wallpaper 058",
      "tags": [
        "architecture",
        "wallpaper",
        "hd",
        "mobile"
      ],
      "urls": {
        "raw": "https://media.githubusercontent.com/media/ddh4r4m/wallpaper-collection/main/collection/wallpapers/architecture/058.jpg",
        "thumb": "https://media.githubusercontent.com/media/ddh4r4m/wallpaper-collection/main/collection/thumbnails/architecture/058.jpg"
      },
      "metadata": {
        "dimensions": {
          "width": 1080,
          "height": 1920
        },
        "file_size": 473270,
        "format": "JPEG",
        "added_at": "2025-07-17T00:02:48.566624",
        "hash": "a30715c350de51b8e94a8b8c7c6607da",
        "source": "migrated"
      }
    },
    {
      "id": "architecture_059",
      "category": "architecture",
      "title": "Architecture Wallpaper 059",
      "tags": [
        "architecture",
        "wallpaper",
        "hd",
        "mobile"
      ],
      "urls": {
        "raw": "https://media.githubusercontent.com/media/ddh4r4m/wallpaper-collection/main/collection/wallpapers/architecture/059.jpg",
        "thumb": "https://media.githubusercontent.com/media/ddh4r4m/wallpaper-collection/main/collection/thumbnails/architecture/059.jpg"
      },
      "metadata": {
        "dimensions": {
          "width": 1080,
          "height": 1920
        },
        "file_size": 307572,
        "format": "JPEG",
        "added_at": "2025-07-17T00:02:48.626283",
        "hash": "a0f87b24af5da70e597b139cff3ea274",
        "source": "migrated"
      }
    },
    {
      "id": "architecture_060",
      "category": "architecture",
      "title": "Architecture Wallpaper 060",
      "tags": [
        "architecture",
        "wallpaper",
        "hd",
        "mobile"
      ],
      "urls": {
        "raw": "https://media.githubusercontent.com/media/ddh4r4m/wallpaper-collection/main/collection/wallpapers/architecture/060.jpg",
        "thumb": "https://media.githubusercontent.com/media/ddh4r4m/wallpaper-collection/main/collection/thumbnails/architecture/060.jpg"
      },
      "metadata": {
        "dimensions": {
          "width": 1080,
          "height": 1920
        },
        "file_size": 467306,
        "format": "JPEG",
        "added_at": "2025-07-17T00:02:48.690529",
        "hash": "ef416260111f5a27d6c57eb61480ae1f",
        "source": "migrated"
      }
    }
  ]
}