{
  "meta": {
    "version": "1.0",
    "generated_at": "2025-07-28T22:38:03.579947",
    "category": "architecture",
    "page": 6,
    "per_page": 15,
    "total_pages": 19,
    "total_count": 275,
    "count_on_page": 15,
    "has_next": true,
    "has_prev": true,
    "next_page_url": "/api/v1/architecture/pages/7.json",
    "prev_page_url": "/api/v1/architecture/pages/5.json"
  },
  "data": [
    {
      "id": "architecture_076",
      "category": "architecture",
      "title": "Architecture Wallpaper 076",
      "tags": [
        "architecture",
        "wallpaper",
        "hd",
        "mobile"
      ],
      "urls": {
        "raw": "https://media.githubusercontent.com/media/ddh4r4m/wallpaper-collection/main/collection/wallpapers/architecture/076.jpg",
        "thumb": "https://media.githubusercontent.com/media/ddh4r4m/wallpaper-collection/main/collection/thumbnails/architecture/076.jpg"
      },
      "metadata": {
        "dimensions": {
          "width": 1080,
          "height": 1920
        },
        "file_size": 379003,
        "format": "JPEG",
        "added_at": "2025-07-17T00:02:49.693898",
        "hash": "db44fa55f40ef93750745d3b7ecf0bcf",
        "source": "migrated"
      }
    },
    {
      "id": "architecture_077",
      "category": "architecture",
      "title": "Architecture Wallpaper 077",
      "tags": [
        "architecture",
        "wallpaper",
        "hd",
        "mobile"
      ],
      "urls": {
        "raw": "https://media.githubusercontent.com/media/ddh4r4m/wallpaper-collection/main/collection/wallpapers/architecture/077.jpg",
        "thumb": "https://media.githubusercontent.com/media/ddh4r4m/wallpaper-collection/main/collection/thumbnails/architecture/077.jpg"
      },
      "metadata": {
        "dimensions": {
          "width": 1080,
          "height": 1920
        },
        "file_size": 327314,
        "format": "JPEG",
        "added_at": "2025-07-17T00:02:49.752025",
        "hash": "080f07f0b57a3858c1c1ff0dd1f503d2",
        "source": "migrated"
      }
    },
    {
      "id": "architecture_078",
      "category": "architecture",
      "title": "Architecture Wallpaper 078",
      "tags": [
        "architecture",
        "wallpaper",
        "hd",
        "mobile"
      ],
      "urls": {
        "raw": "https://media.githubusercontent.com/media/ddh4r4m/wallpaper-collection/main/collection/wallpapers/architecture/078.jpg",
        "thumb": "https://media.githubusercontent.com/media/ddh4r4m/wallpaper-collection/main/collection/thumbnails/architecture/078.jpg"
      },
      "metadata": {
        "dimensions": {
          "width": 1080,
          "height": 1920
        },
        "file_size": 213462,
        "format": "JPEG",
        "added_at": "2025-07-17T00:02:49.803295",
        "hash": "a1ff147682b9e30e4310f7d675427b61",
        "source": "migrated"
      }
    },
    {
      "id": "architecture_079",
      "category": "architecture",
      "title": "Architecture Wallpaper 079",
      "tags": [
        "architecture",
        "wallpaper",
        "hd",
        "mobile"
      ],
      "urls": {
        "raw": "https://media.githubusercontent.com/media/ddh4r4m/wallpaper-collection/main/collection/wallpapers/architecture/079.jpg",
        "thumb": "https://media.githubusercontent.com/media/ddh4r4m/wallpaper-collection/main/collection/thumbnails/architecture/079.jpg"
      },
      "metadata": {
        "dimensions": {
          "width": 1080,
          "height": 1920
        },
        "file_size": 315818,
        "format": "JPEG",
        "added_at": "2025-07-17T00:02:49.862762",
        "hash": "f54b2f2f0ec1d06966f82c42c8d7402d",
        "source": "migrated"
      }
    },
    {
      "id": "architecture_080",
      "category": "architecture",
      "title": "Architecture Wallpaper 080",
      "tags": [
        "architecture",
        "wallpaper",
        "hd",
        "mobile"
      ],
      "urls": {
        "raw": "https://media.githubusercontent.com/media/ddh4r4m/wallpaper-collection/main/collection/wallpapers/architecture/080.jpg",
        "thumb": "https://media.githubusercontent.com/media/ddh4r4m/wallpaper-collection/main/collection/thumbnails/architecture/080.jpg"
      },
      "metadata": {
        "dimensions": {
          "width": 1080,
          "height": 1920
        },
        "file_size": 453428,
        "format": "JPEG",
        "added_at": "2025-07-17T00:02:49.926964",
        "hash": "848f81995a36c6730b7b7a0f5c8628c4",
        "source": "migrated"
      }
    },
    {
      "id": "architecture_081",
      "category": "architecture",
      "title": "Architecture Wallpaper 081",
      "tags": [
        "architecture",
        "wallpaper",
        "hd",
        "mobile"
      ],
      "urls": {
        "raw": "https://media.githubusercontent.com/media/ddh4r4m/wallpaper-collection/main/collection/wallpapers/architecture/081.jpg",
        "thumb": "https://media.githubusercontent.com/media/ddh4r4m/wallpaper-collection/main/collection/thumbnails/architecture/081.jpg"
      },
      "metadata": {
        "dimensions": {
          "width": 1080,
          "height": 1920
        },
        "file_size": 383800,
        "format": "JPEG",
        "added_at": "2025-07-17T00:02:49.986538",
        "hash": "ff5be5200a1f1027b8145a1a0e2033b8",
        "source": "migrated"
      }
    },
    {
      "id": "architecture_082",
      "category": "architecture",
      "title": "Architecture Wallpaper 082",
      "tags": [
        "architecture",
        "wallpaper",
        "hd",
        "mobile"
      ],
      "urls": {
        "raw": "https://media.githubusercontent.com/media/ddh4r4m/wallpaper-collection/main/collection/wallpapers/architecture/082.jpg",
        "thumb": "https://media.githubusercontent.com/media/ddh4r4m/wallpaper-collection/main/collection/thumbnails/architecture/082.jpg"
      },
      "metadata": {
        "dimensions": {
          "width": 1080,
          "height": 1920
        },
        "file_size": 327968,
        "format": "JPEG",
        "added_at": "2025-07-17T00:02:50.046050",
        "hash": "228adcb75b6ef6d43d36613ba833a91d",
        "source": "migrated"
      }
    },
    {
      "id": "architecture_083",
      "category": "architecture",
      "title": "Architecture Wallpaper 083",
      "tags": [
        "architecture",
        "wallpaper",
        "hd",
        "mobile"
      ],
      "urls": {
        "raw": "https://media.githubusercontent.com/media/ddh4r4m/wallpaper-collection/main/collection/wallpapers/architecture/083.jpg",
        "thumb": "https://media.githubusercontent.com/media/ddh4r4m/wallpaper-collection/main/collection/thumbnails/architecture/083.jpg"
      },
      "metadata": {
        "dimensions": {
          "width": 1080,
          "height": 1920
        },
        "file_size": 766825,
        "format": "JPEG",
        "added_at": "2025-07-17T00:02:50.128663",
        "hash": "7d2523caaca783a13fbbe5e09a50ca3a",
        "source": "migrated"
      }
    },
    {
      "id": "architecture_084",
      "category": "architecture",
      "title": "Architecture Wallpaper 084",
      "tags": [
        "architecture",
        "wallpaper",
        "hd",
        "mobile"
      ],
      "urls": {
        "raw": "https://media.githubusercontent.com/media/ddh4r4m/wallpaper-collection/main/collection/wallpapers/architecture/084.jpg",
        "thumb": "https://media.githubusercontent.com/media/ddh4r4m/wallpaper-collection/main/collection/thumbnails/architecture/084.jpg"
      },
      "metadata": {
        "dimensions": {
          "width": 1080,
          "height": 1920
        },
        "file_size": 587016,
        "format": "JPEG",
        "added_at": "2025-07-17T00:02:50.200409",
        "hash": "90c05f95372839fcf5804101fdc8e02f",
        "source": "migrated"
      }
    },
    {
      "id": "architecture_085",
      "category": "architecture",
      "title": "Architecture Wallpaper 085",
      "tags": [
        "architecture",
        "wallpaper",
        "hd",
        "mobile"
      ],
      "urls": {
        "raw": "https://media.githubusercontent.com/media/ddh4r4m/wallpaper-collection/main/collection/wallpapers/architecture/085.jpg",
        "thumb": "https://media.githubusercontent.com/media/ddh4r4m/wallpaper-collection/main/collection/thumbnails/architecture/085.jpg"
      },
      "metadata": {
        "dimensions": {
          "width": 1080,
          "height": 1920
        },
        "file_size": 431399,
        "format": "JPEG",
        "added_at": "2025-07-17T00:02:50.264680",
        "hash": "1f10a3f57d9b3c3f02b282412a01a74f",
        "source": "migrated"
      }
    },
    {
      "id": "architecture_086",
      "category": "architecture",
      "title": "Architecture Wallpaper 086",
      "tags": [
        "architecture",
        "wallpaper",
        "hd",
        "mobile"
      ],
      "urls": {
        "raw": "https://media.githubusercontent.com/media/ddh4r4m/wallpaper-collection/main/collection/wallpapers/architecture/086.jpg",
        "thumb": "https://media.githubusercontent.com/media/ddh4r4m/wallpaper-collection/main/collection/thumbnails/architecture/086.jpg"
      },
      "metadata": {
        "dimensions": {
          "width": 1080,
          "height": 1920
        },
        "file_size": 243114,
        "format": "JPEG",
        "added_at": "2025-07-17T00:02:50.320989",
        "hash": "7cb4469c64e3fc89323888ab1104fcb0",
        "source": "migrated"
      }
    },
    {
      "id": "architecture_087",
      "category": "architecture",
      "title": "Architecture Wallpaper 087",
      "tags": [
        "architecture",
        "wallpaper",
        "hd",
        "mobile"
      ],
      "urls": {
        "raw": "https://media.githubusercontent.com/media/ddh4r4m/wallpaper-collection/main/collection/wallpapers/architecture/087.jpg",
        "thumb": "https://media.githubusercontent.com/media/ddh4r4m/wallpaper-collection/main/collection/thumbnails/architecture/087.jpg"
      },
      "metadata": {
        "dimensions": {
          "width": 1080,
          "height": 1920
        },
        "file_size": 474871,
        "format": "JPEG",
        "added_at": "2025-07-17T00:02:50.388307",
        "hash": "c1f78e33d11dc60eeaa1313ce3c58501",
        "source": "migrated"
      }
    },
    {
      "id": "architecture_088",
      "category": "architecture",
      "title": "Architecture Wallpaper 088",
      "tags": [
        "architecture",
        "wallpaper",
        "hd",
        "mobile"
      ],
      "urls": {
        "raw": "https://media.githubusercontent.com/media/ddh4r4m/wallpaper-collection/main/collection/wallpapers/architecture/088.jpg",
        "thumb": "https://media.githubusercontent.com/media/ddh4r4m/wallpaper-collection/main/collection/thumbnails/architecture/088.jpg"
      },
      "metadata": {
        "dimensions": {
          "width": 1080,
          "height": 1920
        },
        "file_size": 556589,
        "format": "JPEG",
        "added_at": "2025-07-17T00:02:50.460107",
        "hash": "e187739db4de1645f0e29db6c27fc693",
        "source": "migrated"
      }
    },
    {
      "id": "architecture_089",
      "category": "architecture",
      "title": "Architecture Wallpaper 089",
      "tags": [
        "architecture",
        "wallpaper",
        "hd",
        "mobile"
      ],
      "urls": {
        "raw": "https://media.githubusercontent.com/media/ddh4r4m/wallpaper-collection/main/collection/wallpapers/architecture/089.jpg",
        "thumb": "https://media.githubusercontent.com/media/ddh4r4m/wallpaper-collection/main/collection/thumbnails/architecture/089.jpg"
      },
      "metadata": {
        "dimensions": {
          "width": 1080,
          "height": 1920
        },
        "file_size": 472838,
        "format": "JPEG",
        "added_at": "2025-07-17T00:02:50.526953",
        "hash": "0d4896bc6a98c60d73e31e9b1cf41edd",
        "source": "migrated"
      }
    },
    {
      "id": "architecture_090",
      "category": "architecture",
      "title": "Architecture Wallpaper 090",
      "tags": [
        "architecture",
        "wallpaper",
        "hd",
        "mobile"
      ],
      "urls": {
        "raw": "https://media.githubusercontent.com/media/ddh4r4m/wallpaper-collection/main/collection/wallpapers/architecture/090.jpg",
        "thumb": "https://media.githubusercontent.com/media/ddh4r4m/wallpaper-collection/main/collection/thumbnails/architecture/090.jpg"
      },
      "metadata": {
        "dimensions": {
          "width": 1080,
          "height": 1920
        },
        "file_size": 425274,
        "format": "JPEG",
        "added_at": "2025-07-17T00:02:50.592141",
        "hash": "b5e2dbaa7e157359bbcb57cb8560fdaa",
        "source": "migrated"
      }
    }
  ]
}