{
  "meta": {
    "version": "1.0",
    "generated_at": "2025-07-19T12:26:57.111378",
    "category": "architecture",
    "page": 8,
    "per_page": 15,
    "total_pages": 19,
    "total_count": 275,
    "count_on_page": 15,
    "has_next": true,
    "has_prev": true,
    "next_page_url": "/api/v1/architecture/pages/9.json",
    "prev_page_url": "/api/v1/architecture/pages/7.json"
  },
  "data": [
    {
      "id": "architecture_106",
      "category": "architecture",
      "title": "Architecture Wallpaper 106",
      "tags": [
        "architecture",
        "wallpaper",
        "hd",
        "mobile"
      ],
      "urls": {
        "raw": "https://media.githubusercontent.com/media/ddh4r4m/wallpaper-collection/main/collection/wallpapers/architecture/106.jpg",
        "thumb": "https://media.githubusercontent.com/media/ddh4r4m/wallpaper-collection/main/collection/thumbnails/architecture/106.jpg"
      },
      "metadata": {
        "dimensions": {
          "width": 1080,
          "height": 1920
        },
        "file_size": 328005,
        "format": "JPEG",
        "added_at": "2025-07-17T00:02:51.527179",
        "hash": "1e8965fa6d149fe59d7a537c65db15d5",
        "source": "migrated"
      }
    },
    {
      "id": "architecture_107",
      "category": "architecture",
      "title": "Architecture Wallpaper 107",
      "tags": [
        "architecture",
        "wallpaper",
        "hd",
        "mobile"
      ],
      "urls": {
        "raw": "https://media.githubusercontent.com/media/ddh4r4m/wallpaper-collection/main/collection/wallpapers/architecture/107.jpg",
        "thumb": "https://media.githubusercontent.com/media/ddh4r4m/wallpaper-collection/main/collection/thumbnails/architecture/107.jpg"
      },
      "metadata": {
        "dimensions": {
          "width": 1080,
          "height": 1920
        },
        "file_size": 317221,
        "format": "JPEG",
        "added_at": "2025-07-17T00:02:51.586976",
        "hash": "4f9a3a62d930151ffc09135cc363c407",
        "source": "migrated"
      }
    },
    {
      "id": "architecture_108",
      "category": "architecture",
      "title": "Architecture Wallpaper 108",
      "tags": [
        "architecture",
        "wallpaper",
        "hd",
        "mobile"
      ],
      "urls": {
        "raw": "https://media.githubusercontent.com/media/ddh4r4m/wallpaper-collection/main/collection/wallpapers/architecture/108.jpg",
        "thumb": "https://media.githubusercontent.com/media/ddh4r4m/wallpaper-collection/main/collection/thumbnails/architecture/108.jpg"
      },
      "metadata": {
        "dimensions": {
          "width": 1080,
          "height": 1920
        },
        "file_size": 242696,
        "format": "JPEG",
        "added_at": "2025-07-17T00:02:51.641947",
        "hash": "7a88d51a4be8687d6945e049ac9bdd92",
        "source": "migrated"
      }
    },
    {
      "id": "architecture_109",
      "category": "architecture",
      "title": "Architecture Wallpaper 109",
      "tags": [
        "architecture",
        "wallpaper",
        "hd",
        "mobile"
      ],
      "urls": {
        "raw": "https://media.githubusercontent.com/media/ddh4r4m/wallpaper-collection/main/collection/wallpapers/architecture/109.jpg",
        "thumb": "https://media.githubusercontent.com/media/ddh4r4m/wallpaper-collection/main/collection/thumbnails/architecture/109.jpg"
      },
      "metadata": {
        "dimensions": {
          "width": 1080,
          "height": 1920
        },
        "file_size": 562169,
        "format": "JPEG",
        "added_at": "2025-07-17T00:02:51.710781",
        "hash": "f9ad6e77362484ed91d1335b142c87b0",
        "source": "migrated"
      }
    },
    {
      "id": "architecture_110",
      "category": "architecture",
      "title": "Architecture Wallpaper 110",
      "tags": [
        "architecture",
        "wallpaper",
        "hd",
        "mobile"
      ],
      "urls": {
        "raw": "https://media.githubusercontent.com/media/ddh4r4m/wallpaper-collection/main/collection/wallpapers/architecture/110.jpg",
        "thumb": "https://media.githubusercontent.com/media/ddh4r4m/wallpaper-collection/main/collection/thumbnails/architecture/110.jpg"
      },
      "metadata": {
        "dimensions": {
          "width": 1080,
          "height": 1920
        },
        "file_size": 415437,
        "format": "JPEG",
        "added_at": "2025-07-17T00:02:51.775050",
        "hash": "530eddc21b80b35c2d6514e852026bba",
        "source": "migrated"
      }
    },
    {
      "id": "architecture_111",
      "category": "architecture",
      "title": "Architecture Wallpaper 111",
      "tags": [
        "architecture",
        "wallpaper",
        "hd",
        "mobile"
      ],
      "urls": {
        "raw": "https://media.githubusercontent.com/media/ddh4r4m/wallpaper-collection/main/collection/wallpapers/architecture/111.jpg",
        "thumb": "https://media.githubusercontent.com/media/ddh4r4m/wallpaper-collection/main/collection/thumbnails/architecture/111.jpg"
      },
      "metadata": {
        "dimensions": {
          "width": 1080,
          "height": 1920
        },
        "file_size": 317224,
        "format": "JPEG",
        "added_at": "2025-07-17T00:02:51.835030",
        "hash": "c2bb670a45105209b25090d1b6e285c7",
        "source": "migrated"
      }
    },
    {
      "id": "architecture_112",
      "category": "architecture",
      "title": "Architecture Wallpaper 112",
      "tags": [
        "architecture",
        "wallpaper",
        "hd",
        "mobile"
      ],
      "urls": {
        "raw": "https://media.githubusercontent.com/media/ddh4r4m/wallpaper-collection/main/collection/wallpapers/architecture/112.jpg",
        "thumb": "https://media.githubusercontent.com/media/ddh4r4m/wallpaper-collection/main/collection/thumbnails/architecture/112.jpg"
      },
      "metadata": {
        "dimensions": {
          "width": 1080,
          "height": 1920
        },
        "file_size": 726733,
        "format": "JPEG",
        "added_at": "2025-07-17T00:02:51.914958",
        "hash": "9e9043ccf5cc99a25c3b625b27b06900",
        "source": "migrated"
      }
    },
    {
      "id": "architecture_113",
      "category": "architecture",
      "title": "Architecture Wallpaper 113",
      "tags": [
        "architecture",
        "wallpaper",
        "hd",
        "mobile"
      ],
      "urls": {
        "raw": "https://media.githubusercontent.com/media/ddh4r4m/wallpaper-collection/main/collection/wallpapers/architecture/113.jpg",
        "thumb": "https://media.githubusercontent.com/media/ddh4r4m/wallpaper-collection/main/collection/thumbnails/architecture/113.jpg"
      },
      "metadata": {
        "dimensions": {
          "width": 1080,
          "height": 1920
        },
        "file_size": 142417,
        "format": "JPEG",
        "added_at": "2025-07-17T00:02:51.965295",
        "hash": "d9805349672fe522f6a20fb01bb342dd",
        "source": "migrated"
      }
    },
    {
      "id": "architecture_114",
      "category": "architecture",
      "title": "Architecture Wallpaper 114",
      "tags": [
        "architecture",
        "wallpaper",
        "hd",
        "mobile"
      ],
      "urls": {
        "raw": "https://media.githubusercontent.com/media/ddh4r4m/wallpaper-collection/main/collection/wallpapers/architecture/114.jpg",
        "thumb": "https://media.githubusercontent.com/media/ddh4r4m/wallpaper-collection/main/collection/thumbnails/architecture/114.jpg"
      },
      "metadata": {
        "dimensions": {
          "width": 1080,
          "height": 1920
        },
        "file_size": 266173,
        "format": "JPEG",
        "added_at": "2025-07-17T00:02:52.022190",
        "hash": "7756d4a8fdab8001f837547c3e509976",
        "source": "migrated"
      }
    },
    {
      "id": "architecture_115",
      "category": "architecture",
      "title": "Architecture Wallpaper 115",
      "tags": [
        "architecture",
        "wallpaper",
        "hd",
        "mobile"
      ],
      "urls": {
        "raw": "https://media.githubusercontent.com/media/ddh4r4m/wallpaper-collection/main/collection/wallpapers/architecture/115.jpg",
        "thumb": "https://media.githubusercontent.com/media/ddh4r4m/wallpaper-collection/main/collection/thumbnails/architecture/115.jpg"
      },
      "metadata": {
        "dimensions": {
          "width": 1080,
          "height": 1920
        },
        "file_size": 139771,
        "format": "JPEG",
        "added_at": "2025-07-17T00:02:52.071781",
        "hash": "dc87e247975a29cc11f2a463dff3c3bf",
        "source": "migrated"
      }
    },
    {
      "id": "architecture_116",
      "category": "architecture",
      "title": "Architecture Wallpaper 116",
      "tags": [
        "architecture",
        "wallpaper",
        "hd",
        "mobile"
      ],
      "urls": {
        "raw": "https://media.githubusercontent.com/media/ddh4r4m/wallpaper-collection/main/collection/wallpapers/architecture/116.jpg",
        "thumb": "https://media.githubusercontent.com/media/ddh4r4m/wallpaper-collection/main/collection/thumbnails/architecture/116.jpg"
      },
      "metadata": {
        "dimensions": {
          "width": 1080,
          "height": 1920
        },
        "file_size": 215243,
        "format": "JPEG",
        "added_at": "2025-07-17T00:02:52.126858",
        "hash": "b8ab1f8c260eecb1544736ef62c9af3c",
        "source": "migrated"
      }
    },
    {
      "id": "architecture_117",
      "category": "architecture",
      "title": "Architecture Wallpaper 117",
      "tags": [
        "architecture",
        "wallpaper",
        "hd",
        "mobile"
      ],
      "urls": {
        "raw": "https://media.githubusercontent.com/media/ddh4r4m/wallpaper-collection/main/collection/wallpapers/architecture/117.jpg",
        "thumb": "https://media.githubusercontent.com/media/ddh4r4m/wallpaper-collection/main/collection/thumbnails/architecture/117.jpg"
      },
      "metadata": {
        "dimensions": {
          "width": 1080,
          "height": 1920
        },
        "file_size": 123293,
        "format": "JPEG",
        "added_at": "2025-07-17T00:02:52.175925",
        "hash": "6a394f57ae914529f6794e6dd890650d",
        "source": "migrated"
      }
    },
    {
      "id": "architecture_118",
      "category": "architecture",
      "title": "Architecture Wallpaper 118",
      "tags": [
        "architecture",
        "wallpaper",
        "hd",
        "mobile"
      ],
      "urls": {
        "raw": "https://media.githubusercontent.com/media/ddh4r4m/wallpaper-collection/main/collection/wallpapers/architecture/118.jpg",
        "thumb": "https://media.githubusercontent.com/media/ddh4r4m/wallpaper-collection/main/collection/thumbnails/architecture/118.jpg"
      },
      "metadata": {
        "dimensions": {
          "width": 1080,
          "height": 1920
        },
        "file_size": 119554,
        "format": "JPEG",
        "added_at": "2025-07-17T00:02:52.223510",
        "hash": "4f7065a894d923901a9b2dcd0d72ab0f",
        "source": "migrated"
      }
    },
    {
      "id": "architecture_119",
      "category": "architecture",
      "title": "Architecture Wallpaper 119",
      "tags": [
        "architecture",
        "wallpaper",
        "hd",
        "mobile"
      ],
      "urls": {
        "raw": "https://media.githubusercontent.com/media/ddh4r4m/wallpaper-collection/main/collection/wallpapers/architecture/119.jpg",
        "thumb": "https://media.githubusercontent.com/media/ddh4r4m/wallpaper-collection/main/collection/thumbnails/architecture/119.jpg"
      },
      "metadata": {
        "dimensions": {
          "width": 1080,
          "height": 1920
        },
        "file_size": 640487,
        "format": "JPEG",
        "added_at": "2025-07-17T00:02:52.303518",
        "hash": "de6beecf5e7d5a7e1487b1f6f0029eaf",
        "source": "migrated"
      }
    },
    {
      "id": "architecture_120",
      "category": "architecture",
      "title": "Architecture Wallpaper 120",
      "tags": [
        "architecture",
        "wallpaper",
        "hd",
        "mobile"
      ],
      "urls": {
        "raw": "https://media.githubusercontent.com/media/ddh4r4m/wallpaper-collection/main/collection/wallpapers/architecture/120.jpg",
        "thumb": "https://media.githubusercontent.com/media/ddh4r4m/wallpaper-collection/main/collection/thumbnails/architecture/120.jpg"
      },
      "metadata": {
        "dimensions": {
          "width": 1080,
          "height": 1920
        },
        "file_size": 565710,
        "format": "JPEG",
        "added_at": "2025-07-17T00:02:52.375757",
        "hash": "4515fb1f383284686c2d142e413e16d0",
        "source": "migrated"
      }
    }
  ]
}