{
  "meta": {
    "version": "1.0",
    "generated_at": "2025-07-28T22:38:03.579947",
    "category": "architecture",
    "page": 9,
    "per_page": 15,
    "total_pages": 19,
    "total_count": 275,
    "count_on_page": 15,
    "has_next": true,
    "has_prev": true,
    "next_page_url": "/api/v1/architecture/pages/10.json",
    "prev_page_url": "/api/v1/architecture/pages/8.json"
  },
  "data": [
    {
      "id": "architecture_121",
      "category": "architecture",
      "title": "Architecture Wallpaper 121",
      "tags": [
        "architecture",
        "wallpaper",
        "hd",
        "mobile"
      ],
      "urls": {
        "raw": "https://media.githubusercontent.com/media/ddh4r4m/wallpaper-collection/main/collection/wallpapers/architecture/121.jpg",
        "thumb": "https://media.githubusercontent.com/media/ddh4r4m/wallpaper-collection/main/collection/thumbnails/architecture/121.jpg"
      },
      "metadata": {
        "dimensions": {
          "width": 1080,
          "height": 1920
        },
        "file_size": 211315,
        "format": "JPEG",
        "added_at": "2025-07-17T00:02:52.428418",
        "hash": "43e16d4156dfe3f87633b204ad30d188",
        "source": "migrated"
      }
    },
    {
      "id": "architecture_122",
      "category": "architecture",
      "title": "Architecture Wallpaper 122",
      "tags": [
        "architecture",
        "wallpaper",
        "hd",
        "mobile"
      ],
      "urls": {
        "raw": "https://media.githubusercontent.com/media/ddh4r4m/wallpaper-collection/main/collection/wallpapers/architecture/122.jpg",
        "thumb": "https://media.githubusercontent.com/media/ddh4r4m/wallpaper-collection/main/collection/thumbnails/architecture/122.jpg"
      },
      "metadata": {
        "dimensions": {
          "width": 1080,
          "height": 1920
        },
        "file_size": 367166,
        "format": "JPEG",
        "added_at": "2025-07-17T00:02:52.490809",
        "hash": "82d1f9a19e6b55e4e66b9bfe36ba1ac6",
        "source": "migrated"
      }
    },
    {
      "id": "architecture_123",
      "category": "architecture",
      "title": "Architecture Wallpaper 123",
      "tags": [
        "architecture",
        "wallpaper",
        "hd",
        "mobile"
      ],
      "urls": {
        "raw": "https://media.githubusercontent.com/media/ddh4r4m/wallpaper-collection/main/collection/wallpapers/architecture/123.jpg",
        "thumb": "https://media.githubusercontent.com/media/ddh4r4m/wallpaper-collection/main/collection/thumbnails/architecture/123.jpg"
      },
      "metadata": {
        "dimensions": {
          "width": 1080,
          "height": 1920
        },
        "file_size": 461428,
        "format": "JPEG",
        "added_at": "2025-07-17T00:02:52.557288",
        "hash": "72b224b8b9c825c3a4a5b54edccdebb9",
        "source": "migrated"
      }
    },
    {
      "id": "architecture_124",
      "category": "architecture",
      "title": "Architecture Wallpaper 124",
      "tags": [
        "architecture",
        "wallpaper",
        "hd",
        "mobile"
      ],
      "urls": {
        "raw": "https://media.githubusercontent.com/media/ddh4r4m/wallpaper-collection/main/collection/wallpapers/architecture/124.jpg",
        "thumb": "https://media.githubusercontent.com/media/ddh4r4m/wallpaper-collection/main/collection/thumbnails/architecture/124.jpg"
      },
      "metadata": {
        "dimensions": {
          "width": 1080,
          "height": 1920
        },
        "file_size": 184655,
        "format": "JPEG",
        "added_at": "2025-07-17T00:02:52.608535",
        "hash": "e87a01233d3084048dc8737d63ce4eaf",
        "source": "migrated"
      }
    },
    {
      "id": "architecture_125",
      "category": "architecture",
      "title": "Architecture Wallpaper 125",
      "tags": [
        "architecture",
        "wallpaper",
        "hd",
        "mobile"
      ],
      "urls": {
        "raw": "https://media.githubusercontent.com/media/ddh4r4m/wallpaper-collection/main/collection/wallpapers/architecture/125.jpg",
        "thumb": "https://media.githubusercontent.com/media/ddh4r4m/wallpaper-collection/main/collection/thumbnails/architecture/125.jpg"
      },
      "metadata": {
        "dimensions": {
          "width": 1080,
          "height": 1920
        },
        "file_size": 425810,
        "format": "JPEG",
        "added_at": "2025-07-17T00:02:52.672873",
        "hash": "13a400ff4f7987c93e685016056dbe30",
        "source": "migrated"
      }
    },
    {
      "id": "architecture_126",
      "category": "architecture",
      "title": "Architecture Wallpaper 126",
      "tags": [
        "architecture",
        "wallpaper",
        "hd",
        "mobile"
      ],
      "urls": {
        "raw": "https://media.githubusercontent.com/media/ddh4r4m/wallpaper-collection/main/collection/wallpapers/architecture/126.jpg",
        "thumb": "https://media.githubusercontent.com/media/ddh4r4m/wallpaper-collection/main/collection/thumbnails/architecture/126.jpg"
      },
      "metadata": {
        "dimensions": {
          "width": 1080,
          "height": 1920
        },
        "file_size": 449263,
        "format": "JPEG",
        "added_at": "2025-07-17T00:02:52.742449",
        "hash": "9432eab91e22bbc99a746eca499a963b",
        "source": "migrated"
      }
    },
    {
      "id": "architecture_127",
      "category": "architecture",
      "title": "Architecture Wallpaper 127",
      "tags": [
        "architecture",
        "wallpaper",
        "hd",
        "mobile"
      ],
      "urls": {
        "raw": "https://media.githubusercontent.com/media/ddh4r4m/wallpaper-collection/main/collection/wallpapers/architecture/127.jpg",
        "thumb": "https://media.githubusercontent.com/media/ddh4r4m/wallpaper-collection/main/collection/thumbnails/architecture/127.jpg"
      },
      "metadata": {
        "dimensions": {
          "width": 1080,
          "height": 1920
        },
        "file_size": 301952,
        "format": "JPEG",
        "added_at": "2025-07-17T00:02:52.799353",
        "hash": "07382c09c125ba796f38846f044627ec",
        "source": "migrated"
      }
    },
    {
      "id": "architecture_128",
      "category": "architecture",
      "title": "Architecture Wallpaper 128",
      "tags": [
        "architecture",
        "wallpaper",
        "hd",
        "mobile"
      ],
      "urls": {
        "raw": "https://media.githubusercontent.com/media/ddh4r4m/wallpaper-collection/main/collection/wallpapers/architecture/128.jpg",
        "thumb": "https://media.githubusercontent.com/media/ddh4r4m/wallpaper-collection/main/collection/thumbnails/architecture/128.jpg"
      },
      "metadata": {
        "dimensions": {
          "width": 1080,
          "height": 1920
        },
        "file_size": 272113,
        "format": "JPEG",
        "added_at": "2025-07-17T00:02:52.857139",
        "hash": "53b64ff0c7984a92a6596e84ae7d226e",
        "source": "migrated"
      }
    },
    {
      "id": "architecture_129",
      "category": "architecture",
      "title": "Architecture Wallpaper 129",
      "tags": [
        "architecture",
        "wallpaper",
        "hd",
        "mobile"
      ],
      "urls": {
        "raw": "https://media.githubusercontent.com/media/ddh4r4m/wallpaper-collection/main/collection/wallpapers/architecture/129.jpg",
        "thumb": "https://media.githubusercontent.com/media/ddh4r4m/wallpaper-collection/main/collection/thumbnails/architecture/129.jpg"
      },
      "metadata": {
        "dimensions": {
          "width": 1080,
          "height": 1920
        },
        "file_size": 523742,
        "format": "JPEG",
        "added_at": "2025-07-17T00:02:52.928552",
        "hash": "bb79d2fc13b5c32cd9f811100617cba9",
        "source": "migrated"
      }
    },
    {
      "id": "architecture_130",
      "category": "architecture",
      "title": "Architecture Wallpaper 130",
      "tags": [
        "architecture",
        "wallpaper",
        "hd",
        "mobile"
      ],
      "urls": {
        "raw": "https://media.githubusercontent.com/media/ddh4r4m/wallpaper-collection/main/collection/wallpapers/architecture/130.jpg",
        "thumb": "https://media.githubusercontent.com/media/ddh4r4m/wallpaper-collection/main/collection/thumbnails/architecture/130.jpg"
      },
      "metadata": {
        "dimensions": {
          "width": 1080,
          "height": 1920
        },
        "file_size": 598481,
        "format": "JPEG",
        "added_at": "2025-07-17T00:02:53.003084",
        "hash": "6c9735c5a510feb225d28a39e8e7a00e",
        "source": "migrated"
      }
    },
    {
      "id": "architecture_131",
      "category": "architecture",
      "title": "Architecture Wallpaper 131",
      "tags": [
        "architecture",
        "wallpaper",
        "hd",
        "mobile"
      ],
      "urls": {
        "raw": "https://media.githubusercontent.com/media/ddh4r4m/wallpaper-collection/main/collection/wallpapers/architecture/131.jpg",
        "thumb": "https://media.githubusercontent.com/media/ddh4r4m/wallpaper-collection/main/collection/thumbnails/architecture/131.jpg"
      },
      "metadata": {
        "dimensions": {
          "width": 1080,
          "height": 1920
        },
        "file_size": 445157,
        "format": "JPEG",
        "added_at": "2025-07-17T00:02:53.069159",
        "hash": "bad1aacd240e5596a26f4b4b24c874cd",
        "source": "migrated"
      }
    },
    {
      "id": "architecture_132",
      "category": "architecture",
      "title": "Architecture Wallpaper 132",
      "tags": [
        "architecture",
        "wallpaper",
        "hd",
        "mobile"
      ],
      "urls": {
        "raw": "https://media.githubusercontent.com/media/ddh4r4m/wallpaper-collection/main/collection/wallpapers/architecture/132.jpg",
        "thumb": "https://media.githubusercontent.com/media/ddh4r4m/wallpaper-collection/main/collection/thumbnails/architecture/132.jpg"
      },
      "metadata": {
        "dimensions": {
          "width": 1080,
          "height": 1920
        },
        "file_size": 407760,
        "format": "JPEG",
        "added_at": "2025-07-17T00:02:53.132981",
        "hash": "35b73954b722a007b1f797782b0e3f63",
        "source": "migrated"
      }
    },
    {
      "id": "architecture_133",
      "category": "architecture",
      "title": "Architecture Wallpaper 133",
      "tags": [
        "architecture",
        "wallpaper",
        "hd",
        "mobile"
      ],
      "urls": {
        "raw": "https://media.githubusercontent.com/media/ddh4r4m/wallpaper-collection/main/collection/wallpapers/architecture/133.jpg",
        "thumb": "https://media.githubusercontent.com/media/ddh4r4m/wallpaper-collection/main/collection/thumbnails/architecture/133.jpg"
      },
      "metadata": {
        "dimensions": {
          "width": 1080,
          "height": 1920
        },
        "file_size": 245839,
        "format": "JPEG",
        "added_at": "2025-07-17T00:02:53.187624",
        "hash": "caa707c7fb72acbda8d43fb4e7f9d607",
        "source": "migrated"
      }
    },
    {
      "id": "architecture_134",
      "category": "architecture",
      "title": "Architecture Wallpaper 134",
      "tags": [
        "architecture",
        "wallpaper",
        "hd",
        "mobile"
      ],
      "urls": {
        "raw": "https://media.githubusercontent.com/media/ddh4r4m/wallpaper-collection/main/collection/wallpapers/architecture/134.jpg",
        "thumb": "https://media.githubusercontent.com/media/ddh4r4m/wallpaper-collection/main/collection/thumbnails/architecture/134.jpg"
      },
      "metadata": {
        "dimensions": {
          "width": 1080,
          "height": 1920
        },
        "file_size": 454652,
        "format": "JPEG",
        "added_at": "2025-07-17T00:02:53.251435",
        "hash": "a8e0f3fc99660a60eca70e52ac5afa18",
        "source": "migrated"
      }
    },
    {
      "id": "architecture_135",
      "category": "architecture",
      "title": "Architecture Wallpaper 135",
      "tags": [
        "architecture",
        "wallpaper",
        "hd",
        "mobile"
      ],
      "urls": {
        "raw": "https://media.githubusercontent.com/media/ddh4r4m/wallpaper-collection/main/collection/wallpapers/architecture/135.jpg",
        "thumb": "https://media.githubusercontent.com/media/ddh4r4m/wallpaper-collection/main/collection/thumbnails/architecture/135.jpg"
      },
      "metadata": {
        "dimensions": {
          "width": 1080,
          "height": 1920
        },
        "file_size": 294055,
        "format": "JPEG",
        "added_at": "2025-07-17T00:02:53.309857",
        "hash": "1ecb19e9086b6d956f15434d84fc5ad5",
        "source": "migrated"
      }
    }
  ]
}