{
  "meta": {
    "version": "1.0",
    "generated_at": "2025-07-28T23:12:02.393375",
    "category": "animals",
    "page": 3,
    "per_page": 15,
    "total_pages": 6,
    "total_count": 84,
    "count_on_page": 15,
    "has_next": true,
    "has_prev": true,
    "next_page_url": "/api/v1/animals/pages/4.json",
    "prev_page_url": "/api/v1/animals/pages/2.json"
  },
  "data": [
    {
      "id": "animals_031",
      "category": "animals",
      "title": "Animals Wallpaper",
      "tags": [
        "animals",
        "unsplash",
        "hd",
        "mobile"
      ],
      "metadata": {
        "dimensions": {
          "width": 1080,
          "height": 1620
        },
        "file_size": 241345,
        "format": "JPEG",
        "added_at": "2025-07-17T22:47:42.385898",
        "hash": "4f1ac8214e8ab32157d43df869138df1",
        "photographer": "Unknown"
      },
      "urls": {
        "raw": "https://media.githubusercontent.com/media/ddh4r4m/wallpaper-collection/main/collection/wallpapers/animals/031.jpg",
        "thumb": "https://media.githubusercontent.com/media/ddh4r4m/wallpaper-collection/main/collection/thumbnails/animals/031.jpg"
      }
    },
    {
      "id": "animals_032",
      "category": "animals",
      "title": "Animals Wallpaper",
      "tags": [
        "animals",
        "unsplash",
        "hd",
        "mobile"
      ],
      "metadata": {
        "dimensions": {
          "width": 1080,
          "height": 1350
        },
        "file_size": 150223,
        "format": "JPEG",
        "added_at": "2025-07-17T22:47:46.445361",
        "hash": "8f6391bf584b6f119a5ac4ede49fc5fc",
        "photographer": "Unknown"
      },
      "urls": {
        "raw": "https://media.githubusercontent.com/media/ddh4r4m/wallpaper-collection/main/collection/wallpapers/animals/032.jpg",
        "thumb": "https://media.githubusercontent.com/media/ddh4r4m/wallpaper-collection/main/collection/thumbnails/animals/032.jpg"
      }
    },
    {
      "id": "animals_033",
      "category": "animals",
      "title": "Animals Wallpaper",
      "tags": [
        "animals",
        "unsplash",
        "hd",
        "mobile"
      ],
      "metadata": {
        "dimensions": {
          "width": 1080,
          "height": 721
        },
        "file_size": 84126,
        "format": "JPEG",
        "added_at": "2025-07-17T22:47:48.756449",
        "hash": "ba5a95348e0097438fb35834fd6dde6f",
        "photographer": "Unknown"
      },
      "urls": {
        "raw": "https://media.githubusercontent.com/media/ddh4r4m/wallpaper-collection/main/collection/wallpapers/animals/033.jpg",
        "thumb": "https://media.githubusercontent.com/media/ddh4r4m/wallpaper-collection/main/collection/thumbnails/animals/033.jpg"
      }
    },
    {
      "id": "animals_034",
      "category": "animals",
      "title": "Animals Wallpaper",
      "tags": [
        "animals",
        "unsplash",
        "hd",
        "mobile"
      ],
      "metadata": {
        "dimensions": {
          "width": 1080,
          "height": 1620
        },
        "file_size": 352492,
        "format": "JPEG",
        "added_at": "2025-07-17T22:47:53.329303",
        "hash": "0db51723fa25f545db1cce42403f39c3",
        "photographer": "cat"
      },
      "urls": {
        "raw": "https://media.githubusercontent.com/media/ddh4r4m/wallpaper-collection/main/collection/wallpapers/animals/034.jpg",
        "thumb": "https://media.githubusercontent.com/media/ddh4r4m/wallpaper-collection/main/collection/thumbnails/animals/034.jpg"
      }
    },
    {
      "id": "animals_035",
      "category": "animals",
      "title": "Animals Wallpaper",
      "tags": [
        "animals",
        "unsplash",
        "hd",
        "mobile"
      ],
      "metadata": {
        "dimensions": {
          "width": 1080,
          "height": 1620
        },
        "file_size": 129038,
        "format": "JPEG",
        "added_at": "2025-07-17T22:47:55.671157",
        "hash": "0c13ec8095bf1bda8c62320af8dc82c1",
        "photographer": "Unknown"
      },
      "urls": {
        "raw": "https://media.githubusercontent.com/media/ddh4r4m/wallpaper-collection/main/collection/wallpapers/animals/035.jpg",
        "thumb": "https://media.githubusercontent.com/media/ddh4r4m/wallpaper-collection/main/collection/thumbnails/animals/035.jpg"
      }
    },
    {
      "id": "animals_036",
      "category": "animals",
      "title": "Animals Wallpaper",
      "tags": [
        "animals",
        "unsplash",
        "hd",
        "mobile"
      ],
      "metadata": {
        "dimensions": {
          "width": 1080,
          "height": 1620
        },
        "file_size": 121861,
        "format": "JPEG",
        "added_at": "2025-07-17T22:47:57.042938",
        "hash": "f22f6b2e3ff4d7f548cf47ed82ec376f",
        "photographer": "Unknown"
      },
      "urls": {
        "raw": "https://media.githubusercontent.com/media/ddh4r4m/wallpaper-collection/main/collection/wallpapers/animals/036.jpg",
        "thumb": "https://media.githubusercontent.com/media/ddh4r4m/wallpaper-collection/main/collection/thumbnails/animals/036.jpg"
      }
    },
    {
      "id": "animals_037",
      "category": "animals",
      "title": "Animals Wallpaper",
      "tags": [
        "animals",
        "unsplash",
        "hd",
        "mobile"
      ],
      "metadata": {
        "dimensions": {
          "width": 1080,
          "height": 1619
        },
        "file_size": 135639,
        "format": "JPEG",
        "added_at": "2025-07-17T22:48:00.433619",
        "hash": "04a3b4f84acba39e9f880120f1c48b81",
        "photographer": "Unknown"
      },
      "urls": {
        "raw": "https://media.githubusercontent.com/media/ddh4r4m/wallpaper-collection/main/collection/wallpapers/animals/037.jpg",
        "thumb": "https://media.githubusercontent.com/media/ddh4r4m/wallpaper-collection/main/collection/thumbnails/animals/037.jpg"
      }
    },
    {
      "id": "animals_038",
      "category": "animals",
      "title": "Animals Wallpaper",
      "tags": [
        "animals",
        "unsplash",
        "hd",
        "mobile"
      ],
      "metadata": {
        "dimensions": {
          "width": 1080,
          "height": 720
        },
        "file_size": 129435,
        "format": "JPEG",
        "added_at": "2025-07-17T22:48:02.913153",
        "hash": "7240c2a1cbbee958fcf4d56dc57d8619",
        "photographer": "Unknown"
      },
      "urls": {
        "raw": "https://media.githubusercontent.com/media/ddh4r4m/wallpaper-collection/main/collection/wallpapers/animals/038.jpg",
        "thumb": "https://media.githubusercontent.com/media/ddh4r4m/wallpaper-collection/main/collection/thumbnails/animals/038.jpg"
      }
    },
    {
      "id": "animals_039",
      "category": "animals",
      "title": "Animals Wallpaper",
      "tags": [
        "animals",
        "unsplash",
        "hd",
        "mobile"
      ],
      "metadata": {
        "dimensions": {
          "width": 1080,
          "height": 1686
        },
        "file_size": 316639,
        "format": "JPEG",
        "added_at": "2025-07-17T22:48:06.537094",
        "hash": "4affb8949eb52451660c9f7dbecffbbc",
        "photographer": "Unknown"
      },
      "urls": {
        "raw": "https://media.githubusercontent.com/media/ddh4r4m/wallpaper-collection/main/collection/wallpapers/animals/039.jpg",
        "thumb": "https://media.githubusercontent.com/media/ddh4r4m/wallpaper-collection/main/collection/thumbnails/animals/039.jpg"
      }
    },
    {
      "id": "animals_040",
      "category": "animals",
      "title": "Animals Wallpaper",
      "tags": [
        "animals",
        "unsplash",
        "hd",
        "mobile"
      ],
      "metadata": {
        "dimensions": {
          "width": 1080,
          "height": 721
        },
        "file_size": 88095,
        "format": "JPEG",
        "added_at": "2025-07-17T22:48:07.711771",
        "hash": "2df3eb98eda89308eca0a1700d74c42e",
        "photographer": "Unknown"
      },
      "urls": {
        "raw": "https://media.githubusercontent.com/media/ddh4r4m/wallpaper-collection/main/collection/wallpapers/animals/040.jpg",
        "thumb": "https://media.githubusercontent.com/media/ddh4r4m/wallpaper-collection/main/collection/thumbnails/animals/040.jpg"
      }
    },
    {
      "id": "animals_041",
      "category": "animals",
      "title": "Animals Wallpaper",
      "tags": [
        "animals",
        "unsplash",
        "hd",
        "mobile"
      ],
      "metadata": {
        "dimensions": {
          "width": 1080,
          "height": 1732
        },
        "file_size": 246809,
        "format": "JPEG",
        "added_at": "2025-07-17T22:48:10.110241",
        "hash": "314985973d1b44d3248b7a0c2efe519d",
        "photographer": "Unknown"
      },
      "urls": {
        "raw": "https://media.githubusercontent.com/media/ddh4r4m/wallpaper-collection/main/collection/wallpapers/animals/041.jpg",
        "thumb": "https://media.githubusercontent.com/media/ddh4r4m/wallpaper-collection/main/collection/thumbnails/animals/041.jpg"
      }
    },
    {
      "id": "animals_042",
      "category": "animals",
      "title": "Animals Wallpaper",
      "tags": [
        "animals",
        "unsplash",
        "hd",
        "mobile"
      ],
      "metadata": {
        "dimensions": {
          "width": 1080,
          "height": 1440
        },
        "file_size": 190761,
        "format": "JPEG",
        "added_at": "2025-07-17T22:48:13.747610",
        "hash": "343402d0a28b57fdbdb25a43d06d8d21",
        "photographer": "Unknown"
      },
      "urls": {
        "raw": "https://media.githubusercontent.com/media/ddh4r4m/wallpaper-collection/main/collection/wallpapers/animals/042.jpg",
        "thumb": "https://media.githubusercontent.com/media/ddh4r4m/wallpaper-collection/main/collection/thumbnails/animals/042.jpg"
      }
    },
    {
      "id": "animals_043",
      "category": "animals",
      "title": "Animals Wallpaper",
      "tags": [
        "animals",
        "unsplash",
        "hd",
        "mobile"
      ],
      "metadata": {
        "dimensions": {
          "width": 1080,
          "height": 1440
        },
        "file_size": 228763,
        "format": "JPEG",
        "added_at": "2025-07-17T22:49:21.804823",
        "hash": "bdd4f65e2d0718682cfc4b5059dc8516",
        "photographer": "kitten sitting on floor"
      },
      "urls": {
        "raw": "https://media.githubusercontent.com/media/ddh4r4m/wallpaper-collection/main/collection/wallpapers/animals/043.jpg",
        "thumb": "https://media.githubusercontent.com/media/ddh4r4m/wallpaper-collection/main/collection/thumbnails/animals/043.jpg"
      }
    },
    {
      "id": "animals_044",
      "category": "animals",
      "title": "Animals Wallpaper",
      "tags": [
        "animals",
        "unsplash",
        "hd",
        "mobile"
      ],
      "metadata": {
        "dimensions": {
          "width": 1080,
          "height": 1620
        },
        "file_size": 252552,
        "format": "JPEG",
        "added_at": "2025-07-17T22:49:24.177961",
        "hash": "69db033b82f534e10ea41a8bc9db5b13",
        "photographer": "kitten"
      },
      "urls": {
        "raw": "https://media.githubusercontent.com/media/ddh4r4m/wallpaper-collection/main/collection/wallpapers/animals/044.jpg",
        "thumb": "https://media.githubusercontent.com/media/ddh4r4m/wallpaper-collection/main/collection/thumbnails/animals/044.jpg"
      }
    },
    {
      "id": "animals_045",
      "category": "animals",
      "title": "Animals Wallpaper",
      "tags": [
        "animals",
        "unsplash",
        "hd",
        "mobile"
      ],
      "metadata": {
        "dimensions": {
          "width": 1080,
          "height": 720
        },
        "file_size": 71352,
        "format": "JPEG",
        "added_at": "2025-07-17T22:49:26.380280",
        "hash": "03f8c6cb793ab4f0773ffd066a1fb72e",
        "photographer": "Unknown"
      },
      "urls": {
        "raw": "https://media.githubusercontent.com/media/ddh4r4m/wallpaper-collection/main/collection/wallpapers/animals/045.jpg",
        "thumb": "https://media.githubusercontent.com/media/ddh4r4m/wallpaper-collection/main/collection/thumbnails/animals/045.jpg"
      }
    }
  ]
}