{
  "meta": {
    "version": "1.0",
    "generated_at": "2025-07-19T12:26:57.111378",
    "category": "animals",
    "page": 5,
    "per_page": 15,
    "total_pages": 6,
    "total_count": 84,
    "count_on_page": 15,
    "has_next": true,
    "has_prev": true,
    "next_page_url": "/api/v1/animals/pages/6.json",
    "prev_page_url": "/api/v1/animals/pages/4.json"
  },
  "data": [
    {
      "id": "animals_061",
      "category": "animals",
      "title": "Animals Wallpaper",
      "tags": [
        "animals",
        "unsplash",
        "hd",
        "mobile"
      ],
      "metadata": {
        "dimensions": {
          "width": 1080,
          "height": 1619
        },
        "file_size": 135639,
        "format": "JPEG",
        "added_at": "2025-07-17T22:50:10.572850",
        "hash": "04a3b4f84acba39e9f880120f1c48b81",
        "photographer": "Unknown"
      },
      "urls": {
        "raw": "https://media.githubusercontent.com/media/ddh4r4m/wallpaper-collection/main/collection/wallpapers/animals/061.jpg",
        "thumb": "https://media.githubusercontent.com/media/ddh4r4m/wallpaper-collection/main/collection/thumbnails/animals/061.jpg"
      }
    },
    {
      "id": "animals_062",
      "category": "animals",
      "title": "Animals Wallpaper",
      "tags": [
        "animals",
        "unsplash",
        "hd",
        "mobile"
      ],
      "metadata": {
        "dimensions": {
          "width": 1080,
          "height": 720
        },
        "file_size": 129435,
        "format": "JPEG",
        "added_at": "2025-07-17T22:50:12.773818",
        "hash": "7240c2a1cbbee958fcf4d56dc57d8619",
        "photographer": "Unknown"
      },
      "urls": {
        "raw": "https://media.githubusercontent.com/media/ddh4r4m/wallpaper-collection/main/collection/wallpapers/animals/062.jpg",
        "thumb": "https://media.githubusercontent.com/media/ddh4r4m/wallpaper-collection/main/collection/thumbnails/animals/062.jpg"
      }
    },
    {
      "id": "animals_063",
      "category": "animals",
      "title": "Animals Wallpaper",
      "tags": [
        "animals",
        "unsplash",
        "hd",
        "mobile"
      ],
      "metadata": {
        "dimensions": {
          "width": 1080,
          "height": 1686
        },
        "file_size": 316639,
        "format": "JPEG",
        "added_at": "2025-07-17T22:50:16.240627",
        "hash": "4affb8949eb52451660c9f7dbecffbbc",
        "photographer": "Unknown"
      },
      "urls": {
        "raw": "https://media.githubusercontent.com/media/ddh4r4m/wallpaper-collection/main/collection/wallpapers/animals/063.jpg",
        "thumb": "https://media.githubusercontent.com/media/ddh4r4m/wallpaper-collection/main/collection/thumbnails/animals/063.jpg"
      }
    },
    {
      "id": "animals_064",
      "category": "animals",
      "title": "Animals Wallpaper",
      "tags": [
        "animals",
        "unsplash",
        "hd",
        "mobile"
      ],
      "metadata": {
        "dimensions": {
          "width": 1080,
          "height": 721
        },
        "file_size": 88095,
        "format": "JPEG",
        "added_at": "2025-07-17T22:50:17.407471",
        "hash": "2df3eb98eda89308eca0a1700d74c42e",
        "photographer": "Unknown"
      },
      "urls": {
        "raw": "https://media.githubusercontent.com/media/ddh4r4m/wallpaper-collection/main/collection/wallpapers/animals/064.jpg",
        "thumb": "https://media.githubusercontent.com/media/ddh4r4m/wallpaper-collection/main/collection/thumbnails/animals/064.jpg"
      }
    },
    {
      "id": "animals_065",
      "category": "animals",
      "title": "Animals Wallpaper",
      "tags": [
        "animals",
        "unsplash",
        "hd",
        "mobile"
      ],
      "metadata": {
        "dimensions": {
          "width": 1080,
          "height": 1732
        },
        "file_size": 246809,
        "format": "JPEG",
        "added_at": "2025-07-17T22:50:19.804426",
        "hash": "314985973d1b44d3248b7a0c2efe519d",
        "photographer": "Unknown"
      },
      "urls": {
        "raw": "https://media.githubusercontent.com/media/ddh4r4m/wallpaper-collection/main/collection/wallpapers/animals/065.jpg",
        "thumb": "https://media.githubusercontent.com/media/ddh4r4m/wallpaper-collection/main/collection/thumbnails/animals/065.jpg"
      }
    },
    {
      "id": "animals_066",
      "category": "animals",
      "title": "Animals Wallpaper",
      "tags": [
        "animals",
        "unsplash",
        "hd",
        "mobile"
      ],
      "metadata": {
        "dimensions": {
          "width": 1080,
          "height": 1440
        },
        "file_size": 190761,
        "format": "JPEG",
        "added_at": "2025-07-17T22:50:23.153885",
        "hash": "343402d0a28b57fdbdb25a43d06d8d21",
        "photographer": "Unknown"
      },
      "urls": {
        "raw": "https://media.githubusercontent.com/media/ddh4r4m/wallpaper-collection/main/collection/wallpapers/animals/066.jpg",
        "thumb": "https://media.githubusercontent.com/media/ddh4r4m/wallpaper-collection/main/collection/thumbnails/animals/066.jpg"
      }
    },
    {
      "id": "animals_067",
      "category": "animals",
      "title": "Animals Wallpaper",
      "tags": [
        "animals",
        "unsplash",
        "hd",
        "mobile"
      ],
      "metadata": {
        "dimensions": {
          "width": 1080,
          "height": 1617
        },
        "file_size": 135025,
        "format": "JPEG",
        "added_at": "2025-07-17T22:50:24.704752",
        "hash": "58a64e4e12850ef684306954a09dba34",
        "photographer": "Unknown"
      },
      "urls": {
        "raw": "https://media.githubusercontent.com/media/ddh4r4m/wallpaper-collection/main/collection/wallpapers/animals/067.jpg",
        "thumb": "https://media.githubusercontent.com/media/ddh4r4m/wallpaper-collection/main/collection/thumbnails/animals/067.jpg"
      }
    },
    {
      "id": "animals_068",
      "category": "animals",
      "title": "Animals Wallpaper",
      "tags": [
        "animals",
        "unsplash",
        "hd",
        "mobile"
      ],
      "metadata": {
        "dimensions": {
          "width": 1080,
          "height": 1620
        },
        "file_size": 319107,
        "format": "JPEG",
        "added_at": "2025-07-17T22:50:27.161815",
        "hash": "fd5cc4402338c74195d8981814930f41",
        "photographer": "Unknown"
      },
      "urls": {
        "raw": "https://media.githubusercontent.com/media/ddh4r4m/wallpaper-collection/main/collection/wallpapers/animals/068.jpg",
        "thumb": "https://media.githubusercontent.com/media/ddh4r4m/wallpaper-collection/main/collection/thumbnails/animals/068.jpg"
      }
    },
    {
      "id": "animals_069",
      "category": "animals",
      "title": "Animals Wallpaper",
      "tags": [
        "animals",
        "unsplash",
        "hd",
        "mobile"
      ],
      "metadata": {
        "dimensions": {
          "width": 1080,
          "height": 1571
        },
        "file_size": 250653,
        "format": "JPEG",
        "added_at": "2025-07-17T22:50:29.537356",
        "hash": "5f2435d47b485f1891815f346a0a96e5",
        "photographer": "Unknown"
      },
      "urls": {
        "raw": "https://media.githubusercontent.com/media/ddh4r4m/wallpaper-collection/main/collection/wallpapers/animals/069.jpg",
        "thumb": "https://media.githubusercontent.com/media/ddh4r4m/wallpaper-collection/main/collection/thumbnails/animals/069.jpg"
      }
    },
    {
      "id": "animals_070",
      "category": "animals",
      "title": "Animals Wallpaper",
      "tags": [
        "animals",
        "unsplash",
        "hd",
        "mobile"
      ],
      "metadata": {
        "dimensions": {
          "width": 1080,
          "height": 1620
        },
        "file_size": 373051,
        "format": "JPEG",
        "added_at": "2025-07-17T22:50:31.941535",
        "hash": "aa562862e6fc644ddc13ee68fd10ae89",
        "photographer": "Unknown"
      },
      "urls": {
        "raw": "https://media.githubusercontent.com/media/ddh4r4m/wallpaper-collection/main/collection/wallpapers/animals/070.jpg",
        "thumb": "https://media.githubusercontent.com/media/ddh4r4m/wallpaper-collection/main/collection/thumbnails/animals/070.jpg"
      }
    },
    {
      "id": "animals_071",
      "category": "animals",
      "title": "Animals Wallpaper",
      "tags": [
        "animals",
        "unsplash",
        "hd",
        "mobile"
      ],
      "metadata": {
        "dimensions": {
          "width": 1080,
          "height": 1581
        },
        "file_size": 278806,
        "format": "JPEG",
        "added_at": "2025-07-17T22:50:35.414847",
        "hash": "5a8706bedf5f25f1633a381b4531b469",
        "photographer": "Unknown"
      },
      "urls": {
        "raw": "https://media.githubusercontent.com/media/ddh4r4m/wallpaper-collection/main/collection/wallpapers/animals/071.jpg",
        "thumb": "https://media.githubusercontent.com/media/ddh4r4m/wallpaper-collection/main/collection/thumbnails/animals/071.jpg"
      }
    },
    {
      "id": "animals_072",
      "category": "animals",
      "title": "Animals Wallpaper",
      "tags": [
        "animals",
        "unsplash",
        "hd",
        "mobile"
      ],
      "metadata": {
        "dimensions": {
          "width": 1080,
          "height": 720
        },
        "file_size": 94357,
        "format": "JPEG",
        "added_at": "2025-07-17T22:50:37.752845",
        "hash": "77321a023660b2bb3824ecd9233151cf",
        "photographer": "Unknown"
      },
      "urls": {
        "raw": "https://media.githubusercontent.com/media/ddh4r4m/wallpaper-collection/main/collection/wallpapers/animals/072.jpg",
        "thumb": "https://media.githubusercontent.com/media/ddh4r4m/wallpaper-collection/main/collection/thumbnails/animals/072.jpg"
      }
    },
    {
      "id": "animals_073",
      "category": "animals",
      "title": "Animals Wallpaper",
      "tags": [
        "animals",
        "unsplash",
        "hd",
        "mobile"
      ],
      "metadata": {
        "dimensions": {
          "width": 1080,
          "height": 1440
        },
        "file_size": 228763,
        "format": "JPEG",
        "added_at": "2025-07-18T00:40:28.527659",
        "hash": "bdd4f65e2d0718682cfc4b5059dc8516",
        "photographer": "kitten sitting on floor"
      },
      "urls": {
        "raw": "https://media.githubusercontent.com/media/ddh4r4m/wallpaper-collection/main/collection/wallpapers/animals/073.jpg",
        "thumb": "https://media.githubusercontent.com/media/ddh4r4m/wallpaper-collection/main/collection/thumbnails/animals/073.jpg"
      }
    },
    {
      "id": "animals_074",
      "category": "animals",
      "title": "Animals Wallpaper",
      "tags": [
        "animals",
        "unsplash",
        "hd",
        "mobile"
      ],
      "metadata": {
        "dimensions": {
          "width": 1080,
          "height": 1620
        },
        "file_size": 252552,
        "format": "JPEG",
        "added_at": "2025-07-18T00:40:31.198065",
        "hash": "69db033b82f534e10ea41a8bc9db5b13",
        "photographer": "kitten"
      },
      "urls": {
        "raw": "https://media.githubusercontent.com/media/ddh4r4m/wallpaper-collection/main/collection/wallpapers/animals/074.jpg",
        "thumb": "https://media.githubusercontent.com/media/ddh4r4m/wallpaper-collection/main/collection/thumbnails/animals/074.jpg"
      }
    },
    {
      "id": "animals_075",
      "category": "animals",
      "title": "Animals Wallpaper",
      "tags": [
        "animals",
        "unsplash",
        "hd",
        "mobile"
      ],
      "metadata": {
        "dimensions": {
          "width": 1080,
          "height": 720
        },
        "file_size": 187422,
        "format": "JPEG",
        "added_at": "2025-07-18T00:40:34.624395",
        "hash": "146bc192b6fb063c9e846e8b7a64afee",
        "photographer": "Unknown"
      },
      "urls": {
        "raw": "https://media.githubusercontent.com/media/ddh4r4m/wallpaper-collection/main/collection/wallpapers/animals/075.jpg",
        "thumb": "https://media.githubusercontent.com/media/ddh4r4m/wallpaper-collection/main/collection/thumbnails/animals/075.jpg"
      }
    }
  ]
}