{
  "meta": {
    "version": "1.0",
    "generated_at": "2025-07-28T21:27:34.814586",
    "category": "animals",
    "page": 6,
    "per_page": 15,
    "total_pages": 6,
    "total_count": 84,
    "count_on_page": 9,
    "has_next": false,
    "has_prev": true,
    "next_page_url": null,
    "prev_page_url": "/api/v1/animals/pages/5.json"
  },
  "data": [
    {
      "id": "animals_076",
      "category": "animals",
      "title": "Animals Wallpaper",
      "tags": [
        "animals",
        "unsplash",
        "hd",
        "mobile"
      ],
      "metadata": {
        "dimensions": {
          "width": 1080,
          "height": 864
        },
        "file_size": 256332,
        "format": "JPEG",
        "added_at": "2025-07-18T00:40:37.157749",
        "hash": "976bee7f199346d6d504dc12aa8c4566",
        "photographer": "Unknown"
      },
      "urls": {
        "raw": "https://media.githubusercontent.com/media/ddh4r4m/wallpaper-collection/main/collection/wallpapers/animals/076.jpg",
        "thumb": "https://media.githubusercontent.com/media/ddh4r4m/wallpaper-collection/main/collection/thumbnails/animals/076.jpg"
      }
    },
    {
      "id": "animals_077",
      "category": "animals",
      "title": "Animals Wallpaper",
      "tags": [
        "animals",
        "unsplash",
        "hd",
        "mobile"
      ],
      "metadata": {
        "dimensions": {
          "width": 1080,
          "height": 635
        },
        "file_size": 156423,
        "format": "JPEG",
        "added_at": "2025-07-18T00:40:40.664593",
        "hash": "d9a22da6e2c49a14be4f450d6eb9f2b5",
        "photographer": "Unknown"
      },
      "urls": {
        "raw": "https://media.githubusercontent.com/media/ddh4r4m/wallpaper-collection/main/collection/wallpapers/animals/077.jpg",
        "thumb": "https://media.githubusercontent.com/media/ddh4r4m/wallpaper-collection/main/collection/thumbnails/animals/077.jpg"
      }
    },
    {
      "id": "animals_078",
      "category": "animals",
      "title": "Animals Wallpaper",
      "tags": [
        "animals",
        "unsplash",
        "hd",
        "mobile"
      ],
      "metadata": {
        "dimensions": {
          "width": 1080,
          "height": 720
        },
        "file_size": 173447,
        "format": "JPEG",
        "added_at": "2025-07-18T00:40:43.270596",
        "hash": "28cf88a8d7ff9d37016fc1830fd9b78c",
        "photographer": "Unknown"
      },
      "urls": {
        "raw": "https://media.githubusercontent.com/media/ddh4r4m/wallpaper-collection/main/collection/wallpapers/animals/078.jpg",
        "thumb": "https://media.githubusercontent.com/media/ddh4r4m/wallpaper-collection/main/collection/thumbnails/animals/078.jpg"
      }
    },
    {
      "id": "animals_079",
      "category": "animals",
      "title": "Animals Wallpaper",
      "tags": [
        "animals",
        "unsplash",
        "hd",
        "mobile"
      ],
      "metadata": {
        "dimensions": {
          "width": 1080,
          "height": 1620
        },
        "file_size": 352492,
        "format": "JPEG",
        "added_at": "2025-07-18T00:40:47.097869",
        "hash": "0db51723fa25f545db1cce42403f39c3",
        "photographer": "cat"
      },
      "urls": {
        "raw": "https://media.githubusercontent.com/media/ddh4r4m/wallpaper-collection/main/collection/wallpapers/animals/079.jpg",
        "thumb": "https://media.githubusercontent.com/media/ddh4r4m/wallpaper-collection/main/collection/thumbnails/animals/079.jpg"
      }
    },
    {
      "id": "animals_080",
      "category": "animals",
      "title": "Animals Wallpaper",
      "tags": [
        "animals",
        "unsplash",
        "hd",
        "mobile"
      ],
      "metadata": {
        "dimensions": {
          "width": 1080,
          "height": 1620
        },
        "file_size": 129038,
        "format": "JPEG",
        "added_at": "2025-07-18T00:40:49.816517",
        "hash": "0c13ec8095bf1bda8c62320af8dc82c1",
        "photographer": "Unknown"
      },
      "urls": {
        "raw": "https://media.githubusercontent.com/media/ddh4r4m/wallpaper-collection/main/collection/wallpapers/animals/080.jpg",
        "thumb": "https://media.githubusercontent.com/media/ddh4r4m/wallpaper-collection/main/collection/thumbnails/animals/080.jpg"
      }
    },
    {
      "id": "animals_081",
      "category": "animals",
      "title": "Animals Wallpaper",
      "tags": [
        "animals",
        "unsplash",
        "hd",
        "mobile"
      ],
      "metadata": {
        "dimensions": {
          "width": 1080,
          "height": 1686
        },
        "file_size": 316639,
        "format": "JPEG",
        "added_at": "2025-07-18T00:40:53.870553",
        "hash": "4affb8949eb52451660c9f7dbecffbbc",
        "photographer": "Unknown"
      },
      "urls": {
        "raw": "https://media.githubusercontent.com/media/ddh4r4m/wallpaper-collection/main/collection/wallpapers/animals/081.jpg",
        "thumb": "https://media.githubusercontent.com/media/ddh4r4m/wallpaper-collection/main/collection/thumbnails/animals/081.jpg"
      }
    },
    {
      "id": "animals_082",
      "category": "animals",
      "title": "Animals Wallpaper",
      "tags": [
        "animals",
        "unsplash",
        "hd",
        "mobile"
      ],
      "metadata": {
        "dimensions": {
          "width": 1080,
          "height": 721
        },
        "file_size": 88095,
        "format": "JPEG",
        "added_at": "2025-07-18T00:40:56.570222",
        "hash": "2df3eb98eda89308eca0a1700d74c42e",
        "photographer": "Unknown"
      },
      "urls": {
        "raw": "https://media.githubusercontent.com/media/ddh4r4m/wallpaper-collection/main/collection/wallpapers/animals/082.jpg",
        "thumb": "https://media.githubusercontent.com/media/ddh4r4m/wallpaper-collection/main/collection/thumbnails/animals/082.jpg"
      }
    },
    {
      "id": "animals_083",
      "category": "animals",
      "title": "Animals Wallpaper",
      "tags": [
        "animals",
        "unsplash",
        "hd",
        "mobile"
      ],
      "metadata": {
        "dimensions": {
          "width": 1080,
          "height": 1620
        },
        "file_size": 319107,
        "format": "JPEG",
        "added_at": "2025-07-18T00:40:59.113147",
        "hash": "fd5cc4402338c74195d8981814930f41",
        "photographer": "Unknown"
      },
      "urls": {
        "raw": "https://media.githubusercontent.com/media/ddh4r4m/wallpaper-collection/main/collection/wallpapers/animals/083.jpg",
        "thumb": "https://media.githubusercontent.com/media/ddh4r4m/wallpaper-collection/main/collection/thumbnails/animals/083.jpg"
      }
    },
    {
      "id": "animals_084",
      "category": "animals",
      "title": "Animals Wallpaper",
      "tags": [
        "animals",
        "unsplash",
        "hd",
        "mobile"
      ],
      "metadata": {
        "dimensions": {
          "width": 1080,
          "height": 1571
        },
        "file_size": 250653,
        "format": "JPEG",
        "added_at": "2025-07-18T00:41:01.720999",
        "hash": "5f2435d47b485f1891815f346a0a96e5",
        "photographer": "Unknown"
      },
      "urls": {
        "raw": "https://media.githubusercontent.com/media/ddh4r4m/wallpaper-collection/main/collection/wallpapers/animals/084.jpg",
        "thumb": "https://media.githubusercontent.com/media/ddh4r4m/wallpaper-collection/main/collection/thumbnails/animals/084.jpg"
      }
    }
  ]
}