{
  "meta": {
    "version": "1.0",
    "generated_at": "2025-07-17T00:06:19.072196",
    "category": "seasonal",
    "page": 1,
    "per_page": 15,
    "total_pages": 6,
    "total_count": 85,
    "count_on_page": 15,
    "has_next": true,
    "has_prev": false,
    "next_page_url": "/api/v1/seasonal/pages/2.json",
    "prev_page_url": null
  },
  "data": [
    {
      "id": "seasonal_001",
      "category": "seasonal",
      "title": "Seasonal Wallpaper 001",
      "tags": [
        "seasonal",
        "wallpaper",
        "hd",
        "mobile"
      ],
      "urls": {
        "raw": "https://raw.githubusercontent.com/ddh4r4m/wallpaper-collection/main/collection/wallpapers/seasonal/001.jpg",
        "thumb": "https://raw.githubusercontent.com/ddh4r4m/wallpaper-collection/main/collection/thumbnails/seasonal/001.jpg"
      },
      "metadata": {
        "dimensions": {
          "width": 1080,
          "height": 1920
        },
        "file_size": 390400,
        "format": "JPEG",
        "added_at": "2025-07-17T00:04:38.760586",
        "hash": "2cdf4e81f0509c07c245fee8a4b434d4",
        "source": "migrated"
      }
    },
    {
      "id": "seasonal_002",
      "category": "seasonal",
      "title": "Seasonal Wallpaper 002",
      "tags": [
        "seasonal",
        "wallpaper",
        "hd",
        "mobile"
      ],
      "urls": {
        "raw": "https://raw.githubusercontent.com/ddh4r4m/wallpaper-collection/main/collection/wallpapers/seasonal/002.jpg",
        "thumb": "https://raw.githubusercontent.com/ddh4r4m/wallpaper-collection/main/collection/thumbnails/seasonal/002.jpg"
      },
      "metadata": {
        "dimensions": {
          "width": 1080,
          "height": 1920
        },
        "file_size": 362535,
        "format": "JPEG",
        "added_at": "2025-07-17T00:04:38.823224",
        "hash": "067799eec80847f41d5158c708070e1e",
        "source": "migrated"
      }
    },
    {
      "id": "seasonal_003",
      "category": "seasonal",
      "title": "Seasonal Wallpaper 003",
      "tags": [
        "seasonal",
        "wallpaper",
        "hd",
        "mobile"
      ],
      "urls": {
        "raw": "https://raw.githubusercontent.com/ddh4r4m/wallpaper-collection/main/collection/wallpapers/seasonal/003.jpg",
        "thumb": "https://raw.githubusercontent.com/ddh4r4m/wallpaper-collection/main/collection/thumbnails/seasonal/003.jpg"
      },
      "metadata": {
        "dimensions": {
          "width": 1080,
          "height": 1920
        },
        "file_size": 240703,
        "format": "JPEG",
        "added_at": "2025-07-17T00:04:38.884237",
        "hash": "780250f272ad3d1498caf737c53926d0",
        "source": "migrated"
      }
    },
    {
      "id": "seasonal_004",
      "category": "seasonal",
      "title": "Seasonal Wallpaper 004",
      "tags": [
        "seasonal",
        "wallpaper",
        "hd",
        "mobile"
      ],
      "urls": {
        "raw": "https://raw.githubusercontent.com/ddh4r4m/wallpaper-collection/main/collection/wallpapers/seasonal/004.jpg",
        "thumb": "https://raw.githubusercontent.com/ddh4r4m/wallpaper-collection/main/collection/thumbnails/seasonal/004.jpg"
      },
      "metadata": {
        "dimensions": {
          "width": 1080,
          "height": 1920
        },
        "file_size": 236227,
        "format": "JPEG",
        "added_at": "2025-07-17T00:04:38.939845",
        "hash": "dc4724c0e5810d918aa2ffbef166452e",
        "source": "migrated"
      }
    },
    {
      "id": "seasonal_005",
      "category": "seasonal",
      "title": "Seasonal Wallpaper 005",
      "tags": [
        "seasonal",
        "wallpaper",
        "hd",
        "mobile"
      ],
      "urls": {
        "raw": "https://raw.githubusercontent.com/ddh4r4m/wallpaper-collection/main/collection/wallpapers/seasonal/005.jpg",
        "thumb": "https://raw.githubusercontent.com/ddh4r4m/wallpaper-collection/main/collection/thumbnails/seasonal/005.jpg"
      },
      "metadata": {
        "dimensions": {
          "width": 1080,
          "height": 1920
        },
        "file_size": 498776,
        "format": "JPEG",
        "added_at": "2025-07-17T00:04:39.011830",
        "hash": "59b3c9d1acc6490f47d40a40176b7eda",
        "source": "migrated"
      }
    },
    {
      "id": "seasonal_006",
      "category": "seasonal",
      "title": "Seasonal Wallpaper 006",
      "tags": [
        "seasonal",
        "wallpaper",
        "hd",
        "mobile"
      ],
      "urls": {
        "raw": "https://raw.githubusercontent.com/ddh4r4m/wallpaper-collection/main/collection/wallpapers/seasonal/006.jpg",
        "thumb": "https://raw.githubusercontent.com/ddh4r4m/wallpaper-collection/main/collection/thumbnails/seasonal/006.jpg"
      },
      "metadata": {
        "dimensions": {
          "width": 1080,
          "height": 1920
        },
        "file_size": 427221,
        "format": "JPEG",
        "added_at": "2025-07-17T00:04:39.078223",
        "hash": "64f374d90ba72aa03577490df3979c8e",
        "source": "migrated"
      }
    },
    {
      "id": "seasonal_007",
      "category": "seasonal",
      "title": "Seasonal Wallpaper 007",
      "tags": [
        "seasonal",
        "wallpaper",
        "hd",
        "mobile"
      ],
      "urls": {
        "raw": "https://raw.githubusercontent.com/ddh4r4m/wallpaper-collection/main/collection/wallpapers/seasonal/007.jpg",
        "thumb": "https://raw.githubusercontent.com/ddh4r4m/wallpaper-collection/main/collection/thumbnails/seasonal/007.jpg"
      },
      "metadata": {
        "dimensions": {
          "width": 1080,
          "height": 1920
        },
        "file_size": 191440,
        "format": "JPEG",
        "added_at": "2025-07-17T00:04:39.133257",
        "hash": "9f6a44087fe22c2998080d8ffa290c79",
        "source": "migrated"
      }
    },
    {
      "id": "seasonal_008",
      "category": "seasonal",
      "title": "Seasonal Wallpaper 008",
      "tags": [
        "seasonal",
        "wallpaper",
        "hd",
        "mobile"
      ],
      "urls": {
        "raw": "https://raw.githubusercontent.com/ddh4r4m/wallpaper-collection/main/collection/wallpapers/seasonal/008.jpg",
        "thumb": "https://raw.githubusercontent.com/ddh4r4m/wallpaper-collection/main/collection/thumbnails/seasonal/008.jpg"
      },
      "metadata": {
        "dimensions": {
          "width": 1080,
          "height": 1920
        },
        "file_size": 397823,
        "format": "JPEG",
        "added_at": "2025-07-17T00:04:39.196565",
        "hash": "06e714df93495bd89b5e9b99ddacea07",
        "source": "migrated"
      }
    },
    {
      "id": "seasonal_009",
      "category": "seasonal",
      "title": "Seasonal Wallpaper 009",
      "tags": [
        "seasonal",
        "wallpaper",
        "hd",
        "mobile"
      ],
      "urls": {
        "raw": "https://raw.githubusercontent.com/ddh4r4m/wallpaper-collection/main/collection/wallpapers/seasonal/009.jpg",
        "thumb": "https://raw.githubusercontent.com/ddh4r4m/wallpaper-collection/main/collection/thumbnails/seasonal/009.jpg"
      },
      "metadata": {
        "dimensions": {
          "width": 1080,
          "height": 1920
        },
        "file_size": 284894,
        "format": "JPEG",
        "added_at": "2025-07-17T00:04:39.253009",
        "hash": "78f6781d06380604c3ba600a5b249279",
        "source": "migrated"
      }
    },
    {
      "id": "seasonal_010",
      "category": "seasonal",
      "title": "Seasonal Wallpaper 010",
      "tags": [
        "seasonal",
        "wallpaper",
        "hd",
        "mobile"
      ],
      "urls": {
        "raw": "https://raw.githubusercontent.com/ddh4r4m/wallpaper-collection/main/collection/wallpapers/seasonal/010.jpg",
        "thumb": "https://raw.githubusercontent.com/ddh4r4m/wallpaper-collection/main/collection/thumbnails/seasonal/010.jpg"
      },
      "metadata": {
        "dimensions": {
          "width": 1080,
          "height": 1920
        },
        "file_size": 318623,
        "format": "JPEG",
        "added_at": "2025-07-17T00:04:39.312739",
        "hash": "a5e1eaa5aaccdb17a00328571d2c3984",
        "source": "migrated"
      }
    },
    {
      "id": "seasonal_011",
      "category": "seasonal",
      "title": "Seasonal Wallpaper 011",
      "tags": [
        "seasonal",
        "wallpaper",
        "hd",
        "mobile"
      ],
      "urls": {
        "raw": "https://raw.githubusercontent.com/ddh4r4m/wallpaper-collection/main/collection/wallpapers/seasonal/011.jpg",
        "thumb": "https://raw.githubusercontent.com/ddh4r4m/wallpaper-collection/main/collection/thumbnails/seasonal/011.jpg"
      },
      "metadata": {
        "dimensions": {
          "width": 1080,
          "height": 1920
        },
        "file_size": 265536,
        "format": "JPEG",
        "added_at": "2025-07-17T00:04:39.367157",
        "hash": "efbdca77d278857bc48613a4957ad4e1",
        "source": "migrated"
      }
    },
    {
      "id": "seasonal_012",
      "category": "seasonal",
      "title": "Seasonal Wallpaper 012",
      "tags": [
        "seasonal",
        "wallpaper",
        "hd",
        "mobile"
      ],
      "urls": {
        "raw": "https://raw.githubusercontent.com/ddh4r4m/wallpaper-collection/main/collection/wallpapers/seasonal/012.jpg",
        "thumb": "https://raw.githubusercontent.com/ddh4r4m/wallpaper-collection/main/collection/thumbnails/seasonal/012.jpg"
      },
      "metadata": {
        "dimensions": {
          "width": 1080,
          "height": 1920
        },
        "file_size": 678726,
        "format": "JPEG",
        "added_at": "2025-07-17T00:04:39.440973",
        "hash": "f69202fdcde0bc8fbaf6e222813cae4b",
        "source": "migrated"
      }
    },
    {
      "id": "seasonal_013",
      "category": "seasonal",
      "title": "Seasonal Wallpaper 013",
      "tags": [
        "seasonal",
        "wallpaper",
        "hd",
        "mobile"
      ],
      "urls": {
        "raw": "https://raw.githubusercontent.com/ddh4r4m/wallpaper-collection/main/collection/wallpapers/seasonal/013.jpg",
        "thumb": "https://raw.githubusercontent.com/ddh4r4m/wallpaper-collection/main/collection/thumbnails/seasonal/013.jpg"
      },
      "metadata": {
        "dimensions": {
          "width": 1080,
          "height": 1920
        },
        "file_size": 175793,
        "format": "JPEG",
        "added_at": "2025-07-17T00:04:39.490148",
        "hash": "74e1149d4baf2e2f80e148956e37837c",
        "source": "migrated"
      }
    },
    {
      "id": "seasonal_014",
      "category": "seasonal",
      "title": "Seasonal Wallpaper 014",
      "tags": [
        "seasonal",
        "wallpaper",
        "hd",
        "mobile"
      ],
      "urls": {
        "raw": "https://raw.githubusercontent.com/ddh4r4m/wallpaper-collection/main/collection/wallpapers/seasonal/014.jpg",
        "thumb": "https://raw.githubusercontent.com/ddh4r4m/wallpaper-collection/main/collection/thumbnails/seasonal/014.jpg"
      },
      "metadata": {
        "dimensions": {
          "width": 1080,
          "height": 1920
        },
        "file_size": 265382,
        "format": "JPEG",
        "added_at": "2025-07-17T00:04:39.546198",
        "hash": "799be252111c413c3408176c961923f5",
        "source": "migrated"
      }
    },
    {
      "id": "seasonal_015",
      "category": "seasonal",
      "title": "Seasonal Wallpaper 015",
      "tags": [
        "seasonal",
        "wallpaper",
        "hd",
        "mobile"
      ],
      "urls": {
        "raw": "https://raw.githubusercontent.com/ddh4r4m/wallpaper-collection/main/collection/wallpapers/seasonal/015.jpg",
        "thumb": "https://raw.githubusercontent.com/ddh4r4m/wallpaper-collection/main/collection/thumbnails/seasonal/015.jpg"
      },
      "metadata": {
        "dimensions": {
          "width": 1080,
          "height": 1920
        },
        "file_size": 415716,
        "format": "JPEG",
        "added_at": "2025-07-17T00:04:39.613875",
        "hash": "de82fd82a790d749043fccf6dba36328",
        "source": "migrated"
      }
    }
  ]
}