{
  "meta": {
    "version": "1.0",
    "generated_at": "2025-07-28T23:12:02.393375",
    "category": "seasonal",
    "page": 2,
    "per_page": 15,
    "total_pages": 6,
    "total_count": 90,
    "count_on_page": 15,
    "has_next": true,
    "has_prev": true,
    "next_page_url": "/api/v1/seasonal/pages/3.json",
    "prev_page_url": "/api/v1/seasonal/pages/1.json"
  },
  "data": [
    {
      "id": "seasonal_016",
      "category": "seasonal",
      "title": "Seasonal Wallpaper 016",
      "tags": [
        "seasonal",
        "wallpaper",
        "hd",
        "mobile"
      ],
      "urls": {
        "raw": "https://media.githubusercontent.com/media/ddh4r4m/wallpaper-collection/main/collection/wallpapers/seasonal/016.jpg",
        "thumb": "https://media.githubusercontent.com/media/ddh4r4m/wallpaper-collection/main/collection/thumbnails/seasonal/016.jpg"
      },
      "metadata": {
        "dimensions": {
          "width": 1080,
          "height": 1920
        },
        "file_size": 358913,
        "format": "JPEG",
        "added_at": "2025-07-17T00:04:39.672825",
        "hash": "10888aa2d08e979ce464a441e4596a79",
        "source": "migrated"
      }
    },
    {
      "id": "seasonal_017",
      "category": "seasonal",
      "title": "Seasonal Wallpaper 017",
      "tags": [
        "seasonal",
        "wallpaper",
        "hd",
        "mobile"
      ],
      "urls": {
        "raw": "https://media.githubusercontent.com/media/ddh4r4m/wallpaper-collection/main/collection/wallpapers/seasonal/017.jpg",
        "thumb": "https://media.githubusercontent.com/media/ddh4r4m/wallpaper-collection/main/collection/thumbnails/seasonal/017.jpg"
      },
      "metadata": {
        "dimensions": {
          "width": 1080,
          "height": 1920
        },
        "file_size": 249226,
        "format": "JPEG",
        "added_at": "2025-07-17T00:04:39.727439",
        "hash": "f9216ae40fcf8c2ac0db7c49cdc00699",
        "source": "migrated"
      }
    },
    {
      "id": "seasonal_018",
      "category": "seasonal",
      "title": "Seasonal Wallpaper 018",
      "tags": [
        "seasonal",
        "wallpaper",
        "hd",
        "mobile"
      ],
      "urls": {
        "raw": "https://media.githubusercontent.com/media/ddh4r4m/wallpaper-collection/main/collection/wallpapers/seasonal/018.jpg",
        "thumb": "https://media.githubusercontent.com/media/ddh4r4m/wallpaper-collection/main/collection/thumbnails/seasonal/018.jpg"
      },
      "metadata": {
        "dimensions": {
          "width": 1080,
          "height": 1920
        },
        "file_size": 226771,
        "format": "JPEG",
        "added_at": "2025-07-17T00:04:39.780486",
        "hash": "61b1d6d0cccbf50d12002471815b4e51",
        "source": "migrated"
      }
    },
    {
      "id": "seasonal_019",
      "category": "seasonal",
      "title": "Seasonal Wallpaper 019",
      "tags": [
        "seasonal",
        "wallpaper",
        "hd",
        "mobile"
      ],
      "urls": {
        "raw": "https://media.githubusercontent.com/media/ddh4r4m/wallpaper-collection/main/collection/wallpapers/seasonal/019.jpg",
        "thumb": "https://media.githubusercontent.com/media/ddh4r4m/wallpaper-collection/main/collection/thumbnails/seasonal/019.jpg"
      },
      "metadata": {
        "dimensions": {
          "width": 1080,
          "height": 1920
        },
        "file_size": 311915,
        "format": "JPEG",
        "added_at": "2025-07-17T00:04:39.838298",
        "hash": "ae2a076c9c63d88cbe24baa12d2d9dfb",
        "source": "migrated"
      }
    },
    {
      "id": "seasonal_020",
      "category": "seasonal",
      "title": "Seasonal Wallpaper 020",
      "tags": [
        "seasonal",
        "wallpaper",
        "hd",
        "mobile"
      ],
      "urls": {
        "raw": "https://media.githubusercontent.com/media/ddh4r4m/wallpaper-collection/main/collection/wallpapers/seasonal/020.jpg",
        "thumb": "https://media.githubusercontent.com/media/ddh4r4m/wallpaper-collection/main/collection/thumbnails/seasonal/020.jpg"
      },
      "metadata": {
        "dimensions": {
          "width": 1080,
          "height": 1920
        },
        "file_size": 306189,
        "format": "JPEG",
        "added_at": "2025-07-17T00:04:39.896656",
        "hash": "6365672bcb513da7f38836c1107e92d7",
        "source": "migrated"
      }
    },
    {
      "id": "seasonal_021",
      "category": "seasonal",
      "title": "Seasonal Wallpaper 021",
      "tags": [
        "seasonal",
        "wallpaper",
        "hd",
        "mobile"
      ],
      "urls": {
        "raw": "https://media.githubusercontent.com/media/ddh4r4m/wallpaper-collection/main/collection/wallpapers/seasonal/021.jpg",
        "thumb": "https://media.githubusercontent.com/media/ddh4r4m/wallpaper-collection/main/collection/thumbnails/seasonal/021.jpg"
      },
      "metadata": {
        "dimensions": {
          "width": 1080,
          "height": 1920
        },
        "file_size": 332781,
        "format": "JPEG",
        "added_at": "2025-07-17T00:04:39.955809",
        "hash": "9d9c6bf164bb13e3d7afad5720edb8bc",
        "source": "migrated"
      }
    },
    {
      "id": "seasonal_022",
      "category": "seasonal",
      "title": "Seasonal Wallpaper 022",
      "tags": [
        "seasonal",
        "wallpaper",
        "hd",
        "mobile"
      ],
      "urls": {
        "raw": "https://media.githubusercontent.com/media/ddh4r4m/wallpaper-collection/main/collection/wallpapers/seasonal/022.jpg",
        "thumb": "https://media.githubusercontent.com/media/ddh4r4m/wallpaper-collection/main/collection/thumbnails/seasonal/022.jpg"
      },
      "metadata": {
        "dimensions": {
          "width": 1080,
          "height": 1920
        },
        "file_size": 408809,
        "format": "JPEG",
        "added_at": "2025-07-17T00:04:40.017503",
        "hash": "8686cdfd65938104ce6b43144ae0ba23",
        "source": "migrated"
      }
    },
    {
      "id": "seasonal_023",
      "category": "seasonal",
      "title": "Seasonal Wallpaper 023",
      "tags": [
        "seasonal",
        "wallpaper",
        "hd",
        "mobile"
      ],
      "urls": {
        "raw": "https://media.githubusercontent.com/media/ddh4r4m/wallpaper-collection/main/collection/wallpapers/seasonal/023.jpg",
        "thumb": "https://media.githubusercontent.com/media/ddh4r4m/wallpaper-collection/main/collection/thumbnails/seasonal/023.jpg"
      },
      "metadata": {
        "dimensions": {
          "width": 1080,
          "height": 1920
        },
        "file_size": 340503,
        "format": "JPEG",
        "added_at": "2025-07-17T00:04:40.075245",
        "hash": "c990b2c3790bb4143f93eed34773b65e",
        "source": "migrated"
      }
    },
    {
      "id": "seasonal_024",
      "category": "seasonal",
      "title": "Seasonal Wallpaper 024",
      "tags": [
        "seasonal",
        "wallpaper",
        "hd",
        "mobile"
      ],
      "urls": {
        "raw": "https://media.githubusercontent.com/media/ddh4r4m/wallpaper-collection/main/collection/wallpapers/seasonal/024.jpg",
        "thumb": "https://media.githubusercontent.com/media/ddh4r4m/wallpaper-collection/main/collection/thumbnails/seasonal/024.jpg"
      },
      "metadata": {
        "dimensions": {
          "width": 1080,
          "height": 1920
        },
        "file_size": 634637,
        "format": "JPEG",
        "added_at": "2025-07-17T00:04:40.147504",
        "hash": "3f95ed1fa3865cd0242e31fd33d77b34",
        "source": "migrated"
      }
    },
    {
      "id": "seasonal_025",
      "category": "seasonal",
      "title": "Seasonal Wallpaper 025",
      "tags": [
        "seasonal",
        "wallpaper",
        "hd",
        "mobile"
      ],
      "urls": {
        "raw": "https://media.githubusercontent.com/media/ddh4r4m/wallpaper-collection/main/collection/wallpapers/seasonal/025.jpg",
        "thumb": "https://media.githubusercontent.com/media/ddh4r4m/wallpaper-collection/main/collection/thumbnails/seasonal/025.jpg"
      },
      "metadata": {
        "dimensions": {
          "width": 1080,
          "height": 1920
        },
        "file_size": 410160,
        "format": "JPEG",
        "added_at": "2025-07-17T00:04:40.209537",
        "hash": "778f7d2cca5356f52fdf69bd3f2fba3a",
        "source": "migrated"
      }
    },
    {
      "id": "seasonal_026",
      "category": "seasonal",
      "title": "Seasonal Wallpaper 026",
      "tags": [
        "seasonal",
        "wallpaper",
        "hd",
        "mobile"
      ],
      "urls": {
        "raw": "https://media.githubusercontent.com/media/ddh4r4m/wallpaper-collection/main/collection/wallpapers/seasonal/026.jpg",
        "thumb": "https://media.githubusercontent.com/media/ddh4r4m/wallpaper-collection/main/collection/thumbnails/seasonal/026.jpg"
      },
      "metadata": {
        "dimensions": {
          "width": 1080,
          "height": 1920
        },
        "file_size": 471878,
        "format": "JPEG",
        "added_at": "2025-07-17T00:04:40.275461",
        "hash": "7198eba9965cd2de8c94c1efb918d15c",
        "source": "migrated"
      }
    },
    {
      "id": "seasonal_027",
      "category": "seasonal",
      "title": "Seasonal Wallpaper 027",
      "tags": [
        "seasonal",
        "wallpaper",
        "hd",
        "mobile"
      ],
      "urls": {
        "raw": "https://media.githubusercontent.com/media/ddh4r4m/wallpaper-collection/main/collection/wallpapers/seasonal/027.jpg",
        "thumb": "https://media.githubusercontent.com/media/ddh4r4m/wallpaper-collection/main/collection/thumbnails/seasonal/027.jpg"
      },
      "metadata": {
        "dimensions": {
          "width": 1080,
          "height": 1920
        },
        "file_size": 392685,
        "format": "JPEG",
        "added_at": "2025-07-17T00:04:40.336356",
        "hash": "2ca6b807f3089e68ec18c89ee4192e4e",
        "source": "migrated"
      }
    },
    {
      "id": "seasonal_028",
      "category": "seasonal",
      "title": "Seasonal Wallpaper 028",
      "tags": [
        "seasonal",
        "wallpaper",
        "hd",
        "mobile"
      ],
      "urls": {
        "raw": "https://media.githubusercontent.com/media/ddh4r4m/wallpaper-collection/main/collection/wallpapers/seasonal/028.jpg",
        "thumb": "https://media.githubusercontent.com/media/ddh4r4m/wallpaper-collection/main/collection/thumbnails/seasonal/028.jpg"
      },
      "metadata": {
        "dimensions": {
          "width": 1080,
          "height": 1920
        },
        "file_size": 588573,
        "format": "JPEG",
        "added_at": "2025-07-17T00:04:40.406615",
        "hash": "3f54ab6db81eb06651605dc363a0ec98",
        "source": "migrated"
      }
    },
    {
      "id": "seasonal_029",
      "category": "seasonal",
      "title": "Seasonal Wallpaper 029",
      "tags": [
        "seasonal",
        "wallpaper",
        "hd",
        "mobile"
      ],
      "urls": {
        "raw": "https://media.githubusercontent.com/media/ddh4r4m/wallpaper-collection/main/collection/wallpapers/seasonal/029.jpg",
        "thumb": "https://media.githubusercontent.com/media/ddh4r4m/wallpaper-collection/main/collection/thumbnails/seasonal/029.jpg"
      },
      "metadata": {
        "dimensions": {
          "width": 1080,
          "height": 1920
        },
        "file_size": 485691,
        "format": "JPEG",
        "added_at": "2025-07-17T00:04:40.471677",
        "hash": "1fda0f2c0ad6b434345a13fd1aea1edc",
        "source": "migrated"
      }
    },
    {
      "id": "seasonal_030",
      "category": "seasonal",
      "title": "Seasonal Wallpaper 030",
      "tags": [
        "seasonal",
        "wallpaper",
        "hd",
        "mobile"
      ],
      "urls": {
        "raw": "https://media.githubusercontent.com/media/ddh4r4m/wallpaper-collection/main/collection/wallpapers/seasonal/030.jpg",
        "thumb": "https://media.githubusercontent.com/media/ddh4r4m/wallpaper-collection/main/collection/thumbnails/seasonal/030.jpg"
      },
      "metadata": {
        "dimensions": {
          "width": 1080,
          "height": 1920
        },
        "file_size": 257706,
        "format": "JPEG",
        "added_at": "2025-07-17T00:04:40.526944",
        "hash": "65d4a90808610123162a04218fb4648c",
        "source": "migrated"
      }
    }
  ]
}