{
  "meta": {
    "version": "1.0",
    "generated_at": "2025-07-28T23:12:02.393375",
    "category": "seasonal",
    "page": 5,
    "per_page": 15,
    "total_pages": 6,
    "total_count": 90,
    "count_on_page": 15,
    "has_next": true,
    "has_prev": true,
    "next_page_url": "/api/v1/seasonal/pages/6.json",
    "prev_page_url": "/api/v1/seasonal/pages/4.json"
  },
  "data": [
    {
      "id": "seasonal_061",
      "category": "seasonal",
      "title": "Seasonal Wallpaper 061",
      "tags": [
        "seasonal",
        "wallpaper",
        "hd",
        "mobile"
      ],
      "urls": {
        "raw": "https://media.githubusercontent.com/media/ddh4r4m/wallpaper-collection/main/collection/wallpapers/seasonal/061.jpg",
        "thumb": "https://media.githubusercontent.com/media/ddh4r4m/wallpaper-collection/main/collection/thumbnails/seasonal/061.jpg"
      },
      "metadata": {
        "dimensions": {
          "width": 1080,
          "height": 1920
        },
        "file_size": 216493,
        "format": "JPEG",
        "added_at": "2025-07-17T00:04:42.386459",
        "hash": "213143a8e8abcedebe45f3fb863a9f7b",
        "source": "migrated"
      }
    },
    {
      "id": "seasonal_062",
      "category": "seasonal",
      "title": "Seasonal Wallpaper 062",
      "tags": [
        "seasonal",
        "wallpaper",
        "hd",
        "mobile"
      ],
      "urls": {
        "raw": "https://media.githubusercontent.com/media/ddh4r4m/wallpaper-collection/main/collection/wallpapers/seasonal/062.jpg",
        "thumb": "https://media.githubusercontent.com/media/ddh4r4m/wallpaper-collection/main/collection/thumbnails/seasonal/062.jpg"
      },
      "metadata": {
        "dimensions": {
          "width": 1080,
          "height": 1920
        },
        "file_size": 236013,
        "format": "JPEG",
        "added_at": "2025-07-17T00:04:42.439687",
        "hash": "d3d2fdb8b0ff337fb047673b228de817",
        "source": "migrated"
      }
    },
    {
      "id": "seasonal_063",
      "category": "seasonal",
      "title": "Seasonal Wallpaper 063",
      "tags": [
        "seasonal",
        "wallpaper",
        "hd",
        "mobile"
      ],
      "urls": {
        "raw": "https://media.githubusercontent.com/media/ddh4r4m/wallpaper-collection/main/collection/wallpapers/seasonal/063.jpg",
        "thumb": "https://media.githubusercontent.com/media/ddh4r4m/wallpaper-collection/main/collection/thumbnails/seasonal/063.jpg"
      },
      "metadata": {
        "dimensions": {
          "width": 1080,
          "height": 1920
        },
        "file_size": 511942,
        "format": "JPEG",
        "added_at": "2025-07-17T00:04:42.507088",
        "hash": "e5ff78a3275dcf6d55264cca908d8416",
        "source": "migrated"
      }
    },
    {
      "id": "seasonal_064",
      "category": "seasonal",
      "title": "Seasonal Wallpaper 064",
      "tags": [
        "seasonal",
        "wallpaper",
        "hd",
        "mobile"
      ],
      "urls": {
        "raw": "https://media.githubusercontent.com/media/ddh4r4m/wallpaper-collection/main/collection/wallpapers/seasonal/064.jpg",
        "thumb": "https://media.githubusercontent.com/media/ddh4r4m/wallpaper-collection/main/collection/thumbnails/seasonal/064.jpg"
      },
      "metadata": {
        "dimensions": {
          "width": 1080,
          "height": 1920
        },
        "file_size": 396641,
        "format": "JPEG",
        "added_at": "2025-07-17T00:04:42.570748",
        "hash": "6b5e10cef20963b6896c6d2585673921",
        "source": "migrated"
      }
    },
    {
      "id": "seasonal_065",
      "category": "seasonal",
      "title": "Seasonal Wallpaper 065",
      "tags": [
        "seasonal",
        "wallpaper",
        "hd",
        "mobile"
      ],
      "urls": {
        "raw": "https://media.githubusercontent.com/media/ddh4r4m/wallpaper-collection/main/collection/wallpapers/seasonal/065.jpg",
        "thumb": "https://media.githubusercontent.com/media/ddh4r4m/wallpaper-collection/main/collection/thumbnails/seasonal/065.jpg"
      },
      "metadata": {
        "dimensions": {
          "width": 1080,
          "height": 1920
        },
        "file_size": 154387,
        "format": "JPEG",
        "added_at": "2025-07-17T00:04:42.619217",
        "hash": "c10fa2f3eb0b3c086bd32deba3b8d1b1",
        "source": "migrated"
      }
    },
    {
      "id": "seasonal_066",
      "category": "seasonal",
      "title": "Seasonal Wallpaper 066",
      "tags": [
        "seasonal",
        "wallpaper",
        "hd",
        "mobile"
      ],
      "urls": {
        "raw": "https://media.githubusercontent.com/media/ddh4r4m/wallpaper-collection/main/collection/wallpapers/seasonal/066.jpg",
        "thumb": "https://media.githubusercontent.com/media/ddh4r4m/wallpaper-collection/main/collection/thumbnails/seasonal/066.jpg"
      },
      "metadata": {
        "dimensions": {
          "width": 1080,
          "height": 1920
        },
        "file_size": 361051,
        "format": "JPEG",
        "added_at": "2025-07-17T00:04:42.679811",
        "hash": "c7fe4342ef7694d4a13f4917a4723f77",
        "source": "migrated"
      }
    },
    {
      "id": "seasonal_067",
      "category": "seasonal",
      "title": "Seasonal Wallpaper 067",
      "tags": [
        "seasonal",
        "wallpaper",
        "hd",
        "mobile"
      ],
      "urls": {
        "raw": "https://media.githubusercontent.com/media/ddh4r4m/wallpaper-collection/main/collection/wallpapers/seasonal/067.jpg",
        "thumb": "https://media.githubusercontent.com/media/ddh4r4m/wallpaper-collection/main/collection/thumbnails/seasonal/067.jpg"
      },
      "metadata": {
        "dimensions": {
          "width": 1080,
          "height": 1920
        },
        "file_size": 278572,
        "format": "JPEG",
        "added_at": "2025-07-17T00:04:42.734820",
        "hash": "63536eedecc5e7ca1a23f200717b99ce",
        "source": "migrated"
      }
    },
    {
      "id": "seasonal_068",
      "category": "seasonal",
      "title": "Seasonal Wallpaper 068",
      "tags": [
        "seasonal",
        "wallpaper",
        "hd",
        "mobile"
      ],
      "urls": {
        "raw": "https://media.githubusercontent.com/media/ddh4r4m/wallpaper-collection/main/collection/wallpapers/seasonal/068.jpg",
        "thumb": "https://media.githubusercontent.com/media/ddh4r4m/wallpaper-collection/main/collection/thumbnails/seasonal/068.jpg"
      },
      "metadata": {
        "dimensions": {
          "width": 1080,
          "height": 1920
        },
        "file_size": 372795,
        "format": "JPEG",
        "added_at": "2025-07-17T00:04:42.799031",
        "hash": "6f9b9da6462940a4320c8eeda4f4c7f7",
        "source": "migrated"
      }
    },
    {
      "id": "seasonal_069",
      "category": "seasonal",
      "title": "Seasonal Wallpaper 069",
      "tags": [
        "seasonal",
        "wallpaper",
        "hd",
        "mobile"
      ],
      "urls": {
        "raw": "https://media.githubusercontent.com/media/ddh4r4m/wallpaper-collection/main/collection/wallpapers/seasonal/069.jpg",
        "thumb": "https://media.githubusercontent.com/media/ddh4r4m/wallpaper-collection/main/collection/thumbnails/seasonal/069.jpg"
      },
      "metadata": {
        "dimensions": {
          "width": 1080,
          "height": 1920
        },
        "file_size": 514653,
        "format": "JPEG",
        "added_at": "2025-07-17T00:04:42.868513",
        "hash": "c7f60c8bc7657f4ab1370e7ac932532a",
        "source": "migrated"
      }
    },
    {
      "id": "seasonal_070",
      "category": "seasonal",
      "title": "Seasonal Wallpaper 070",
      "tags": [
        "seasonal",
        "wallpaper",
        "hd",
        "mobile"
      ],
      "urls": {
        "raw": "https://media.githubusercontent.com/media/ddh4r4m/wallpaper-collection/main/collection/wallpapers/seasonal/070.jpg",
        "thumb": "https://media.githubusercontent.com/media/ddh4r4m/wallpaper-collection/main/collection/thumbnails/seasonal/070.jpg"
      },
      "metadata": {
        "dimensions": {
          "width": 1080,
          "height": 1920
        },
        "file_size": 587718,
        "format": "JPEG",
        "added_at": "2025-07-17T00:04:42.947004",
        "hash": "6a0fda42a9232314ee1d28f51f6deb5f",
        "source": "migrated"
      }
    },
    {
      "id": "seasonal_071",
      "category": "seasonal",
      "title": "Seasonal Wallpaper 071",
      "tags": [
        "seasonal",
        "wallpaper",
        "hd",
        "mobile"
      ],
      "urls": {
        "raw": "https://media.githubusercontent.com/media/ddh4r4m/wallpaper-collection/main/collection/wallpapers/seasonal/071.jpg",
        "thumb": "https://media.githubusercontent.com/media/ddh4r4m/wallpaper-collection/main/collection/thumbnails/seasonal/071.jpg"
      },
      "metadata": {
        "dimensions": {
          "width": 1080,
          "height": 1920
        },
        "file_size": 288042,
        "format": "JPEG",
        "added_at": "2025-07-17T00:04:43.005115",
        "hash": "fb0a1d2a23e562af8a7484d9d5d59e9e",
        "source": "migrated"
      }
    },
    {
      "id": "seasonal_072",
      "category": "seasonal",
      "title": "Seasonal Wallpaper 072",
      "tags": [
        "seasonal",
        "wallpaper",
        "hd",
        "mobile"
      ],
      "urls": {
        "raw": "https://media.githubusercontent.com/media/ddh4r4m/wallpaper-collection/main/collection/wallpapers/seasonal/072.jpg",
        "thumb": "https://media.githubusercontent.com/media/ddh4r4m/wallpaper-collection/main/collection/thumbnails/seasonal/072.jpg"
      },
      "metadata": {
        "dimensions": {
          "width": 1080,
          "height": 1920
        },
        "file_size": 345412,
        "format": "JPEG",
        "added_at": "2025-07-17T00:04:43.067752",
        "hash": "f6d2968e81df3f886724013a60a320d5",
        "source": "migrated"
      }
    },
    {
      "id": "seasonal_073",
      "category": "seasonal",
      "title": "Seasonal Wallpaper 073",
      "tags": [
        "seasonal",
        "wallpaper",
        "hd",
        "mobile"
      ],
      "urls": {
        "raw": "https://media.githubusercontent.com/media/ddh4r4m/wallpaper-collection/main/collection/wallpapers/seasonal/073.jpg",
        "thumb": "https://media.githubusercontent.com/media/ddh4r4m/wallpaper-collection/main/collection/thumbnails/seasonal/073.jpg"
      },
      "metadata": {
        "dimensions": {
          "width": 1080,
          "height": 1920
        },
        "file_size": 250214,
        "format": "JPEG",
        "added_at": "2025-07-17T00:04:43.122383",
        "hash": "9b7f5e2ebd88a4b46dc2d992383a2d58",
        "source": "migrated"
      }
    },
    {
      "id": "seasonal_074",
      "category": "seasonal",
      "title": "Seasonal Wallpaper 074",
      "tags": [
        "seasonal",
        "wallpaper",
        "hd",
        "mobile"
      ],
      "urls": {
        "raw": "https://media.githubusercontent.com/media/ddh4r4m/wallpaper-collection/main/collection/wallpapers/seasonal/074.jpg",
        "thumb": "https://media.githubusercontent.com/media/ddh4r4m/wallpaper-collection/main/collection/thumbnails/seasonal/074.jpg"
      },
      "metadata": {
        "dimensions": {
          "width": 1080,
          "height": 1920
        },
        "file_size": 400216,
        "format": "JPEG",
        "added_at": "2025-07-17T00:04:43.186909",
        "hash": "58790398f1c8ea741302a5e80c5ca89e",
        "source": "migrated"
      }
    },
    {
      "id": "seasonal_075",
      "category": "seasonal",
      "title": "Seasonal Wallpaper 075",
      "tags": [
        "seasonal",
        "wallpaper",
        "hd",
        "mobile"
      ],
      "urls": {
        "raw": "https://media.githubusercontent.com/media/ddh4r4m/wallpaper-collection/main/collection/wallpapers/seasonal/075.jpg",
        "thumb": "https://media.githubusercontent.com/media/ddh4r4m/wallpaper-collection/main/collection/thumbnails/seasonal/075.jpg"
      },
      "metadata": {
        "dimensions": {
          "width": 1080,
          "height": 1920
        },
        "file_size": 619574,
        "format": "JPEG",
        "added_at": "2025-07-17T00:04:43.260698",
        "hash": "c0d71daa1456926966effb78f8ac0bda",
        "source": "migrated"
      }
    }
  ]
}