{
  "meta": {
    "version": "1.0",
    "generated_at": "2025-07-17T00:06:19.072196",
    "category": "seasonal",
    "page": 6,
    "per_page": 15,
    "total_pages": 6,
    "total_count": 85,
    "count_on_page": 10,
    "has_next": false,
    "has_prev": true,
    "next_page_url": null,
    "prev_page_url": "/api/v1/seasonal/pages/5.json"
  },
  "data": [
    {
      "id": "seasonal_076",
      "category": "seasonal",
      "title": "Seasonal Wallpaper 076",
      "tags": [
        "seasonal",
        "wallpaper",
        "hd",
        "mobile"
      ],
      "urls": {
        "raw": "https://raw.githubusercontent.com/ddh4r4m/wallpaper-collection/main/collection/wallpapers/seasonal/076.jpg",
        "thumb": "https://raw.githubusercontent.com/ddh4r4m/wallpaper-collection/main/collection/thumbnails/seasonal/076.jpg"
      },
      "metadata": {
        "dimensions": {
          "width": 1080,
          "height": 1920
        },
        "file_size": 493944,
        "format": "JPEG",
        "added_at": "2025-07-17T00:04:43.329326",
        "hash": "e58b14002c347ff3691d0666a6ec6300",
        "source": "migrated"
      }
    },
    {
      "id": "seasonal_077",
      "category": "seasonal",
      "title": "Seasonal Wallpaper 077",
      "tags": [
        "seasonal",
        "wallpaper",
        "hd",
        "mobile"
      ],
      "urls": {
        "raw": "https://raw.githubusercontent.com/ddh4r4m/wallpaper-collection/main/collection/wallpapers/seasonal/077.jpg",
        "thumb": "https://raw.githubusercontent.com/ddh4r4m/wallpaper-collection/main/collection/thumbnails/seasonal/077.jpg"
      },
      "metadata": {
        "dimensions": {
          "width": 1080,
          "height": 1920
        },
        "file_size": 535977,
        "format": "JPEG",
        "added_at": "2025-07-17T00:04:43.400176",
        "hash": "c84de12af089e95e30313e1d5ca5d6c8",
        "source": "migrated"
      }
    },
    {
      "id": "seasonal_078",
      "category": "seasonal",
      "title": "Seasonal Wallpaper 078",
      "tags": [
        "seasonal",
        "wallpaper",
        "hd",
        "mobile"
      ],
      "urls": {
        "raw": "https://raw.githubusercontent.com/ddh4r4m/wallpaper-collection/main/collection/wallpapers/seasonal/078.jpg",
        "thumb": "https://raw.githubusercontent.com/ddh4r4m/wallpaper-collection/main/collection/thumbnails/seasonal/078.jpg"
      },
      "metadata": {
        "dimensions": {
          "width": 1080,
          "height": 1920
        },
        "file_size": 809811,
        "format": "JPEG",
        "added_at": "2025-07-17T00:04:43.483423",
        "hash": "9ab9e5d15a4b20388fe007b9cae58a8a",
        "source": "migrated"
      }
    },
    {
      "id": "seasonal_079",
      "category": "seasonal",
      "title": "Seasonal Wallpaper 079",
      "tags": [
        "seasonal",
        "wallpaper",
        "hd",
        "mobile"
      ],
      "urls": {
        "raw": "https://raw.githubusercontent.com/ddh4r4m/wallpaper-collection/main/collection/wallpapers/seasonal/079.jpg",
        "thumb": "https://raw.githubusercontent.com/ddh4r4m/wallpaper-collection/main/collection/thumbnails/seasonal/079.jpg"
      },
      "metadata": {
        "dimensions": {
          "width": 1080,
          "height": 1920
        },
        "file_size": 253612,
        "format": "JPEG",
        "added_at": "2025-07-17T00:04:43.538082",
        "hash": "6dcae6ca63df135fae14338b8de3c0ea",
        "source": "migrated"
      }
    },
    {
      "id": "seasonal_080",
      "category": "seasonal",
      "title": "Seasonal Wallpaper 080",
      "tags": [
        "seasonal",
        "wallpaper",
        "hd",
        "mobile"
      ],
      "urls": {
        "raw": "https://raw.githubusercontent.com/ddh4r4m/wallpaper-collection/main/collection/wallpapers/seasonal/080.jpg",
        "thumb": "https://raw.githubusercontent.com/ddh4r4m/wallpaper-collection/main/collection/thumbnails/seasonal/080.jpg"
      },
      "metadata": {
        "dimensions": {
          "width": 1080,
          "height": 1920
        },
        "file_size": 434663,
        "format": "JPEG",
        "added_at": "2025-07-17T00:04:43.604116",
        "hash": "80b738ed6d176cacd847960948a1e88f",
        "source": "migrated"
      }
    },
    {
      "id": "seasonal_081",
      "category": "seasonal",
      "title": "Seasonal Wallpaper 081",
      "tags": [
        "seasonal",
        "wallpaper",
        "hd",
        "mobile"
      ],
      "urls": {
        "raw": "https://raw.githubusercontent.com/ddh4r4m/wallpaper-collection/main/collection/wallpapers/seasonal/081.jpg",
        "thumb": "https://raw.githubusercontent.com/ddh4r4m/wallpaper-collection/main/collection/thumbnails/seasonal/081.jpg"
      },
      "metadata": {
        "dimensions": {
          "width": 1080,
          "height": 1920
        },
        "file_size": 132067,
        "format": "JPEG",
        "added_at": "2025-07-17T00:04:43.651203",
        "hash": "a373a9aa3b4a22afa31dbc03b00c9acc",
        "source": "migrated"
      }
    },
    {
      "id": "seasonal_082",
      "category": "seasonal",
      "title": "Seasonal Wallpaper 082",
      "tags": [
        "seasonal",
        "wallpaper",
        "hd",
        "mobile"
      ],
      "urls": {
        "raw": "https://raw.githubusercontent.com/ddh4r4m/wallpaper-collection/main/collection/wallpapers/seasonal/082.jpg",
        "thumb": "https://raw.githubusercontent.com/ddh4r4m/wallpaper-collection/main/collection/thumbnails/seasonal/082.jpg"
      },
      "metadata": {
        "dimensions": {
          "width": 1080,
          "height": 1920
        },
        "file_size": 251013,
        "format": "JPEG",
        "added_at": "2025-07-17T00:04:43.707796",
        "hash": "ccc47c44caf0589b2ff37feeff66f973",
        "source": "migrated"
      }
    },
    {
      "id": "seasonal_083",
      "category": "seasonal",
      "title": "Seasonal Wallpaper 083",
      "tags": [
        "seasonal",
        "wallpaper",
        "hd",
        "mobile"
      ],
      "urls": {
        "raw": "https://raw.githubusercontent.com/ddh4r4m/wallpaper-collection/main/collection/wallpapers/seasonal/083.jpg",
        "thumb": "https://raw.githubusercontent.com/ddh4r4m/wallpaper-collection/main/collection/thumbnails/seasonal/083.jpg"
      },
      "metadata": {
        "dimensions": {
          "width": 1080,
          "height": 1920
        },
        "file_size": 584911,
        "format": "JPEG",
        "added_at": "2025-07-17T00:04:43.778535",
        "hash": "2e883ed615b191bf30dad3bc6191112f",
        "source": "migrated"
      }
    },
    {
      "id": "seasonal_084",
      "category": "seasonal",
      "title": "Seasonal Wallpaper 084",
      "tags": [
        "seasonal",
        "wallpaper",
        "hd",
        "mobile"
      ],
      "urls": {
        "raw": "https://raw.githubusercontent.com/ddh4r4m/wallpaper-collection/main/collection/wallpapers/seasonal/084.jpg",
        "thumb": "https://raw.githubusercontent.com/ddh4r4m/wallpaper-collection/main/collection/thumbnails/seasonal/084.jpg"
      },
      "metadata": {
        "dimensions": {
          "width": 1080,
          "height": 1920
        },
        "file_size": 408650,
        "format": "JPEG",
        "added_at": "2025-07-17T00:04:43.840480",
        "hash": "f83ef482032e979ce0d20078c0c5131b",
        "source": "migrated"
      }
    },
    {
      "id": "seasonal_085",
      "category": "seasonal",
      "title": "Seasonal Wallpaper 085",
      "tags": [
        "seasonal",
        "wallpaper",
        "hd",
        "mobile"
      ],
      "urls": {
        "raw": "https://raw.githubusercontent.com/ddh4r4m/wallpaper-collection/main/collection/wallpapers/seasonal/085.jpg",
        "thumb": "https://raw.githubusercontent.com/ddh4r4m/wallpaper-collection/main/collection/thumbnails/seasonal/085.jpg"
      },
      "metadata": {
        "dimensions": {
          "width": 1080,
          "height": 1920
        },
        "file_size": 269070,
        "format": "JPEG",
        "added_at": "2025-07-17T00:04:43.895779",
        "hash": "d1102231c55f3a69e9321d07f8d491a9",
        "source": "migrated"
      }
    }
  ]
}