{
  "meta": {
    "version": "1.0",
    "generated_at": "2025-07-19T12:26:57.111378",
    "category": "nature",
    "page": 1,
    "per_page": 15,
    "total_pages": 21,
    "total_count": 304,
    "count_on_page": 15,
    "has_next": true,
    "has_prev": false,
    "next_page_url": "/api/v1/nature/pages/2.json",
    "prev_page_url": null
  },
  "data": [
    {
      "id": "nature_001",
      "category": "nature",
      "title": "Nature Wallpaper 001",
      "tags": [
        "nature",
        "wallpaper",
        "hd",
        "mobile"
      ],
      "urls": {
        "raw": "https://media.githubusercontent.com/media/ddh4r4m/wallpaper-collection/main/collection/wallpapers/nature/001.jpg",
        "thumb": "https://media.githubusercontent.com/media/ddh4r4m/wallpaper-collection/main/collection/thumbnails/nature/001.jpg"
      },
      "metadata": {
        "dimensions": {
          "width": 1080,
          "height": 1920
        },
        "file_size": 697917,
        "format": "JPEG",
        "added_at": "2025-07-17T00:04:11.965564",
        "hash": "3c273e19c690025db7dc9ab1d94bf985",
        "source": "migrated"
      }
    },
    {
      "id": "nature_002",
      "category": "nature",
      "title": "Nature Wallpaper 002",
      "tags": [
        "nature",
        "wallpaper",
        "hd",
        "mobile"
      ],
      "urls": {
        "raw": "https://media.githubusercontent.com/media/ddh4r4m/wallpaper-collection/main/collection/wallpapers/nature/002.jpg",
        "thumb": "https://media.githubusercontent.com/media/ddh4r4m/wallpaper-collection/main/collection/thumbnails/nature/002.jpg"
      },
      "metadata": {
        "dimensions": {
          "width": 1080,
          "height": 1920
        },
        "file_size": 692614,
        "format": "JPEG",
        "added_at": "2025-07-17T00:04:12.041958",
        "hash": "023897eb05ffea369cc56c267308edeb",
        "source": "migrated"
      }
    },
    {
      "id": "nature_003",
      "category": "nature",
      "title": "Nature Wallpaper 003",
      "tags": [
        "nature",
        "wallpaper",
        "hd",
        "mobile"
      ],
      "urls": {
        "raw": "https://media.githubusercontent.com/media/ddh4r4m/wallpaper-collection/main/collection/wallpapers/nature/003.jpg",
        "thumb": "https://media.githubusercontent.com/media/ddh4r4m/wallpaper-collection/main/collection/thumbnails/nature/003.jpg"
      },
      "metadata": {
        "dimensions": {
          "width": 1080,
          "height": 1920
        },
        "file_size": 574117,
        "format": "JPEG",
        "added_at": "2025-07-17T00:04:12.113866",
        "hash": "1f617ebb1245e8f2e6dc66ba98c0791c",
        "source": "migrated"
      }
    },
    {
      "id": "nature_004",
      "category": "nature",
      "title": "Nature Wallpaper 004",
      "tags": [
        "nature",
        "wallpaper",
        "hd",
        "mobile"
      ],
      "urls": {
        "raw": "https://media.githubusercontent.com/media/ddh4r4m/wallpaper-collection/main/collection/wallpapers/nature/004.jpg",
        "thumb": "https://media.githubusercontent.com/media/ddh4r4m/wallpaper-collection/main/collection/thumbnails/nature/004.jpg"
      },
      "metadata": {
        "dimensions": {
          "width": 1080,
          "height": 1920
        },
        "file_size": 333783,
        "format": "JPEG",
        "added_at": "2025-07-17T00:04:12.173038",
        "hash": "b6841ddd85a758409ec63afeb97869d9",
        "source": "migrated"
      }
    },
    {
      "id": "nature_005",
      "category": "nature",
      "title": "Nature Wallpaper 005",
      "tags": [
        "nature",
        "wallpaper",
        "hd",
        "mobile"
      ],
      "urls": {
        "raw": "https://media.githubusercontent.com/media/ddh4r4m/wallpaper-collection/main/collection/wallpapers/nature/005.jpg",
        "thumb": "https://media.githubusercontent.com/media/ddh4r4m/wallpaper-collection/main/collection/thumbnails/nature/005.jpg"
      },
      "metadata": {
        "dimensions": {
          "width": 1080,
          "height": 1920
        },
        "file_size": 659994,
        "format": "JPEG",
        "added_at": "2025-07-17T00:04:12.247373",
        "hash": "a016995f38be9b303fa0ea08a03991fe",
        "source": "migrated"
      }
    },
    {
      "id": "nature_006",
      "category": "nature",
      "title": "Nature Wallpaper 006",
      "tags": [
        "nature",
        "wallpaper",
        "hd",
        "mobile"
      ],
      "urls": {
        "raw": "https://media.githubusercontent.com/media/ddh4r4m/wallpaper-collection/main/collection/wallpapers/nature/006.jpg",
        "thumb": "https://media.githubusercontent.com/media/ddh4r4m/wallpaper-collection/main/collection/thumbnails/nature/006.jpg"
      },
      "metadata": {
        "dimensions": {
          "width": 1080,
          "height": 1920
        },
        "file_size": 536059,
        "format": "JPEG",
        "added_at": "2025-07-17T00:04:12.317126",
        "hash": "6d2bfd7fa2853278b63fd1287b7d970d",
        "source": "migrated"
      }
    },
    {
      "id": "nature_007",
      "category": "nature",
      "title": "Nature Wallpaper 007",
      "tags": [
        "nature",
        "wallpaper",
        "hd",
        "mobile"
      ],
      "urls": {
        "raw": "https://media.githubusercontent.com/media/ddh4r4m/wallpaper-collection/main/collection/wallpapers/nature/007.jpg",
        "thumb": "https://media.githubusercontent.com/media/ddh4r4m/wallpaper-collection/main/collection/thumbnails/nature/007.jpg"
      },
      "metadata": {
        "dimensions": {
          "width": 1080,
          "height": 1920
        },
        "file_size": 649428,
        "format": "JPEG",
        "added_at": "2025-07-17T00:04:12.392893",
        "hash": "575099575266d4aa4b479a9fee242277",
        "source": "migrated"
      }
    },
    {
      "id": "nature_008",
      "category": "nature",
      "title": "Nature Wallpaper 008",
      "tags": [
        "nature",
        "wallpaper",
        "hd",
        "mobile"
      ],
      "urls": {
        "raw": "https://media.githubusercontent.com/media/ddh4r4m/wallpaper-collection/main/collection/wallpapers/nature/008.jpg",
        "thumb": "https://media.githubusercontent.com/media/ddh4r4m/wallpaper-collection/main/collection/thumbnails/nature/008.jpg"
      },
      "metadata": {
        "dimensions": {
          "width": 1080,
          "height": 1920
        },
        "file_size": 572554,
        "format": "JPEG",
        "added_at": "2025-07-17T00:04:12.463884",
        "hash": "e47299e0a9f65f1c0918216b32990305",
        "source": "migrated"
      }
    },
    {
      "id": "nature_009",
      "category": "nature",
      "title": "Nature Wallpaper 009",
      "tags": [
        "nature",
        "wallpaper",
        "hd",
        "mobile"
      ],
      "urls": {
        "raw": "https://media.githubusercontent.com/media/ddh4r4m/wallpaper-collection/main/collection/wallpapers/nature/009.jpg",
        "thumb": "https://media.githubusercontent.com/media/ddh4r4m/wallpaper-collection/main/collection/thumbnails/nature/009.jpg"
      },
      "metadata": {
        "dimensions": {
          "width": 1080,
          "height": 1920
        },
        "file_size": 410075,
        "format": "JPEG",
        "added_at": "2025-07-17T00:04:12.528618",
        "hash": "a321d3b086116421abaae02a3eda2d10",
        "source": "migrated"
      }
    },
    {
      "id": "nature_010",
      "category": "nature",
      "title": "Nature Wallpaper 010",
      "tags": [
        "nature",
        "wallpaper",
        "hd",
        "mobile"
      ],
      "urls": {
        "raw": "https://media.githubusercontent.com/media/ddh4r4m/wallpaper-collection/main/collection/wallpapers/nature/010.jpg",
        "thumb": "https://media.githubusercontent.com/media/ddh4r4m/wallpaper-collection/main/collection/thumbnails/nature/010.jpg"
      },
      "metadata": {
        "dimensions": {
          "width": 1080,
          "height": 1920
        },
        "file_size": 464465,
        "format": "JPEG",
        "added_at": "2025-07-17T00:04:12.595076",
        "hash": "afb9dcbb85d09d3200617e33d65133a5",
        "source": "migrated"
      }
    },
    {
      "id": "nature_011",
      "category": "nature",
      "title": "Nature Wallpaper 011",
      "tags": [
        "nature",
        "wallpaper",
        "hd",
        "mobile"
      ],
      "urls": {
        "raw": "https://media.githubusercontent.com/media/ddh4r4m/wallpaper-collection/main/collection/wallpapers/nature/011.jpg",
        "thumb": "https://media.githubusercontent.com/media/ddh4r4m/wallpaper-collection/main/collection/thumbnails/nature/011.jpg"
      },
      "metadata": {
        "dimensions": {
          "width": 1080,
          "height": 1920
        },
        "file_size": 108805,
        "format": "JPEG",
        "added_at": "2025-07-17T00:04:12.642023",
        "hash": "d5b4e7ea2618c5f1f3834883afe648bd",
        "source": "migrated"
      }
    },
    {
      "id": "nature_012",
      "category": "nature",
      "title": "Nature Wallpaper 012",
      "tags": [
        "nature",
        "wallpaper",
        "hd",
        "mobile"
      ],
      "urls": {
        "raw": "https://media.githubusercontent.com/media/ddh4r4m/wallpaper-collection/main/collection/wallpapers/nature/012.jpg",
        "thumb": "https://media.githubusercontent.com/media/ddh4r4m/wallpaper-collection/main/collection/thumbnails/nature/012.jpg"
      },
      "metadata": {
        "dimensions": {
          "width": 1080,
          "height": 1920
        },
        "file_size": 651067,
        "format": "JPEG",
        "added_at": "2025-07-17T00:04:12.716836",
        "hash": "4d2076a24fcc167821dde87935ceeda1",
        "source": "migrated"
      }
    },
    {
      "id": "nature_013",
      "category": "nature",
      "title": "Nature Wallpaper 013",
      "tags": [
        "nature",
        "wallpaper",
        "hd",
        "mobile"
      ],
      "urls": {
        "raw": "https://media.githubusercontent.com/media/ddh4r4m/wallpaper-collection/main/collection/wallpapers/nature/013.jpg",
        "thumb": "https://media.githubusercontent.com/media/ddh4r4m/wallpaper-collection/main/collection/thumbnails/nature/013.jpg"
      },
      "metadata": {
        "dimensions": {
          "width": 1080,
          "height": 1920
        },
        "file_size": 314707,
        "format": "JPEG",
        "added_at": "2025-07-17T00:04:12.776613",
        "hash": "4ed3c039e3bf8ffeff162429da5fc371",
        "source": "migrated"
      }
    },
    {
      "id": "nature_014",
      "category": "nature",
      "title": "Nature Wallpaper 014",
      "tags": [
        "nature",
        "wallpaper",
        "hd",
        "mobile"
      ],
      "urls": {
        "raw": "https://media.githubusercontent.com/media/ddh4r4m/wallpaper-collection/main/collection/wallpapers/nature/014.jpg",
        "thumb": "https://media.githubusercontent.com/media/ddh4r4m/wallpaper-collection/main/collection/thumbnails/nature/014.jpg"
      },
      "metadata": {
        "dimensions": {
          "width": 1080,
          "height": 1920
        },
        "file_size": 474672,
        "format": "JPEG",
        "added_at": "2025-07-17T00:04:12.843832",
        "hash": "6089a544d42ce9b51d8b0517a307f562",
        "source": "migrated"
      }
    },
    {
      "id": "nature_015",
      "category": "nature",
      "title": "Nature Wallpaper 015",
      "tags": [
        "nature",
        "wallpaper",
        "hd",
        "mobile"
      ],
      "urls": {
        "raw": "https://media.githubusercontent.com/media/ddh4r4m/wallpaper-collection/main/collection/wallpapers/nature/015.jpg",
        "thumb": "https://media.githubusercontent.com/media/ddh4r4m/wallpaper-collection/main/collection/thumbnails/nature/015.jpg"
      },
      "metadata": {
        "dimensions": {
          "width": 1080,
          "height": 1920
        },
        "file_size": 407609,
        "format": "JPEG",
        "added_at": "2025-07-17T00:04:12.905814",
        "hash": "8c3c314b327a8973975d119de73421d7",
        "source": "migrated"
      }
    }
  ]
}