{
  "meta": {
    "version": "1.0",
    "generated_at": "2025-07-28T22:38:03.579947",
    "category": "nature",
    "page": 11,
    "per_page": 15,
    "total_pages": 21,
    "total_count": 310,
    "count_on_page": 15,
    "has_next": true,
    "has_prev": true,
    "next_page_url": "/api/v1/nature/pages/12.json",
    "prev_page_url": "/api/v1/nature/pages/10.json"
  },
  "data": [
    {
      "id": "nature_151",
      "category": "nature",
      "title": "Nature Wallpaper 151",
      "tags": [
        "nature",
        "wallpaper",
        "hd",
        "mobile"
      ],
      "urls": {
        "raw": "https://media.githubusercontent.com/media/ddh4r4m/wallpaper-collection/main/collection/wallpapers/nature/151.jpg",
        "thumb": "https://media.githubusercontent.com/media/ddh4r4m/wallpaper-collection/main/collection/thumbnails/nature/151.jpg"
      },
      "metadata": {
        "dimensions": {
          "width": 1080,
          "height": 1920
        },
        "file_size": 287084,
        "format": "JPEG",
        "added_at": "2025-07-17T00:04:22.038312",
        "hash": "7cb96597878e0776de9b2223fe1ae6f5",
        "source": "migrated"
      }
    },
    {
      "id": "nature_152",
      "category": "nature",
      "title": "Nature Wallpaper 152",
      "tags": [
        "nature",
        "wallpaper",
        "hd",
        "mobile"
      ],
      "urls": {
        "raw": "https://media.githubusercontent.com/media/ddh4r4m/wallpaper-collection/main/collection/wallpapers/nature/152.jpg",
        "thumb": "https://media.githubusercontent.com/media/ddh4r4m/wallpaper-collection/main/collection/thumbnails/nature/152.jpg"
      },
      "metadata": {
        "dimensions": {
          "width": 1080,
          "height": 1920
        },
        "file_size": 699152,
        "format": "JPEG",
        "added_at": "2025-07-17T00:04:22.114340",
        "hash": "ce3c1c47f6254df7c1e3893a4704b422",
        "source": "migrated"
      }
    },
    {
      "id": "nature_153",
      "category": "nature",
      "title": "Nature Wallpaper 153",
      "tags": [
        "nature",
        "wallpaper",
        "hd",
        "mobile"
      ],
      "urls": {
        "raw": "https://media.githubusercontent.com/media/ddh4r4m/wallpaper-collection/main/collection/wallpapers/nature/153.jpg",
        "thumb": "https://media.githubusercontent.com/media/ddh4r4m/wallpaper-collection/main/collection/thumbnails/nature/153.jpg"
      },
      "metadata": {
        "dimensions": {
          "width": 1080,
          "height": 1920
        },
        "file_size": 585036,
        "format": "JPEG",
        "added_at": "2025-07-17T00:04:22.186880",
        "hash": "bcbb8a25a54e3e68d5f2a61c252090a9",
        "source": "migrated"
      }
    },
    {
      "id": "nature_154",
      "category": "nature",
      "title": "Nature Wallpaper 154",
      "tags": [
        "nature",
        "wallpaper",
        "hd",
        "mobile"
      ],
      "urls": {
        "raw": "https://media.githubusercontent.com/media/ddh4r4m/wallpaper-collection/main/collection/wallpapers/nature/154.jpg",
        "thumb": "https://media.githubusercontent.com/media/ddh4r4m/wallpaper-collection/main/collection/thumbnails/nature/154.jpg"
      },
      "metadata": {
        "dimensions": {
          "width": 1080,
          "height": 1920
        },
        "file_size": 619150,
        "format": "JPEG",
        "added_at": "2025-07-17T00:04:22.262450",
        "hash": "e6d084a2b4ee3fb844d1ac483c13e07a",
        "source": "migrated"
      }
    },
    {
      "id": "nature_155",
      "category": "nature",
      "title": "Nature Wallpaper 155",
      "tags": [
        "nature",
        "wallpaper",
        "hd",
        "mobile"
      ],
      "urls": {
        "raw": "https://media.githubusercontent.com/media/ddh4r4m/wallpaper-collection/main/collection/wallpapers/nature/155.jpg",
        "thumb": "https://media.githubusercontent.com/media/ddh4r4m/wallpaper-collection/main/collection/thumbnails/nature/155.jpg"
      },
      "metadata": {
        "dimensions": {
          "width": 1080,
          "height": 1920
        },
        "file_size": 393941,
        "format": "JPEG",
        "added_at": "2025-07-17T00:04:22.324732",
        "hash": "c58fd4b29c010bff6a0d9669dfc8c78d",
        "source": "migrated"
      }
    },
    {
      "id": "nature_156",
      "category": "nature",
      "title": "Nature Wallpaper 156",
      "tags": [
        "nature",
        "wallpaper",
        "hd",
        "mobile"
      ],
      "urls": {
        "raw": "https://media.githubusercontent.com/media/ddh4r4m/wallpaper-collection/main/collection/wallpapers/nature/156.jpg",
        "thumb": "https://media.githubusercontent.com/media/ddh4r4m/wallpaper-collection/main/collection/thumbnails/nature/156.jpg"
      },
      "metadata": {
        "dimensions": {
          "width": 1080,
          "height": 1920
        },
        "file_size": 182355,
        "format": "JPEG",
        "added_at": "2025-07-17T00:04:22.377199",
        "hash": "e53a72e0377be3f6e30c9df50c94b682",
        "source": "migrated"
      }
    },
    {
      "id": "nature_157",
      "category": "nature",
      "title": "Nature Wallpaper 157",
      "tags": [
        "nature",
        "wallpaper",
        "hd",
        "mobile"
      ],
      "urls": {
        "raw": "https://media.githubusercontent.com/media/ddh4r4m/wallpaper-collection/main/collection/wallpapers/nature/157.jpg",
        "thumb": "https://media.githubusercontent.com/media/ddh4r4m/wallpaper-collection/main/collection/thumbnails/nature/157.jpg"
      },
      "metadata": {
        "dimensions": {
          "width": 1080,
          "height": 1920
        },
        "file_size": 445952,
        "format": "JPEG",
        "added_at": "2025-07-17T00:04:22.442613",
        "hash": "33d9145d75f02a74b9019eab587bfef1",
        "source": "migrated"
      }
    },
    {
      "id": "nature_158",
      "category": "nature",
      "title": "Nature Wallpaper 158",
      "tags": [
        "nature",
        "wallpaper",
        "hd",
        "mobile"
      ],
      "urls": {
        "raw": "https://media.githubusercontent.com/media/ddh4r4m/wallpaper-collection/main/collection/wallpapers/nature/158.jpg",
        "thumb": "https://media.githubusercontent.com/media/ddh4r4m/wallpaper-collection/main/collection/thumbnails/nature/158.jpg"
      },
      "metadata": {
        "dimensions": {
          "width": 1080,
          "height": 1920
        },
        "file_size": 601431,
        "format": "JPEG",
        "added_at": "2025-07-17T00:04:22.516360",
        "hash": "7fa329251ba73f91eb80899815f934b7",
        "source": "migrated"
      }
    },
    {
      "id": "nature_159",
      "category": "nature",
      "title": "Nature Wallpaper 159",
      "tags": [
        "nature",
        "wallpaper",
        "hd",
        "mobile"
      ],
      "urls": {
        "raw": "https://media.githubusercontent.com/media/ddh4r4m/wallpaper-collection/main/collection/wallpapers/nature/159.jpg",
        "thumb": "https://media.githubusercontent.com/media/ddh4r4m/wallpaper-collection/main/collection/thumbnails/nature/159.jpg"
      },
      "metadata": {
        "dimensions": {
          "width": 1080,
          "height": 1920
        },
        "file_size": 561021,
        "format": "JPEG",
        "added_at": "2025-07-17T00:04:22.585900",
        "hash": "b45173ba82e13584aa17196c81473583",
        "source": "migrated"
      }
    },
    {
      "id": "nature_160",
      "category": "nature",
      "title": "Nature Wallpaper 160",
      "tags": [
        "nature",
        "wallpaper",
        "hd",
        "mobile"
      ],
      "urls": {
        "raw": "https://media.githubusercontent.com/media/ddh4r4m/wallpaper-collection/main/collection/wallpapers/nature/160.jpg",
        "thumb": "https://media.githubusercontent.com/media/ddh4r4m/wallpaper-collection/main/collection/thumbnails/nature/160.jpg"
      },
      "metadata": {
        "dimensions": {
          "width": 1080,
          "height": 1920
        },
        "file_size": 451969,
        "format": "JPEG",
        "added_at": "2025-07-17T00:04:22.651102",
        "hash": "f5e75286c6d03532b167d3201afc640c",
        "source": "migrated"
      }
    },
    {
      "id": "nature_161",
      "category": "nature",
      "title": "Nature Wallpaper 161",
      "tags": [
        "nature",
        "wallpaper",
        "hd",
        "mobile"
      ],
      "urls": {
        "raw": "https://media.githubusercontent.com/media/ddh4r4m/wallpaper-collection/main/collection/wallpapers/nature/161.jpg",
        "thumb": "https://media.githubusercontent.com/media/ddh4r4m/wallpaper-collection/main/collection/thumbnails/nature/161.jpg"
      },
      "metadata": {
        "dimensions": {
          "width": 1080,
          "height": 1920
        },
        "file_size": 405137,
        "format": "JPEG",
        "added_at": "2025-07-17T00:04:22.714605",
        "hash": "8b0a9ffc7f58d50f484ae3c01ef39dfb",
        "source": "migrated"
      }
    },
    {
      "id": "nature_162",
      "category": "nature",
      "title": "Nature Wallpaper 162",
      "tags": [
        "nature",
        "wallpaper",
        "hd",
        "mobile"
      ],
      "urls": {
        "raw": "https://media.githubusercontent.com/media/ddh4r4m/wallpaper-collection/main/collection/wallpapers/nature/162.jpg",
        "thumb": "https://media.githubusercontent.com/media/ddh4r4m/wallpaper-collection/main/collection/thumbnails/nature/162.jpg"
      },
      "metadata": {
        "dimensions": {
          "width": 1080,
          "height": 1920
        },
        "file_size": 571604,
        "format": "JPEG",
        "added_at": "2025-07-17T00:04:22.786195",
        "hash": "59ccac155fac34565479f447c782d46e",
        "source": "migrated"
      }
    },
    {
      "id": "nature_163",
      "category": "nature",
      "title": "Nature Wallpaper 163",
      "tags": [
        "nature",
        "wallpaper",
        "hd",
        "mobile"
      ],
      "urls": {
        "raw": "https://media.githubusercontent.com/media/ddh4r4m/wallpaper-collection/main/collection/wallpapers/nature/163.jpg",
        "thumb": "https://media.githubusercontent.com/media/ddh4r4m/wallpaper-collection/main/collection/thumbnails/nature/163.jpg"
      },
      "metadata": {
        "dimensions": {
          "width": 1080,
          "height": 1920
        },
        "file_size": 456883,
        "format": "JPEG",
        "added_at": "2025-07-17T00:04:22.852253",
        "hash": "053be9a5f0aa60fea88942798ff8a84a",
        "source": "migrated"
      }
    },
    {
      "id": "nature_164",
      "category": "nature",
      "title": "Nature Wallpaper 164",
      "tags": [
        "nature",
        "wallpaper",
        "hd",
        "mobile"
      ],
      "urls": {
        "raw": "https://media.githubusercontent.com/media/ddh4r4m/wallpaper-collection/main/collection/wallpapers/nature/164.jpg",
        "thumb": "https://media.githubusercontent.com/media/ddh4r4m/wallpaper-collection/main/collection/thumbnails/nature/164.jpg"
      },
      "metadata": {
        "dimensions": {
          "width": 1080,
          "height": 1920
        },
        "file_size": 611300,
        "format": "JPEG",
        "added_at": "2025-07-17T00:04:22.926160",
        "hash": "1674b8262bacc435fec99bbc5587875a",
        "source": "migrated"
      }
    },
    {
      "id": "nature_165",
      "category": "nature",
      "title": "Nature Wallpaper 165",
      "tags": [
        "nature",
        "wallpaper",
        "hd",
        "mobile"
      ],
      "urls": {
        "raw": "https://media.githubusercontent.com/media/ddh4r4m/wallpaper-collection/main/collection/wallpapers/nature/165.jpg",
        "thumb": "https://media.githubusercontent.com/media/ddh4r4m/wallpaper-collection/main/collection/thumbnails/nature/165.jpg"
      },
      "metadata": {
        "dimensions": {
          "width": 1080,
          "height": 1920
        },
        "file_size": 499107,
        "format": "JPEG",
        "added_at": "2025-07-17T00:04:22.996503",
        "hash": "96ca7934ffa9e351231ecdfa4442a020",
        "source": "migrated"
      }
    }
  ]
}