{
  "meta": {
    "version": "1.0",
    "generated_at": "2025-07-19T12:26:57.111378",
    "category": "nature",
    "page": 12,
    "per_page": 15,
    "total_pages": 21,
    "total_count": 304,
    "count_on_page": 15,
    "has_next": true,
    "has_prev": true,
    "next_page_url": "/api/v1/nature/pages/13.json",
    "prev_page_url": "/api/v1/nature/pages/11.json"
  },
  "data": [
    {
      "id": "nature_166",
      "category": "nature",
      "title": "Nature Wallpaper 166",
      "tags": [
        "nature",
        "wallpaper",
        "hd",
        "mobile"
      ],
      "urls": {
        "raw": "https://media.githubusercontent.com/media/ddh4r4m/wallpaper-collection/main/collection/wallpapers/nature/166.jpg",
        "thumb": "https://media.githubusercontent.com/media/ddh4r4m/wallpaper-collection/main/collection/thumbnails/nature/166.jpg"
      },
      "metadata": {
        "dimensions": {
          "width": 1080,
          "height": 1920
        },
        "file_size": 570011,
        "format": "JPEG",
        "added_at": "2025-07-17T00:04:23.069751",
        "hash": "7da6e8ce85648fc3082a58a793dfd509",
        "source": "migrated"
      }
    },
    {
      "id": "nature_167",
      "category": "nature",
      "title": "Nature Wallpaper 167",
      "tags": [
        "nature",
        "wallpaper",
        "hd",
        "mobile"
      ],
      "urls": {
        "raw": "https://media.githubusercontent.com/media/ddh4r4m/wallpaper-collection/main/collection/wallpapers/nature/167.jpg",
        "thumb": "https://media.githubusercontent.com/media/ddh4r4m/wallpaper-collection/main/collection/thumbnails/nature/167.jpg"
      },
      "metadata": {
        "dimensions": {
          "width": 1080,
          "height": 1920
        },
        "file_size": 429176,
        "format": "JPEG",
        "added_at": "2025-07-17T00:04:23.133409",
        "hash": "a77e97cd80b4bb7b0d76588d189403a9",
        "source": "migrated"
      }
    },
    {
      "id": "nature_168",
      "category": "nature",
      "title": "Nature Wallpaper 168",
      "tags": [
        "nature",
        "wallpaper",
        "hd",
        "mobile"
      ],
      "urls": {
        "raw": "https://media.githubusercontent.com/media/ddh4r4m/wallpaper-collection/main/collection/wallpapers/nature/168.jpg",
        "thumb": "https://media.githubusercontent.com/media/ddh4r4m/wallpaper-collection/main/collection/thumbnails/nature/168.jpg"
      },
      "metadata": {
        "dimensions": {
          "width": 1080,
          "height": 1920
        },
        "file_size": 738620,
        "format": "JPEG",
        "added_at": "2025-07-17T00:04:23.212816",
        "hash": "02e4f6b87b650c87e3d135172ba576fd",
        "source": "migrated"
      }
    },
    {
      "id": "nature_169",
      "category": "nature",
      "title": "Nature Wallpaper 169",
      "tags": [
        "nature",
        "wallpaper",
        "hd",
        "mobile"
      ],
      "urls": {
        "raw": "https://media.githubusercontent.com/media/ddh4r4m/wallpaper-collection/main/collection/wallpapers/nature/169.jpg",
        "thumb": "https://media.githubusercontent.com/media/ddh4r4m/wallpaper-collection/main/collection/thumbnails/nature/169.jpg"
      },
      "metadata": {
        "dimensions": {
          "width": 1080,
          "height": 1920
        },
        "file_size": 304612,
        "format": "JPEG",
        "added_at": "2025-07-17T00:04:23.273719",
        "hash": "540d5b2b8d8cd89ba814030c14af2d9b",
        "source": "migrated"
      }
    },
    {
      "id": "nature_170",
      "category": "nature",
      "title": "Nature Wallpaper 170",
      "tags": [
        "nature",
        "wallpaper",
        "hd",
        "mobile"
      ],
      "urls": {
        "raw": "https://media.githubusercontent.com/media/ddh4r4m/wallpaper-collection/main/collection/wallpapers/nature/170.jpg",
        "thumb": "https://media.githubusercontent.com/media/ddh4r4m/wallpaper-collection/main/collection/thumbnails/nature/170.jpg"
      },
      "metadata": {
        "dimensions": {
          "width": 1080,
          "height": 1920
        },
        "file_size": 444985,
        "format": "JPEG",
        "added_at": "2025-07-17T00:04:23.340249",
        "hash": "ae5c8e181223d976ea08a4c0944f1695",
        "source": "migrated"
      }
    },
    {
      "id": "nature_171",
      "category": "nature",
      "title": "Nature Wallpaper 171",
      "tags": [
        "nature",
        "wallpaper",
        "hd",
        "mobile"
      ],
      "urls": {
        "raw": "https://media.githubusercontent.com/media/ddh4r4m/wallpaper-collection/main/collection/wallpapers/nature/171.jpg",
        "thumb": "https://media.githubusercontent.com/media/ddh4r4m/wallpaper-collection/main/collection/thumbnails/nature/171.jpg"
      },
      "metadata": {
        "dimensions": {
          "width": 1080,
          "height": 1920
        },
        "file_size": 475905,
        "format": "JPEG",
        "added_at": "2025-07-17T00:04:23.406657",
        "hash": "65fb88598cb57700c8521adf69167cc8",
        "source": "migrated"
      }
    },
    {
      "id": "nature_172",
      "category": "nature",
      "title": "Nature Wallpaper 172",
      "tags": [
        "nature",
        "wallpaper",
        "hd",
        "mobile"
      ],
      "urls": {
        "raw": "https://media.githubusercontent.com/media/ddh4r4m/wallpaper-collection/main/collection/wallpapers/nature/172.jpg",
        "thumb": "https://media.githubusercontent.com/media/ddh4r4m/wallpaper-collection/main/collection/thumbnails/nature/172.jpg"
      },
      "metadata": {
        "dimensions": {
          "width": 1080,
          "height": 1920
        },
        "file_size": 641420,
        "format": "JPEG",
        "added_at": "2025-07-17T00:04:23.481255",
        "hash": "8ff6caca49aa37b8b14579529d8031a2",
        "source": "migrated"
      }
    },
    {
      "id": "nature_173",
      "category": "nature",
      "title": "Nature Wallpaper 173",
      "tags": [
        "nature",
        "wallpaper",
        "hd",
        "mobile"
      ],
      "urls": {
        "raw": "https://media.githubusercontent.com/media/ddh4r4m/wallpaper-collection/main/collection/wallpapers/nature/173.jpg",
        "thumb": "https://media.githubusercontent.com/media/ddh4r4m/wallpaper-collection/main/collection/thumbnails/nature/173.jpg"
      },
      "metadata": {
        "dimensions": {
          "width": 1080,
          "height": 1920
        },
        "file_size": 328652,
        "format": "JPEG",
        "added_at": "2025-07-17T00:04:23.539715",
        "hash": "6979118ce237216c794103c319f53074",
        "source": "migrated"
      }
    },
    {
      "id": "nature_174",
      "category": "nature",
      "title": "Nature Wallpaper 174",
      "tags": [
        "nature",
        "wallpaper",
        "hd",
        "mobile"
      ],
      "urls": {
        "raw": "https://media.githubusercontent.com/media/ddh4r4m/wallpaper-collection/main/collection/wallpapers/nature/174.jpg",
        "thumb": "https://media.githubusercontent.com/media/ddh4r4m/wallpaper-collection/main/collection/thumbnails/nature/174.jpg"
      },
      "metadata": {
        "dimensions": {
          "width": 1080,
          "height": 1920
        },
        "file_size": 702658,
        "format": "JPEG",
        "added_at": "2025-07-17T00:04:23.616127",
        "hash": "7889808369420d593b7427b171b6265a",
        "source": "migrated"
      }
    },
    {
      "id": "nature_175",
      "category": "nature",
      "title": "Nature Wallpaper 175",
      "tags": [
        "nature",
        "wallpaper",
        "hd",
        "mobile"
      ],
      "urls": {
        "raw": "https://media.githubusercontent.com/media/ddh4r4m/wallpaper-collection/main/collection/wallpapers/nature/175.jpg",
        "thumb": "https://media.githubusercontent.com/media/ddh4r4m/wallpaper-collection/main/collection/thumbnails/nature/175.jpg"
      },
      "metadata": {
        "dimensions": {
          "width": 1080,
          "height": 1920
        },
        "file_size": 319316,
        "format": "JPEG",
        "added_at": "2025-07-17T00:04:23.674505",
        "hash": "3550dd0825586162f90d8f744ff64cf9",
        "source": "migrated"
      }
    },
    {
      "id": "nature_176",
      "category": "nature",
      "title": "Nature Wallpaper 176",
      "tags": [
        "nature",
        "wallpaper",
        "hd",
        "mobile"
      ],
      "urls": {
        "raw": "https://media.githubusercontent.com/media/ddh4r4m/wallpaper-collection/main/collection/wallpapers/nature/176.jpg",
        "thumb": "https://media.githubusercontent.com/media/ddh4r4m/wallpaper-collection/main/collection/thumbnails/nature/176.jpg"
      },
      "metadata": {
        "dimensions": {
          "width": 1080,
          "height": 1920
        },
        "file_size": 549129,
        "format": "JPEG",
        "added_at": "2025-07-17T00:04:23.745017",
        "hash": "9eb17e1c0dddc8eda2560da0b84fe584",
        "source": "migrated"
      }
    },
    {
      "id": "nature_177",
      "category": "nature",
      "title": "Nature Wallpaper 177",
      "tags": [
        "nature",
        "wallpaper",
        "hd",
        "mobile"
      ],
      "urls": {
        "raw": "https://media.githubusercontent.com/media/ddh4r4m/wallpaper-collection/main/collection/wallpapers/nature/177.jpg",
        "thumb": "https://media.githubusercontent.com/media/ddh4r4m/wallpaper-collection/main/collection/thumbnails/nature/177.jpg"
      },
      "metadata": {
        "dimensions": {
          "width": 1080,
          "height": 1920
        },
        "file_size": 566629,
        "format": "JPEG",
        "added_at": "2025-07-17T00:04:23.817320",
        "hash": "ceac88c66e7ff1da5d1a1acfe9b55a32",
        "source": "migrated"
      }
    },
    {
      "id": "nature_178",
      "category": "nature",
      "title": "Nature Wallpaper 178",
      "tags": [
        "nature",
        "wallpaper",
        "hd",
        "mobile"
      ],
      "urls": {
        "raw": "https://media.githubusercontent.com/media/ddh4r4m/wallpaper-collection/main/collection/wallpapers/nature/178.jpg",
        "thumb": "https://media.githubusercontent.com/media/ddh4r4m/wallpaper-collection/main/collection/thumbnails/nature/178.jpg"
      },
      "metadata": {
        "dimensions": {
          "width": 1080,
          "height": 1920
        },
        "file_size": 363569,
        "format": "JPEG",
        "added_at": "2025-07-17T00:04:23.878440",
        "hash": "61d8c22bf04f667b6a5c12c2b3b20884",
        "source": "migrated"
      }
    },
    {
      "id": "nature_179",
      "category": "nature",
      "title": "Nature Wallpaper 179",
      "tags": [
        "nature",
        "wallpaper",
        "hd",
        "mobile"
      ],
      "urls": {
        "raw": "https://media.githubusercontent.com/media/ddh4r4m/wallpaper-collection/main/collection/wallpapers/nature/179.jpg",
        "thumb": "https://media.githubusercontent.com/media/ddh4r4m/wallpaper-collection/main/collection/thumbnails/nature/179.jpg"
      },
      "metadata": {
        "dimensions": {
          "width": 1080,
          "height": 1920
        },
        "file_size": 448271,
        "format": "JPEG",
        "added_at": "2025-07-17T00:04:23.942789",
        "hash": "0ef9874612cc9c9e7a5e8188e56db240",
        "source": "migrated"
      }
    },
    {
      "id": "nature_180",
      "category": "nature",
      "title": "Nature Wallpaper 180",
      "tags": [
        "nature",
        "wallpaper",
        "hd",
        "mobile"
      ],
      "urls": {
        "raw": "https://media.githubusercontent.com/media/ddh4r4m/wallpaper-collection/main/collection/wallpapers/nature/180.jpg",
        "thumb": "https://media.githubusercontent.com/media/ddh4r4m/wallpaper-collection/main/collection/thumbnails/nature/180.jpg"
      },
      "metadata": {
        "dimensions": {
          "width": 1080,
          "height": 1920
        },
        "file_size": 673469,
        "format": "JPEG",
        "added_at": "2025-07-17T00:04:24.023599",
        "hash": "02743bfb83ecaafe890e75ce4b7b0ef4",
        "source": "migrated"
      }
    }
  ]
}