{
  "meta": {
    "version": "1.0",
    "generated_at": "2025-07-28T22:38:03.579947",
    "category": "nature",
    "page": 18,
    "per_page": 15,
    "total_pages": 21,
    "total_count": 310,
    "count_on_page": 15,
    "has_next": true,
    "has_prev": true,
    "next_page_url": "/api/v1/nature/pages/19.json",
    "prev_page_url": "/api/v1/nature/pages/17.json"
  },
  "data": [
    {
      "id": "nature_256",
      "category": "nature",
      "title": "Nature Wallpaper 256",
      "tags": [
        "nature",
        "wallpaper",
        "hd",
        "mobile"
      ],
      "urls": {
        "raw": "https://media.githubusercontent.com/media/ddh4r4m/wallpaper-collection/main/collection/wallpapers/nature/256.jpg",
        "thumb": "https://media.githubusercontent.com/media/ddh4r4m/wallpaper-collection/main/collection/thumbnails/nature/256.jpg"
      },
      "metadata": {
        "dimensions": {
          "width": 1080,
          "height": 1920
        },
        "file_size": 150770,
        "format": "JPEG",
        "added_at": "2025-07-17T00:04:29.348837",
        "hash": "06b1b748fdef7b6a6e8118a4c06c3bb5",
        "source": "migrated"
      }
    },
    {
      "id": "nature_257",
      "category": "nature",
      "title": "Nature Wallpaper 257",
      "tags": [
        "nature",
        "wallpaper",
        "hd",
        "mobile"
      ],
      "urls": {
        "raw": "https://media.githubusercontent.com/media/ddh4r4m/wallpaper-collection/main/collection/wallpapers/nature/257.jpg",
        "thumb": "https://media.githubusercontent.com/media/ddh4r4m/wallpaper-collection/main/collection/thumbnails/nature/257.jpg"
      },
      "metadata": {
        "dimensions": {
          "width": 1080,
          "height": 1920
        },
        "file_size": 321764,
        "format": "JPEG",
        "added_at": "2025-07-17T00:04:29.407981",
        "hash": "484f5a90124c7010568e3255ad694f48",
        "source": "migrated"
      }
    },
    {
      "id": "nature_258",
      "category": "nature",
      "title": "Nature Wallpaper 258",
      "tags": [
        "nature",
        "wallpaper",
        "hd",
        "mobile"
      ],
      "urls": {
        "raw": "https://media.githubusercontent.com/media/ddh4r4m/wallpaper-collection/main/collection/wallpapers/nature/258.jpg",
        "thumb": "https://media.githubusercontent.com/media/ddh4r4m/wallpaper-collection/main/collection/thumbnails/nature/258.jpg"
      },
      "metadata": {
        "dimensions": {
          "width": 1080,
          "height": 1920
        },
        "file_size": 328813,
        "format": "JPEG",
        "added_at": "2025-07-17T00:04:29.466745",
        "hash": "2195f1a6ffcdc7bc0842ecd83e7d4e4d",
        "source": "migrated"
      }
    },
    {
      "id": "nature_259",
      "category": "nature",
      "title": "Nature Wallpaper 259",
      "tags": [
        "nature",
        "wallpaper",
        "hd",
        "mobile"
      ],
      "urls": {
        "raw": "https://media.githubusercontent.com/media/ddh4r4m/wallpaper-collection/main/collection/wallpapers/nature/259.jpg",
        "thumb": "https://media.githubusercontent.com/media/ddh4r4m/wallpaper-collection/main/collection/thumbnails/nature/259.jpg"
      },
      "metadata": {
        "dimensions": {
          "width": 1080,
          "height": 1920
        },
        "file_size": 755988,
        "format": "JPEG",
        "added_at": "2025-07-17T00:04:29.546954",
        "hash": "b9473e3c7b42c19bd6066f85acf1397a",
        "source": "migrated"
      }
    },
    {
      "id": "nature_260",
      "category": "nature",
      "title": "Nature Wallpaper 260",
      "tags": [
        "nature",
        "wallpaper",
        "hd",
        "mobile"
      ],
      "urls": {
        "raw": "https://media.githubusercontent.com/media/ddh4r4m/wallpaper-collection/main/collection/wallpapers/nature/260.jpg",
        "thumb": "https://media.githubusercontent.com/media/ddh4r4m/wallpaper-collection/main/collection/thumbnails/nature/260.jpg"
      },
      "metadata": {
        "dimensions": {
          "width": 1080,
          "height": 1920
        },
        "file_size": 445838,
        "format": "JPEG",
        "added_at": "2025-07-17T00:04:29.611470",
        "hash": "b67e8a67b650b8ffc6930d26841d7e8a",
        "source": "migrated"
      }
    },
    {
      "id": "nature_261",
      "category": "nature",
      "title": "Nature Wallpaper 261",
      "tags": [
        "nature",
        "wallpaper",
        "hd",
        "mobile"
      ],
      "urls": {
        "raw": "https://media.githubusercontent.com/media/ddh4r4m/wallpaper-collection/main/collection/wallpapers/nature/261.jpg",
        "thumb": "https://media.githubusercontent.com/media/ddh4r4m/wallpaper-collection/main/collection/thumbnails/nature/261.jpg"
      },
      "metadata": {
        "dimensions": {
          "width": 1080,
          "height": 1920
        },
        "file_size": 302253,
        "format": "JPEG",
        "added_at": "2025-07-17T00:04:29.669300",
        "hash": "c77e400810861db17a6f7b5c40232fec",
        "source": "migrated"
      }
    },
    {
      "id": "nature_262",
      "category": "nature",
      "title": "Nature Wallpaper 262",
      "tags": [
        "nature",
        "wallpaper",
        "hd",
        "mobile"
      ],
      "urls": {
        "raw": "https://media.githubusercontent.com/media/ddh4r4m/wallpaper-collection/main/collection/wallpapers/nature/262.jpg",
        "thumb": "https://media.githubusercontent.com/media/ddh4r4m/wallpaper-collection/main/collection/thumbnails/nature/262.jpg"
      },
      "metadata": {
        "dimensions": {
          "width": 1080,
          "height": 1920
        },
        "file_size": 219258,
        "format": "JPEG",
        "added_at": "2025-07-17T00:04:29.753281",
        "hash": "162be48a8ad8793e18519a9b3fe2d344",
        "source": "migrated"
      }
    },
    {
      "id": "nature_263",
      "category": "nature",
      "title": "Nature Wallpaper 263",
      "tags": [
        "nature",
        "wallpaper",
        "hd",
        "mobile"
      ],
      "urls": {
        "raw": "https://media.githubusercontent.com/media/ddh4r4m/wallpaper-collection/main/collection/wallpapers/nature/263.jpg",
        "thumb": "https://media.githubusercontent.com/media/ddh4r4m/wallpaper-collection/main/collection/thumbnails/nature/263.jpg"
      },
      "metadata": {
        "dimensions": {
          "width": 1080,
          "height": 1920
        },
        "file_size": 239571,
        "format": "JPEG",
        "added_at": "2025-07-17T00:04:29.807732",
        "hash": "809bd37c5196aabc6e64e204f79b2ecb",
        "source": "migrated"
      }
    },
    {
      "id": "nature_264",
      "category": "nature",
      "title": "Nature Wallpaper 264",
      "tags": [
        "nature",
        "wallpaper",
        "hd",
        "mobile"
      ],
      "urls": {
        "raw": "https://media.githubusercontent.com/media/ddh4r4m/wallpaper-collection/main/collection/wallpapers/nature/264.jpg",
        "thumb": "https://media.githubusercontent.com/media/ddh4r4m/wallpaper-collection/main/collection/thumbnails/nature/264.jpg"
      },
      "metadata": {
        "dimensions": {
          "width": 1080,
          "height": 1920
        },
        "file_size": 732084,
        "format": "JPEG",
        "added_at": "2025-07-17T00:04:29.885733",
        "hash": "7134d8b37d2872b672bd7c56ffbd9595",
        "source": "migrated"
      }
    },
    {
      "id": "nature_265",
      "category": "nature",
      "title": "Nature Wallpaper 265",
      "tags": [
        "nature",
        "wallpaper",
        "hd",
        "mobile"
      ],
      "urls": {
        "raw": "https://media.githubusercontent.com/media/ddh4r4m/wallpaper-collection/main/collection/wallpapers/nature/265.jpg",
        "thumb": "https://media.githubusercontent.com/media/ddh4r4m/wallpaper-collection/main/collection/thumbnails/nature/265.jpg"
      },
      "metadata": {
        "dimensions": {
          "width": 1080,
          "height": 1920
        },
        "file_size": 644165,
        "format": "JPEG",
        "added_at": "2025-07-17T00:04:29.960666",
        "hash": "a370149415386ebce76d1bea75ef71c3",
        "source": "migrated"
      }
    },
    {
      "id": "nature_266",
      "category": "nature",
      "title": "Nature Wallpaper 266",
      "tags": [
        "nature",
        "wallpaper",
        "hd",
        "mobile"
      ],
      "urls": {
        "raw": "https://media.githubusercontent.com/media/ddh4r4m/wallpaper-collection/main/collection/wallpapers/nature/266.jpg",
        "thumb": "https://media.githubusercontent.com/media/ddh4r4m/wallpaper-collection/main/collection/thumbnails/nature/266.jpg"
      },
      "metadata": {
        "dimensions": {
          "width": 1080,
          "height": 1920
        },
        "file_size": 434197,
        "format": "JPEG",
        "added_at": "2025-07-17T00:04:30.023354",
        "hash": "8f671c1027a5001b20fe1ed83ded7000",
        "source": "migrated"
      }
    },
    {
      "id": "nature_267",
      "category": "nature",
      "title": "Nature Wallpaper 267",
      "tags": [
        "nature",
        "wallpaper",
        "hd",
        "mobile"
      ],
      "urls": {
        "raw": "https://media.githubusercontent.com/media/ddh4r4m/wallpaper-collection/main/collection/wallpapers/nature/267.jpg",
        "thumb": "https://media.githubusercontent.com/media/ddh4r4m/wallpaper-collection/main/collection/thumbnails/nature/267.jpg"
      },
      "metadata": {
        "dimensions": {
          "width": 1080,
          "height": 1920
        },
        "file_size": 404101,
        "format": "JPEG",
        "added_at": "2025-07-17T00:04:30.092661",
        "hash": "c55f6844ae06701dbbb4d9892118a611",
        "source": "migrated"
      }
    },
    {
      "id": "nature_268",
      "category": "nature",
      "title": "Nature Wallpaper 268",
      "tags": [
        "nature",
        "wallpaper",
        "hd",
        "mobile"
      ],
      "urls": {
        "raw": "https://media.githubusercontent.com/media/ddh4r4m/wallpaper-collection/main/collection/wallpapers/nature/268.jpg",
        "thumb": "https://media.githubusercontent.com/media/ddh4r4m/wallpaper-collection/main/collection/thumbnails/nature/268.jpg"
      },
      "metadata": {
        "dimensions": {
          "width": 1080,
          "height": 1920
        },
        "file_size": 629065,
        "format": "JPEG",
        "added_at": "2025-07-17T00:04:30.169781",
        "hash": "a20eacd98fe77e0c552845a60445f765",
        "source": "migrated"
      }
    },
    {
      "id": "nature_269",
      "category": "nature",
      "title": "Nature Wallpaper 269",
      "tags": [
        "nature",
        "wallpaper",
        "hd",
        "mobile"
      ],
      "urls": {
        "raw": "https://media.githubusercontent.com/media/ddh4r4m/wallpaper-collection/main/collection/wallpapers/nature/269.jpg",
        "thumb": "https://media.githubusercontent.com/media/ddh4r4m/wallpaper-collection/main/collection/thumbnails/nature/269.jpg"
      },
      "metadata": {
        "dimensions": {
          "width": 1080,
          "height": 1920
        },
        "file_size": 173827,
        "format": "JPEG",
        "added_at": "2025-07-17T00:04:30.222438",
        "hash": "dd8cc06946aa540be4c2c50530683d32",
        "source": "migrated"
      }
    },
    {
      "id": "nature_270",
      "category": "nature",
      "title": "Nature Wallpaper 270",
      "tags": [
        "nature",
        "wallpaper",
        "hd",
        "mobile"
      ],
      "urls": {
        "raw": "https://media.githubusercontent.com/media/ddh4r4m/wallpaper-collection/main/collection/wallpapers/nature/270.jpg",
        "thumb": "https://media.githubusercontent.com/media/ddh4r4m/wallpaper-collection/main/collection/thumbnails/nature/270.jpg"
      },
      "metadata": {
        "dimensions": {
          "width": 1080,
          "height": 1920
        },
        "file_size": 476276,
        "format": "JPEG",
        "added_at": "2025-07-17T00:04:30.289080",
        "hash": "25a514b8a74cac2bd20b08864f346a47",
        "source": "migrated"
      }
    }
  ]
}