{
  "meta": {
    "version": "1.0",
    "generated_at": "2025-07-17T21:14:17.488868",
    "category": "nature",
    "page": 2,
    "per_page": 15,
    "total_pages": 19,
    "total_count": 284,
    "count_on_page": 15,
    "has_next": true,
    "has_prev": true,
    "next_page_url": "/api/v1/nature/pages/3.json",
    "prev_page_url": "/api/v1/nature/pages/1.json"
  },
  "data": [
    {
      "id": "nature_016",
      "category": "nature",
      "title": "Nature Wallpaper 016",
      "tags": [
        "nature",
        "wallpaper",
        "hd",
        "mobile"
      ],
      "urls": {
        "raw": "https://media.githubusercontent.com/media/ddh4r4m/wallpaper-collection/main/collection/wallpapers/nature/016.jpg",
        "thumb": "https://media.githubusercontent.com/media/ddh4r4m/wallpaper-collection/main/collection/thumbnails/nature/016.jpg"
      },
      "metadata": {
        "dimensions": {
          "width": 1080,
          "height": 1920
        },
        "file_size": 512934,
        "format": "JPEG",
        "added_at": "2025-07-17T00:04:12.974178",
        "hash": "e0f0429da6141e88684bbe4cd8ad66e9",
        "source": "migrated"
      }
    },
    {
      "id": "nature_017",
      "category": "nature",
      "title": "Nature Wallpaper 017",
      "tags": [
        "nature",
        "wallpaper",
        "hd",
        "mobile"
      ],
      "urls": {
        "raw": "https://media.githubusercontent.com/media/ddh4r4m/wallpaper-collection/main/collection/wallpapers/nature/017.jpg",
        "thumb": "https://media.githubusercontent.com/media/ddh4r4m/wallpaper-collection/main/collection/thumbnails/nature/017.jpg"
      },
      "metadata": {
        "dimensions": {
          "width": 1080,
          "height": 1920
        },
        "file_size": 426319,
        "format": "JPEG",
        "added_at": "2025-07-17T00:04:13.037265",
        "hash": "36df691d040db67729e85052cac9f246",
        "source": "migrated"
      }
    },
    {
      "id": "nature_018",
      "category": "nature",
      "title": "Nature Wallpaper 018",
      "tags": [
        "nature",
        "wallpaper",
        "hd",
        "mobile"
      ],
      "urls": {
        "raw": "https://media.githubusercontent.com/media/ddh4r4m/wallpaper-collection/main/collection/wallpapers/nature/018.jpg",
        "thumb": "https://media.githubusercontent.com/media/ddh4r4m/wallpaper-collection/main/collection/thumbnails/nature/018.jpg"
      },
      "metadata": {
        "dimensions": {
          "width": 1080,
          "height": 1920
        },
        "file_size": 443628,
        "format": "JPEG",
        "added_at": "2025-07-17T00:04:13.103259",
        "hash": "2727bba2bb3d16ef9402921d088b4d59",
        "source": "migrated"
      }
    },
    {
      "id": "nature_019",
      "category": "nature",
      "title": "Nature Wallpaper 019",
      "tags": [
        "nature",
        "wallpaper",
        "hd",
        "mobile"
      ],
      "urls": {
        "raw": "https://media.githubusercontent.com/media/ddh4r4m/wallpaper-collection/main/collection/wallpapers/nature/019.jpg",
        "thumb": "https://media.githubusercontent.com/media/ddh4r4m/wallpaper-collection/main/collection/thumbnails/nature/019.jpg"
      },
      "metadata": {
        "dimensions": {
          "width": 1080,
          "height": 1920
        },
        "file_size": 306571,
        "format": "JPEG",
        "added_at": "2025-07-17T00:04:13.161057",
        "hash": "b36c240c60f034c66318cfab55000c68",
        "source": "migrated"
      }
    },
    {
      "id": "nature_020",
      "category": "nature",
      "title": "Nature Wallpaper 020",
      "tags": [
        "nature",
        "wallpaper",
        "hd",
        "mobile"
      ],
      "urls": {
        "raw": "https://media.githubusercontent.com/media/ddh4r4m/wallpaper-collection/main/collection/wallpapers/nature/020.jpg",
        "thumb": "https://media.githubusercontent.com/media/ddh4r4m/wallpaper-collection/main/collection/thumbnails/nature/020.jpg"
      },
      "metadata": {
        "dimensions": {
          "width": 1080,
          "height": 1920
        },
        "file_size": 243116,
        "format": "JPEG",
        "added_at": "2025-07-17T00:04:13.215861",
        "hash": "cc17d1c8aad0a56a8439631aac3fe5b9",
        "source": "migrated"
      }
    },
    {
      "id": "nature_021",
      "category": "nature",
      "title": "Nature Wallpaper 021",
      "tags": [
        "nature",
        "wallpaper",
        "hd",
        "mobile"
      ],
      "urls": {
        "raw": "https://media.githubusercontent.com/media/ddh4r4m/wallpaper-collection/main/collection/wallpapers/nature/021.jpg",
        "thumb": "https://media.githubusercontent.com/media/ddh4r4m/wallpaper-collection/main/collection/thumbnails/nature/021.jpg"
      },
      "metadata": {
        "dimensions": {
          "width": 1080,
          "height": 1920
        },
        "file_size": 473693,
        "format": "JPEG",
        "added_at": "2025-07-17T00:04:13.283371",
        "hash": "7d322265fdd93429a2241566681c0d54",
        "source": "migrated"
      }
    },
    {
      "id": "nature_022",
      "category": "nature",
      "title": "Nature Wallpaper 022",
      "tags": [
        "nature",
        "wallpaper",
        "hd",
        "mobile"
      ],
      "urls": {
        "raw": "https://media.githubusercontent.com/media/ddh4r4m/wallpaper-collection/main/collection/wallpapers/nature/022.jpg",
        "thumb": "https://media.githubusercontent.com/media/ddh4r4m/wallpaper-collection/main/collection/thumbnails/nature/022.jpg"
      },
      "metadata": {
        "dimensions": {
          "width": 1080,
          "height": 1920
        },
        "file_size": 631090,
        "format": "JPEG",
        "added_at": "2025-07-17T00:04:13.359114",
        "hash": "7bf5d6018f3d18391aee5573682049d7",
        "source": "migrated"
      }
    },
    {
      "id": "nature_023",
      "category": "nature",
      "title": "Nature Wallpaper 023",
      "tags": [
        "nature",
        "wallpaper",
        "hd",
        "mobile"
      ],
      "urls": {
        "raw": "https://media.githubusercontent.com/media/ddh4r4m/wallpaper-collection/main/collection/wallpapers/nature/023.jpg",
        "thumb": "https://media.githubusercontent.com/media/ddh4r4m/wallpaper-collection/main/collection/thumbnails/nature/023.jpg"
      },
      "metadata": {
        "dimensions": {
          "width": 1080,
          "height": 1920
        },
        "file_size": 508646,
        "format": "JPEG",
        "added_at": "2025-07-17T00:04:13.427000",
        "hash": "b948fe858712d5eb22c7fde0b9bde2b0",
        "source": "migrated"
      }
    },
    {
      "id": "nature_024",
      "category": "nature",
      "title": "Nature Wallpaper 024",
      "tags": [
        "nature",
        "wallpaper",
        "hd",
        "mobile"
      ],
      "urls": {
        "raw": "https://media.githubusercontent.com/media/ddh4r4m/wallpaper-collection/main/collection/wallpapers/nature/024.jpg",
        "thumb": "https://media.githubusercontent.com/media/ddh4r4m/wallpaper-collection/main/collection/thumbnails/nature/024.jpg"
      },
      "metadata": {
        "dimensions": {
          "width": 1080,
          "height": 1920
        },
        "file_size": 703106,
        "format": "JPEG",
        "added_at": "2025-07-17T00:04:13.505714",
        "hash": "dcaaab5c02ec8fb4bfca07aa0e5a24e1",
        "source": "migrated"
      }
    },
    {
      "id": "nature_025",
      "category": "nature",
      "title": "Nature Wallpaper 025",
      "tags": [
        "nature",
        "wallpaper",
        "hd",
        "mobile"
      ],
      "urls": {
        "raw": "https://media.githubusercontent.com/media/ddh4r4m/wallpaper-collection/main/collection/wallpapers/nature/025.jpg",
        "thumb": "https://media.githubusercontent.com/media/ddh4r4m/wallpaper-collection/main/collection/thumbnails/nature/025.jpg"
      },
      "metadata": {
        "dimensions": {
          "width": 1080,
          "height": 1920
        },
        "file_size": 394400,
        "format": "JPEG",
        "added_at": "2025-07-17T00:04:13.571021",
        "hash": "e3c510442bfc6bcc1729a0be2734c896",
        "source": "migrated"
      }
    },
    {
      "id": "nature_026",
      "category": "nature",
      "title": "Nature Wallpaper 026",
      "tags": [
        "nature",
        "wallpaper",
        "hd",
        "mobile"
      ],
      "urls": {
        "raw": "https://media.githubusercontent.com/media/ddh4r4m/wallpaper-collection/main/collection/wallpapers/nature/026.jpg",
        "thumb": "https://media.githubusercontent.com/media/ddh4r4m/wallpaper-collection/main/collection/thumbnails/nature/026.jpg"
      },
      "metadata": {
        "dimensions": {
          "width": 1080,
          "height": 1920
        },
        "file_size": 546498,
        "format": "JPEG",
        "added_at": "2025-07-17T00:04:13.642589",
        "hash": "b9d371f9e9f08574c45bb1dd61674c71",
        "source": "migrated"
      }
    },
    {
      "id": "nature_027",
      "category": "nature",
      "title": "Nature Wallpaper 027",
      "tags": [
        "nature",
        "wallpaper",
        "hd",
        "mobile"
      ],
      "urls": {
        "raw": "https://media.githubusercontent.com/media/ddh4r4m/wallpaper-collection/main/collection/wallpapers/nature/027.jpg",
        "thumb": "https://media.githubusercontent.com/media/ddh4r4m/wallpaper-collection/main/collection/thumbnails/nature/027.jpg"
      },
      "metadata": {
        "dimensions": {
          "width": 1080,
          "height": 1920
        },
        "file_size": 284153,
        "format": "JPEG",
        "added_at": "2025-07-17T00:04:13.700563",
        "hash": "1f16666a7dfc846e2450a6f37cf545ae",
        "source": "migrated"
      }
    },
    {
      "id": "nature_028",
      "category": "nature",
      "title": "Nature Wallpaper 028",
      "tags": [
        "nature",
        "wallpaper",
        "hd",
        "mobile"
      ],
      "urls": {
        "raw": "https://media.githubusercontent.com/media/ddh4r4m/wallpaper-collection/main/collection/wallpapers/nature/028.jpg",
        "thumb": "https://media.githubusercontent.com/media/ddh4r4m/wallpaper-collection/main/collection/thumbnails/nature/028.jpg"
      },
      "metadata": {
        "dimensions": {
          "width": 1080,
          "height": 1920
        },
        "file_size": 447700,
        "format": "JPEG",
        "added_at": "2025-07-17T00:04:13.766894",
        "hash": "fc683c0fd221018b9ddd744905cebf95",
        "source": "migrated"
      }
    },
    {
      "id": "nature_029",
      "category": "nature",
      "title": "Nature Wallpaper 029",
      "tags": [
        "nature",
        "wallpaper",
        "hd",
        "mobile"
      ],
      "urls": {
        "raw": "https://media.githubusercontent.com/media/ddh4r4m/wallpaper-collection/main/collection/wallpapers/nature/029.jpg",
        "thumb": "https://media.githubusercontent.com/media/ddh4r4m/wallpaper-collection/main/collection/thumbnails/nature/029.jpg"
      },
      "metadata": {
        "dimensions": {
          "width": 1080,
          "height": 1920
        },
        "file_size": 453268,
        "format": "JPEG",
        "added_at": "2025-07-17T00:04:13.833588",
        "hash": "c1da330f1591b91221664b5055c3db5f",
        "source": "migrated"
      }
    },
    {
      "id": "nature_030",
      "category": "nature",
      "title": "Nature Wallpaper 030",
      "tags": [
        "nature",
        "wallpaper",
        "hd",
        "mobile"
      ],
      "urls": {
        "raw": "https://media.githubusercontent.com/media/ddh4r4m/wallpaper-collection/main/collection/wallpapers/nature/030.jpg",
        "thumb": "https://media.githubusercontent.com/media/ddh4r4m/wallpaper-collection/main/collection/thumbnails/nature/030.jpg"
      },
      "metadata": {
        "dimensions": {
          "width": 1080,
          "height": 1920
        },
        "file_size": 289493,
        "format": "JPEG",
        "added_at": "2025-07-17T00:04:13.891418",
        "hash": "5e50007e9b0c78c8459f40ee557ba93b",
        "source": "migrated"
      }
    }
  ]
}