{
  "meta": {
    "version": "1.0",
    "generated_at": "2025-07-28T21:27:34.814586",
    "category": "nature",
    "page": 3,
    "per_page": 15,
    "total_pages": 21,
    "total_count": 304,
    "count_on_page": 15,
    "has_next": true,
    "has_prev": true,
    "next_page_url": "/api/v1/nature/pages/4.json",
    "prev_page_url": "/api/v1/nature/pages/2.json"
  },
  "data": [
    {
      "id": "nature_031",
      "category": "nature",
      "title": "Nature Wallpaper 031",
      "tags": [
        "nature",
        "wallpaper",
        "hd",
        "mobile"
      ],
      "urls": {
        "raw": "https://media.githubusercontent.com/media/ddh4r4m/wallpaper-collection/main/collection/wallpapers/nature/031.jpg",
        "thumb": "https://media.githubusercontent.com/media/ddh4r4m/wallpaper-collection/main/collection/thumbnails/nature/031.jpg"
      },
      "metadata": {
        "dimensions": {
          "width": 1080,
          "height": 1920
        },
        "file_size": 540531,
        "format": "JPEG",
        "added_at": "2025-07-17T00:04:13.962476",
        "hash": "5697faf07335e1c6148a9243d99040d3",
        "source": "migrated"
      }
    },
    {
      "id": "nature_032",
      "category": "nature",
      "title": "Nature Wallpaper 032",
      "tags": [
        "nature",
        "wallpaper",
        "hd",
        "mobile"
      ],
      "urls": {
        "raw": "https://media.githubusercontent.com/media/ddh4r4m/wallpaper-collection/main/collection/wallpapers/nature/032.jpg",
        "thumb": "https://media.githubusercontent.com/media/ddh4r4m/wallpaper-collection/main/collection/thumbnails/nature/032.jpg"
      },
      "metadata": {
        "dimensions": {
          "width": 1080,
          "height": 1920
        },
        "file_size": 512129,
        "format": "JPEG",
        "added_at": "2025-07-17T00:04:14.030540",
        "hash": "50d037c0924c69abd50f622bb24e9ab2",
        "source": "migrated"
      }
    },
    {
      "id": "nature_033",
      "category": "nature",
      "title": "Nature Wallpaper 033",
      "tags": [
        "nature",
        "wallpaper",
        "hd",
        "mobile"
      ],
      "urls": {
        "raw": "https://media.githubusercontent.com/media/ddh4r4m/wallpaper-collection/main/collection/wallpapers/nature/033.jpg",
        "thumb": "https://media.githubusercontent.com/media/ddh4r4m/wallpaper-collection/main/collection/thumbnails/nature/033.jpg"
      },
      "metadata": {
        "dimensions": {
          "width": 1080,
          "height": 1920
        },
        "file_size": 440189,
        "format": "JPEG",
        "added_at": "2025-07-17T00:04:14.094803",
        "hash": "4e9d2a0384d14cd05f94f1d6403d21eb",
        "source": "migrated"
      }
    },
    {
      "id": "nature_034",
      "category": "nature",
      "title": "Nature Wallpaper 034",
      "tags": [
        "nature",
        "wallpaper",
        "hd",
        "mobile"
      ],
      "urls": {
        "raw": "https://media.githubusercontent.com/media/ddh4r4m/wallpaper-collection/main/collection/wallpapers/nature/034.jpg",
        "thumb": "https://media.githubusercontent.com/media/ddh4r4m/wallpaper-collection/main/collection/thumbnails/nature/034.jpg"
      },
      "metadata": {
        "dimensions": {
          "width": 1080,
          "height": 1920
        },
        "file_size": 690679,
        "format": "JPEG",
        "added_at": "2025-07-17T00:04:14.172870",
        "hash": "4a18bd2f486532b6d1d9522c1cd68858",
        "source": "migrated"
      }
    },
    {
      "id": "nature_035",
      "category": "nature",
      "title": "Nature Wallpaper 035",
      "tags": [
        "nature",
        "wallpaper",
        "hd",
        "mobile"
      ],
      "urls": {
        "raw": "https://media.githubusercontent.com/media/ddh4r4m/wallpaper-collection/main/collection/wallpapers/nature/035.jpg",
        "thumb": "https://media.githubusercontent.com/media/ddh4r4m/wallpaper-collection/main/collection/thumbnails/nature/035.jpg"
      },
      "metadata": {
        "dimensions": {
          "width": 1080,
          "height": 1920
        },
        "file_size": 538921,
        "format": "JPEG",
        "added_at": "2025-07-17T00:04:14.244628",
        "hash": "57cb30554caf021cd73970583ca71a9b",
        "source": "migrated"
      }
    },
    {
      "id": "nature_036",
      "category": "nature",
      "title": "Nature Wallpaper 036",
      "tags": [
        "nature",
        "wallpaper",
        "hd",
        "mobile"
      ],
      "urls": {
        "raw": "https://media.githubusercontent.com/media/ddh4r4m/wallpaper-collection/main/collection/wallpapers/nature/036.jpg",
        "thumb": "https://media.githubusercontent.com/media/ddh4r4m/wallpaper-collection/main/collection/thumbnails/nature/036.jpg"
      },
      "metadata": {
        "dimensions": {
          "width": 1080,
          "height": 1920
        },
        "file_size": 542104,
        "format": "JPEG",
        "added_at": "2025-07-17T00:04:14.314475",
        "hash": "e4ede5d1de68bbd5130f52c2b6a06e84",
        "source": "migrated"
      }
    },
    {
      "id": "nature_037",
      "category": "nature",
      "title": "Nature Wallpaper 037",
      "tags": [
        "nature",
        "wallpaper",
        "hd",
        "mobile"
      ],
      "urls": {
        "raw": "https://media.githubusercontent.com/media/ddh4r4m/wallpaper-collection/main/collection/wallpapers/nature/037.jpg",
        "thumb": "https://media.githubusercontent.com/media/ddh4r4m/wallpaper-collection/main/collection/thumbnails/nature/037.jpg"
      },
      "metadata": {
        "dimensions": {
          "width": 1080,
          "height": 1920
        },
        "file_size": 678410,
        "format": "JPEG",
        "added_at": "2025-07-17T00:04:14.389954",
        "hash": "6abdb3d47a9b7106df2503c552740da1",
        "source": "migrated"
      }
    },
    {
      "id": "nature_038",
      "category": "nature",
      "title": "Nature Wallpaper 038",
      "tags": [
        "nature",
        "wallpaper",
        "hd",
        "mobile"
      ],
      "urls": {
        "raw": "https://media.githubusercontent.com/media/ddh4r4m/wallpaper-collection/main/collection/wallpapers/nature/038.jpg",
        "thumb": "https://media.githubusercontent.com/media/ddh4r4m/wallpaper-collection/main/collection/thumbnails/nature/038.jpg"
      },
      "metadata": {
        "dimensions": {
          "width": 1080,
          "height": 1920
        },
        "file_size": 311544,
        "format": "JPEG",
        "added_at": "2025-07-17T00:04:14.450564",
        "hash": "b38f7d18de7ba16a44b9dfcae61105b2",
        "source": "migrated"
      }
    },
    {
      "id": "nature_039",
      "category": "nature",
      "title": "Nature Wallpaper 039",
      "tags": [
        "nature",
        "wallpaper",
        "hd",
        "mobile"
      ],
      "urls": {
        "raw": "https://media.githubusercontent.com/media/ddh4r4m/wallpaper-collection/main/collection/wallpapers/nature/039.jpg",
        "thumb": "https://media.githubusercontent.com/media/ddh4r4m/wallpaper-collection/main/collection/thumbnails/nature/039.jpg"
      },
      "metadata": {
        "dimensions": {
          "width": 1080,
          "height": 1920
        },
        "file_size": 368294,
        "format": "JPEG",
        "added_at": "2025-07-17T00:04:14.512673",
        "hash": "9559bbd830da475762e9bf4c04534a3b",
        "source": "migrated"
      }
    },
    {
      "id": "nature_040",
      "category": "nature",
      "title": "Nature Wallpaper 040",
      "tags": [
        "nature",
        "wallpaper",
        "hd",
        "mobile"
      ],
      "urls": {
        "raw": "https://media.githubusercontent.com/media/ddh4r4m/wallpaper-collection/main/collection/wallpapers/nature/040.jpg",
        "thumb": "https://media.githubusercontent.com/media/ddh4r4m/wallpaper-collection/main/collection/thumbnails/nature/040.jpg"
      },
      "metadata": {
        "dimensions": {
          "width": 1080,
          "height": 1920
        },
        "file_size": 235114,
        "format": "JPEG",
        "added_at": "2025-07-17T00:04:14.566900",
        "hash": "b4c9b1d6764bec29f46f32bcc33d0d05",
        "source": "migrated"
      }
    },
    {
      "id": "nature_041",
      "category": "nature",
      "title": "Nature Wallpaper 041",
      "tags": [
        "nature",
        "wallpaper",
        "hd",
        "mobile"
      ],
      "urls": {
        "raw": "https://media.githubusercontent.com/media/ddh4r4m/wallpaper-collection/main/collection/wallpapers/nature/041.jpg",
        "thumb": "https://media.githubusercontent.com/media/ddh4r4m/wallpaper-collection/main/collection/thumbnails/nature/041.jpg"
      },
      "metadata": {
        "dimensions": {
          "width": 1080,
          "height": 1920
        },
        "file_size": 103329,
        "format": "JPEG",
        "added_at": "2025-07-17T00:04:14.614455",
        "hash": "5a9783b10b9a27b0bd86d059dea008ff",
        "source": "migrated"
      }
    },
    {
      "id": "nature_042",
      "category": "nature",
      "title": "Nature Wallpaper 042",
      "tags": [
        "nature",
        "wallpaper",
        "hd",
        "mobile"
      ],
      "urls": {
        "raw": "https://media.githubusercontent.com/media/ddh4r4m/wallpaper-collection/main/collection/wallpapers/nature/042.jpg",
        "thumb": "https://media.githubusercontent.com/media/ddh4r4m/wallpaper-collection/main/collection/thumbnails/nature/042.jpg"
      },
      "metadata": {
        "dimensions": {
          "width": 1080,
          "height": 1920
        },
        "file_size": 376300,
        "format": "JPEG",
        "added_at": "2025-07-17T00:04:14.676072",
        "hash": "eb1d98b830542e1c73f38b62126d5669",
        "source": "migrated"
      }
    },
    {
      "id": "nature_043",
      "category": "nature",
      "title": "Nature Wallpaper 043",
      "tags": [
        "nature",
        "wallpaper",
        "hd",
        "mobile"
      ],
      "urls": {
        "raw": "https://media.githubusercontent.com/media/ddh4r4m/wallpaper-collection/main/collection/wallpapers/nature/043.jpg",
        "thumb": "https://media.githubusercontent.com/media/ddh4r4m/wallpaper-collection/main/collection/thumbnails/nature/043.jpg"
      },
      "metadata": {
        "dimensions": {
          "width": 1080,
          "height": 1920
        },
        "file_size": 612132,
        "format": "JPEG",
        "added_at": "2025-07-17T00:04:14.750963",
        "hash": "f64a1c67b35e13ef47f5f346beddd9cd",
        "source": "migrated"
      }
    },
    {
      "id": "nature_044",
      "category": "nature",
      "title": "Nature Wallpaper 044",
      "tags": [
        "nature",
        "wallpaper",
        "hd",
        "mobile"
      ],
      "urls": {
        "raw": "https://media.githubusercontent.com/media/ddh4r4m/wallpaper-collection/main/collection/wallpapers/nature/044.jpg",
        "thumb": "https://media.githubusercontent.com/media/ddh4r4m/wallpaper-collection/main/collection/thumbnails/nature/044.jpg"
      },
      "metadata": {
        "dimensions": {
          "width": 1080,
          "height": 1920
        },
        "file_size": 538561,
        "format": "JPEG",
        "added_at": "2025-07-17T00:04:14.820990",
        "hash": "173543eb8687abf0972651094f06cec1",
        "source": "migrated"
      }
    },
    {
      "id": "nature_045",
      "category": "nature",
      "title": "Nature Wallpaper 045",
      "tags": [
        "nature",
        "wallpaper",
        "hd",
        "mobile"
      ],
      "urls": {
        "raw": "https://media.githubusercontent.com/media/ddh4r4m/wallpaper-collection/main/collection/wallpapers/nature/045.jpg",
        "thumb": "https://media.githubusercontent.com/media/ddh4r4m/wallpaper-collection/main/collection/thumbnails/nature/045.jpg"
      },
      "metadata": {
        "dimensions": {
          "width": 1080,
          "height": 1920
        },
        "file_size": 349224,
        "format": "JPEG",
        "added_at": "2025-07-17T00:04:14.880269",
        "hash": "f6b8bad9f94bc6d24c7b871c85ba6868",
        "source": "migrated"
      }
    }
  ]
}