{
  "meta": {
    "version": "1.0",
    "generated_at": "2025-07-19T12:26:57.111378",
    "category": "nature",
    "page": 5,
    "per_page": 15,
    "total_pages": 21,
    "total_count": 304,
    "count_on_page": 15,
    "has_next": true,
    "has_prev": true,
    "next_page_url": "/api/v1/nature/pages/6.json",
    "prev_page_url": "/api/v1/nature/pages/4.json"
  },
  "data": [
    {
      "id": "nature_061",
      "category": "nature",
      "title": "Nature Wallpaper 061",
      "tags": [
        "nature",
        "wallpaper",
        "hd",
        "mobile"
      ],
      "urls": {
        "raw": "https://media.githubusercontent.com/media/ddh4r4m/wallpaper-collection/main/collection/wallpapers/nature/061.jpg",
        "thumb": "https://media.githubusercontent.com/media/ddh4r4m/wallpaper-collection/main/collection/thumbnails/nature/061.jpg"
      },
      "metadata": {
        "dimensions": {
          "width": 1080,
          "height": 1920
        },
        "file_size": 412965,
        "format": "JPEG",
        "added_at": "2025-07-17T00:04:16.013403",
        "hash": "7bdbcb8be8586e976824d57ddca68722",
        "source": "migrated"
      }
    },
    {
      "id": "nature_062",
      "category": "nature",
      "title": "Nature Wallpaper 062",
      "tags": [
        "nature",
        "wallpaper",
        "hd",
        "mobile"
      ],
      "urls": {
        "raw": "https://media.githubusercontent.com/media/ddh4r4m/wallpaper-collection/main/collection/wallpapers/nature/062.jpg",
        "thumb": "https://media.githubusercontent.com/media/ddh4r4m/wallpaper-collection/main/collection/thumbnails/nature/062.jpg"
      },
      "metadata": {
        "dimensions": {
          "width": 1080,
          "height": 1920
        },
        "file_size": 532079,
        "format": "JPEG",
        "added_at": "2025-07-17T00:04:16.083350",
        "hash": "60f1f6c64451cae624bad9fba68806b5",
        "source": "migrated"
      }
    },
    {
      "id": "nature_063",
      "category": "nature",
      "title": "Nature Wallpaper 063",
      "tags": [
        "nature",
        "wallpaper",
        "hd",
        "mobile"
      ],
      "urls": {
        "raw": "https://media.githubusercontent.com/media/ddh4r4m/wallpaper-collection/main/collection/wallpapers/nature/063.jpg",
        "thumb": "https://media.githubusercontent.com/media/ddh4r4m/wallpaper-collection/main/collection/thumbnails/nature/063.jpg"
      },
      "metadata": {
        "dimensions": {
          "width": 1080,
          "height": 1920
        },
        "file_size": 427510,
        "format": "JPEG",
        "added_at": "2025-07-17T00:04:16.148212",
        "hash": "2a056f926c3a49e72a1a6c60014b8816",
        "source": "migrated"
      }
    },
    {
      "id": "nature_064",
      "category": "nature",
      "title": "Nature Wallpaper 064",
      "tags": [
        "nature",
        "wallpaper",
        "hd",
        "mobile"
      ],
      "urls": {
        "raw": "https://media.githubusercontent.com/media/ddh4r4m/wallpaper-collection/main/collection/wallpapers/nature/064.jpg",
        "thumb": "https://media.githubusercontent.com/media/ddh4r4m/wallpaper-collection/main/collection/thumbnails/nature/064.jpg"
      },
      "metadata": {
        "dimensions": {
          "width": 1080,
          "height": 1920
        },
        "file_size": 675336,
        "format": "JPEG",
        "added_at": "2025-07-17T00:04:16.222903",
        "hash": "64d5ee0e323c50c1c585ac548d2e7ff5",
        "source": "migrated"
      }
    },
    {
      "id": "nature_065",
      "category": "nature",
      "title": "Nature Wallpaper 065",
      "tags": [
        "nature",
        "wallpaper",
        "hd",
        "mobile"
      ],
      "urls": {
        "raw": "https://media.githubusercontent.com/media/ddh4r4m/wallpaper-collection/main/collection/wallpapers/nature/065.jpg",
        "thumb": "https://media.githubusercontent.com/media/ddh4r4m/wallpaper-collection/main/collection/thumbnails/nature/065.jpg"
      },
      "metadata": {
        "dimensions": {
          "width": 1080,
          "height": 1920
        },
        "file_size": 488404,
        "format": "JPEG",
        "added_at": "2025-07-17T00:04:16.288662",
        "hash": "1a0f1565130922c273c3eea0b57f4624",
        "source": "migrated"
      }
    },
    {
      "id": "nature_066",
      "category": "nature",
      "title": "Nature Wallpaper 066",
      "tags": [
        "nature",
        "wallpaper",
        "hd",
        "mobile"
      ],
      "urls": {
        "raw": "https://media.githubusercontent.com/media/ddh4r4m/wallpaper-collection/main/collection/wallpapers/nature/066.jpg",
        "thumb": "https://media.githubusercontent.com/media/ddh4r4m/wallpaper-collection/main/collection/thumbnails/nature/066.jpg"
      },
      "metadata": {
        "dimensions": {
          "width": 1080,
          "height": 1920
        },
        "file_size": 551613,
        "format": "JPEG",
        "added_at": "2025-07-17T00:04:16.358878",
        "hash": "46e0d36971107812588237ce69dd7972",
        "source": "migrated"
      }
    },
    {
      "id": "nature_067",
      "category": "nature",
      "title": "Nature Wallpaper 067",
      "tags": [
        "nature",
        "wallpaper",
        "hd",
        "mobile"
      ],
      "urls": {
        "raw": "https://media.githubusercontent.com/media/ddh4r4m/wallpaper-collection/main/collection/wallpapers/nature/067.jpg",
        "thumb": "https://media.githubusercontent.com/media/ddh4r4m/wallpaper-collection/main/collection/thumbnails/nature/067.jpg"
      },
      "metadata": {
        "dimensions": {
          "width": 1080,
          "height": 1920
        },
        "file_size": 749381,
        "format": "JPEG",
        "added_at": "2025-07-17T00:04:16.440794",
        "hash": "fe3f98443f1440e83f59063e1ae05827",
        "source": "migrated"
      }
    },
    {
      "id": "nature_068",
      "category": "nature",
      "title": "Nature Wallpaper 068",
      "tags": [
        "nature",
        "wallpaper",
        "hd",
        "mobile"
      ],
      "urls": {
        "raw": "https://media.githubusercontent.com/media/ddh4r4m/wallpaper-collection/main/collection/wallpapers/nature/068.jpg",
        "thumb": "https://media.githubusercontent.com/media/ddh4r4m/wallpaper-collection/main/collection/thumbnails/nature/068.jpg"
      },
      "metadata": {
        "dimensions": {
          "width": 1080,
          "height": 1920
        },
        "file_size": 360556,
        "format": "JPEG",
        "added_at": "2025-07-17T00:04:16.502417",
        "hash": "2931fab0cc8e7a087a25fe44f07b8757",
        "source": "migrated"
      }
    },
    {
      "id": "nature_069",
      "category": "nature",
      "title": "Nature Wallpaper 069",
      "tags": [
        "nature",
        "wallpaper",
        "hd",
        "mobile"
      ],
      "urls": {
        "raw": "https://media.githubusercontent.com/media/ddh4r4m/wallpaper-collection/main/collection/wallpapers/nature/069.jpg",
        "thumb": "https://media.githubusercontent.com/media/ddh4r4m/wallpaper-collection/main/collection/thumbnails/nature/069.jpg"
      },
      "metadata": {
        "dimensions": {
          "width": 1080,
          "height": 1920
        },
        "file_size": 589347,
        "format": "JPEG",
        "added_at": "2025-07-17T00:04:16.575017",
        "hash": "34df96f775e83f82ffd98d7126268c22",
        "source": "migrated"
      }
    },
    {
      "id": "nature_070",
      "category": "nature",
      "title": "Nature Wallpaper 070",
      "tags": [
        "nature",
        "wallpaper",
        "hd",
        "mobile"
      ],
      "urls": {
        "raw": "https://media.githubusercontent.com/media/ddh4r4m/wallpaper-collection/main/collection/wallpapers/nature/070.jpg",
        "thumb": "https://media.githubusercontent.com/media/ddh4r4m/wallpaper-collection/main/collection/thumbnails/nature/070.jpg"
      },
      "metadata": {
        "dimensions": {
          "width": 1080,
          "height": 1920
        },
        "file_size": 251100,
        "format": "JPEG",
        "added_at": "2025-07-17T00:04:16.629814",
        "hash": "84eebebf5f8fa7bf2f018c9e661a92d2",
        "source": "migrated"
      }
    },
    {
      "id": "nature_071",
      "category": "nature",
      "title": "Nature Wallpaper 071",
      "tags": [
        "nature",
        "wallpaper",
        "hd",
        "mobile"
      ],
      "urls": {
        "raw": "https://media.githubusercontent.com/media/ddh4r4m/wallpaper-collection/main/collection/wallpapers/nature/071.jpg",
        "thumb": "https://media.githubusercontent.com/media/ddh4r4m/wallpaper-collection/main/collection/thumbnails/nature/071.jpg"
      },
      "metadata": {
        "dimensions": {
          "width": 1080,
          "height": 1920
        },
        "file_size": 418694,
        "format": "JPEG",
        "added_at": "2025-07-17T00:04:16.692819",
        "hash": "9369fcaac15bc5fec3b050818ac3c7a1",
        "source": "migrated"
      }
    },
    {
      "id": "nature_072",
      "category": "nature",
      "title": "Nature Wallpaper 072",
      "tags": [
        "nature",
        "wallpaper",
        "hd",
        "mobile"
      ],
      "urls": {
        "raw": "https://media.githubusercontent.com/media/ddh4r4m/wallpaper-collection/main/collection/wallpapers/nature/072.jpg",
        "thumb": "https://media.githubusercontent.com/media/ddh4r4m/wallpaper-collection/main/collection/thumbnails/nature/072.jpg"
      },
      "metadata": {
        "dimensions": {
          "width": 1080,
          "height": 1920
        },
        "file_size": 366408,
        "format": "JPEG",
        "added_at": "2025-07-17T00:04:16.752926",
        "hash": "57139c290cfc7270153ba9864614d800",
        "source": "migrated"
      }
    },
    {
      "id": "nature_073",
      "category": "nature",
      "title": "Nature Wallpaper 073",
      "tags": [
        "nature",
        "wallpaper",
        "hd",
        "mobile"
      ],
      "urls": {
        "raw": "https://media.githubusercontent.com/media/ddh4r4m/wallpaper-collection/main/collection/wallpapers/nature/073.jpg",
        "thumb": "https://media.githubusercontent.com/media/ddh4r4m/wallpaper-collection/main/collection/thumbnails/nature/073.jpg"
      },
      "metadata": {
        "dimensions": {
          "width": 1080,
          "height": 1920
        },
        "file_size": 286408,
        "format": "JPEG",
        "added_at": "2025-07-17T00:04:16.811338",
        "hash": "ffa886b4d68c5561d4a6674dc1da4650",
        "source": "migrated"
      }
    },
    {
      "id": "nature_074",
      "category": "nature",
      "title": "Nature Wallpaper 074",
      "tags": [
        "nature",
        "wallpaper",
        "hd",
        "mobile"
      ],
      "urls": {
        "raw": "https://media.githubusercontent.com/media/ddh4r4m/wallpaper-collection/main/collection/wallpapers/nature/074.jpg",
        "thumb": "https://media.githubusercontent.com/media/ddh4r4m/wallpaper-collection/main/collection/thumbnails/nature/074.jpg"
      },
      "metadata": {
        "dimensions": {
          "width": 1080,
          "height": 1920
        },
        "file_size": 227215,
        "format": "JPEG",
        "added_at": "2025-07-17T00:04:16.867527",
        "hash": "c8dcb176c3ec1982ecbb00044fe1886a",
        "source": "migrated"
      }
    },
    {
      "id": "nature_075",
      "category": "nature",
      "title": "Nature Wallpaper 075",
      "tags": [
        "nature",
        "wallpaper",
        "hd",
        "mobile"
      ],
      "urls": {
        "raw": "https://media.githubusercontent.com/media/ddh4r4m/wallpaper-collection/main/collection/wallpapers/nature/075.jpg",
        "thumb": "https://media.githubusercontent.com/media/ddh4r4m/wallpaper-collection/main/collection/thumbnails/nature/075.jpg"
      },
      "metadata": {
        "dimensions": {
          "width": 1080,
          "height": 1920
        },
        "file_size": 576203,
        "format": "JPEG",
        "added_at": "2025-07-17T00:04:16.937880",
        "hash": "3d8bbc3aa41d2ea5ee059517eb09206e",
        "source": "migrated"
      }
    }
  ]
}