{
  "meta": {
    "version": "1.0",
    "generated_at": "2025-07-28T21:27:34.814586",
    "category": "nature",
    "page": 6,
    "per_page": 15,
    "total_pages": 21,
    "total_count": 304,
    "count_on_page": 15,
    "has_next": true,
    "has_prev": true,
    "next_page_url": "/api/v1/nature/pages/7.json",
    "prev_page_url": "/api/v1/nature/pages/5.json"
  },
  "data": [
    {
      "id": "nature_076",
      "category": "nature",
      "title": "Nature Wallpaper 076",
      "tags": [
        "nature",
        "wallpaper",
        "hd",
        "mobile"
      ],
      "urls": {
        "raw": "https://media.githubusercontent.com/media/ddh4r4m/wallpaper-collection/main/collection/wallpapers/nature/076.jpg",
        "thumb": "https://media.githubusercontent.com/media/ddh4r4m/wallpaper-collection/main/collection/thumbnails/nature/076.jpg"
      },
      "metadata": {
        "dimensions": {
          "width": 1080,
          "height": 1920
        },
        "file_size": 445223,
        "format": "JPEG",
        "added_at": "2025-07-17T00:04:17.003392",
        "hash": "170c52152176f8caa573cc08042b1438",
        "source": "migrated"
      }
    },
    {
      "id": "nature_077",
      "category": "nature",
      "title": "Nature Wallpaper 077",
      "tags": [
        "nature",
        "wallpaper",
        "hd",
        "mobile"
      ],
      "urls": {
        "raw": "https://media.githubusercontent.com/media/ddh4r4m/wallpaper-collection/main/collection/wallpapers/nature/077.jpg",
        "thumb": "https://media.githubusercontent.com/media/ddh4r4m/wallpaper-collection/main/collection/thumbnails/nature/077.jpg"
      },
      "metadata": {
        "dimensions": {
          "width": 1080,
          "height": 1920
        },
        "file_size": 442437,
        "format": "JPEG",
        "added_at": "2025-07-17T00:04:17.066409",
        "hash": "7941cf28145abed3e2877197046b89f5",
        "source": "migrated"
      }
    },
    {
      "id": "nature_078",
      "category": "nature",
      "title": "Nature Wallpaper 078",
      "tags": [
        "nature",
        "wallpaper",
        "hd",
        "mobile"
      ],
      "urls": {
        "raw": "https://media.githubusercontent.com/media/ddh4r4m/wallpaper-collection/main/collection/wallpapers/nature/078.jpg",
        "thumb": "https://media.githubusercontent.com/media/ddh4r4m/wallpaper-collection/main/collection/thumbnails/nature/078.jpg"
      },
      "metadata": {
        "dimensions": {
          "width": 1080,
          "height": 1920
        },
        "file_size": 523957,
        "format": "JPEG",
        "added_at": "2025-07-17T00:04:17.139371",
        "hash": "8438f751e4efce221fba25e445cf53e1",
        "source": "migrated"
      }
    },
    {
      "id": "nature_079",
      "category": "nature",
      "title": "Nature Wallpaper 079",
      "tags": [
        "nature",
        "wallpaper",
        "hd",
        "mobile"
      ],
      "urls": {
        "raw": "https://media.githubusercontent.com/media/ddh4r4m/wallpaper-collection/main/collection/wallpapers/nature/079.jpg",
        "thumb": "https://media.githubusercontent.com/media/ddh4r4m/wallpaper-collection/main/collection/thumbnails/nature/079.jpg"
      },
      "metadata": {
        "dimensions": {
          "width": 1080,
          "height": 1920
        },
        "file_size": 406925,
        "format": "JPEG",
        "added_at": "2025-07-17T00:04:17.203633",
        "hash": "bac046810313d1f854612e53d3cbb120",
        "source": "migrated"
      }
    },
    {
      "id": "nature_080",
      "category": "nature",
      "title": "Nature Wallpaper 080",
      "tags": [
        "nature",
        "wallpaper",
        "hd",
        "mobile"
      ],
      "urls": {
        "raw": "https://media.githubusercontent.com/media/ddh4r4m/wallpaper-collection/main/collection/wallpapers/nature/080.jpg",
        "thumb": "https://media.githubusercontent.com/media/ddh4r4m/wallpaper-collection/main/collection/thumbnails/nature/080.jpg"
      },
      "metadata": {
        "dimensions": {
          "width": 1080,
          "height": 1920
        },
        "file_size": 341959,
        "format": "JPEG",
        "added_at": "2025-07-17T00:04:17.262266",
        "hash": "3a869bbf27d5dc7dcb28d5504c0b034e",
        "source": "migrated"
      }
    },
    {
      "id": "nature_081",
      "category": "nature",
      "title": "Nature Wallpaper 081",
      "tags": [
        "nature",
        "wallpaper",
        "hd",
        "mobile"
      ],
      "urls": {
        "raw": "https://media.githubusercontent.com/media/ddh4r4m/wallpaper-collection/main/collection/wallpapers/nature/081.jpg",
        "thumb": "https://media.githubusercontent.com/media/ddh4r4m/wallpaper-collection/main/collection/thumbnails/nature/081.jpg"
      },
      "metadata": {
        "dimensions": {
          "width": 1080,
          "height": 1920
        },
        "file_size": 452477,
        "format": "JPEG",
        "added_at": "2025-07-17T00:04:17.328966",
        "hash": "1de1c72e7c1f64635840281ea1a9760b",
        "source": "migrated"
      }
    },
    {
      "id": "nature_082",
      "category": "nature",
      "title": "Nature Wallpaper 082",
      "tags": [
        "nature",
        "wallpaper",
        "hd",
        "mobile"
      ],
      "urls": {
        "raw": "https://media.githubusercontent.com/media/ddh4r4m/wallpaper-collection/main/collection/wallpapers/nature/082.jpg",
        "thumb": "https://media.githubusercontent.com/media/ddh4r4m/wallpaper-collection/main/collection/thumbnails/nature/082.jpg"
      },
      "metadata": {
        "dimensions": {
          "width": 1080,
          "height": 1920
        },
        "file_size": 509264,
        "format": "JPEG",
        "added_at": "2025-07-17T00:04:17.396548",
        "hash": "bd39d75a0c5714d74651f94a9dafd168",
        "source": "migrated"
      }
    },
    {
      "id": "nature_083",
      "category": "nature",
      "title": "Nature Wallpaper 083",
      "tags": [
        "nature",
        "wallpaper",
        "hd",
        "mobile"
      ],
      "urls": {
        "raw": "https://media.githubusercontent.com/media/ddh4r4m/wallpaper-collection/main/collection/wallpapers/nature/083.jpg",
        "thumb": "https://media.githubusercontent.com/media/ddh4r4m/wallpaper-collection/main/collection/thumbnails/nature/083.jpg"
      },
      "metadata": {
        "dimensions": {
          "width": 1080,
          "height": 1920
        },
        "file_size": 696174,
        "format": "JPEG",
        "added_at": "2025-07-17T00:04:17.476765",
        "hash": "896e13ed49dc57e8568244da02fe039d",
        "source": "migrated"
      }
    },
    {
      "id": "nature_084",
      "category": "nature",
      "title": "Nature Wallpaper 084",
      "tags": [
        "nature",
        "wallpaper",
        "hd",
        "mobile"
      ],
      "urls": {
        "raw": "https://media.githubusercontent.com/media/ddh4r4m/wallpaper-collection/main/collection/wallpapers/nature/084.jpg",
        "thumb": "https://media.githubusercontent.com/media/ddh4r4m/wallpaper-collection/main/collection/thumbnails/nature/084.jpg"
      },
      "metadata": {
        "dimensions": {
          "width": 1080,
          "height": 1920
        },
        "file_size": 617432,
        "format": "JPEG",
        "added_at": "2025-07-17T00:04:17.551407",
        "hash": "6ce6738f6662c69144e7be21cb93cbe0",
        "source": "migrated"
      }
    },
    {
      "id": "nature_085",
      "category": "nature",
      "title": "Nature Wallpaper 085",
      "tags": [
        "nature",
        "wallpaper",
        "hd",
        "mobile"
      ],
      "urls": {
        "raw": "https://media.githubusercontent.com/media/ddh4r4m/wallpaper-collection/main/collection/wallpapers/nature/085.jpg",
        "thumb": "https://media.githubusercontent.com/media/ddh4r4m/wallpaper-collection/main/collection/thumbnails/nature/085.jpg"
      },
      "metadata": {
        "dimensions": {
          "width": 1080,
          "height": 1920
        },
        "file_size": 478274,
        "format": "JPEG",
        "added_at": "2025-07-17T00:04:17.619074",
        "hash": "bcd0816c64c048d4e80fd199500e6a8e",
        "source": "migrated"
      }
    },
    {
      "id": "nature_086",
      "category": "nature",
      "title": "Nature Wallpaper 086",
      "tags": [
        "nature",
        "wallpaper",
        "hd",
        "mobile"
      ],
      "urls": {
        "raw": "https://media.githubusercontent.com/media/ddh4r4m/wallpaper-collection/main/collection/wallpapers/nature/086.jpg",
        "thumb": "https://media.githubusercontent.com/media/ddh4r4m/wallpaper-collection/main/collection/thumbnails/nature/086.jpg"
      },
      "metadata": {
        "dimensions": {
          "width": 1080,
          "height": 1920
        },
        "file_size": 844310,
        "format": "JPEG",
        "added_at": "2025-07-17T00:04:17.704183",
        "hash": "20c5ad6bae2cf70805633f0c34087dd4",
        "source": "migrated"
      }
    },
    {
      "id": "nature_087",
      "category": "nature",
      "title": "Nature Wallpaper 087",
      "tags": [
        "nature",
        "wallpaper",
        "hd",
        "mobile"
      ],
      "urls": {
        "raw": "https://media.githubusercontent.com/media/ddh4r4m/wallpaper-collection/main/collection/wallpapers/nature/087.jpg",
        "thumb": "https://media.githubusercontent.com/media/ddh4r4m/wallpaper-collection/main/collection/thumbnails/nature/087.jpg"
      },
      "metadata": {
        "dimensions": {
          "width": 1080,
          "height": 1920
        },
        "file_size": 551616,
        "format": "JPEG",
        "added_at": "2025-07-17T00:04:17.774136",
        "hash": "5488ab76d292d29894379b56625d07c9",
        "source": "migrated"
      }
    },
    {
      "id": "nature_088",
      "category": "nature",
      "title": "Nature Wallpaper 088",
      "tags": [
        "nature",
        "wallpaper",
        "hd",
        "mobile"
      ],
      "urls": {
        "raw": "https://media.githubusercontent.com/media/ddh4r4m/wallpaper-collection/main/collection/wallpapers/nature/088.jpg",
        "thumb": "https://media.githubusercontent.com/media/ddh4r4m/wallpaper-collection/main/collection/thumbnails/nature/088.jpg"
      },
      "metadata": {
        "dimensions": {
          "width": 1080,
          "height": 1920
        },
        "file_size": 395642,
        "format": "JPEG",
        "added_at": "2025-07-17T00:04:17.836722",
        "hash": "6d4034e06547174681d39483e3301a25",
        "source": "migrated"
      }
    },
    {
      "id": "nature_089",
      "category": "nature",
      "title": "Nature Wallpaper 089",
      "tags": [
        "nature",
        "wallpaper",
        "hd",
        "mobile"
      ],
      "urls": {
        "raw": "https://media.githubusercontent.com/media/ddh4r4m/wallpaper-collection/main/collection/wallpapers/nature/089.jpg",
        "thumb": "https://media.githubusercontent.com/media/ddh4r4m/wallpaper-collection/main/collection/thumbnails/nature/089.jpg"
      },
      "metadata": {
        "dimensions": {
          "width": 1080,
          "height": 1920
        },
        "file_size": 466873,
        "format": "JPEG",
        "added_at": "2025-07-17T00:04:17.903352",
        "hash": "c150a586905b5e829aec7d348cf604d2",
        "source": "migrated"
      }
    },
    {
      "id": "nature_090",
      "category": "nature",
      "title": "Nature Wallpaper 090",
      "tags": [
        "nature",
        "wallpaper",
        "hd",
        "mobile"
      ],
      "urls": {
        "raw": "https://media.githubusercontent.com/media/ddh4r4m/wallpaper-collection/main/collection/wallpapers/nature/090.jpg",
        "thumb": "https://media.githubusercontent.com/media/ddh4r4m/wallpaper-collection/main/collection/thumbnails/nature/090.jpg"
      },
      "metadata": {
        "dimensions": {
          "width": 1080,
          "height": 1920
        },
        "file_size": 293851,
        "format": "JPEG",
        "added_at": "2025-07-17T00:04:17.961536",
        "hash": "6720c3a449b6b5fe8687befe90ce74eb",
        "source": "migrated"
      }
    }
  ]
}