{
  "meta": {
    "version": "1.0",
    "generated_at": "2025-07-28T21:27:34.814586",
    "category": "nature",
    "page": 7,
    "per_page": 15,
    "total_pages": 21,
    "total_count": 304,
    "count_on_page": 15,
    "has_next": true,
    "has_prev": true,
    "next_page_url": "/api/v1/nature/pages/8.json",
    "prev_page_url": "/api/v1/nature/pages/6.json"
  },
  "data": [
    {
      "id": "nature_091",
      "category": "nature",
      "title": "Nature Wallpaper 091",
      "tags": [
        "nature",
        "wallpaper",
        "hd",
        "mobile"
      ],
      "urls": {
        "raw": "https://media.githubusercontent.com/media/ddh4r4m/wallpaper-collection/main/collection/wallpapers/nature/091.jpg",
        "thumb": "https://media.githubusercontent.com/media/ddh4r4m/wallpaper-collection/main/collection/thumbnails/nature/091.jpg"
      },
      "metadata": {
        "dimensions": {
          "width": 1080,
          "height": 1920
        },
        "file_size": 560862,
        "format": "JPEG",
        "added_at": "2025-07-17T00:04:18.032030",
        "hash": "40a2080e10519d7340bd099f2051eb1c",
        "source": "migrated"
      }
    },
    {
      "id": "nature_092",
      "category": "nature",
      "title": "Nature Wallpaper 092",
      "tags": [
        "nature",
        "wallpaper",
        "hd",
        "mobile"
      ],
      "urls": {
        "raw": "https://media.githubusercontent.com/media/ddh4r4m/wallpaper-collection/main/collection/wallpapers/nature/092.jpg",
        "thumb": "https://media.githubusercontent.com/media/ddh4r4m/wallpaper-collection/main/collection/thumbnails/nature/092.jpg"
      },
      "metadata": {
        "dimensions": {
          "width": 1080,
          "height": 1920
        },
        "file_size": 807955,
        "format": "JPEG",
        "added_at": "2025-07-17T00:04:18.115088",
        "hash": "0238137b86f5e008643426864fd46e62",
        "source": "migrated"
      }
    },
    {
      "id": "nature_093",
      "category": "nature",
      "title": "Nature Wallpaper 093",
      "tags": [
        "nature",
        "wallpaper",
        "hd",
        "mobile"
      ],
      "urls": {
        "raw": "https://media.githubusercontent.com/media/ddh4r4m/wallpaper-collection/main/collection/wallpapers/nature/093.jpg",
        "thumb": "https://media.githubusercontent.com/media/ddh4r4m/wallpaper-collection/main/collection/thumbnails/nature/093.jpg"
      },
      "metadata": {
        "dimensions": {
          "width": 1080,
          "height": 1920
        },
        "file_size": 558442,
        "format": "JPEG",
        "added_at": "2025-07-17T00:04:18.185252",
        "hash": "4fcaac98d14519e6da4bd23f6dd54ac2",
        "source": "migrated"
      }
    },
    {
      "id": "nature_094",
      "category": "nature",
      "title": "Nature Wallpaper 094",
      "tags": [
        "nature",
        "wallpaper",
        "hd",
        "mobile"
      ],
      "urls": {
        "raw": "https://media.githubusercontent.com/media/ddh4r4m/wallpaper-collection/main/collection/wallpapers/nature/094.jpg",
        "thumb": "https://media.githubusercontent.com/media/ddh4r4m/wallpaper-collection/main/collection/thumbnails/nature/094.jpg"
      },
      "metadata": {
        "dimensions": {
          "width": 1080,
          "height": 1920
        },
        "file_size": 604643,
        "format": "JPEG",
        "added_at": "2025-07-17T00:04:18.257584",
        "hash": "37ebbeb0befefd84128e6e1fd07c99ea",
        "source": "migrated"
      }
    },
    {
      "id": "nature_095",
      "category": "nature",
      "title": "Nature Wallpaper 095",
      "tags": [
        "nature",
        "wallpaper",
        "hd",
        "mobile"
      ],
      "urls": {
        "raw": "https://media.githubusercontent.com/media/ddh4r4m/wallpaper-collection/main/collection/wallpapers/nature/095.jpg",
        "thumb": "https://media.githubusercontent.com/media/ddh4r4m/wallpaper-collection/main/collection/thumbnails/nature/095.jpg"
      },
      "metadata": {
        "dimensions": {
          "width": 1080,
          "height": 1920
        },
        "file_size": 676109,
        "format": "JPEG",
        "added_at": "2025-07-17T00:04:18.336827",
        "hash": "c9ed24c3ef2261998a5132d2c9a228ad",
        "source": "migrated"
      }
    },
    {
      "id": "nature_096",
      "category": "nature",
      "title": "Nature Wallpaper 096",
      "tags": [
        "nature",
        "wallpaper",
        "hd",
        "mobile"
      ],
      "urls": {
        "raw": "https://media.githubusercontent.com/media/ddh4r4m/wallpaper-collection/main/collection/wallpapers/nature/096.jpg",
        "thumb": "https://media.githubusercontent.com/media/ddh4r4m/wallpaper-collection/main/collection/thumbnails/nature/096.jpg"
      },
      "metadata": {
        "dimensions": {
          "width": 1080,
          "height": 1920
        },
        "file_size": 391052,
        "format": "JPEG",
        "added_at": "2025-07-17T00:04:18.399935",
        "hash": "62d95e9dfc825af06364871ffc84e169",
        "source": "migrated"
      }
    },
    {
      "id": "nature_097",
      "category": "nature",
      "title": "Nature Wallpaper 097",
      "tags": [
        "nature",
        "wallpaper",
        "hd",
        "mobile"
      ],
      "urls": {
        "raw": "https://media.githubusercontent.com/media/ddh4r4m/wallpaper-collection/main/collection/wallpapers/nature/097.jpg",
        "thumb": "https://media.githubusercontent.com/media/ddh4r4m/wallpaper-collection/main/collection/thumbnails/nature/097.jpg"
      },
      "metadata": {
        "dimensions": {
          "width": 1080,
          "height": 1920
        },
        "file_size": 534206,
        "format": "JPEG",
        "added_at": "2025-07-17T00:04:18.471132",
        "hash": "1b9ab1e873cc990fff4cf0a0f185c7c2",
        "source": "migrated"
      }
    },
    {
      "id": "nature_098",
      "category": "nature",
      "title": "Nature Wallpaper 098",
      "tags": [
        "nature",
        "wallpaper",
        "hd",
        "mobile"
      ],
      "urls": {
        "raw": "https://media.githubusercontent.com/media/ddh4r4m/wallpaper-collection/main/collection/wallpapers/nature/098.jpg",
        "thumb": "https://media.githubusercontent.com/media/ddh4r4m/wallpaper-collection/main/collection/thumbnails/nature/098.jpg"
      },
      "metadata": {
        "dimensions": {
          "width": 1080,
          "height": 1920
        },
        "file_size": 689737,
        "format": "JPEG",
        "added_at": "2025-07-17T00:04:18.549042",
        "hash": "f4a2d8b3bb035827f1cf632afda23472",
        "source": "migrated"
      }
    },
    {
      "id": "nature_099",
      "category": "nature",
      "title": "Nature Wallpaper 099",
      "tags": [
        "nature",
        "wallpaper",
        "hd",
        "mobile"
      ],
      "urls": {
        "raw": "https://media.githubusercontent.com/media/ddh4r4m/wallpaper-collection/main/collection/wallpapers/nature/099.jpg",
        "thumb": "https://media.githubusercontent.com/media/ddh4r4m/wallpaper-collection/main/collection/thumbnails/nature/099.jpg"
      },
      "metadata": {
        "dimensions": {
          "width": 1080,
          "height": 1920
        },
        "file_size": 606954,
        "format": "JPEG",
        "added_at": "2025-07-17T00:04:18.620891",
        "hash": "55acf9be33173e665b08c7e82d81c5d7",
        "source": "migrated"
      }
    },
    {
      "id": "nature_100",
      "category": "nature",
      "title": "Nature Wallpaper 100",
      "tags": [
        "nature",
        "wallpaper",
        "hd",
        "mobile"
      ],
      "urls": {
        "raw": "https://media.githubusercontent.com/media/ddh4r4m/wallpaper-collection/main/collection/wallpapers/nature/100.jpg",
        "thumb": "https://media.githubusercontent.com/media/ddh4r4m/wallpaper-collection/main/collection/thumbnails/nature/100.jpg"
      },
      "metadata": {
        "dimensions": {
          "width": 1080,
          "height": 1920
        },
        "file_size": 343548,
        "format": "JPEG",
        "added_at": "2025-07-17T00:04:18.681219",
        "hash": "2b5884ce644135c19515aab4886c0c46",
        "source": "migrated"
      }
    },
    {
      "id": "nature_101",
      "category": "nature",
      "title": "Nature Wallpaper 101",
      "tags": [
        "nature",
        "wallpaper",
        "hd",
        "mobile"
      ],
      "urls": {
        "raw": "https://media.githubusercontent.com/media/ddh4r4m/wallpaper-collection/main/collection/wallpapers/nature/101.jpg",
        "thumb": "https://media.githubusercontent.com/media/ddh4r4m/wallpaper-collection/main/collection/thumbnails/nature/101.jpg"
      },
      "metadata": {
        "dimensions": {
          "width": 1080,
          "height": 1920
        },
        "file_size": 558591,
        "format": "JPEG",
        "added_at": "2025-07-17T00:04:18.751005",
        "hash": "fa95e5766002110c7cad3c5b9682c288",
        "source": "migrated"
      }
    },
    {
      "id": "nature_102",
      "category": "nature",
      "title": "Nature Wallpaper 102",
      "tags": [
        "nature",
        "wallpaper",
        "hd",
        "mobile"
      ],
      "urls": {
        "raw": "https://media.githubusercontent.com/media/ddh4r4m/wallpaper-collection/main/collection/wallpapers/nature/102.jpg",
        "thumb": "https://media.githubusercontent.com/media/ddh4r4m/wallpaper-collection/main/collection/thumbnails/nature/102.jpg"
      },
      "metadata": {
        "dimensions": {
          "width": 1080,
          "height": 1920
        },
        "file_size": 263476,
        "format": "JPEG",
        "added_at": "2025-07-17T00:04:18.807112",
        "hash": "deb4399bd3f1fecca376bf1ac5c9e7e6",
        "source": "migrated"
      }
    },
    {
      "id": "nature_103",
      "category": "nature",
      "title": "Nature Wallpaper 103",
      "tags": [
        "nature",
        "wallpaper",
        "hd",
        "mobile"
      ],
      "urls": {
        "raw": "https://media.githubusercontent.com/media/ddh4r4m/wallpaper-collection/main/collection/wallpapers/nature/103.jpg",
        "thumb": "https://media.githubusercontent.com/media/ddh4r4m/wallpaper-collection/main/collection/thumbnails/nature/103.jpg"
      },
      "metadata": {
        "dimensions": {
          "width": 1080,
          "height": 1920
        },
        "file_size": 411964,
        "format": "JPEG",
        "added_at": "2025-07-17T00:04:18.871938",
        "hash": "6c9ae210ac4b9677f5880eef8ba7af56",
        "source": "migrated"
      }
    },
    {
      "id": "nature_104",
      "category": "nature",
      "title": "Nature Wallpaper 104",
      "tags": [
        "nature",
        "wallpaper",
        "hd",
        "mobile"
      ],
      "urls": {
        "raw": "https://media.githubusercontent.com/media/ddh4r4m/wallpaper-collection/main/collection/wallpapers/nature/104.jpg",
        "thumb": "https://media.githubusercontent.com/media/ddh4r4m/wallpaper-collection/main/collection/thumbnails/nature/104.jpg"
      },
      "metadata": {
        "dimensions": {
          "width": 1080,
          "height": 1920
        },
        "file_size": 645132,
        "format": "JPEG",
        "added_at": "2025-07-17T00:04:18.945597",
        "hash": "e35e6d2e5f7153c8dc18dc5af78e1454",
        "source": "migrated"
      }
    },
    {
      "id": "nature_105",
      "category": "nature",
      "title": "Nature Wallpaper 105",
      "tags": [
        "nature",
        "wallpaper",
        "hd",
        "mobile"
      ],
      "urls": {
        "raw": "https://media.githubusercontent.com/media/ddh4r4m/wallpaper-collection/main/collection/wallpapers/nature/105.jpg",
        "thumb": "https://media.githubusercontent.com/media/ddh4r4m/wallpaper-collection/main/collection/thumbnails/nature/105.jpg"
      },
      "metadata": {
        "dimensions": {
          "width": 1080,
          "height": 1920
        },
        "file_size": 593585,
        "format": "JPEG",
        "added_at": "2025-07-17T00:04:19.019688",
        "hash": "6183fe9342e9c87cafde7823b0fd3be7",
        "source": "migrated"
      }
    }
  ]
}