{
  "meta": {
    "version": "1.0",
    "generated_at": "2025-07-17T00:06:19.072196",
    "category": "nature",
    "page": 9,
    "per_page": 15,
    "total_pages": 19,
    "total_count": 284,
    "count_on_page": 15,
    "has_next": true,
    "has_prev": true,
    "next_page_url": "/api/v1/nature/pages/10.json",
    "prev_page_url": "/api/v1/nature/pages/8.json"
  },
  "data": [
    {
      "id": "nature_121",
      "category": "nature",
      "title": "Nature Wallpaper 121",
      "tags": [
        "nature",
        "wallpaper",
        "hd",
        "mobile"
      ],
      "urls": {
        "raw": "https://raw.githubusercontent.com/ddh4r4m/wallpaper-collection/main/collection/wallpapers/nature/121.jpg",
        "thumb": "https://raw.githubusercontent.com/ddh4r4m/wallpaper-collection/main/collection/thumbnails/nature/121.jpg"
      },
      "metadata": {
        "dimensions": {
          "width": 1080,
          "height": 1920
        },
        "file_size": 344285,
        "format": "JPEG",
        "added_at": "2025-07-17T00:04:20.055585",
        "hash": "ac214855e9830c506c2e8977720c1e95",
        "source": "migrated"
      }
    },
    {
      "id": "nature_122",
      "category": "nature",
      "title": "Nature Wallpaper 122",
      "tags": [
        "nature",
        "wallpaper",
        "hd",
        "mobile"
      ],
      "urls": {
        "raw": "https://raw.githubusercontent.com/ddh4r4m/wallpaper-collection/main/collection/wallpapers/nature/122.jpg",
        "thumb": "https://raw.githubusercontent.com/ddh4r4m/wallpaper-collection/main/collection/thumbnails/nature/122.jpg"
      },
      "metadata": {
        "dimensions": {
          "width": 1080,
          "height": 1920
        },
        "file_size": 730222,
        "format": "JPEG",
        "added_at": "2025-07-17T00:04:20.133289",
        "hash": "6a12a7b9b5d5a64191e52e91cea793f8",
        "source": "migrated"
      }
    },
    {
      "id": "nature_123",
      "category": "nature",
      "title": "Nature Wallpaper 123",
      "tags": [
        "nature",
        "wallpaper",
        "hd",
        "mobile"
      ],
      "urls": {
        "raw": "https://raw.githubusercontent.com/ddh4r4m/wallpaper-collection/main/collection/wallpapers/nature/123.jpg",
        "thumb": "https://raw.githubusercontent.com/ddh4r4m/wallpaper-collection/main/collection/thumbnails/nature/123.jpg"
      },
      "metadata": {
        "dimensions": {
          "width": 1080,
          "height": 1920
        },
        "file_size": 501974,
        "format": "JPEG",
        "added_at": "2025-07-17T00:04:20.201001",
        "hash": "44a98bfd0f1cc66c57aaa4911c423e25",
        "source": "migrated"
      }
    },
    {
      "id": "nature_124",
      "category": "nature",
      "title": "Nature Wallpaper 124",
      "tags": [
        "nature",
        "wallpaper",
        "hd",
        "mobile"
      ],
      "urls": {
        "raw": "https://raw.githubusercontent.com/ddh4r4m/wallpaper-collection/main/collection/wallpapers/nature/124.jpg",
        "thumb": "https://raw.githubusercontent.com/ddh4r4m/wallpaper-collection/main/collection/thumbnails/nature/124.jpg"
      },
      "metadata": {
        "dimensions": {
          "width": 1080,
          "height": 1920
        },
        "file_size": 850116,
        "format": "JPEG",
        "added_at": "2025-07-17T00:04:20.285932",
        "hash": "463e89f19dc080ea4c12d118fc9c5cbe",
        "source": "migrated"
      }
    },
    {
      "id": "nature_125",
      "category": "nature",
      "title": "Nature Wallpaper 125",
      "tags": [
        "nature",
        "wallpaper",
        "hd",
        "mobile"
      ],
      "urls": {
        "raw": "https://raw.githubusercontent.com/ddh4r4m/wallpaper-collection/main/collection/wallpapers/nature/125.jpg",
        "thumb": "https://raw.githubusercontent.com/ddh4r4m/wallpaper-collection/main/collection/thumbnails/nature/125.jpg"
      },
      "metadata": {
        "dimensions": {
          "width": 1080,
          "height": 1920
        },
        "file_size": 425789,
        "format": "JPEG",
        "added_at": "2025-07-17T00:04:20.351340",
        "hash": "83d8f977bc2c8e8527112e1bf3ddb34f",
        "source": "migrated"
      }
    },
    {
      "id": "nature_126",
      "category": "nature",
      "title": "Nature Wallpaper 126",
      "tags": [
        "nature",
        "wallpaper",
        "hd",
        "mobile"
      ],
      "urls": {
        "raw": "https://raw.githubusercontent.com/ddh4r4m/wallpaper-collection/main/collection/wallpapers/nature/126.jpg",
        "thumb": "https://raw.githubusercontent.com/ddh4r4m/wallpaper-collection/main/collection/thumbnails/nature/126.jpg"
      },
      "metadata": {
        "dimensions": {
          "width": 1080,
          "height": 1920
        },
        "file_size": 303692,
        "format": "JPEG",
        "added_at": "2025-07-17T00:04:20.410715",
        "hash": "04f85890e5128202f0101cecf1c9c97a",
        "source": "migrated"
      }
    },
    {
      "id": "nature_127",
      "category": "nature",
      "title": "Nature Wallpaper 127",
      "tags": [
        "nature",
        "wallpaper",
        "hd",
        "mobile"
      ],
      "urls": {
        "raw": "https://raw.githubusercontent.com/ddh4r4m/wallpaper-collection/main/collection/wallpapers/nature/127.jpg",
        "thumb": "https://raw.githubusercontent.com/ddh4r4m/wallpaper-collection/main/collection/thumbnails/nature/127.jpg"
      },
      "metadata": {
        "dimensions": {
          "width": 1080,
          "height": 1920
        },
        "file_size": 755810,
        "format": "JPEG",
        "added_at": "2025-07-17T00:04:20.491779",
        "hash": "a2f35d540a83f94c41f8f1872a0bead2",
        "source": "migrated"
      }
    },
    {
      "id": "nature_128",
      "category": "nature",
      "title": "Nature Wallpaper 128",
      "tags": [
        "nature",
        "wallpaper",
        "hd",
        "mobile"
      ],
      "urls": {
        "raw": "https://raw.githubusercontent.com/ddh4r4m/wallpaper-collection/main/collection/wallpapers/nature/128.jpg",
        "thumb": "https://raw.githubusercontent.com/ddh4r4m/wallpaper-collection/main/collection/thumbnails/nature/128.jpg"
      },
      "metadata": {
        "dimensions": {
          "width": 1080,
          "height": 1920
        },
        "file_size": 201325,
        "format": "JPEG",
        "added_at": "2025-07-17T00:04:20.544245",
        "hash": "b0d99d4467d12be6443b2a7ccd2c2d2c",
        "source": "migrated"
      }
    },
    {
      "id": "nature_129",
      "category": "nature",
      "title": "Nature Wallpaper 129",
      "tags": [
        "nature",
        "wallpaper",
        "hd",
        "mobile"
      ],
      "urls": {
        "raw": "https://raw.githubusercontent.com/ddh4r4m/wallpaper-collection/main/collection/wallpapers/nature/129.jpg",
        "thumb": "https://raw.githubusercontent.com/ddh4r4m/wallpaper-collection/main/collection/thumbnails/nature/129.jpg"
      },
      "metadata": {
        "dimensions": {
          "width": 1080,
          "height": 1920
        },
        "file_size": 744309,
        "format": "JPEG",
        "added_at": "2025-07-17T00:04:20.624446",
        "hash": "a9a4e5b2c2a5a40374d5870ac4a76894",
        "source": "migrated"
      }
    },
    {
      "id": "nature_130",
      "category": "nature",
      "title": "Nature Wallpaper 130",
      "tags": [
        "nature",
        "wallpaper",
        "hd",
        "mobile"
      ],
      "urls": {
        "raw": "https://raw.githubusercontent.com/ddh4r4m/wallpaper-collection/main/collection/wallpapers/nature/130.jpg",
        "thumb": "https://raw.githubusercontent.com/ddh4r4m/wallpaper-collection/main/collection/thumbnails/nature/130.jpg"
      },
      "metadata": {
        "dimensions": {
          "width": 1080,
          "height": 1920
        },
        "file_size": 549895,
        "format": "JPEG",
        "added_at": "2025-07-17T00:04:20.695001",
        "hash": "eb2d78c529edb92102de490d154f570a",
        "source": "migrated"
      }
    },
    {
      "id": "nature_131",
      "category": "nature",
      "title": "Nature Wallpaper 131",
      "tags": [
        "nature",
        "wallpaper",
        "hd",
        "mobile"
      ],
      "urls": {
        "raw": "https://raw.githubusercontent.com/ddh4r4m/wallpaper-collection/main/collection/wallpapers/nature/131.jpg",
        "thumb": "https://raw.githubusercontent.com/ddh4r4m/wallpaper-collection/main/collection/thumbnails/nature/131.jpg"
      },
      "metadata": {
        "dimensions": {
          "width": 1080,
          "height": 1920
        },
        "file_size": 630288,
        "format": "JPEG",
        "added_at": "2025-07-17T00:04:20.770131",
        "hash": "4eda3ae6206fab15ca934acc2192c6cf",
        "source": "migrated"
      }
    },
    {
      "id": "nature_132",
      "category": "nature",
      "title": "Nature Wallpaper 132",
      "tags": [
        "nature",
        "wallpaper",
        "hd",
        "mobile"
      ],
      "urls": {
        "raw": "https://raw.githubusercontent.com/ddh4r4m/wallpaper-collection/main/collection/wallpapers/nature/132.jpg",
        "thumb": "https://raw.githubusercontent.com/ddh4r4m/wallpaper-collection/main/collection/thumbnails/nature/132.jpg"
      },
      "metadata": {
        "dimensions": {
          "width": 1080,
          "height": 1920
        },
        "file_size": 354142,
        "format": "JPEG",
        "added_at": "2025-07-17T00:04:20.830737",
        "hash": "67b451d69d154ba5d74ee22dde72da85",
        "source": "migrated"
      }
    },
    {
      "id": "nature_133",
      "category": "nature",
      "title": "Nature Wallpaper 133",
      "tags": [
        "nature",
        "wallpaper",
        "hd",
        "mobile"
      ],
      "urls": {
        "raw": "https://raw.githubusercontent.com/ddh4r4m/wallpaper-collection/main/collection/wallpapers/nature/133.jpg",
        "thumb": "https://raw.githubusercontent.com/ddh4r4m/wallpaper-collection/main/collection/thumbnails/nature/133.jpg"
      },
      "metadata": {
        "dimensions": {
          "width": 1080,
          "height": 1920
        },
        "file_size": 468351,
        "format": "JPEG",
        "added_at": "2025-07-17T00:04:20.896828",
        "hash": "d27ddf516bf362dfea8e4aaa2403f0e7",
        "source": "migrated"
      }
    },
    {
      "id": "nature_134",
      "category": "nature",
      "title": "Nature Wallpaper 134",
      "tags": [
        "nature",
        "wallpaper",
        "hd",
        "mobile"
      ],
      "urls": {
        "raw": "https://raw.githubusercontent.com/ddh4r4m/wallpaper-collection/main/collection/wallpapers/nature/134.jpg",
        "thumb": "https://raw.githubusercontent.com/ddh4r4m/wallpaper-collection/main/collection/thumbnails/nature/134.jpg"
      },
      "metadata": {
        "dimensions": {
          "width": 1080,
          "height": 1920
        },
        "file_size": 356717,
        "format": "JPEG",
        "added_at": "2025-07-17T00:04:20.957314",
        "hash": "91659bf355f516ec43e1f8a43fe12e70",
        "source": "migrated"
      }
    },
    {
      "id": "nature_135",
      "category": "nature",
      "title": "Nature Wallpaper 135",
      "tags": [
        "nature",
        "wallpaper",
        "hd",
        "mobile"
      ],
      "urls": {
        "raw": "https://raw.githubusercontent.com/ddh4r4m/wallpaper-collection/main/collection/wallpapers/nature/135.jpg",
        "thumb": "https://raw.githubusercontent.com/ddh4r4m/wallpaper-collection/main/collection/thumbnails/nature/135.jpg"
      },
      "metadata": {
        "dimensions": {
          "width": 1080,
          "height": 1920
        },
        "file_size": 200289,
        "format": "JPEG",
        "added_at": "2025-07-17T00:04:21.010717",
        "hash": "4838e92d1d32efba23231733dc64c6e4",
        "source": "migrated"
      }
    }
  ]
}